{
  "team1":"ch",
  "team2":"us",
  "team1tickets":"400",
  "team2tickets":"450",
  "mapsize":"2048",
  "viewdistance":"600",
  "combatareause":"true",
  "combatareadamage":"20.0",
  "combatareaallowoutside":"10.0",
  "routes": [
    [
      [
        "cpname_op_barracuda_coop16_missilesilo"
      ],
      [
        "cpname_op_barracuda_coop16_supplies",
        "cpname_op_barracuda_coop16_cave"
      ],
      [
        "cpname_op_barracuda_coop16_airstrip",
        "cpname_op_barracuda_coop16_beachfortification"
      ],
      [
        "cpname_op_barracuda_coop16_southrockfort",
        "cpname_op_barracuda_coop16_northrockfort"
      ],
      [
        "cpname_op_barracuda_coop16_carrier"
      ]
    ]
  ],
  "type": "FeatureCollection",
  "features": [
    {
      "type": "Feature",
      "geometry": {
        "type": "Point",
        "coordinates": [-151.61096, 191.54895],
        "size": [16, 16]
      },
      "properties": {
        "iconurl": "icons/mini_map/airdef.png",
        "iconrotate": "0",
        "popupContent": "Amazing information about null will be found here!"
      },
      "bf2props": {
        "name": "art_0",
        "class": "ObjectSpawner",
        "name_object": "Artillery Barrage Call-In",
        "team": "2",
        "obj1": "null",
        "obj2": "artillery_team2",
        "maxspawn": "1200.0",
        "minspawn": "1200.0",
        "spawndelay": "true",
        "ttl": "0.0",
        "cpid": "3"
      }
    },
    {
      "type": "Feature",
      "geometry": {
        "type": "Point",
        "coordinates": [-171.20203, 195.328],
        "size": [16, 16]
      },
      "properties": {
        "iconurl": "icons/mini_map/airdef.png",
        "iconrotate": "0",
        "popupContent": "Amazing information about null will be found here!"
      },
      "bf2props": {
        "name": "arty_3",
        "class": "ObjectSpawner",
        "name_object": "Artillery Barrage Call-In",
        "team": "2",
        "obj1": "null",
        "obj2": "artillery_team2",
        "maxspawn": "1200.0",
        "minspawn": "1200.0",
        "spawndelay": "true",
        "ttl": "0.0",
        "cpid": "3"
      }
    },
    {
      "type": "Feature",
      "geometry": {
        "type": "Point",
        "coordinates": [-148.99097, 168.95105],
        "size": [16, 16]
      },
      "properties": {
        "iconurl": "icons/mini_map/airdef.png",
        "iconrotate": "0",
        "popupContent": "Amazing information about null will be found here!"
      },
      "bf2props": {
        "name": "arty_4",
        "class": "ObjectSpawner",
        "name_object": "Artillery Barrage Call-In",
        "team": "2",
        "obj1": "null",
        "obj2": "artillery_team2",
        "maxspawn": "1200.0",
        "minspawn": "1200.0",
        "spawndelay": "true",
        "ttl": "0.0",
        "cpid": "3"
      }
    },
    {
      "type": "Feature",
      "geometry": {
        "type": "Point",
        "coordinates": [-174.26794, 170.15906],
        "size": [16, 16]
      },
      "properties": {
        "iconurl": "icons/mini_map/airdef.png",
        "iconrotate": "0",
        "popupContent": "Amazing information about null will be found here!"
      },
      "bf2props": {
        "name": "jdam",
        "class": "ObjectSpawner",
        "name_object": "Artillery Barrage Call-In",
        "team": "2",
        "obj1": "null",
        "obj2": "artillery_team2",
        "maxspawn": "1200.0",
        "minspawn": "1200.0",
        "spawndelay": "true",
        "ttl": "0.0",
        "cpid": "3"
      }
    },
    {
      "type": "Feature",
      "geometry": {
        "type": "Point",
        "coordinates": [881.104, -1403.53],
        "size": [16, 16]
      },
      "properties": {
        "iconurl": "icons/vehicles_map/mini_stw_aa_medium.png",
        "iconrotate": "56.068",
        "popupContent": "Amazing information about zpu4 will be found here!"
      },
      "bf2props": {
        "name": "cpname_ob_64_supplies_aascannons",
        "class": "ObjectSpawner",
        "name_object": "zpu4",
        "team": "1",
        "obj1": "zpu4",
        "obj2": "null",
        "maxspawn": "600.0",
        "minspawn": "600.0",
        "spawndelay": "false",
        "ttl": "0.0",
        "cpid": "2"
      }
    },
    {
      "type": "Feature",
      "geometry": {
        "type": "Point",
        "coordinates": [1387.624, -1553.373],
        "size": [16, 16]
      },
      "properties": {
        "iconurl": "icons/vehicles_map/mini_smgsmall.png",
        "iconrotate": "0.0",
        "popupContent": "Amazing information about Stationary BIPOD will be found here!"
      },
      "bf2props": {
        "name": "cpname_ob_64_missilesilo_ch_usmc_smg",
        "class": "ObjectSpawner",
        "name_object": "Stationary BIPOD",
        "team": "1",
        "obj1": "ch_bipod",
        "obj2": "null",
        "maxspawn": "99999.0",
        "minspawn": "99999.0",
        "spawndelay": "false",
        "ttl": "0.0",
        "cpid": "1"
      }
    },
    {
      "type": "Feature",
      "geometry": {
        "type": "Point",
        "coordinates": [1374.3721, -1521.525],
        "size": [16, 16]
      },
      "properties": {
        "iconurl": "icons/vehicles_map/mini_smgsmall.png",
        "iconrotate": "0.0",
        "popupContent": "Amazing information about Stationary BIPOD will be found here!"
      },
      "bf2props": {
        "name": "mg",
        "class": "ObjectSpawner",
        "name_object": "Stationary BIPOD",
        "team": "1",
        "obj1": "ch_bipod",
        "obj2": "null",
        "maxspawn": "99999.0",
        "minspawn": "99999.0",
        "spawndelay": "false",
        "ttl": "0.0",
        "cpid": "1"
      }
    },
    {
      "type": "Feature",
      "geometry": {
        "type": "Point",
        "coordinates": [1406.807, -1521.5181],
        "size": [16, 16]
      },
      "properties": {
        "iconurl": "icons/vehicles_map/mini_smgsmall.png",
        "iconrotate": "0.0",
        "popupContent": "Amazing information about Stationary BIPOD will be found here!"
      },
      "bf2props": {
        "name": "mg_0",
        "class": "ObjectSpawner",
        "name_object": "Stationary BIPOD",
        "team": "1",
        "obj1": "ch_bipod",
        "obj2": "null",
        "maxspawn": "99999.0",
        "minspawn": "99999.0",
        "spawndelay": "false",
        "ttl": "0.0",
        "cpid": "1"
      }
    },
    {
      "type": "Feature",
      "geometry": {
        "type": "Point",
        "coordinates": [1477.996, -1521.739],
        "size": [16, 16]
      },
      "properties": {
        "iconurl": "icons/vehicles_map/mini_smgsmall.png",
        "iconrotate": "0.0",
        "popupContent": "Amazing information about Stationary BIPOD will be found here!"
      },
      "bf2props": {
        "name": "mg_1",
        "class": "ObjectSpawner",
        "name_object": "Stationary BIPOD",
        "team": "1",
        "obj1": "ch_bipod",
        "obj2": "null",
        "maxspawn": "99999.0",
        "minspawn": "99999.0",
        "spawndelay": "false",
        "ttl": "0.0",
        "cpid": "1"
      }
    },
    {
      "type": "Feature",
      "geometry": {
        "type": "Point",
        "coordinates": [1351.733, -1533.75],
        "size": [16, 16]
      },
      "properties": {
        "iconurl": "icons/vehicles_map/mini_smgsmall.png",
        "iconrotate": "0.0",
        "popupContent": "Amazing information about Stationary BIPOD will be found here!"
      },
      "bf2props": {
        "name": "mg_2",
        "class": "ObjectSpawner",
        "name_object": "Stationary BIPOD",
        "team": "1",
        "obj1": "ch_bipod",
        "obj2": "null",
        "maxspawn": "99999.0",
        "minspawn": "99999.0",
        "spawndelay": "false",
        "ttl": "0.0",
        "cpid": "1"
      }
    },
    {
      "type": "Feature",
      "geometry": {
        "type": "Point",
        "coordinates": [1347.052, -1686.074],
        "size": [16, 16]
      },
      "properties": {
        "iconurl": "icons/vehicles_map/mini_smgsmall.png",
        "iconrotate": "-85.326",
        "popupContent": "Amazing information about Stationary BIPOD will be found here!"
      },
      "bf2props": {
        "name": "mg_3",
        "class": "ObjectSpawner",
        "name_object": "Stationary BIPOD",
        "team": "1",
        "obj1": "ch_bipod",
        "obj2": "null",
        "maxspawn": "99999.0",
        "minspawn": "99999.0",
        "spawndelay": "false",
        "ttl": "0.0",
        "cpid": "1"
      }
    },
    {
      "type": "Feature",
      "geometry": {
        "type": "Point",
        "coordinates": [1580.1741, -1571.536],
        "size": [16, 16]
      },
      "properties": {
        "iconurl": "icons/vehicles_map/mini_smgsmall.png",
        "iconrotate": "0.0",
        "popupContent": "Amazing information about Stationary BIPOD will be found here!"
      },
      "bf2props": {
        "name": "mg_4",
        "class": "ObjectSpawner",
        "name_object": "Stationary BIPOD",
        "team": "1",
        "obj1": "ch_bipod",
        "obj2": "null",
        "maxspawn": "99999.0",
        "minspawn": "99999.0",
        "spawndelay": "false",
        "ttl": "0.0",
        "cpid": "1"
      }
    },
    {
      "type": "Feature",
      "geometry": {
        "type": "Point",
        "coordinates": [240.92603, -227.78802],
        "size": [16, 16]
      },
      "properties": {
        "iconurl": "icons/vehicles_map/firebase_mini_white.png",
        "iconrotate": "0",
        "popupContent": "Amazing information about null will be found here!"
      },
      "bf2props": {
        "name": "cp",
        "class": "ObjectSpawner",
        "name_object": "Command Post",
        "team": "2",
        "obj1": "null",
        "obj2": "deployable_commandpost_us",
        "maxspawn": "0.0",
        "minspawn": "0.0",
        "spawndelay": "false",
        "ttl": "0.0",
        "cpid": "3"
      }
    },
    {
      "type": "Feature",
      "geometry": {
        "type": "Point",
        "coordinates": [1471.632, -1580.832],
        "size": [16, 16]
      },
      "properties": {
        "iconurl": "icons/mini_map/uavtrailer.png",
        "iconrotate": "0",
        "popupContent": "Amazing information about UAV Terminal will be found here!"
      },
      "bf2props": {
        "name": "cp_0",
        "class": "ObjectSpawner",
        "name_object": "UAV Terminal",
        "team": "1",
        "obj1": "ch_acv_wz551",
        "obj2": "null",
        "maxspawn": "1200.0",
        "minspawn": "1200.0",
        "spawndelay": "false",
        "ttl": "99999.0",
        "cpid": "1"
      }
    },
    {
      "type": "Feature",
      "geometry": {
        "type": "Point",
        "coordinates": [1626.2319, -1735.662],
        "size": [16, 16]
      },
      "properties": {
        "iconurl": "icons/vehicles_map/mini_smgsmall.png",
        "iconrotate": "87.398",
        "popupContent": "Amazing information about Stationary BIPOD will be found here!"
      },
      "bf2props": {
        "name": "mg_8",
        "class": "ObjectSpawner",
        "name_object": "Stationary BIPOD",
        "team": "1",
        "obj1": "ch_bipod",
        "obj2": "null",
        "maxspawn": "99999.0",
        "minspawn": "99999.0",
        "spawndelay": "false",
        "ttl": "0.0",
        "cpid": "1"
      }
    },
    {
      "type": "Feature",
      "geometry": {
        "type": "Point",
        "coordinates": [449.0, -1793.0],
        "size": [16, 16]
      },
      "properties": {
        "iconurl": "icons/vehicles_map/mini_stw_aa_medium.png",
        "iconrotate": "0.0",
        "popupContent": "Amazing information about zpu4 will be found here!"
      },
      "bf2props": {
        "name": "cpname_ob_64_airstrip_mec_aascannons",
        "class": "ObjectSpawner",
        "name_object": "zpu4",
        "team": "1",
        "obj1": "zpu4",
        "obj2": "null",
        "maxspawn": "600.0",
        "minspawn": "600.0",
        "spawndelay": "false",
        "ttl": "0.0",
        "cpid": "101"
      }
    },
    {
      "type": "Feature",
      "geometry": {
        "type": "Point",
        "coordinates": [138.53601, -310.591],
        "size": [16, 16]
      },
      "properties": {
        "iconurl": "icons/vehicles_map/mini_the_light.png",
        "iconrotate": "139.6",
        "popupContent": "Amazing information about null will be found here!"
      },
      "bf2props": {
        "name": "cpname_op_barracuda_coop16_carrier_transheli_3",
        "class": "ObjectSpawner",
        "name_object": "UH-1N Twin Huey",
        "team": "2",
        "obj1": "null",
        "obj2": "us_the_uh1n",
        "maxspawn": "99999.0",
        "minspawn": "99999.0",
        "spawndelay": "false",
        "ttl": "300.0",
        "cpid": "3"
      }
    },
    {
      "type": "Feature",
      "geometry": {
        "type": "Point",
        "coordinates": [299.89697, -176.75098],
        "size": [16, 16]
      },
      "properties": {
        "iconurl": "icons/vehicles_map/mini_ahe_light.png",
        "iconrotate": "139.6",
        "popupContent": "Amazing information about null will be found here!"
      },
      "bf2props": {
        "name": "cpname_op_barracuda_coop16_carrier_attackheli_1",
        "class": "ObjectSpawner",
        "name_object": "UH-1N Twin Huey CAS",
        "team": "2",
        "obj1": "null",
        "obj2": "us_ahe_uh1nrockets_sp",
        "maxspawn": "300.0",
        "minspawn": "300.0",
        "spawndelay": "false",
        "ttl": "300.0",
        "cpid": "3"
      }
    },
    {
      "type": "Feature",
      "geometry": {
        "type": "Point",
        "coordinates": [1407.787, -1760.5549],
        "size": [16, 16]
      },
      "properties": {
        "iconurl": "icons/vehicles_map/mini_ahe_light.png",
        "iconrotate": "0.0",
        "popupContent": "Amazing information about Z-9WA Haitun HF-25 will be found here!"
      },
      "bf2props": {
        "name": "cpname_ob_64_missilesilo_ch_lightheli",
        "class": "ObjectSpawner",
        "name_object": "Z-9WA Haitun HF-25",
        "team": "1",
        "obj1": "ch_ahe_z9wa_hf25_sp",
        "obj2": "null",
        "maxspawn": "480.0",
        "minspawn": "480.0",
        "spawndelay": "false",
        "ttl": "10.0",
        "cpid": "1"
      }
    },
    {
      "type": "Feature",
      "geometry": {
        "type": "Point",
        "coordinates": [1550.0, -1717.0],
        "size": [16, 16]
      },
      "properties": {
        "iconurl": "icons/vehicles_map/mini_stw_aa_light.png",
        "iconrotate": "0.0",
        "popupContent": "Amazing information about igla_djigit will be found here!"
      },
      "bf2props": {
        "name": "cpname_ob_64_missilesilo_ch_aas",
        "class": "ObjectSpawner",
        "name_object": "igla_djigit",
        "team": "1",
        "obj1": "igla_djigit",
        "obj2": "null",
        "maxspawn": "600.0",
        "minspawn": "600.0",
        "spawndelay": "false",
        "ttl": "0.0",
        "cpid": "1"
      }
    },
    {
      "type": "Feature",
      "geometry": {
        "type": "Point",
        "coordinates": [317.515, -160.15302],
        "size": [16, 16]
      },
      "properties": {
        "iconurl": "icons/vehicles_map/mini_shp_light.png",
        "iconrotate": "50.0",
        "popupContent": "Amazing information about null will be found here!"
      },
      "bf2props": {
        "name": "cpname_ob_64_carrier_usmc_spdboat",
        "class": "ObjectSpawner",
        "name_object": "RHIB",
        "team": "2",
        "obj1": "null",
        "obj2": "boat_rib_gpmg_m240b",
        "maxspawn": "300.0",
        "minspawn": "300.0",
        "spawndelay": "false",
        "ttl": "300.0",
        "cpid": "3"
      }
    },
    {
      "type": "Feature",
      "geometry": {
        "type": "Point",
        "coordinates": [159.0, -319.0],
        "size": [16, 16]
      },
      "properties": {
        "iconurl": "icons/vehicles_map/mini_ahe_light.png",
        "iconrotate": "139.6",
        "popupContent": "Amazing information about null will be found here!"
      },
      "bf2props": {
        "name": "cpname_op_barracuda_coop16_carrier_attackheli_2",
        "class": "ObjectSpawner",
        "name_object": "UH-1N Twin Huey CAS",
        "team": "2",
        "obj1": "null",
        "obj2": "us_ahe_uh1nrockets",
        "maxspawn": "300.0",
        "minspawn": "300.0",
        "spawndelay": "false",
        "ttl": "300.0",
        "cpid": "3"
      }
    },
    {
      "type": "Feature",
      "geometry": {
        "type": "Point",
        "coordinates": [193.0, -291.0],
        "size": [16, 16]
      },
      "properties": {
        "iconurl": "icons/vehicles_map/mini_the_light.png",
        "iconrotate": "139.6",
        "popupContent": "Amazing information about null will be found here!"
      },
      "bf2props": {
        "name": "cpname_op_barracuda_coop16_carrier_transheli_4",
        "class": "ObjectSpawner",
        "name_object": "UH-1N Twin Huey",
        "team": "2",
        "obj1": "null",
        "obj2": "us_the_uh1n",
        "maxspawn": "300.0",
        "minspawn": "300.0",
        "spawndelay": "false",
        "ttl": "300.0",
        "cpid": "3"
      }
    },
    {
      "type": "Feature",
      "geometry": {
        "type": "Point",
        "coordinates": [175.17499, -279.29797],
        "size": [16, 16]
      },
      "properties": {
        "iconurl": "icons/vehicles_map/mini_the_light.png",
        "iconrotate": "139.6",
        "popupContent": "Amazing information about null will be found here!"
      },
      "bf2props": {
        "name": "cpname_op_barracuda_coop16_carrier_transheli_5",
        "class": "ObjectSpawner",
        "name_object": "UH-1N Twin Huey",
        "team": "2",
        "obj1": "null",
        "obj2": "us_the_uh1n",
        "maxspawn": "300.0",
        "minspawn": "300.0",
        "spawndelay": "false",
        "ttl": "300.0",
        "cpid": "3"
      }
    },
    {
      "type": "Feature",
      "geometry": {
        "type": "Point",
        "coordinates": [853.506, -1506.404],
        "size": [16, 16]
      },
      "properties": {
        "iconurl": "icons/vehicles_map/mini_smgsmall.png",
        "iconrotate": "-58.1",
        "popupContent": "Amazing information about Stationary BIPOD will be found here!"
      },
      "bf2props": {
        "name": "cpname_op_barracuda_coop16_supplies_ch_bipod",
        "class": "ObjectSpawner",
        "name_object": "Stationary BIPOD",
        "team": "1",
        "obj1": "ch_bipod",
        "obj2": "null",
        "maxspawn": "180.0",
        "minspawn": "180.0",
        "spawndelay": "false",
        "ttl": "0.0",
        "cpid": "2"
      }
    },
    {
      "type": "Feature",
      "geometry": {
        "type": "Point",
        "coordinates": [934.677, -1457.044],
        "size": [16, 16]
      },
      "properties": {
        "iconurl": "icons/vehicles_map/mini_smgsmall.png",
        "iconrotate": "-87.5",
        "popupContent": "Amazing information about Stationary BIPOD will be found here!"
      },
      "bf2props": {
        "name": "cpname_op_barracuda_coop16_supplies_ch_bipod_0",
        "class": "ObjectSpawner",
        "name_object": "Stationary BIPOD",
        "team": "1",
        "obj1": "ch_bipod",
        "obj2": "null",
        "maxspawn": "180.0",
        "minspawn": "180.0",
        "spawndelay": "false",
        "ttl": "0.0",
        "cpid": "2"
      }
    },
    {
      "type": "Feature",
      "geometry": {
        "type": "Point",
        "coordinates": [907.448, -1510.692],
        "size": [16, 16]
      },
      "properties": {
        "iconurl": "icons/vehicles_map/mini_smgsmall.png",
        "iconrotate": "-32.9",
        "popupContent": "Amazing information about Stationary BIPOD will be found here!"
      },
      "bf2props": {
        "name": "cpname_op_barracuda_coop16_supplies_ch_bipod_1",
        "class": "ObjectSpawner",
        "name_object": "Stationary BIPOD",
        "team": "1",
        "obj1": "ch_bipod",
        "obj2": "null",
        "maxspawn": "180.0",
        "minspawn": "180.0",
        "spawndelay": "false",
        "ttl": "0.0",
        "cpid": "2"
      }
    },
    {
      "type": "Feature",
      "geometry": {
        "type": "Point",
        "coordinates": [542.461, -1318.516],
        "size": [16, 16]
      },
      "properties": {
        "iconurl": "icons/vehicles_map/mini_smgsmall.png",
        "iconrotate": "-56.3",
        "popupContent": "Amazing information about Stationary BIPOD will be found here!"
      },
      "bf2props": {
        "name": "cpname_op_barracuda_coop16_beachfortification_ch_bipod",
        "class": "ObjectSpawner",
        "name_object": "Stationary BIPOD",
        "team": "1",
        "obj1": "ch_bipod",
        "obj2": "null",
        "maxspawn": "180.0",
        "minspawn": "180.0",
        "spawndelay": "false",
        "ttl": "0.0",
        "cpid": "103"
      }
    },
    {
      "type": "Feature",
      "geometry": {
        "type": "Point",
        "coordinates": [511.44897, -1237.772],
        "size": [16, 16]
      },
      "properties": {
        "iconurl": "icons/vehicles_map/mini_smgsmall.png",
        "iconrotate": "-40.0",
        "popupContent": "Amazing information about Stationary BIPOD will be found here!"
      },
      "bf2props": {
        "name": "cpname_op_barracuda_coop16_beachfortification_ch_bipod_0",
        "class": "ObjectSpawner",
        "name_object": "Stationary BIPOD",
        "team": "1",
        "obj1": "ch_bipod",
        "obj2": "null",
        "maxspawn": "180.0",
        "minspawn": "180.0",
        "spawndelay": "false",
        "ttl": "0.0",
        "cpid": "103"
      }
    },
    {
      "type": "Feature",
      "geometry": {
        "type": "Point",
        "coordinates": [482.76202, -1807.7051],
        "size": [16, 16]
      },
      "properties": {
        "iconurl": "icons/vehicles_map/mini_smgsmall.png",
        "iconrotate": "-38.9",
        "popupContent": "Amazing information about Stationary BIPOD will be found here!"
      },
      "bf2props": {
        "name": "cpname_op_barracuda_coop16_airstrip_ch_bipod",
        "class": "ObjectSpawner",
        "name_object": "Stationary BIPOD",
        "team": "1",
        "obj1": "ch_bipod",
        "obj2": "null",
        "maxspawn": "180.0",
        "minspawn": "180.0",
        "spawndelay": "false",
        "ttl": "0.0",
        "cpid": "101"
      }
    },
    {
      "type": "Feature",
      "geometry": {
        "type": "Point",
        "coordinates": [488.48102, -1826.569],
        "size": [16, 16]
      },
      "properties": {
        "iconurl": "icons/vehicles_map/mini_smgsmall.png",
        "iconrotate": "-38.9",
        "popupContent": "Amazing information about Stationary BIPOD will be found here!"
      },
      "bf2props": {
        "name": "cpname_op_barracuda_coop16_airstrip_ch_bipod_0",
        "class": "ObjectSpawner",
        "name_object": "Stationary BIPOD",
        "team": "1",
        "obj1": "ch_bipod",
        "obj2": "null",
        "maxspawn": "180.0",
        "minspawn": "180.0",
        "spawndelay": "false",
        "ttl": "0.0",
        "cpid": "101"
      }
    },
    {
      "type": "Feature",
      "geometry": {
        "type": "Point",
        "coordinates": [507.09998, -1821.919],
        "size": [16, 16]
      },
      "properties": {
        "iconurl": "icons/vehicles_map/mini_smgsmall.png",
        "iconrotate": "51.1",
        "popupContent": "Amazing information about Stationary BIPOD will be found here!"
      },
      "bf2props": {
        "name": "cpname_op_barracuda_coop16_airstrip_ch_bipod_1",
        "class": "ObjectSpawner",
        "name_object": "Stationary BIPOD",
        "team": "1",
        "obj1": "ch_bipod",
        "obj2": "null",
        "maxspawn": "180.0",
        "minspawn": "180.0",
        "spawndelay": "false",
        "ttl": "0.0",
        "cpid": "101"
      }
    },
    {
      "type": "Feature",
      "geometry": {
        "type": "Point",
        "coordinates": [1440.301, -1582.8],
        "size": [16, 16]
      },
      "properties": {
        "iconurl": "icons/vehicles_map/mini_trk_logistics.png",
        "iconrotate": "180.0",
        "popupContent": "Amazing information about EQ2080 Logistics will be found here!"
      },
      "bf2props": {
        "name": "cpname_op_barracuda_coop16_missilesilo_logi",
        "class": "ObjectSpawner",
        "name_object": "EQ2080 Logistics",
        "team": "1",
        "obj1": "ch_trk_logistics",
        "obj2": "null",
        "maxspawn": "300.0",
        "minspawn": "300.0",
        "spawndelay": "false",
        "ttl": "1200.0",
        "cpid": "1"
      }
    },
    {
      "type": "Feature",
      "geometry": {
        "type": "Point",
        "coordinates": [1368.687, -1576.648],
        "size": [16, 16]
      },
      "properties": {
        "iconurl": "icons/mini_map/repairdepot.png",
        "iconrotate": "0",
        "popupContent": "Amazing information about Vehicle Depot will be found here!"
      },
      "bf2props": {
        "name": "cpname_op_barracuda_coop16_missilesilo_depot",
        "class": "ObjectSpawner",
        "name_object": "Vehicle Depot",
        "team": "1",
        "obj1": "vehicle_depot_ch",
        "obj2": "null",
        "maxspawn": "0.0",
        "minspawn": "0.0",
        "spawndelay": "false",
        "ttl": "0.0",
        "cpid": "1"
      }
    },
    {
      "type": "Feature",
      "geometry": {
        "type": "Point",
        "coordinates": [312.854, -169.27301],
        "size": [16, 16]
      },
      "properties": {
        "iconurl": "icons/vehicles_map/mini_shp_light.png",
        "iconrotate": "50.0",
        "popupContent": "Amazing information about null will be found here!"
      },
      "bf2props": {
        "name": "cpname_op_barracuda_coop16_carrier_boat_0",
        "class": "ObjectSpawner",
        "name_object": "RHIB",
        "team": "2",
        "obj1": "null",
        "obj2": "boat_rib_gpmg_m240b",
        "maxspawn": "300.0",
        "minspawn": "300.0",
        "spawndelay": "false",
        "ttl": "300.0",
        "cpid": "3"
      }
    },
    {
      "type": "Feature",
      "geometry": {
        "type": "Point",
        "coordinates": [320.474, -178.25897],
        "size": [16, 16]
      },
      "properties": {
        "iconurl": "icons/vehicles_map/mini_shp_light.png",
        "iconrotate": "50.0",
        "popupContent": "Amazing information about null will be found here!"
      },
      "bf2props": {
        "name": "cpname_op_barracuda_coop16_carrier_boat_1",
        "class": "ObjectSpawner",
        "name_object": "RHIB",
        "team": "2",
        "obj1": "null",
        "obj2": "boat_rib_gpmg_m240b",
        "maxspawn": "300.0",
        "minspawn": "300.0",
        "spawndelay": "false",
        "ttl": "300.0",
        "cpid": "3"
      }
    },
    {
      "type": "Feature",
      "geometry": {
        "type": "Point",
        "coordinates": [329.92102, -174.83801],
        "size": [16, 16]
      },
      "properties": {
        "iconurl": "icons/vehicles_map/mini_shp_light.png",
        "iconrotate": "50.0",
        "popupContent": "Amazing information about null will be found here!"
      },
      "bf2props": {
        "name": "cpname_op_barracuda_coop16_carrier_boat_2",
        "class": "ObjectSpawner",
        "name_object": "RHIB",
        "team": "2",
        "obj1": "null",
        "obj2": "boat_rib_gpmg_m240b",
        "maxspawn": "300.0",
        "minspawn": "300.0",
        "spawndelay": "false",
        "ttl": "300.0",
        "cpid": "3"
      }
    },
    {
      "type": "Feature",
      "geometry": {
        "type": "Point",
        "coordinates": [314.89203, -163.98901],
        "size": [16, 16]
      },
      "properties": {
        "iconurl": "icons/vehicles_map/mini_the_light.png",
        "iconrotate": "139.6",
        "popupContent": "Amazing information about null will be found here!"
      },
      "bf2props": {
        "name": "cpname_op_barracuda_coop16_carrier_bothuey",
        "class": "ObjectSpawner",
        "name_object": "UH-1N Twin Huey",
        "team": "2",
        "obj1": "null",
        "obj2": "us_the_uh1n_sp",
        "maxspawn": "300.0",
        "minspawn": "300.0",
        "spawndelay": "false",
        "ttl": "300.0",
        "cpid": "3"
      }
    },
    {
      "type": "Feature",
      "geometry": {
        "type": "Point",
        "coordinates": [1384.0, -1769.0],
        "size": [16, 16]
      },
      "properties": {
        "iconurl": "icons/vehicles_map/mini_ahe_light.png",
        "iconrotate": "0.0",
        "popupContent": "Amazing information about Z-9WA Haitun HF-25 will be found here!"
      },
      "bf2props": {
        "name": "cpname_op_barracuda_coop16_missilesilo_hf7d",
        "class": "ObjectSpawner",
        "name_object": "Z-9WA Haitun HF-25",
        "team": "1",
        "obj1": "ch_ahe_z9wa_hf25",
        "obj2": "null",
        "maxspawn": "480.0",
        "minspawn": "480.0",
        "spawndelay": "false",
        "ttl": "10.0",
        "cpid": "1"
      }
    },
    {
      "type": "Feature",
      "geometry": {
        "type": "Point",
        "coordinates": [1440.913, -1693.585],
        "size": [16, 16]
      },
      "properties": {
        "iconurl": "icons/vehicles_map/mini_apc_light.png",
        "iconrotate": "-90.0",
        "popupContent": "Amazing information about ZSL-92A will be found here!"
      },
      "bf2props": {
        "name": "cpname_op_barracuda_coop16_missilesilo_apc",
        "class": "ObjectSpawner",
        "name_object": "ZSL-92A",
        "team": "1",
        "obj1": "ch_apc_wz551a",
        "obj2": "null",
        "maxspawn": "300.0",
        "minspawn": "300.0",
        "spawndelay": "false",
        "ttl": "1200.0",
        "cpid": "1"
      }
    },
    {
      "type": "Feature",
      "geometry": {
        "type": "Point",
        "coordinates": [1558.0, -1709.0],
        "size": [33, 33],
        "radius": "50.0"
      },
      "properties": {
        "iconurl": "icons/flags_map/ch/minimap_cp.png",
        "iconrotate": "0",
        "popupContent": "Amazing information about PLA Missile Silo 50m will be found here!"
      },
      "bf2props": {
        "name": "cpname_op_barracuda_coop16_missilesilo",
        "class": "ControlPoint",
        "name_object": "PLA Missile Silo 50m",
        "team": "1",
        "areavalue1": "0.0",
        "areavalue2": "99999.0",
        "cpid": "1",
        "sgid": "1",
        "uncap": "false",
        "ttgc": "120.0",
        "ttlc": "180.0"
      }
    },
    {
      "type": "Feature",
      "geometry": {
        "type": "Point",
        "coordinates": [900.0, -1433.0],
        "size": [33, 33],
        "radius": "60.0"
      },
      "properties": {
        "iconurl": "icons/flags_map/ch/minimap_cp.png",
        "iconrotate": "0",
        "popupContent": "Amazing information about Supplies 60m will be found here!"
      },
      "bf2props": {
        "name": "cpname_op_barracuda_coop16_supplies",
        "class": "ControlPoint",
        "name_object": "Supplies 60m",
        "team": "1",
        "areavalue1": "24.0",
        "areavalue2": "15.0",
        "cpid": "2",
        "sgid": "2",
        "uncap": "false",
        "ttgc": "180.0",
        "ttlc": "180.0"
      }
    },
    {
      "type": "Feature",
      "geometry": {
        "type": "Point",
        "coordinates": [251.74902, -216.68701],
        "size": [33, 33],
        "radius": "19.0"
      },
      "properties": {
        "iconurl": "icons/flags_map/us/minimap_cpbase.png",
        "iconrotate": "0",
        "popupContent": "Amazing information about USS Essex will be found here!"
      },
      "bf2props": {
        "name": "cpname_op_barracuda_coop16_carrier",
        "class": "ControlPoint",
        "name_object": "USS Essex",
        "team": "2",
        "areavalue1": "1000.0",
        "areavalue2": "0.0",
        "cpid": "3",
        "sgid": "5",
        "uncap": "true",
        "ttgc": "0.0",
        "ttlc": "0.0"
      }
    },
    {
      "type": "Feature",
      "geometry": {
        "type": "Point",
        "coordinates": [485.0, -1830.0],
        "size": [33, 33],
        "radius": "45.0"
      },
      "properties": {
        "iconurl": "icons/flags_map/ch/minimap_cp.png",
        "iconrotate": "0",
        "popupContent": "Amazing information about Air Strip 45m will be found here!"
      },
      "bf2props": {
        "name": "cpname_op_barracuda_coop16_airstrip",
        "class": "ControlPoint",
        "name_object": "Air Strip 45m",
        "team": "1",
        "areavalue1": "24.0",
        "areavalue2": "15.0",
        "cpid": "101",
        "sgid": "3",
        "uncap": "false",
        "ttgc": "180.0",
        "ttlc": "180.0"
      }
    },
    {
      "type": "Feature",
      "geometry": {
        "type": "Point",
        "coordinates": [585.0, -1240.0],
        "size": [33, 33],
        "radius": "40.0"
      },
      "properties": {
        "iconurl": "icons/flags_map/ch/minimap_cp.png",
        "iconrotate": "0",
        "popupContent": "Amazing information about Beach Fortification 40m will be found here!"
      },
      "bf2props": {
        "name": "cpname_op_barracuda_coop16_beachfortification",
        "class": "ControlPoint",
        "name_object": "Beach Fortification 40m",
        "team": "1",
        "areavalue1": "24.0",
        "areavalue2": "15.0",
        "cpid": "103",
        "sgid": "3",
        "uncap": "false",
        "ttgc": "180.0",
        "ttlc": "180.0"
      }
    },
    {
      "type": "Feature",
      "geometry": {
        "type": "Point",
        "coordinates": [145.0, -1489.0],
        "size": [33, 33],
        "radius": "40.0"
      },
      "properties": {
        "iconurl": "icons/flags_map/ch/minimap_cp.png",
        "iconrotate": "0",
        "popupContent": "Amazing information about South Rock Fortification 40m will be found here!"
      },
      "bf2props": {
        "name": "cpname_op_barracuda_coop16_southrockfort",
        "class": "ControlPoint",
        "name_object": "South Rock Fortification 40m",
        "team": "1",
        "areavalue1": "20.0",
        "areavalue2": "19.0",
        "cpid": "106",
        "sgid": "4",
        "uncap": "false",
        "ttgc": "180.0",
        "ttlc": "180.0"
      }
    },
    {
      "type": "Feature",
      "geometry": {
        "type": "Point",
        "coordinates": [404.125, -1074.6],
        "size": [33, 33],
        "radius": "40.0"
      },
      "properties": {
        "iconurl": "icons/flags_map/ch/minimap_cp.png",
        "iconrotate": "0",
        "popupContent": "Amazing information about North Rock Fortification 40m will be found here!"
      },
      "bf2props": {
        "name": "cpname_op_barracuda_coop16_northrockfort",
        "class": "ControlPoint",
        "name_object": "North Rock Fortification 40m",
        "team": "1",
        "areavalue1": "20.0",
        "areavalue2": "19.0",
        "cpid": "107",
        "sgid": "4",
        "uncap": "false",
        "ttgc": "180.0",
        "ttlc": "180.0"
      }
    },
    {
      "type": "Feature",
      "geometry": {
        "type": "Point",
        "coordinates": [1219.0, -1591.0],
        "size": [33, 33],
        "radius": "16.0"
      },
      "properties": {
        "iconurl": "icons/flags_map/ch/minimap_cp.png",
        "iconrotate": "0",
        "popupContent": "Amazing information about Cave 16m will be found here!"
      },
      "bf2props": {
        "name": "cpname_op_barracuda_coop16_cave",
        "class": "ControlPoint",
        "name_object": "Cave 16m",
        "team": "1",
        "areavalue1": "24.0",
        "areavalue2": "15.0",
        "cpid": "102",
        "sgid": "2",
        "uncap": "false",
        "ttgc": "90.0",
        "ttlc": "90.0"
      }
    },
    {
      "type": "Feature",
      "geometry": {
        "type": "Polygon",
        "coordinates": [
          [
            [0,0],
            [0,-2048],
            [2048,-2048],
            [2048,0]
          ],[
            [1356.2893, -1802.4398],
            [1639.747, -1796.6824],
            [1638.7565, -1608.1892],
            [1591.6964, -1555.9362],
            [1488.6423, -1505.9517],
            [1437.4453, -1501.841],
            [1419.0176, -1437.5653],
            [1381.5951, -1406.8623],
            [1335.9948, -1412.198],
            [1290.2412, -1450.2131],
            [1261.682, -1505.5779],
            [1183.504, -1477.417],
            [1065.9224, -1443.3022],
            [992.0013, -1303.6506],
            [733.0152, -1134.4915],
            [492.4638, -21.072144],
            [15.055664, -18.47754],
            [14.94873, -2034.7361],
            [665.0853, -2034.6903],
            [753.84924, -1819.0361],
            [916.16364, -1745.281],
            [1080.9547, -1773.4578],
            [1213.7279, -1819.4138],
            [1309.2557, -1819.6797]
          ]
        ]
      },
      "bf2props": {
        "code": "combatarea_0_64",
        "class": "CombatArea",
        "team": "0",
        "vehicles": "0",
        "layer": "2",
        "inverted": "false",
        "max": [0.0, 0.0],
        "min": [0.0, 0.0]
      }
    },
    {
      "type": "Feature",
      "geometry": {
        "type": "Polygon",
        "coordinates": [
          [
            [0,0],
            [0,-2048],
            [2048,-2048],
            [2048,0]
          ],[
            [2048.0, 0.0],
            [0.0, 0.0],
            [0.0, -2048.0],
            [2048.0, -2048.0]
          ]
        ]
      },
      "bf2props": {
        "code": "combatarea_30_64",
        "class": "CombatArea",
        "team": "0",
        "vehicles": "3",
        "layer": "2",
        "inverted": "false",
        "max": [0.0, 0.0],
        "min": [0.0, 0.0]
      }
    },
    {
      "type": "Feature",
      "geometry": {
        "type": "Polygon",
        "coordinates": [
          [
            [0,0],
            [0,-2048],
            [2048,-2048],
            [2048,0]
          ],[
            [1356.2893, -1802.4398],
            [1639.747, -1796.6824],
            [1638.7565, -1608.1892],
            [1591.6964, -1555.9362],
            [492.4638, -21.072144],
            [15.055664, -18.47754],
            [14.94873, -2034.7361],
            [665.0853, -2034.6903],
            [753.84924, -1819.0361],
            [916.16364, -1745.281],
            [1080.9547, -1773.4578],
            [1213.7279, -1819.4138],
            [1309.2557, -1819.6797]
          ]
        ]
      },
      "bf2props": {
        "code": "combatarea_60_64",
        "class": "CombatArea",
        "team": "0",
        "vehicles": "1",
        "layer": "2",
        "inverted": "false",
        "max": [0.0, 0.0],
        "min": [0.0, 0.0]
      }
    }
  ]
}