{
  "team1":"arg82",
  "team2":"gb82",
  "team1tickets":"400",
  "team2tickets":"450",
  "mapsize":"2048",
  "viewdistance":"550",
  "combatareause":"true",
  "combatareadamage":"20.0",
  "combatareaallowoutside":"10.0",
  "routes": [
    [
      [
        "cpname_goose_green_aas16_supplycenter"
      ],
      [
        "cpname_goose_green_aas16_goosegreen",
        "cpname_goose_green_aas16_airfield"
      ],
      [
        "cpname_goose_green_aas16_bocahouse"
      ],
      [
        "cpname_goose_green_aas16_darwin"
      ],
      [
        "cpname_goose_green_aas16_coronationpoint"
      ],
      [
        "cpname_goose_green_aas16_camillacreek",
        "cpname_goose_green_aas16_burnsidehouse"
      ],
      [
        "cpname_goose_green_aas16_2para"
      ]
    ]
  ],
  "type": "FeatureCollection",
  "features": [
    {
      "type": "Feature",
      "geometry": {
        "type": "Point",
        "coordinates": [787.437, -1933.508],
        "size": [16, 16]
      },
      "properties": {
        "iconurl": "icons/vehicles_map/mini_trk_support.png",
        "iconrotate": "-35.16",
        "popupContent": "Amazing information about M35 2.5 Ton will be found here!"
      },
      "bf2props": {
        "name": "cpname_goose_green_aas16_supplycenter_arg_trk_support_1",
        "class": "ObjectSpawner",
        "name_object": "M35 2.5 Ton",
        "team": "1",
        "obj1": "arg_trk_support",
        "obj2": "null",
        "maxspawn": "300.0",
        "minspawn": "300.0",
        "spawndelay": "false",
        "ttl": "99999.0",
        "cpid": "34"
      }
    },
    {
      "type": "Feature",
      "geometry": {
        "type": "Point",
        "coordinates": [784.353, -1935.6799],
        "size": [16, 16]
      },
      "properties": {
        "iconurl": "icons/vehicles_map/mini_trk_support.png",
        "iconrotate": "-35.16",
        "popupContent": "Amazing information about M35 2.5 Ton will be found here!"
      },
      "bf2props": {
        "name": "cpname_goose_green_aas16_supplycenter_arg_trk_support_2",
        "class": "ObjectSpawner",
        "name_object": "M35 2.5 Ton",
        "team": "1",
        "obj1": "arg_trk_support",
        "obj2": "null",
        "maxspawn": "300.0",
        "minspawn": "300.0",
        "spawndelay": "false",
        "ttl": "99999.0",
        "cpid": "34"
      }
    },
    {
      "type": "Feature",
      "geometry": {
        "type": "Point",
        "coordinates": [759.518, -1934.8159],
        "size": [16, 16]
      },
      "properties": {
        "iconurl": "icons/vehicles_map/mini_jep_support.png",
        "iconrotate": "9.684",
        "popupContent": "Amazing information about Volkswagen Type 1 will be found here!"
      },
      "bf2props": {
        "name": "cpname_goose_green_aas16_supplycenter_arg_jep_vwt1",
        "class": "ObjectSpawner",
        "name_object": "Volkswagen Type 1",
        "team": "1",
        "obj1": "arg_jep_vwt1",
        "obj2": "null",
        "maxspawn": "300.0",
        "minspawn": "300.0",
        "spawndelay": "false",
        "ttl": "99999.0",
        "cpid": "34"
      }
    },
    {
      "type": "Feature",
      "geometry": {
        "type": "Point",
        "coordinates": [754.96204, -1933.537],
        "size": [16, 16]
      },
      "properties": {
        "iconurl": "icons/vehicles_map/mini_trk_logistics.png",
        "iconrotate": "9.684",
        "popupContent": "Amazing information about M35 Logistics will be found here!"
      },
      "bf2props": {
        "name": "cpname_goose_green_aas16_supplycenter_arg_trk_logistics",
        "class": "ObjectSpawner",
        "name_object": "M35 Logistics",
        "team": "1",
        "obj1": "arg_trk_logistics",
        "obj2": "null",
        "maxspawn": "300.0",
        "minspawn": "300.0",
        "spawndelay": "false",
        "ttl": "99999.0",
        "cpid": "34"
      }
    },
    {
      "type": "Feature",
      "geometry": {
        "type": "Point",
        "coordinates": [1047.359, -1567.967],
        "size": [16, 16]
      },
      "properties": {
        "iconurl": "icons/player_map/mini_squad.png",
        "iconrotate": "0",
        "popupContent": "Amazing information about Temporary spawnpoint will be found here!"
      },
      "bf2props": {
        "name": "cpname_goose_green_aas16_airfield_arg_expiring_rallypoint",
        "class": "ObjectSpawner",
        "name_object": "Temporary spawnpoint",
        "team": "1",
        "obj1": "rallypoint_arg82_placeable",
        "obj2": "null",
        "maxspawn": "99999.0",
        "minspawn": "99999.0",
        "spawndelay": "false",
        "ttl": "300.0",
        "cpid": "34"
      }
    },
    {
      "type": "Feature",
      "geometry": {
        "type": "Point",
        "coordinates": [741.41504, -1922.502],
        "size": [16, 16]
      },
      "properties": {
        "iconurl": "icons/mini_map/repairdepot.png",
        "iconrotate": "0",
        "popupContent": "Amazing information about Vehicle Depot will be found here!"
      },
      "bf2props": {
        "name": "cpname_goose_green_aas16_supplycenter_arg_vehicle_depot",
        "class": "ObjectSpawner",
        "name_object": "Vehicle Depot",
        "team": "1",
        "obj1": "vehicle_depot_arg",
        "obj2": "null",
        "maxspawn": "0.0",
        "minspawn": "0.0",
        "spawndelay": "false",
        "ttl": "99999.0",
        "cpid": "34"
      }
    },
    {
      "type": "Feature",
      "geometry": {
        "type": "Point",
        "coordinates": [1927.411, -126.23102],
        "size": [16, 16]
      },
      "properties": {
        "iconurl": "icons/vehicles_map/mini_trk_support.png",
        "iconrotate": "91.597",
        "popupContent": "Amazing information about null will be found here!"
      },
      "bf2props": {
        "name": "cpname_goose_green_aas16_2para_gb82_trk_support_1",
        "class": "ObjectSpawner",
        "name_object": "MAN Support Vehicle",
        "team": "2",
        "obj1": "null",
        "obj2": "gb82_trk_support",
        "maxspawn": "300.0",
        "minspawn": "300.0",
        "spawndelay": "false",
        "ttl": "99999.0",
        "cpid": "42"
      }
    },
    {
      "type": "Feature",
      "geometry": {
        "type": "Point",
        "coordinates": [1927.6741, -122.104004],
        "size": [16, 16]
      },
      "properties": {
        "iconurl": "icons/vehicles_map/mini_trk_support.png",
        "iconrotate": "91.597",
        "popupContent": "Amazing information about null will be found here!"
      },
      "bf2props": {
        "name": "cpname_goose_green_aas16_2para_gb82_trk_support_2",
        "class": "ObjectSpawner",
        "name_object": "MAN Support Vehicle",
        "team": "2",
        "obj1": "null",
        "obj2": "gb82_trk_support",
        "maxspawn": "300.0",
        "minspawn": "300.0",
        "spawndelay": "false",
        "ttl": "99999.0",
        "cpid": "42"
      }
    },
    {
      "type": "Feature",
      "geometry": {
        "type": "Point",
        "coordinates": [1928.3931, -118.02399],
        "size": [16, 16]
      },
      "properties": {
        "iconurl": "icons/vehicles_map/mini_jep_support.png",
        "iconrotate": "91.597",
        "popupContent": "Amazing information about null will be found here!"
      },
      "bf2props": {
        "name": "cpname_goose_green_aas16_2para_gb_jep_landrover_support",
        "class": "ObjectSpawner",
        "name_object": "Land Rover Support",
        "team": "2",
        "obj1": "null",
        "obj2": "gb_jep_landrover_support",
        "maxspawn": "300.0",
        "minspawn": "300.0",
        "spawndelay": "false",
        "ttl": "99999.0",
        "cpid": "42"
      }
    },
    {
      "type": "Feature",
      "geometry": {
        "type": "Point",
        "coordinates": [1928.27, -114.007996],
        "size": [16, 16]
      },
      "properties": {
        "iconurl": "icons/vehicles_map/mini_trk_logistics.png",
        "iconrotate": "91.597",
        "popupContent": "Amazing information about null will be found here!"
      },
      "bf2props": {
        "name": "cpname_goose_green_aas16_2para_gb82_trk_logistics",
        "class": "ObjectSpawner",
        "name_object": "MAN SV Logistics",
        "team": "2",
        "obj1": "null",
        "obj2": "gb82_trk_logistics",
        "maxspawn": "300.0",
        "minspawn": "300.0",
        "spawndelay": "false",
        "ttl": "99999.0",
        "cpid": "42"
      }
    },
    {
      "type": "Feature",
      "geometry": {
        "type": "Point",
        "coordinates": [1939.871, -100.66998],
        "size": [16, 16]
      },
      "properties": {
        "iconurl": "icons/mini_map/repairdepot.png",
        "iconrotate": "0",
        "popupContent": "Amazing information about null will be found here!"
      },
      "bf2props": {
        "name": "cpname_goose_green_aas16_2para_gb_vehicle_depot",
        "class": "ObjectSpawner",
        "name_object": "Vehicle Depot",
        "team": "2",
        "obj1": "null",
        "obj2": "vehicle_depot_gb",
        "maxspawn": "0.0",
        "minspawn": "0.0",
        "spawndelay": "false",
        "ttl": "99999.0",
        "cpid": "42"
      }
    },
    {
      "type": "Feature",
      "geometry": {
        "type": "Point",
        "coordinates": [1972.0491, -118.724],
        "size": [16, 16]
      },
      "properties": {
        "iconurl": "icons/vehicles_map/mini_the_medium.png",
        "iconrotate": "-146.428",
        "popupContent": "Amazing information about null will be found here!"
      },
      "bf2props": {
        "name": "cpname_goose_green_aas16_2para_gb_the_wessex",
        "class": "ObjectSpawner",
        "name_object": "Wessex HU.5",
        "team": "2",
        "obj1": "null",
        "obj2": "gb_the_wessex",
        "maxspawn": "600.0",
        "minspawn": "600.0",
        "spawndelay": "true",
        "ttl": "99999.0",
        "cpid": "42"
      }
    },
    {
      "type": "Feature",
      "geometry": {
        "type": "Point",
        "coordinates": [740.08704, -1885.203],
        "size": [16, 16]
      },
      "properties": {
        "iconurl": "icons/vehicles_map/mini_the_light.png",
        "iconrotate": "9.684",
        "popupContent": "Amazing information about UH-1H Iroquois will be found here!"
      },
      "bf2props": {
        "name": "cpname_goose_green_aas16_supplycenter_arg_the_huey",
        "class": "ObjectSpawner",
        "name_object": "UH-1H Iroquois",
        "team": "1",
        "obj1": "arg_the_uh1h",
        "obj2": "null",
        "maxspawn": "300.0",
        "minspawn": "300.0",
        "spawndelay": "true",
        "ttl": "99999.0",
        "cpid": "34"
      }
    },
    {
      "type": "Feature",
      "geometry": {
        "type": "Point",
        "coordinates": [1327.293, -1517.967],
        "size": [33, 33],
        "radius": "70.0"
      },
      "properties": {
        "iconurl": "icons/flags_map/neutral/minimap_cp.png",
        "iconrotate": "0",
        "popupContent": "Amazing information about Goose Green 70m will be found here!"
      },
      "bf2props": {
        "name": "cpname_goose_green_aas16_goosegreen",
        "class": "ControlPoint",
        "name_object": "Goose Green 70m",
        "team": "0",
        "areavalue1": "0.0",
        "areavalue2": "50.0",
        "cpid": "35",
        "sgid": "22",
        "uncap": "false",
        "ttgc": "180.0",
        "ttlc": "180.0"
      }
    },
    {
      "type": "Feature",
      "geometry": {
        "type": "Point",
        "coordinates": [1076.35, -1382.422],
        "size": [33, 33],
        "radius": "70.0"
      },
      "properties": {
        "iconurl": "icons/flags_map/neutral/minimap_cp.png",
        "iconrotate": "0",
        "popupContent": "Amazing information about Airfield 70m will be found here!"
      },
      "bf2props": {
        "name": "cpname_goose_green_aas16_airfield",
        "class": "ControlPoint",
        "name_object": "Airfield 70m",
        "team": "0",
        "areavalue1": "0.0",
        "areavalue2": "50.0",
        "cpid": "36",
        "sgid": "22",
        "uncap": "false",
        "ttgc": "180.0",
        "ttlc": "180.0"
      }
    },
    {
      "type": "Feature",
      "geometry": {
        "type": "Point",
        "coordinates": [1476.01, -932.64],
        "size": [33, 33],
        "radius": "110.0"
      },
      "properties": {
        "iconurl": "icons/flags_map/neutral/minimap_cp.png",
        "iconrotate": "0",
        "popupContent": "Amazing information about Darwin 110m will be found here!"
      },
      "bf2props": {
        "name": "cpname_goose_green_aas16_darwin",
        "class": "ControlPoint",
        "name_object": "Darwin 110m",
        "team": "0",
        "areavalue1": "0.0",
        "areavalue2": "0.0",
        "cpid": "38",
        "sgid": "40",
        "uncap": "false",
        "ttgc": "180.0",
        "ttlc": "180.0"
      }
    },
    {
      "type": "Feature",
      "geometry": {
        "type": "Point",
        "coordinates": [906.85, -1023.122],
        "size": [33, 33],
        "radius": "50.0"
      },
      "properties": {
        "iconurl": "icons/flags_map/neutral/minimap_cp.png",
        "iconrotate": "0",
        "popupContent": "Amazing information about Boca House 50m will be found here!"
      },
      "bf2props": {
        "name": "cpname_goose_green_aas16_bocahouse",
        "class": "ControlPoint",
        "name_object": "Boca House 50m",
        "team": "0",
        "areavalue1": "0.0",
        "areavalue2": "0.0",
        "cpid": "37",
        "sgid": "30",
        "uncap": "false",
        "ttgc": "180.0",
        "ttlc": "180.0"
      }
    },
    {
      "type": "Feature",
      "geometry": {
        "type": "Point",
        "coordinates": [1431.168, -297.29602],
        "size": [33, 33],
        "radius": "80.0"
      },
      "properties": {
        "iconurl": "icons/flags_map/neutral/minimap_cp.png",
        "iconrotate": "0",
        "popupContent": "Amazing information about Camilla Creek 80m will be found here!"
      },
      "bf2props": {
        "name": "cpname_goose_green_aas16_camillacreek",
        "class": "ControlPoint",
        "name_object": "Camilla Creek 80m",
        "team": "0",
        "areavalue1": "50.0",
        "areavalue2": "0.0",
        "cpid": "40",
        "sgid": "62",
        "uncap": "false",
        "ttgc": "180.0",
        "ttlc": "180.0"
      }
    },
    {
      "type": "Feature",
      "geometry": {
        "type": "Point",
        "coordinates": [1661.894, -684.968],
        "size": [33, 33],
        "radius": "70.0"
      },
      "properties": {
        "iconurl": "icons/flags_map/neutral/minimap_cp.png",
        "iconrotate": "0",
        "popupContent": "Amazing information about Coronation Point 70m will be found here!"
      },
      "bf2props": {
        "name": "cpname_goose_green_aas16_coronationpoint",
        "class": "ControlPoint",
        "name_object": "Coronation Point 70m",
        "team": "0",
        "areavalue1": "0.0",
        "areavalue2": "0.0",
        "cpid": "39",
        "sgid": "50",
        "uncap": "false",
        "ttgc": "180.0",
        "ttlc": "180.0"
      }
    },
    {
      "type": "Feature",
      "geometry": {
        "type": "Point",
        "coordinates": [1962.0, -94.390015],
        "size": [33, 33],
        "radius": "100.0"
      },
      "properties": {
        "iconurl": "icons/flags_map/gb/minimap_cpbase.png",
        "iconrotate": "0",
        "popupContent": "Amazing information about 2 Para will be found here!"
      },
      "bf2props": {
        "name": "cpname_goose_green_aas16_2para",
        "class": "ControlPoint",
        "name_object": "2 Para",
        "team": "2",
        "areavalue1": "0.0",
        "areavalue2": "0.0",
        "cpid": "42",
        "sgid": "-999",
        "uncap": "true",
        "ttgc": "0.0",
        "ttlc": "0.0"
      }
    },
    {
      "type": "Feature",
      "geometry": {
        "type": "Point",
        "coordinates": [792.306, -1893.638],
        "size": [33, 33],
        "radius": "100.0"
      },
      "properties": {
        "iconurl": "icons/flags_map/arg82/minimap_cpbase.png",
        "iconrotate": "0",
        "popupContent": "Amazing information about Supply Center will be found here!"
      },
      "bf2props": {
        "name": "cpname_goose_green_aas16_supplycenter",
        "class": "ControlPoint",
        "name_object": "Supply Center",
        "team": "1",
        "areavalue1": "0.0",
        "areavalue2": "0.0",
        "cpid": "34",
        "sgid": "1",
        "uncap": "true",
        "ttgc": "180.0",
        "ttlc": "180.0"
      }
    },
    {
      "type": "Feature",
      "geometry": {
        "type": "Point",
        "coordinates": [1885.4619, -377.206],
        "size": [33, 33],
        "radius": "50.0"
      },
      "properties": {
        "iconurl": "icons/flags_map/neutral/minimap_cp.png",
        "iconrotate": "0",
        "popupContent": "Amazing information about Burnside House 50m will be found here!"
      },
      "bf2props": {
        "name": "cpname_goose_green_aas16_burnsidehouse",
        "class": "ControlPoint",
        "name_object": "Burnside House 50m",
        "team": "0",
        "areavalue1": "50.0",
        "areavalue2": "0.0",
        "cpid": "41",
        "sgid": "62",
        "uncap": "false",
        "ttgc": "180.0",
        "ttlc": "180.0"
      }
    },
    {
      "type": "Feature",
      "geometry": {
        "type": "Polygon",
        "coordinates": [
          [
            [0,0],
            [0,-2048],
            [2048,-2048],
            [2048,0]
          ],[
            [2045.5571, -1.8762207],
            [11.247681, -1.8757324],
            [2.000061, -2044.7489],
            [2046.0404, -2046.7374]
          ]
        ]
      },
      "bf2props": {
        "code": "combatarea_11_aas_16",
        "class": "CombatArea",
        "team": "0",
        "vehicles": "4",
        "layer": "8",
        "inverted": "false",
        "max": [0.0, 0.0],
        "min": [0.0, 0.0]
      }
    },
    {
      "type": "Feature",
      "geometry": {
        "type": "Polygon",
        "coordinates": [
          [
            [2052.8345, 3.7236328],
            [2058.8682, -209.65906],
            [1658.649, -206.91577],
            [1748.3575, -1.4645996]
          ]
        ]
      },
      "bf2props": {
        "code": "combatarea_12_aas_16",
        "class": "CombatArea",
        "team": "1",
        "vehicles": "4",
        "layer": "8",
        "inverted": "true",
        "max": [0.0, 0.0],
        "min": [0.0, 0.0]
      }
    },
    {
      "type": "Feature",
      "geometry": {
        "type": "Polygon",
        "coordinates": [
          [
            [464.4671, -2059.9177],
            [613.771, -1681.1198],
            [1049.9819, -1805.1528],
            [963.6607, -2057.2185]
          ]
        ]
      },
      "bf2props": {
        "code": "combatarea_13_aas_16",
        "class": "CombatArea",
        "team": "2",
        "vehicles": "4",
        "layer": "8",
        "inverted": "true",
        "max": [0.0, 0.0],
        "min": [0.0, 0.0]
      }
    }
  ]
}