{
  "team1":"arg82",
  "team2":"gb82",
  "team1tickets":"400",
  "team2tickets":"450",
  "mapsize":"2048",
  "viewdistance":"550",
  "combatareause":"true",
  "combatareadamage":"20.0",
  "combatareaallowoutside":"30.0",
  "routes": [
    [
      [
        "cpname_goose_green_skirmish16_darwinhills"
      ],
      [
        "cpname_goose_green_skirmish16_barn"
      ],
      [
        "cpname_goose_green_skirmish16_airfield"
      ],
      [
        "cpname_goose_green_skirmish16_goosegreen"
      ],
      [
        "cpname_goose_green_skirmish16_dropoff"
      ]
    ]
  ],
  "type": "FeatureCollection",
  "features": [
    {
      "type": "Feature",
      "geometry": {
        "type": "Point",
        "coordinates": [1682.25, -1946.296],
        "size": [16, 16]
      },
      "properties": {
        "iconurl": "icons/mini_map/icon_supply.png",
        "iconrotate": "0",
        "popupContent": "Amazing information about Permanent supply crate will be found here!"
      },
      "bf2props": {
        "name": "cpname_goose_green_skirmish16_dropoff_gb_crate_1",
        "class": "ObjectSpawner",
        "name_object": "Permanent supply crate | Permanent supply crate",
        "team": "2",
        "obj1": "fixed_supply_crate",
        "obj2": "fixed_supply_crate",
        "maxspawn": "0.0",
        "minspawn": "0.0",
        "spawndelay": "false",
        "ttl": "0.0",
        "cpid": "43"
      }
    },
    {
      "type": "Feature",
      "geometry": {
        "type": "Point",
        "coordinates": [1690.321, -1952.544],
        "size": [16, 16]
      },
      "properties": {
        "iconurl": "icons/mini_map/icon_supply.png",
        "iconrotate": "0",
        "popupContent": "Amazing information about Permanent supply crate will be found here!"
      },
      "bf2props": {
        "name": "cpname_goose_green_skirmish16_dropoff_gb_crate_2",
        "class": "ObjectSpawner",
        "name_object": "Permanent supply crate | Permanent supply crate",
        "team": "2",
        "obj1": "fixed_supply_crate",
        "obj2": "fixed_supply_crate",
        "maxspawn": "0.0",
        "minspawn": "0.0",
        "spawndelay": "false",
        "ttl": "0.0",
        "cpid": "43"
      }
    },
    {
      "type": "Feature",
      "geometry": {
        "type": "Point",
        "coordinates": [1705.171, -1936.2219],
        "size": [16, 16]
      },
      "properties": {
        "iconurl": "icons/vehicles_map/mini_shp_light.png",
        "iconrotate": "27.254",
        "popupContent": "Amazing information about null will be found here!"
      },
      "bf2props": {
        "name": "cpname_goose_green_skirmish16_dropoff_gb_boat_1",
        "class": "ObjectSpawner",
        "name_object": "RHIB",
        "team": "2",
        "obj1": "null",
        "obj2": "boat_rib_gpmg_c6",
        "maxspawn": "100.0",
        "minspawn": "100.0",
        "spawndelay": "false",
        "ttl": "0.0",
        "cpid": "43"
      }
    },
    {
      "type": "Feature",
      "geometry": {
        "type": "Point",
        "coordinates": [1700.123, -1935.1],
        "size": [16, 16]
      },
      "properties": {
        "iconurl": "icons/vehicles_map/mini_shp_light.png",
        "iconrotate": "32.886",
        "popupContent": "Amazing information about null will be found here!"
      },
      "bf2props": {
        "name": "cpname_goose_green_skirmish16_dropoff_gb_boat_2",
        "class": "ObjectSpawner",
        "name_object": "RHIB",
        "team": "2",
        "obj1": "null",
        "obj2": "boat_rib_gpmg_c6",
        "maxspawn": "100.0",
        "minspawn": "100.0",
        "spawndelay": "false",
        "ttl": "0.0",
        "cpid": "43"
      }
    },
    {
      "type": "Feature",
      "geometry": {
        "type": "Point",
        "coordinates": [1694.4819, -1933.46],
        "size": [16, 16]
      },
      "properties": {
        "iconurl": "icons/vehicles_map/mini_shp_light.png",
        "iconrotate": "32.599",
        "popupContent": "Amazing information about null will be found here!"
      },
      "bf2props": {
        "name": "cpname_goose_green_skirmish16_dropoff_gb_boat_3",
        "class": "ObjectSpawner",
        "name_object": "RHIB",
        "team": "2",
        "obj1": "null",
        "obj2": "boat_rib_gpmg_c6",
        "maxspawn": "100.0",
        "minspawn": "100.0",
        "spawndelay": "false",
        "ttl": "0.0",
        "cpid": "43"
      }
    },
    {
      "type": "Feature",
      "geometry": {
        "type": "Point",
        "coordinates": [1434.01, -877.836],
        "size": [16, 16]
      },
      "properties": {
        "iconurl": "icons/mini_map/icon_supply.png",
        "iconrotate": "0",
        "popupContent": "Amazing information about Permanent supply crate will be found here!"
      },
      "bf2props": {
        "name": "cpname_goose_green_skirmish16_darwinhills_arg_crate_1",
        "class": "ObjectSpawner",
        "name_object": "Permanent supply crate | Permanent supply crate",
        "team": "1",
        "obj1": "fixed_supply_crate",
        "obj2": "fixed_supply_crate",
        "maxspawn": "0.0",
        "minspawn": "0.0",
        "spawndelay": "false",
        "ttl": "0.0",
        "cpid": "401"
      }
    },
    {
      "type": "Feature",
      "geometry": {
        "type": "Point",
        "coordinates": [1421.516, -877.528],
        "size": [16, 16]
      },
      "properties": {
        "iconurl": "icons/mini_map/icon_supply.png",
        "iconrotate": "0",
        "popupContent": "Amazing information about Permanent supply crate will be found here!"
      },
      "bf2props": {
        "name": "cpname_goose_green_skirmish16_darwinhills_arg_crate_2",
        "class": "ObjectSpawner",
        "name_object": "Permanent supply crate | Permanent supply crate",
        "team": "1",
        "obj1": "fixed_supply_crate",
        "obj2": "fixed_supply_crate",
        "maxspawn": "0.0",
        "minspawn": "0.0",
        "spawndelay": "false",
        "ttl": "0.0",
        "cpid": "401"
      }
    },
    {
      "type": "Feature",
      "geometry": {
        "type": "Point",
        "coordinates": [1128.401, -1380.102],
        "size": [16, 16]
      },
      "properties": {
        "iconurl": "icons/mini_map/icon_supply.png",
        "iconrotate": "0",
        "popupContent": "Amazing information about Permanent supply crate will be found here!"
      },
      "bf2props": {
        "name": "cpname_goose_green_skirmish16_airfield_crate_1",
        "class": "ObjectSpawner",
        "name_object": "Permanent supply crate | Permanent supply crate",
        "team": "1",
        "obj1": "fixed_supply_crate",
        "obj2": "fixed_supply_crate",
        "maxspawn": "0.0",
        "minspawn": "0.0",
        "spawndelay": "false",
        "ttl": "0.0",
        "cpid": "45"
      }
    },
    {
      "type": "Feature",
      "geometry": {
        "type": "Point",
        "coordinates": [1125.712, -1377.137],
        "size": [16, 16]
      },
      "properties": {
        "iconurl": "icons/player_map/mini_squad.png",
        "iconrotate": "0",
        "popupContent": "Amazing information about Temporary spawnpoint will be found here!"
      },
      "bf2props": {
        "name": "cpname_goose_green_skirmish16_airfield_expiring_rallypoint",
        "class": "ObjectSpawner",
        "name_object": "Temporary spawnpoint",
        "team": "1",
        "obj1": "rallypoint_arg82_placeable",
        "obj2": "null",
        "maxspawn": "99999.0",
        "minspawn": "99999.0",
        "spawndelay": "false",
        "ttl": "200.0",
        "cpid": "45"
      }
    },
    {
      "type": "Feature",
      "geometry": {
        "type": "Point",
        "coordinates": [1301.65, -1503.191],
        "size": [16, 16]
      },
      "properties": {
        "iconurl": "icons/mini_map/icon_supply.png",
        "iconrotate": "0",
        "popupContent": "Amazing information about Permanent supply crate will be found here!"
      },
      "bf2props": {
        "name": "cpname_goose_green_skirmish16_goosegreen_crate_1",
        "class": "ObjectSpawner",
        "name_object": "Permanent supply crate | Permanent supply crate",
        "team": "0",
        "obj1": "fixed_supply_crate",
        "obj2": "fixed_supply_crate",
        "maxspawn": "0.0",
        "minspawn": "0.0",
        "spawndelay": "false",
        "ttl": "0.0",
        "cpid": "44"
      }
    },
    {
      "type": "Feature",
      "geometry": {
        "type": "Point",
        "coordinates": [1684.8821, -1948.436],
        "size": [33, 33],
        "radius": "50.0"
      },
      "properties": {
        "iconurl": "icons/flags_map/gb/minimap_cpbase.png",
        "iconrotate": "0",
        "popupContent": "Amazing information about Drop Off will be found here!"
      },
      "bf2props": {
        "name": "cpname_goose_green_skirmish16_dropoff",
        "class": "ControlPoint",
        "name_object": "Drop Off",
        "team": "2",
        "areavalue1": "0.0",
        "areavalue2": "0.0",
        "cpid": "43",
        "sgid": "-999",
        "uncap": "true",
        "ttgc": "0.0",
        "ttlc": "0.0"
      }
    },
    {
      "type": "Feature",
      "geometry": {
        "type": "Point",
        "coordinates": [1278.231, -1482.515],
        "size": [33, 33],
        "radius": "60.0"
      },
      "properties": {
        "iconurl": "icons/flags_map/neutral/minimap_cp.png",
        "iconrotate": "0",
        "popupContent": "Amazing information about Goose Green 60m will be found here!"
      },
      "bf2props": {
        "name": "cpname_goose_green_skirmish16_goosegreen",
        "class": "ControlPoint",
        "name_object": "Goose Green 60m",
        "team": "0",
        "areavalue1": "0.0",
        "areavalue2": "0.0",
        "cpid": "44",
        "sgid": "4",
        "uncap": "false",
        "ttgc": "180.0",
        "ttlc": "180.0"
      }
    },
    {
      "type": "Feature",
      "geometry": {
        "type": "Point",
        "coordinates": [1111.0859, -1375.757],
        "size": [33, 33],
        "radius": "60.0"
      },
      "properties": {
        "iconurl": "icons/flags_map/arg82/minimap_cp.png",
        "iconrotate": "0",
        "popupContent": "Amazing information about Airfield 60m will be found here!"
      },
      "bf2props": {
        "name": "cpname_goose_green_skirmish16_airfield",
        "class": "ControlPoint",
        "name_object": "Airfield 60m",
        "team": "1",
        "areavalue1": "0.0",
        "areavalue2": "0.0",
        "cpid": "45",
        "sgid": "3",
        "uncap": "false",
        "ttgc": "180.0",
        "ttlc": "180.0"
      }
    },
    {
      "type": "Feature",
      "geometry": {
        "type": "Point",
        "coordinates": [1283.95, -1081.134],
        "size": [33, 33],
        "radius": "50.0"
      },
      "properties": {
        "iconurl": "icons/flags_map/arg82/minimap_cp.png",
        "iconrotate": "0",
        "popupContent": "Amazing information about Barn 50m will be found here!"
      },
      "bf2props": {
        "name": "cpname_goose_green_skirmish16_barn",
        "class": "ControlPoint",
        "name_object": "Barn 50m",
        "team": "1",
        "areavalue1": "0.0",
        "areavalue2": "0.0",
        "cpid": "46",
        "sgid": "2",
        "uncap": "false",
        "ttgc": "180.0",
        "ttlc": "180.0"
      }
    },
    {
      "type": "Feature",
      "geometry": {
        "type": "Point",
        "coordinates": [1434.703, -889.23804],
        "size": [33, 33],
        "radius": "50.0"
      },
      "properties": {
        "iconurl": "icons/flags_map/arg82/minimap_cpbase.png",
        "iconrotate": "0",
        "popupContent": "Amazing information about Darwin Hills will be found here!"
      },
      "bf2props": {
        "name": "cpname_goose_green_skirmish16_darwinhills",
        "class": "ControlPoint",
        "name_object": "Darwin Hills",
        "team": "1",
        "areavalue1": "0.0",
        "areavalue2": "0.0",
        "cpid": "401",
        "sgid": "1",
        "uncap": "true",
        "ttgc": "180.0",
        "ttlc": "180.0"
      }
    },
    {
      "type": "Feature",
      "geometry": {
        "type": "Polygon",
        "coordinates": [
          [
            [1241.3553, -1602.2347],
            [1258.4254, -1586.0409],
            [1260.9082, -1571.1074],
            [1268.1155, -1552.6868],
            [1272.4001, -1543.8479],
            [1286.8306, -1543.9277],
            [1302.0852, -1556.8628],
            [1317.8556, -1569.1301],
            [1326.9431, -1587.1123],
            [1342.4966, -1590.7705],
            [1360.7897, -1581.739],
            [1381.2537, -1583.0355],
            [1394.6587, -1580.6794],
            [1405.1082, -1592.1676],
            [1416.1722, -1601.8472],
            [1430.3789, -1603.4445],
            [1440.6423, -1599.6659],
            [1445.4688, -1591.5773],
            [1441.5173, -1572.628],
            [1436.6807, -1560.5947],
            [1428.2173, -1550.7153],
            [1418.1289, -1543.6038],
            [1400.2517, -1527.2571],
            [1384.1648, -1511.6699],
            [1371.5945, -1500.998],
            [1339.9764, -1481.5056],
            [1353.7834, -1469.5415],
            [1305.2905, -1427.1288],
            [1317.3066, -1388.31],
            [1333.9413, -1368.1279],
            [1393.4338, -1418.84],
            [1844.8588, -1771.9773],
            [1803.3275, -2045.51],
            [1178.1917, -2043.9178],
            [1243.448, -1597.4563]
          ]
        ]
      },
      "bf2props": {
        "code": "combatarea_61_skirmish16",
        "class": "CombatArea",
        "team": "1",
        "vehicles": "4",
        "layer": "5",
        "inverted": "true",
        "max": [0.0, 0.0],
        "min": [0.0, 0.0]
      }
    },
    {
      "type": "Feature",
      "geometry": {
        "type": "Polygon",
        "coordinates": [
          [
            [1388.548, -712.8331],
            [1278.4039, -899.067],
            [1434.393, -1034.5383],
            [1540.7661, -1121.7969],
            [1668.218, -915.0303]
          ]
        ]
      },
      "bf2props": {
        "code": "combatarea_62_skirmish16",
        "class": "CombatArea",
        "team": "2",
        "vehicles": "4",
        "layer": "5",
        "inverted": "true",
        "max": [0.0, 0.0],
        "min": [0.0, 0.0]
      }
    },
    {
      "type": "Feature",
      "geometry": {
        "type": "Polygon",
        "coordinates": [
          [
            [0,0],
            [0,-2048],
            [2048,-2048],
            [2048,0]
          ],[
            [1395.8746, -746.9232],
            [1651.0942, -918.5919],
            [1500.3566, -1096.6094],
            [1498.0154, -1118.489],
            [1498.389, -1144.2268],
            [1484.986, -1161.6898],
            [1455.7438, -1172.2694],
            [1441.4368, -1166.7883],
            [1430.3679, -1190.492],
            [1419.109, -1260.0461],
            [1386.4513, -1309.7014],
            [1369.2798, -1317.1282],
            [1321.5828, -1383.3655],
            [1672.0623, -1643.0757],
            [1837.9668, -1771.7452],
            [1799.8823, -2039.2665],
            [1578.7074, -2020.0176],
            [1383.2927, -1796.6704],
            [1383.0612, -1778.145],
            [1340.2693, -1734.6659],
            [1293.1191, -1678.2428],
            [1148.1686, -1572.2759],
            [977.2617, -1471.103],
            [956.9228, -1303.2468],
            [1151.9396, -959.9243],
            [1272.258, -921.61523],
            [1397.5416, -745.567],
            [1397.5085, -749.44556],
            [1398.1985, -749.02966]
          ]
        ]
      },
      "bf2props": {
        "code": "combatarea_63_skirmish16",
        "class": "CombatArea",
        "team": "0",
        "vehicles": "4",
        "layer": "5",
        "inverted": "false",
        "max": [0.0, 0.0],
        "min": [0.0, 0.0]
      }
    }
  ]
}