{
  "team1":"arg82",
  "team2":"gb82",
  "team1tickets":"125",
  "team2tickets":"100",
  "mapsize":"8192",
  "viewdistance":"3000",
  "combatareause":"true",
  "combatareadamage":"0.0",
  "combatareaallowoutside":"10.0",
  "routes": [
    [
      [
        "cpname_the_falklands_skirmish32_ara_cabo_san_antonio"
      ],
      [
        "cpname_the_falklands_skirmish32_airport"
      ],
      [
        "cpname_the_falklands_skirmish32_west_stanley",
        "cpname_the_falklands_skirmish32_east_stanley"
      ],
      [
        "cpname_the_falklands_skirmish32_government_house"
      ]
    ]
  ],
  "type": "FeatureCollection",
  "features": [
    {
      "type": "Feature",
      "geometry": {
        "type": "Point",
        "coordinates": [7896.066, -4435.118],
        "size": [16, 16]
      },
      "properties": {
        "iconurl": "icons/vehicles_map/mini_apc_medium_aavp7.png",
        "iconrotate": "-81.498",
        "popupContent": "Amazing information about LVTP-7 will be found here!"
      },
      "bf2props": {
        "name": "cpname_the_falklands_skirmish32_ara_cabo_san_antonio_aav",
        "class": "ObjectSpawner",
        "name_object": "LVTP-7",
        "team": "1",
        "obj1": "arg_apc_lvtp7",
        "obj2": "null",
        "maxspawn": "600.0",
        "minspawn": "600.0",
        "spawndelay": "false",
        "ttl": "1200.0",
        "cpid": "806"
      }
    },
    {
      "type": "Feature",
      "geometry": {
        "type": "Point",
        "coordinates": [7907.3877, -4437.168],
        "size": [16, 16]
      },
      "properties": {
        "iconurl": "icons/vehicles_map/mini_apc_medium_aavp7.png",
        "iconrotate": "-82.809",
        "popupContent": "Amazing information about LVTP-7 will be found here!"
      },
      "bf2props": {
        "name": "cpname_the_falklands_skirmish32_ara_cabo_san_antonio_aav_0",
        "class": "ObjectSpawner",
        "name_object": "LVTP-7",
        "team": "1",
        "obj1": "arg_apc_lvtp7",
        "obj2": "null",
        "maxspawn": "600.0",
        "minspawn": "600.0",
        "spawndelay": "false",
        "ttl": "1200.0",
        "cpid": "806"
      }
    },
    {
      "type": "Feature",
      "geometry": {
        "type": "Point",
        "coordinates": [7955.6816, -4448.589],
        "size": [16, 16]
      },
      "properties": {
        "iconurl": "icons/vehicles_map/mini_shp_light.png",
        "iconrotate": "-102.981",
        "popupContent": "Amazing information about RHIB will be found here!"
      },
      "bf2props": {
        "name": "cpname_the_falklands_skirmish32_ara_cabo_san_antonio_arg_boat",
        "class": "ObjectSpawner",
        "name_object": "RHIB",
        "team": "1",
        "obj1": "boat_rib_gpmg_c6",
        "obj2": "null",
        "maxspawn": "120.0",
        "minspawn": "120.0",
        "spawndelay": "false",
        "maxnr": "3",
        "ttl": "0.0",
        "cpid": "806"
      }
    },
    {
      "type": "Feature",
      "geometry": {
        "type": "Point",
        "coordinates": [7942.6357, -4446.535],
        "size": [16, 16]
      },
      "properties": {
        "iconurl": "icons/vehicles_map/mini_shp_light.png",
        "iconrotate": "-93.198",
        "popupContent": "Amazing information about RHIB will be found here!"
      },
      "bf2props": {
        "name": "cpname_the_falklands_skirmish32_ara_cabo_san_antonio_arg_boat_0",
        "class": "ObjectSpawner",
        "name_object": "RHIB",
        "team": "1",
        "obj1": "boat_rib_gpmg_c6",
        "obj2": "null",
        "maxspawn": "120.0",
        "minspawn": "120.0",
        "spawndelay": "false",
        "maxnr": "3",
        "ttl": "0.0",
        "cpid": "806"
      }
    },
    {
      "type": "Feature",
      "geometry": {
        "type": "Point",
        "coordinates": [7891.249, -4425.279],
        "size": [16, 16]
      },
      "properties": {
        "iconurl": "icons/mini_map/icon_supply.png",
        "iconrotate": "0",
        "popupContent": "Amazing information about Permanent supply crate will be found here!"
      },
      "bf2props": {
        "name": "cpname_the_falklands_skirmish32_ara_cabo_san_antonio_supplycrate",
        "class": "ObjectSpawner",
        "name_object": "Permanent supply crate",
        "team": "1",
        "obj1": "fixed_supply_crate",
        "obj2": "null",
        "maxspawn": "0.0",
        "minspawn": "0.0",
        "spawndelay": "false",
        "ttl": "0.0",
        "cpid": "806"
      }
    },
    {
      "type": "Feature",
      "geometry": {
        "type": "Point",
        "coordinates": [7895.159, -4409.584],
        "size": [16, 16]
      },
      "properties": {
        "iconurl": "icons/mini_map/icon_supply.png",
        "iconrotate": "0",
        "popupContent": "Amazing information about Permanent supply crate will be found here!"
      },
      "bf2props": {
        "name": "cpname_the_falklands_skirmish32_ara_cabo_san_antonio_supplycrate_0",
        "class": "ObjectSpawner",
        "name_object": "Permanent supply crate",
        "team": "1",
        "obj1": "fixed_supply_crate",
        "obj2": "null",
        "maxspawn": "0.0",
        "minspawn": "0.0",
        "spawndelay": "false",
        "ttl": "0.0",
        "cpid": "806"
      }
    },
    {
      "type": "Feature",
      "geometry": {
        "type": "Point",
        "coordinates": [7958.481, -4424.535],
        "size": [16, 16]
      },
      "properties": {
        "iconurl": "icons/mini_map/icon_supply.png",
        "iconrotate": "0",
        "popupContent": "Amazing information about Permanent supply crate will be found here!"
      },
      "bf2props": {
        "name": "cpname_the_falklands_skirmish32_ara_cabo_san_antonio_supplycrate_1",
        "class": "ObjectSpawner",
        "name_object": "Permanent supply crate",
        "team": "1",
        "obj1": "fixed_supply_crate",
        "obj2": "null",
        "maxspawn": "0.0",
        "minspawn": "0.0",
        "spawndelay": "false",
        "ttl": "0.0",
        "cpid": "806"
      }
    },
    {
      "type": "Feature",
      "geometry": {
        "type": "Point",
        "coordinates": [7960.375, -4424.676],
        "size": [16, 16]
      },
      "properties": {
        "iconurl": "icons/mini_map/icon_supply.png",
        "iconrotate": "0",
        "popupContent": "Amazing information about Permanent supply crate will be found here!"
      },
      "bf2props": {
        "name": "cpname_the_falklands_skirmish32_ara_cabo_san_antonio_supplycrate_2",
        "class": "ObjectSpawner",
        "name_object": "Permanent supply crate",
        "team": "1",
        "obj1": "fixed_supply_crate",
        "obj2": "null",
        "maxspawn": "0.0",
        "minspawn": "0.0",
        "spawndelay": "false",
        "ttl": "0.0",
        "cpid": "806"
      }
    },
    {
      "type": "Feature",
      "geometry": {
        "type": "Point",
        "coordinates": [7612.253, -3815.621],
        "size": [16, 16]
      },
      "properties": {
        "iconurl": "icons/mini_map/icon_supply.png",
        "iconrotate": "0",
        "popupContent": "Amazing information about null will be found here!"
      },
      "bf2props": {
        "name": "cpname_the_falklands_skirmish32_government_house_gb_supply_crate",
        "class": "ObjectSpawner",
        "name_object": "Permanent supply crate",
        "team": "2",
        "obj1": "null",
        "obj2": "fixed_supply_crate",
        "maxspawn": "120.0",
        "minspawn": "120.0",
        "spawndelay": "true",
        "ttl": "0.0",
        "cpid": "801"
      }
    },
    {
      "type": "Feature",
      "geometry": {
        "type": "Point",
        "coordinates": [7637.205, -3817.175],
        "size": [16, 16]
      },
      "properties": {
        "iconurl": "icons/mini_map/icon_supply.png",
        "iconrotate": "0",
        "popupContent": "Amazing information about null will be found here!"
      },
      "bf2props": {
        "name": "cpname_the_falklands_skirmish32_government_house_supplycrate",
        "class": "ObjectSpawner",
        "name_object": "Permanent supply crate",
        "team": "2",
        "obj1": "null",
        "obj2": "fixed_supply_crate",
        "maxspawn": "160.0",
        "minspawn": "160.0",
        "spawndelay": "true",
        "ttl": "0.0",
        "cpid": "801"
      }
    },
    {
      "type": "Feature",
      "geometry": {
        "type": "Point",
        "coordinates": [7605.499, -3828.772],
        "size": [16, 16]
      },
      "properties": {
        "iconurl": "icons/mini_map/icon_supply.png",
        "iconrotate": "0",
        "popupContent": "Amazing information about null will be found here!"
      },
      "bf2props": {
        "name": "cpname_the_falklands_skirmish32_government_house_supplycrate_0",
        "class": "ObjectSpawner",
        "name_object": "Permanent supply crate",
        "team": "2",
        "obj1": "null",
        "obj2": "fixed_supply_crate",
        "maxspawn": "160.0",
        "minspawn": "160.0",
        "spawndelay": "true",
        "ttl": "0.0",
        "cpid": "801"
      }
    },
    {
      "type": "Feature",
      "geometry": {
        "type": "Point",
        "coordinates": [7636.1562, -3837.233],
        "size": [16, 16]
      },
      "properties": {
        "iconurl": "icons/mini_map/icon_supply.png",
        "iconrotate": "0",
        "popupContent": "Amazing information about null will be found here!"
      },
      "bf2props": {
        "name": "cpname_the_falklands_skirmish32_government_house_supplycrate_1",
        "class": "ObjectSpawner",
        "name_object": "Permanent supply crate",
        "team": "2",
        "obj1": "null",
        "obj2": "fixed_supply_crate",
        "maxspawn": "160.0",
        "minspawn": "160.0",
        "spawndelay": "true",
        "ttl": "0.0",
        "cpid": "801"
      }
    },
    {
      "type": "Feature",
      "geometry": {
        "type": "Point",
        "coordinates": [7580.539, -3822.793],
        "size": [16, 16]
      },
      "properties": {
        "iconurl": "icons/mini_map/icon_supply.png",
        "iconrotate": "0",
        "popupContent": "Amazing information about null will be found here!"
      },
      "bf2props": {
        "name": "cpname_the_falklands_skirmish32_government_house_supplycrate_2",
        "class": "ObjectSpawner",
        "name_object": "Permanent supply crate",
        "team": "2",
        "obj1": "null",
        "obj2": "fixed_supply_crate",
        "maxspawn": "160.0",
        "minspawn": "160.0",
        "spawndelay": "true",
        "ttl": "0.0",
        "cpid": "802"
      }
    },
    {
      "type": "Feature",
      "geometry": {
        "type": "Point",
        "coordinates": [7618.883, -3854.926],
        "size": [16, 16]
      },
      "properties": {
        "iconurl": "icons/mini_map/icon_supply.png",
        "iconrotate": "0",
        "popupContent": "Amazing information about null will be found here!"
      },
      "bf2props": {
        "name": "cpname_the_falklands_skirmish32_government_house_supplycrate_3",
        "class": "ObjectSpawner",
        "name_object": "Permanent supply crate",
        "team": "2",
        "obj1": "null",
        "obj2": "fixed_supply_crate",
        "maxspawn": "160.0",
        "minspawn": "160.0",
        "spawndelay": "true",
        "ttl": "0.0",
        "cpid": "801"
      }
    },
    {
      "type": "Feature",
      "geometry": {
        "type": "Point",
        "coordinates": [7968.401, -4451.652],
        "size": [16, 16]
      },
      "properties": {
        "iconurl": "icons/vehicles_map/mini_shp_light.png",
        "iconrotate": "-98.401",
        "popupContent": "Amazing information about RHIB will be found here!"
      },
      "bf2props": {
        "name": "cpname_the_falklands_skirmish32_ara_cabo_san_antonio_arg_boat_1",
        "class": "ObjectSpawner",
        "name_object": "RHIB",
        "team": "1",
        "obj1": "boat_rib_gpmg_c6",
        "obj2": "null",
        "maxspawn": "120.0",
        "minspawn": "120.0",
        "spawndelay": "false",
        "maxnr": "3",
        "ttl": "0.0",
        "cpid": "806"
      }
    },
    {
      "type": "Feature",
      "geometry": {
        "type": "Point",
        "coordinates": [7620.116, -3807.008],
        "size": [33, 33],
        "radius": "8.0"
      },
      "properties": {
        "iconurl": "icons/flags_map/gb/minimap_cp.png",
        "iconrotate": "0",
        "popupContent": "Amazing information about Government House will be found here!"
      },
      "bf2props": {
        "name": "cpname_the_falklands_skirmish32_government_house",
        "class": "ControlPoint",
        "name_object": "Government House",
        "team": "2",
        "areavalue1": "1000.0",
        "areavalue2": "25.0",
        "cpid": "801",
        "sgid": "40",
        "uncap": "false",
        "ttgc": "90.0",
        "ttlc": "60.0"
      }
    },
    {
      "type": "Feature",
      "geometry": {
        "type": "Point",
        "coordinates": [7575.878, -3832.78],
        "size": [33, 33],
        "radius": "35.0"
      },
      "properties": {
        "iconurl": "icons/flags_map/gb/minimap_cp.png",
        "iconrotate": "0",
        "popupContent": "Amazing information about West Stanley 35m will be found here!"
      },
      "bf2props": {
        "name": "cpname_the_falklands_skirmish32_west_stanley",
        "class": "ControlPoint",
        "name_object": "West Stanley 35m",
        "team": "2",
        "areavalue1": "25.0",
        "areavalue2": "25.0",
        "cpid": "802",
        "sgid": "30",
        "uncap": "false",
        "ttgc": "60.0",
        "ttlc": "90.0"
      }
    },
    {
      "type": "Feature",
      "geometry": {
        "type": "Point",
        "coordinates": [7693.748, -3835.07],
        "size": [33, 33],
        "radius": "40.0"
      },
      "properties": {
        "iconurl": "icons/flags_map/gb/minimap_cp.png",
        "iconrotate": "0",
        "popupContent": "Amazing information about East Stanley 40m will be found here!"
      },
      "bf2props": {
        "name": "cpname_the_falklands_skirmish32_east_stanley",
        "class": "ControlPoint",
        "name_object": "East Stanley 40m",
        "team": "2",
        "areavalue1": "25.0",
        "areavalue2": "25.0",
        "cpid": "803",
        "sgid": "30",
        "uncap": "false",
        "ttgc": "60.0",
        "ttlc": "90.0"
      }
    },
    {
      "type": "Feature",
      "geometry": {
        "type": "Point",
        "coordinates": [7825.915, -3764.0361],
        "size": [33, 33],
        "radius": "40.0"
      },
      "properties": {
        "iconurl": "icons/flags_map/neutral/minimap_cp.png",
        "iconrotate": "0",
        "popupContent": "Amazing information about Stanley Airport 40m will be found here!"
      },
      "bf2props": {
        "name": "cpname_the_falklands_skirmish32_airport",
        "class": "ControlPoint",
        "name_object": "Stanley Airport 40m",
        "team": "0",
        "areavalue1": "50.0",
        "areavalue2": "25.0",
        "cpid": "804",
        "sgid": "20",
        "uncap": "false",
        "ttgc": "90.0",
        "ttlc": "120.0"
      }
    },
    {
      "type": "Feature",
      "geometry": {
        "type": "Point",
        "coordinates": [8020.192, -4433.234],
        "size": [33, 33],
        "radius": "0.0"
      },
      "properties": {
        "iconurl": "icons/flags_map/arg82/minimap_cpbase.png",
        "iconrotate": "0",
        "popupContent": "Amazing information about ARA Cabo San Antonio will be found here!"
      },
      "bf2props": {
        "name": "cpname_the_falklands_skirmish32_ara_cabo_san_antonio",
        "class": "ControlPoint",
        "name_object": "ARA Cabo San Antonio",
        "team": "1",
        "areavalue1": "0.0",
        "areavalue2": "0.0",
        "cpid": "806",
        "sgid": "1",
        "uncap": "true",
        "ttgc": "0.0",
        "ttlc": "0.0"
      }
    },
    {
      "type": "Feature",
      "geometry": {
        "type": "Polygon",
        "coordinates": [
          [
            [0,0],
            [0,-8192],
            [8192,-8192],
            [8192,0]
          ],[
            [7386.0146, -3392.0586],
            [7469.673, -3398.915],
            [7614.1304, -3429.4033],
            [7764.5684, -3475.083],
            [7855.291, -3509.9385],
            [7982.385, -3589.0796],
            [8074.8516, -3661.5503],
            [8100.3477, -3692.3413],
            [8114.323, -3724.7168],
            [8124.8926, -3830.6094],
            [8107.417, -4490.5054],
            [8090.1006, -4519.7314],
            [8060.421, -4538.3047],
            [8008.0396, -4544.9336],
            [7848.581, -4516.2236],
            [7616.279, -4385.0137],
            [7522.751, -4291.143],
            [7437.5645, -4169.167],
            [7381.538, -4032.978],
            [7329.9893, -3845.1313],
            [7311.8228, -3716.455],
            [7298.012, -3485.8428],
            [7301.185, -3456.2344],
            [7311.482, -3429.3564],
            [7326.2, -3411.2622],
            [7354.339, -3399.526]
          ]
        ]
      },
      "bf2props": {
        "code": "combatarea_25_skirmish_32",
        "class": "CombatArea",
        "team": "0",
        "vehicles": "4",
        "layer": "9",
        "inverted": "false",
        "max": [0.0, 0.0],
        "min": [0.0, 0.0]
      }
    }
  ]
}