{
  "team1":"arg82",
  "team2":"gb82",
  "team1tickets":"100",
  "team2tickets":"40",
  "mapsize":"8192",
  "viewdistance":"3000",
  "combatareause":"true",
  "combatareadamage":"0.0",
  "combatareaallowoutside":"10.0",
  "routes": [
  ],
  "type": "FeatureCollection",
  "features": [
    {
      "type": "Feature",
      "geometry": {
        "type": "Point",
        "coordinates": [6496.782, -658.0029],
        "size": [64, 64]
      },
      "properties": {
        "iconurl": "icons/vehicles_map/mini_shp_ssac.png",
        "iconrotate": "75.0",
        "popupContent": "Amazing information about null will be found here!"
      },
      "bf2props": {
        "name": "cpname_the_falklands_skirmish16_atlantic_conveyor_ship",
        "class": "ObjectSpawner",
        "name_object": "SS Atlantic Conveyor",
        "team": "2",
        "obj1": "null",
        "obj2": "cargoship_atlantic_conveyor_skirmish16",
        "maxspawn": "0.0",
        "minspawn": "0.0",
        "spawndelay": "false",
        "ttl": "0.0",
        "cpid": "701"
      }
    },
    {
      "type": "Feature",
      "geometry": {
        "type": "Point",
        "coordinates": [6473.359, -646.708],
        "size": [16, 16]
      },
      "properties": {
        "iconurl": "icons/vehicles_map/mini_the_medium.png",
        "iconrotate": "-105.0",
        "popupContent": "Amazing information about null will be found here!"
      },
      "bf2props": {
        "name": "cpname_the_falklands_skirmish16_atlantic_conveyor_gb_heli_trans",
        "class": "ObjectSpawner",
        "name_object": "Wessex HU.5",
        "team": "2",
        "obj1": "null",
        "obj2": "gb_the_wessex",
        "maxspawn": "600.0",
        "minspawn": "600.0",
        "spawndelay": "false",
        "ttl": "1200.0",
        "cpid": "701"
      }
    },
    {
      "type": "Feature",
      "geometry": {
        "type": "Point",
        "coordinates": [6458.9062, -668.2781],
        "size": [16, 16]
      },
      "properties": {
        "iconurl": "icons/vehicles_map/mini_shp_light.png",
        "iconrotate": "-121.302",
        "popupContent": "Amazing information about null will be found here!"
      },
      "bf2props": {
        "name": "cpname_the_falklands_skirmish16_atlantic_conveyor_gb_boat",
        "class": "ObjectSpawner",
        "name_object": "RHIB",
        "team": "2",
        "obj1": "null",
        "obj2": "boat_rib_gpmg_l7a2",
        "maxspawn": "120.0",
        "minspawn": "120.0",
        "spawndelay": "false",
        "maxnr": "3",
        "ttl": "120.0",
        "cpid": "701"
      }
    },
    {
      "type": "Feature",
      "geometry": {
        "type": "Point",
        "coordinates": [6472.126, -665.3279],
        "size": [16, 16]
      },
      "properties": {
        "iconurl": "icons/vehicles_map/mini_shp_light.png",
        "iconrotate": "-129.244",
        "popupContent": "Amazing information about null will be found here!"
      },
      "bf2props": {
        "name": "cpname_the_falklands_skirmish16_atlantic_conveyor_boat",
        "class": "ObjectSpawner",
        "name_object": "RHIB",
        "team": "2",
        "obj1": "null",
        "obj2": "boat_rib_gpmg_l7a2",
        "maxspawn": "120.0",
        "minspawn": "120.0",
        "spawndelay": "false",
        "maxnr": "3",
        "ttl": "120.0",
        "cpid": "701"
      }
    },
    {
      "type": "Feature",
      "geometry": {
        "type": "Point",
        "coordinates": [6484.169, -661.9619],
        "size": [16, 16]
      },
      "properties": {
        "iconurl": "icons/vehicles_map/mini_shp_light.png",
        "iconrotate": "-127.769",
        "popupContent": "Amazing information about null will be found here!"
      },
      "bf2props": {
        "name": "cpname_the_falklands_skirmish16_atlantic_conveyor_boat_0",
        "class": "ObjectSpawner",
        "name_object": "RHIB",
        "team": "2",
        "obj1": "null",
        "obj2": "boat_rib_gpmg_l7a2",
        "maxspawn": "120.0",
        "minspawn": "120.0",
        "spawndelay": "false",
        "maxnr": "3",
        "ttl": "120.0",
        "cpid": "701"
      }
    },
    {
      "type": "Feature",
      "geometry": {
        "type": "Point",
        "coordinates": [4141.508, -2471.76],
        "size": [16, 16]
      },
      "properties": {
        "iconurl": "icons/mini_map/icon_supply.png",
        "iconrotate": "0",
        "popupContent": "Amazing information about Permanent supply crate will be found here!"
      },
      "bf2props": {
        "name": "cpname_the_falklands_skirmish16_pebble_island_supplycrate_2",
        "class": "ObjectSpawner",
        "name_object": "Permanent supply crate",
        "team": "1",
        "obj1": "fixed_supply_crate",
        "obj2": "null",
        "maxspawn": "0.0",
        "minspawn": "0.0",
        "spawndelay": "false",
        "ttl": "0.0",
        "cpid": "702"
      }
    },
    {
      "type": "Feature",
      "geometry": {
        "type": "Point",
        "coordinates": [4053.902, -2533.9238],
        "size": [16, 16]
      },
      "properties": {
        "iconurl": "icons/mini_map/icon_supply.png",
        "iconrotate": "0",
        "popupContent": "Amazing information about Permanent supply crate will be found here!"
      },
      "bf2props": {
        "name": "cpname_the_falklands_skirmish16_pebble_island_supplycrate",
        "class": "ObjectSpawner",
        "name_object": "Permanent supply crate",
        "team": "1",
        "obj1": "fixed_supply_crate",
        "obj2": "null",
        "maxspawn": "0.0",
        "minspawn": "0.0",
        "spawndelay": "false",
        "ttl": "0.0",
        "cpid": "702"
      }
    },
    {
      "type": "Feature",
      "geometry": {
        "type": "Point",
        "coordinates": [4139.992, -2528.5972],
        "size": [16, 16]
      },
      "properties": {
        "iconurl": "icons/mini_map/icon_supply.png",
        "iconrotate": "0",
        "popupContent": "Amazing information about Permanent supply crate will be found here!"
      },
      "bf2props": {
        "name": "cpname_the_falklands_skirmish16_pebble_island_supplycrate_0",
        "class": "ObjectSpawner",
        "name_object": "Permanent supply crate",
        "team": "1",
        "obj1": "fixed_supply_crate",
        "obj2": "null",
        "maxspawn": "0.0",
        "minspawn": "0.0",
        "spawndelay": "false",
        "ttl": "0.0",
        "cpid": "702"
      }
    },
    {
      "type": "Feature",
      "geometry": {
        "type": "Point",
        "coordinates": [4155.613, -2479.267],
        "size": [16, 16]
      },
      "properties": {
        "iconurl": "icons/vehicles_map/mini_jet_plane.png",
        "iconrotate": "-132.129",
        "popupContent": "Amazing information about arg_jet_a1h_objective will be found here!"
      },
      "bf2props": {
        "name": "cpname_the_falklands_skirmish16_pebble_island_pucara_0",
        "class": "ObjectSpawner",
        "name_object": "arg_jet_a1h_objective",
        "team": "1",
        "obj1": "arg_jet_a1h_objective",
        "obj2": "null",
        "maxspawn": "99999.0",
        "minspawn": "99999.0",
        "spawndelay": "false",
        "ttl": "99999.0",
        "cpid": "702"
      }
    },
    {
      "type": "Feature",
      "geometry": {
        "type": "Point",
        "coordinates": [4137.204, -2515.146],
        "size": [16, 16]
      },
      "properties": {
        "iconurl": "icons/vehicles_map/mini_jet_plane.png",
        "iconrotate": "-11.535",
        "popupContent": "Amazing information about arg_jet_a1h_objective will be found here!"
      },
      "bf2props": {
        "name": "cpname_the_falklands_skirmish16_pebble_island_pucara_1",
        "class": "ObjectSpawner",
        "name_object": "arg_jet_a1h_objective",
        "team": "1",
        "obj1": "arg_jet_a1h_objective",
        "obj2": "null",
        "maxspawn": "99999.0",
        "minspawn": "99999.0",
        "spawndelay": "false",
        "ttl": "99999.0",
        "cpid": "702"
      }
    },
    {
      "type": "Feature",
      "geometry": {
        "type": "Point",
        "coordinates": [4120.168, -2527.439],
        "size": [16, 16]
      },
      "properties": {
        "iconurl": "icons/vehicles_map/mini_jet_plane.png",
        "iconrotate": "-42.129",
        "popupContent": "Amazing information about arg_jet_a1h_objective will be found here!"
      },
      "bf2props": {
        "name": "cpname_the_falklands_skirmish16_pebble_island_pucara_2",
        "class": "ObjectSpawner",
        "name_object": "arg_jet_a1h_objective",
        "team": "1",
        "obj1": "arg_jet_a1h_objective",
        "obj2": "null",
        "maxspawn": "99999.0",
        "minspawn": "99999.0",
        "spawndelay": "false",
        "ttl": "99999.0",
        "cpid": "702"
      }
    },
    {
      "type": "Feature",
      "geometry": {
        "type": "Point",
        "coordinates": [3998.412, -2530.6602],
        "size": [16, 16]
      },
      "properties": {
        "iconurl": "icons/vehicles_map/mini_jet_plane.png",
        "iconrotate": "5.239",
        "popupContent": "Amazing information about arg_jet_a1h_objective will be found here!"
      },
      "bf2props": {
        "name": "cpname_the_falklands_skirmish16_pebble_island_pucara_3",
        "class": "ObjectSpawner",
        "name_object": "arg_jet_a1h_objective",
        "team": "1",
        "obj1": "arg_jet_a1h_objective",
        "obj2": "null",
        "maxspawn": "99999.0",
        "minspawn": "99999.0",
        "spawndelay": "false",
        "ttl": "99999.0",
        "cpid": "702"
      }
    },
    {
      "type": "Feature",
      "geometry": {
        "type": "Point",
        "coordinates": [4081.623, -2547.001],
        "size": [16, 16]
      },
      "properties": {
        "iconurl": "icons/vehicles_map/mini_jet_plane.png",
        "iconrotate": "-0.389",
        "popupContent": "Amazing information about arg_jet_a1h_objective will be found here!"
      },
      "bf2props": {
        "name": "cpname_the_falklands_skirmish16_pebble_island_pucara_4",
        "class": "ObjectSpawner",
        "name_object": "arg_jet_a1h_objective",
        "team": "1",
        "obj1": "arg_jet_a1h_objective",
        "obj2": "null",
        "maxspawn": "99999.0",
        "minspawn": "99999.0",
        "spawndelay": "false",
        "ttl": "99999.0",
        "cpid": "702"
      }
    },
    {
      "type": "Feature",
      "geometry": {
        "type": "Point",
        "coordinates": [4065.285, -2530.018],
        "size": [16, 16]
      },
      "properties": {
        "iconurl": "icons/vehicles_map/mini_jet_plane.png",
        "iconrotate": "92.016",
        "popupContent": "Amazing information about arg_jet_a1h_objective will be found here!"
      },
      "bf2props": {
        "name": "cpname_the_falklands_skirmish16_pebble_island_pucara_5",
        "class": "ObjectSpawner",
        "name_object": "arg_jet_a1h_objective",
        "team": "1",
        "obj1": "arg_jet_a1h_objective",
        "obj2": "null",
        "maxspawn": "99999.0",
        "minspawn": "99999.0",
        "spawndelay": "false",
        "ttl": "99999.0",
        "cpid": "702"
      }
    },
    {
      "type": "Feature",
      "geometry": {
        "type": "Point",
        "coordinates": [4018.384, -2529.227],
        "size": [16, 16]
      },
      "properties": {
        "iconurl": "icons/vehicles_map/mini_jet_plane.png",
        "iconrotate": "-1.647",
        "popupContent": "Amazing information about arg_jet_a1h_objective will be found here!"
      },
      "bf2props": {
        "name": "cpname_the_falklands_skirmish16_pebble_island_pucara_6",
        "class": "ObjectSpawner",
        "name_object": "arg_jet_a1h_objective",
        "team": "1",
        "obj1": "arg_jet_a1h_objective",
        "obj2": "null",
        "maxspawn": "99999.0",
        "minspawn": "99999.0",
        "spawndelay": "false",
        "ttl": "99999.0",
        "cpid": "702"
      }
    },
    {
      "type": "Feature",
      "geometry": {
        "type": "Point",
        "coordinates": [4130.853, -2483.9438],
        "size": [16, 16]
      },
      "properties": {
        "iconurl": "icons/vehicles_map/mini_jet_plane.png",
        "iconrotate": "137.871",
        "popupContent": "Amazing information about arg_jet_a1h_objective will be found here!"
      },
      "bf2props": {
        "name": "cpname_the_falklands_skirmish16_pebble_island_pucara_7",
        "class": "ObjectSpawner",
        "name_object": "arg_jet_a1h_objective",
        "team": "1",
        "obj1": "arg_jet_a1h_objective",
        "obj2": "null",
        "maxspawn": "99999.0",
        "minspawn": "99999.0",
        "spawndelay": "false",
        "ttl": "99999.0",
        "cpid": "702"
      }
    },
    {
      "type": "Feature",
      "geometry": {
        "type": "Point",
        "coordinates": [4106.222, -2457.6602],
        "size": [16, 16]
      },
      "properties": {
        "iconurl": "icons/vehicles_map/mini_jet_plane.png",
        "iconrotate": "-80.15",
        "popupContent": "Amazing information about arg_jet_a1h_objective will be found here!"
      },
      "bf2props": {
        "name": "cpname_the_falklands_skirmish16_pebble_island_pucara_8",
        "class": "ObjectSpawner",
        "name_object": "arg_jet_a1h_objective",
        "team": "1",
        "obj1": "arg_jet_a1h_objective",
        "obj2": "null",
        "maxspawn": "99999.0",
        "minspawn": "99999.0",
        "spawndelay": "false",
        "ttl": "99999.0",
        "cpid": "702"
      }
    },
    {
      "type": "Feature",
      "geometry": {
        "type": "Point",
        "coordinates": [4074.709, -2462.991],
        "size": [16, 16]
      },
      "properties": {
        "iconurl": "icons/vehicles_map/mini_jet_plane.png",
        "iconrotate": "118.052",
        "popupContent": "Amazing information about arg_jet_a1h_objective will be found here!"
      },
      "bf2props": {
        "name": "cpname_the_falklands_skirmish16_pebble_island_pucara_9",
        "class": "ObjectSpawner",
        "name_object": "arg_jet_a1h_objective",
        "team": "1",
        "obj1": "arg_jet_a1h_objective",
        "obj2": "null",
        "maxspawn": "99999.0",
        "minspawn": "99999.0",
        "spawndelay": "false",
        "ttl": "99999.0",
        "cpid": "702"
      }
    },
    {
      "type": "Feature",
      "geometry": {
        "type": "Point",
        "coordinates": [4045.351, -2491.335],
        "size": [16, 16]
      },
      "properties": {
        "iconurl": "icons/vehicles_map/mini_jet_plane.png",
        "iconrotate": "156.18",
        "popupContent": "Amazing information about arg_jet_a1h_objective will be found here!"
      },
      "bf2props": {
        "name": "cpname_the_falklands_skirmish16_pebble_island_pucara_10",
        "class": "ObjectSpawner",
        "name_object": "arg_jet_a1h_objective",
        "team": "1",
        "obj1": "arg_jet_a1h_objective",
        "obj2": "null",
        "maxspawn": "99999.0",
        "minspawn": "99999.0",
        "spawndelay": "false",
        "ttl": "99999.0",
        "cpid": "702"
      }
    },
    {
      "type": "Feature",
      "geometry": {
        "type": "Point",
        "coordinates": [4103.783, -2540.483],
        "size": [16, 16]
      },
      "properties": {
        "iconurl": "icons/vehicles_map/mini_jet_plane.png",
        "iconrotate": "-28.296",
        "popupContent": "Amazing information about arg_jet_a1h_objective will be found here!"
      },
      "bf2props": {
        "name": "cpname_the_falklands_skirmish16_pebble_island_pucara_11",
        "class": "ObjectSpawner",
        "name_object": "arg_jet_a1h_objective",
        "team": "1",
        "obj1": "arg_jet_a1h_objective",
        "obj2": "null",
        "maxspawn": "99999.0",
        "minspawn": "99999.0",
        "spawndelay": "false",
        "ttl": "99999.0",
        "cpid": "702"
      }
    },
    {
      "type": "Feature",
      "geometry": {
        "type": "Point",
        "coordinates": [4090.974, -2443.481],
        "size": [16, 16]
      },
      "properties": {
        "iconurl": "icons/vehicles_map/mini_jet_plane.png",
        "iconrotate": "179.595",
        "popupContent": "Amazing information about arg_jet_a1h_objective will be found here!"
      },
      "bf2props": {
        "name": "cpname_the_falklands_skirmish16_pebble_island_pucara_12",
        "class": "ObjectSpawner",
        "name_object": "arg_jet_a1h_objective",
        "team": "1",
        "obj1": "arg_jet_a1h_objective",
        "obj2": "null",
        "maxspawn": "99999.0",
        "minspawn": "99999.0",
        "spawndelay": "false",
        "ttl": "99999.0",
        "cpid": "702"
      }
    },
    {
      "type": "Feature",
      "geometry": {
        "type": "Point",
        "coordinates": [4025.993, -2496.545],
        "size": [16, 16]
      },
      "properties": {
        "iconurl": "icons/vehicles_map/mini_jet_plane.png",
        "iconrotate": "171.118",
        "popupContent": "Amazing information about arg_jet_a1h_objective will be found here!"
      },
      "bf2props": {
        "name": "cpname_the_falklands_skirmish16_pebble_island_pucara_13",
        "class": "ObjectSpawner",
        "name_object": "arg_jet_a1h_objective",
        "team": "1",
        "obj1": "arg_jet_a1h_objective",
        "obj2": "null",
        "maxspawn": "99999.0",
        "minspawn": "99999.0",
        "spawndelay": "false",
        "ttl": "99999.0",
        "cpid": "702"
      }
    },
    {
      "type": "Feature",
      "geometry": {
        "type": "Point",
        "coordinates": [6509.794, -838.635],
        "size": [33, 33],
        "radius": "0.0"
      },
      "properties": {
        "iconurl": "icons/flags_map/gb/minimap_cpbase.png",
        "iconrotate": "0",
        "popupContent": "Amazing information about Atlantic Conveyor will be found here!"
      },
      "bf2props": {
        "name": "cpname_the_falklands_skirmish16_atlantic_conveyor",
        "class": "ControlPoint",
        "name_object": "Atlantic Conveyor",
        "team": "2",
        "areavalue1": "0.0",
        "areavalue2": "0.0",
        "cpid": "701",
        "sgid": "-999",
        "uncap": "true",
        "ttgc": "0.0",
        "ttlc": "0.0"
      }
    },
    {
      "type": "Feature",
      "geometry": {
        "type": "Point",
        "coordinates": [4096.098, -2491.2559],
        "size": [33, 33],
        "radius": "0.0"
      },
      "properties": {
        "iconurl": "icons/flags_map/arg82/minimap_cpbase.png",
        "iconrotate": "0",
        "popupContent": "Amazing information about Pebble Island will be found here!"
      },
      "bf2props": {
        "name": "cpname_the_falklands_skirmish16_pebble_island",
        "class": "ControlPoint",
        "name_object": "Pebble Island",
        "team": "1",
        "areavalue1": "0.0",
        "areavalue2": "0.0",
        "cpid": "702",
        "sgid": "-999",
        "uncap": "true",
        "ttgc": "0.0",
        "ttlc": "0.0"
      }
    },
    {
      "type": "Feature",
      "geometry": {
        "type": "Polygon",
        "coordinates": [
          [
            [0,0],
            [0,-8192],
            [8192,-8192],
            [8192,0]
          ],[
            [3396.0, -3096.0],
            [5708.5107, -3096.0],
            [6548.8726, -3096.0],
            [6696.0, -3096.0],
            [6696.0, -496.0],
            [3396.0, -496.0]
          ]
        ]
      },
      "bf2props": {
        "code": "combatarea_4_skirmish_16",
        "class": "CombatArea",
        "team": "0",
        "vehicles": "4",
        "layer": "8",
        "inverted": "false",
        "max": [0.0, 0.0],
        "min": [0.0, 0.0]
      }
    }
  ]
}