{
  "team1":"arg82",
  "team2":"gb82",
  "team1tickets":"200",
  "team2tickets":"200",
  "mapsize":"8192",
  "viewdistance":"3000",
  "combatareause":"false",
  "combatareadamage":"0.0",
  "combatareaallowoutside":"10.0",
  "routes": [
    [
      [
        "cpname_the_falklands_vehicles64_cap_ne",
        "cpname_the_falklands_vehicles64_cap_se",
        "cpname_the_falklands_vehicles64_cap_sw",
        "cpname_the_falklands_vehicles64_cap_nw",
        "cpname_the_falklands_vehicles64_cap_centre",
        "cpname_the_falklands_vehicles64_stanley",
        "cpname_the_falklands_vehicles64_argentina",
        "cpname_the_falklands_vehicles64_pebble_island"
      ],
      [
        "cpname_the_falklands_vehicles64_hms_invincible",
        "cpname_the_falklands_vehicles64_san_carlos"
      ]
    ]
  ],
  "type": "FeatureCollection",
  "features": [
    {
      "type": "Feature",
      "geometry": {
        "type": "Point",
        "coordinates": [8491.189, 1804.96],
        "size": [16, 16]
      },
      "properties": {
        "iconurl": "icons/vehicles_map/mini_jet_attack_light.png",
        "iconrotate": "-173.661",
        "popupContent": "Amazing information about null will be found here!"
      },
      "bf2props": {
        "name": "cpname_the_falklands_vehicles64_hms_invincible_gb_jet_attack",
        "class": "ObjectSpawner",
        "name_object": "Sea Harrier FRS.1 ASF",
        "team": "2",
        "obj1": "null",
        "obj2": "gb_jet_seaharrier",
        "maxspawn": "0.0",
        "minspawn": "60.0",
        "spawndelay": "false",
        "maxnr": "7",
        "ttl": "300.0",
        "cpid": "81"
      }
    },
    {
      "type": "Feature",
      "geometry": {
        "type": "Point",
        "coordinates": [8503.811, 1807.0898],
        "size": [16, 16]
      },
      "properties": {
        "iconurl": "icons/vehicles_map/mini_jet_attack_light.png",
        "iconrotate": "-166.212",
        "popupContent": "Amazing information about null will be found here!"
      },
      "bf2props": {
        "name": "cpname_the_falklands_vehicles64_hms_invincible_gb_jet_attack_0",
        "class": "ObjectSpawner",
        "name_object": "Sea Harrier FRS.1 ASF",
        "team": "2",
        "obj1": "null",
        "obj2": "gb_jet_seaharrier",
        "maxspawn": "0.0",
        "minspawn": "60.0",
        "spawndelay": "false",
        "maxnr": "7",
        "ttl": "300.0",
        "cpid": "81"
      }
    },
    {
      "type": "Feature",
      "geometry": {
        "type": "Point",
        "coordinates": [8514.96, 1805.6099],
        "size": [16, 16]
      },
      "properties": {
        "iconurl": "icons/vehicles_map/mini_jet_attack_light.png",
        "iconrotate": "-138.797",
        "popupContent": "Amazing information about null will be found here!"
      },
      "bf2props": {
        "name": "cpname_the_falklands_vehicles64_hms_invincible_gb_jet_attack_1",
        "class": "ObjectSpawner",
        "name_object": "Sea Harrier FRS.1 ASF",
        "team": "2",
        "obj1": "null",
        "obj2": "gb_jet_seaharrier",
        "maxspawn": "0.0",
        "minspawn": "60.0",
        "spawndelay": "false",
        "maxnr": "7",
        "ttl": "300.0",
        "cpid": "81"
      }
    },
    {
      "type": "Feature",
      "geometry": {
        "type": "Point",
        "coordinates": [8277.82, 1769.5962],
        "size": [16, 16]
      },
      "properties": {
        "iconurl": "icons/vehicles_map/mini_the_medium.png",
        "iconrotate": "-57.675",
        "popupContent": "Amazing information about null will be found here!"
      },
      "bf2props": {
        "name": "cpname_the_falklands_vehicles64_hms_invincible_gb_heli_trans",
        "class": "ObjectSpawner",
        "name_object": "Wessex HU.5",
        "team": "2",
        "obj1": "null",
        "obj2": "gb_the_wessex",
        "maxspawn": "0.0",
        "minspawn": "60.0",
        "spawndelay": "false",
        "maxnr": "3",
        "ttl": "99999.0",
        "cpid": "81"
      }
    },
    {
      "type": "Feature",
      "geometry": {
        "type": "Point",
        "coordinates": [-7029.867, -13343.144],
        "size": [16, 16]
      },
      "properties": {
        "iconurl": "icons/vehicles_map/mini_jet_antiship.png",
        "iconrotate": "-9.801",
        "popupContent": "Amazing information about Mirage IIIEA AS will be found here!"
      },
      "bf2props": {
        "name": "cpname_the_falklands_vehicles64_argentina_arg_jet_attack_0",
        "class": "ObjectSpawner",
        "name_object": "Mirage IIIEA AS",
        "team": "1",
        "obj1": "arg_jet_mirage3ea_as",
        "obj2": "null",
        "maxspawn": "300.0",
        "minspawn": "300.0",
        "spawndelay": "true",
        "maxnr": "5",
        "ttl": "99999.0",
        "cpid": "91"
      }
    },
    {
      "type": "Feature",
      "geometry": {
        "type": "Point",
        "coordinates": [-7080.794, -13343.548],
        "size": [16, 16]
      },
      "properties": {
        "iconurl": "icons/vehicles_map/mini_jet_attack_light2.png",
        "iconrotate": "21.734",
        "popupContent": "Amazing information about A-4B Skyhawk will be found here!"
      },
      "bf2props": {
        "name": "cpname_the_falklands_vehicles64_argentina_arg_jet_attack_1",
        "class": "ObjectSpawner",
        "name_object": "A-4B Skyhawk",
        "team": "1",
        "obj1": "arg_jet_a4b",
        "obj2": "null",
        "maxspawn": "10.0",
        "minspawn": "10.0",
        "spawndelay": "false",
        "maxnr": "5",
        "ttl": "99999.0",
        "cpid": "91"
      }
    },
    {
      "type": "Feature",
      "geometry": {
        "type": "Point",
        "coordinates": [5158.563, -3518.977],
        "size": [16, 16]
      },
      "properties": {
        "iconurl": "icons/vehicles_map/mini_trk_logistics.png",
        "iconrotate": "9.14",
        "popupContent": "Amazing information about null will be found here!"
      },
      "bf2props": {
        "name": "cpname_the_falklands_vehicles64_san_carlos_gb_truck_logistics_0",
        "class": "ObjectSpawner",
        "name_object": "MAN SV Logistics",
        "team": "2",
        "obj1": "null",
        "obj2": "gb82_trk_logistics",
        "maxspawn": "600.0",
        "minspawn": "600.0",
        "spawndelay": "false",
        "ttl": "99999.0",
        "cpid": "82"
      }
    },
    {
      "type": "Feature",
      "geometry": {
        "type": "Point",
        "coordinates": [5109.683, -3491.792],
        "size": [16, 16]
      },
      "properties": {
        "iconurl": "icons/vehicles_map/mini_trk_logistics.png",
        "iconrotate": "105.724",
        "popupContent": "Amazing information about null will be found here!"
      },
      "bf2props": {
        "name": "cpname_the_falklands_vehicles64_san_carlos_gb_truck_logistics_1",
        "class": "ObjectSpawner",
        "name_object": "MAN SV Logistics",
        "team": "2",
        "obj1": "null",
        "obj2": "gb82_trk_logistics",
        "maxspawn": "600.0",
        "minspawn": "600.0",
        "spawndelay": "false",
        "ttl": "99999.0",
        "cpid": "82"
      }
    },
    {
      "type": "Feature",
      "geometry": {
        "type": "Point",
        "coordinates": [5113.1973, -3498.857],
        "size": [16, 16]
      },
      "properties": {
        "iconurl": "icons/vehicles_map/mini_trk_logistics.png",
        "iconrotate": "74.673",
        "popupContent": "Amazing information about null will be found here!"
      },
      "bf2props": {
        "name": "cpname_the_falklands_vehicles64_san_carlos_gb_ifv",
        "class": "ObjectSpawner",
        "name_object": "MAN SV Logistics",
        "team": "2",
        "obj1": "null",
        "obj2": "gb82_trk_logistics",
        "maxspawn": "600.0",
        "minspawn": "600.0",
        "spawndelay": "false",
        "ttl": "99999.0",
        "cpid": "82"
      }
    },
    {
      "type": "Feature",
      "geometry": {
        "type": "Point",
        "coordinates": [7781.4, -3755.755],
        "size": [16, 16]
      },
      "properties": {
        "iconurl": "icons/vehicles_map/mini_stw_aa_heavy.png",
        "iconrotate": "7.086",
        "popupContent": "Amazing information about sam_tigercat will be found here!"
      },
      "bf2props": {
        "name": "cpname_the_falklands_vehicles64_stanley_arg_aas_cannons",
        "class": "ObjectSpawner",
        "name_object": "sam_tigercat",
        "team": "1",
        "obj1": "sam_tigercat",
        "obj2": "null",
        "maxspawn": "300.0",
        "minspawn": "300.0",
        "spawndelay": "false",
        "ttl": "99999.0",
        "cpid": "89"
      }
    },
    {
      "type": "Feature",
      "geometry": {
        "type": "Point",
        "coordinates": [7486.297, -3819.13],
        "size": [16, 16]
      },
      "properties": {
        "iconurl": "icons/vehicles_map/mini_stw_aa_medium_rh202.png",
        "iconrotate": "0.0",
        "popupContent": "Amazing information about aaa_rh202 will be found here!"
      },
      "bf2props": {
        "name": "cpname_the_falklands_vehicles64_stanley_arg_aas_cannons_0",
        "class": "ObjectSpawner",
        "name_object": "aaa_rh202",
        "team": "1",
        "obj1": "aaa_rh202",
        "obj2": "null",
        "maxspawn": "300.0",
        "minspawn": "300.0",
        "spawndelay": "false",
        "ttl": "99999.0",
        "cpid": "89"
      }
    },
    {
      "type": "Feature",
      "geometry": {
        "type": "Point",
        "coordinates": [7611.602, -3891.417],
        "size": [16, 16]
      },
      "properties": {
        "iconurl": "icons/vehicles_map/mini_stw_aa_medium_rh202.png",
        "iconrotate": "-103.405",
        "popupContent": "Amazing information about aaa_rh202 will be found here!"
      },
      "bf2props": {
        "name": "cpname_the_falklands_vehicles64_stanley_arg_aas_cannons_1",
        "class": "ObjectSpawner",
        "name_object": "aaa_rh202",
        "team": "1",
        "obj1": "aaa_rh202",
        "obj2": "null",
        "maxspawn": "300.0",
        "minspawn": "300.0",
        "spawndelay": "false",
        "ttl": "99999.0",
        "cpid": "89"
      }
    },
    {
      "type": "Feature",
      "geometry": {
        "type": "Point",
        "coordinates": [7748.754, -3817.441],
        "size": [16, 16]
      },
      "properties": {
        "iconurl": "icons/vehicles_map/mini_trk_logistics.png",
        "iconrotate": "0.0",
        "popupContent": "Amazing information about M35 Logistics will be found here!"
      },
      "bf2props": {
        "name": "cpname_the_falklands_vehicles64_stanley_arg_truck_logistics",
        "class": "ObjectSpawner",
        "name_object": "M35 Logistics",
        "team": "1",
        "obj1": "arg_trk_logistics",
        "obj2": "null",
        "maxspawn": "300.0",
        "minspawn": "300.0",
        "spawndelay": "false",
        "ttl": "99999.0",
        "cpid": "89"
      }
    },
    {
      "type": "Feature",
      "geometry": {
        "type": "Point",
        "coordinates": [7753.617, -3816.177],
        "size": [16, 16]
      },
      "properties": {
        "iconurl": "icons/vehicles_map/mini_trk_logistics.png",
        "iconrotate": "-17.78",
        "popupContent": "Amazing information about M35 Logistics will be found here!"
      },
      "bf2props": {
        "name": "cpname_the_falklands_vehicles64_stanley_arg_truck_logistics_0",
        "class": "ObjectSpawner",
        "name_object": "M35 Logistics",
        "team": "1",
        "obj1": "arg_trk_logistics",
        "obj2": "null",
        "maxspawn": "300.0",
        "minspawn": "300.0",
        "spawndelay": "false",
        "ttl": "99999.0",
        "cpid": "89"
      }
    },
    {
      "type": "Feature",
      "geometry": {
        "type": "Point",
        "coordinates": [5722.416, -151.15503],
        "size": [64, 64]
      },
      "properties": {
        "iconurl": "icons/vehicles_map/mini_shp_ssac.png",
        "iconrotate": "75.0",
        "popupContent": "Amazing information about null will be found here!"
      },
      "bf2props": {
        "name": "cpname_the_falklands_vehicles64_hms_invincible_atlantic_convayer",
        "class": "ObjectSpawner",
        "name_object": "SS Atlantic Conveyor",
        "team": "2",
        "obj1": "null",
        "obj2": "cargoship_atlantic_conveyor",
        "maxspawn": "99999.0",
        "minspawn": "99999.0",
        "spawndelay": "false",
        "ttl": "99999.0",
        "cpid": "81"
      }
    },
    {
      "type": "Feature",
      "geometry": {
        "type": "Point",
        "coordinates": [5151.799, -3437.925],
        "size": [16, 16]
      },
      "properties": {
        "iconurl": "icons/vehicles_map/mini_stw_aa_heavy.png",
        "iconrotate": "-53.254",
        "popupContent": "Amazing information about null will be found here!"
      },
      "bf2props": {
        "name": "cpname_the_falklands_vehicles64_san_carlos_gb_aas_missiles",
        "class": "ObjectSpawner",
        "name_object": "sam_tigercat",
        "team": "2",
        "obj1": "null",
        "obj2": "sam_tigercat",
        "maxspawn": "600.0",
        "minspawn": "600.0",
        "spawndelay": "false",
        "ttl": "99999.0",
        "cpid": "82"
      }
    },
    {
      "type": "Feature",
      "geometry": {
        "type": "Point",
        "coordinates": [4988.689, -3253.717],
        "size": [16, 16]
      },
      "properties": {
        "iconurl": "icons/vehicles_map/mini_stw_aa_light.png",
        "iconrotate": "107.79",
        "popupContent": "Amazing information about null will be found here!"
      },
      "bf2props": {
        "name": "cpname_the_falklands_vehicles64_san_carlos_gb_aas_missiles_0",
        "class": "ObjectSpawner",
        "name_object": "deployable_stinger",
        "team": "2",
        "obj1": "null",
        "obj2": "deployable_stinger",
        "maxspawn": "600.0",
        "minspawn": "600.0",
        "spawndelay": "false",
        "ttl": "99999.0",
        "cpid": "82"
      }
    },
    {
      "type": "Feature",
      "geometry": {
        "type": "Point",
        "coordinates": [7833.838, -3783.218],
        "size": [16, 16]
      },
      "properties": {
        "iconurl": "",
        "iconrotate": "0.0",
        "popupContent": "Amazing information about mobileradar_dest will be found here!"
      },
      "bf2props": {
        "name": "cpname_the_falklands_vehicles64_stanley_radar",
        "class": "ObjectSpawner",
        "name_object": "mobileradar_dest",
        "team": "1",
        "obj1": "mobileradar_dest",
        "obj2": "null",
        "maxspawn": "600.0",
        "minspawn": "600.0",
        "spawndelay": "false",
        "ttl": "99999.0",
        "cpid": "89"
      }
    },
    {
      "type": "Feature",
      "geometry": {
        "type": "Point",
        "coordinates": [7775.84, -3772.102],
        "size": [16, 16]
      },
      "properties": {
        "iconurl": "icons/vehicles_map/mini_the_light.png",
        "iconrotate": "-90.0",
        "popupContent": "Amazing information about UH-1H Iroquois will be found here!"
      },
      "bf2props": {
        "name": "cpname_the_falklands_vehicles64_stanley_arg_heli_trans",
        "class": "ObjectSpawner",
        "name_object": "UH-1H Iroquois",
        "team": "1",
        "obj1": "arg_the_uh1h",
        "obj2": "null",
        "maxspawn": "0.0",
        "minspawn": "60.0",
        "spawndelay": "false",
        "maxnr": "3",
        "ttl": "99999.0",
        "cpid": "89"
      }
    },
    {
      "type": "Feature",
      "geometry": {
        "type": "Point",
        "coordinates": [7748.836, -3797.276],
        "size": [16, 16]
      },
      "properties": {
        "iconurl": "icons/vehicles_map/mini_trk_support.png",
        "iconrotate": "50.639",
        "popupContent": "Amazing information about M35 2.5 Ton will be found here!"
      },
      "bf2props": {
        "name": "cpname_the_falklands_vehicles64_stanley_arg_truck_support",
        "class": "ObjectSpawner",
        "name_object": "M35 2.5 Ton",
        "team": "1",
        "obj1": "arg_trk_support",
        "obj2": "null",
        "maxspawn": "300.0",
        "minspawn": "300.0",
        "spawndelay": "true",
        "ttl": "99999.0",
        "cpid": "89"
      }
    },
    {
      "type": "Feature",
      "geometry": {
        "type": "Point",
        "coordinates": [7668.063, -3858.02],
        "size": [16, 16]
      },
      "properties": {
        "iconurl": "icons/vehicles_map/mini_trk_support.png",
        "iconrotate": "0.0",
        "popupContent": "Amazing information about M35 2.5 Ton will be found here!"
      },
      "bf2props": {
        "name": "cpname_the_falklands_vehicles64_stanley_arg_truck_support_0",
        "class": "ObjectSpawner",
        "name_object": "M35 2.5 Ton",
        "team": "1",
        "obj1": "arg_trk_support",
        "obj2": "null",
        "maxspawn": "300.0",
        "minspawn": "300.0",
        "spawndelay": "true",
        "ttl": "99999.0",
        "cpid": "89"
      }
    },
    {
      "type": "Feature",
      "geometry": {
        "type": "Point",
        "coordinates": [7762.587, -3812.498],
        "size": [16, 16]
      },
      "properties": {
        "iconurl": "icons/vehicles_map/mini_stw_aa_medium_rh202.png",
        "iconrotate": "134.57",
        "popupContent": "Amazing information about aaa_rh202 will be found here!"
      },
      "bf2props": {
        "name": "cpname_the_falklands_vehicles64_stanley_arg_aas_missiles",
        "class": "ObjectSpawner",
        "name_object": "aaa_rh202",
        "team": "1",
        "obj1": "aaa_rh202",
        "obj2": "null",
        "maxspawn": "300.0",
        "minspawn": "300.0",
        "spawndelay": "false",
        "ttl": "99999.0",
        "cpid": "89"
      }
    },
    {
      "type": "Feature",
      "geometry": {
        "type": "Point",
        "coordinates": [7541.245, -3884.237],
        "size": [16, 16]
      },
      "properties": {
        "iconurl": "icons/vehicles_map/mini_stw_aa_heavy.png",
        "iconrotate": "-171.37",
        "popupContent": "Amazing information about sam_tigercat will be found here!"
      },
      "bf2props": {
        "name": "cpname_the_falklands_vehicles64_stanley_arg_aas_missiles_0",
        "class": "ObjectSpawner",
        "name_object": "sam_tigercat",
        "team": "1",
        "obj1": "sam_tigercat",
        "obj2": "null",
        "maxspawn": "300.0",
        "minspawn": "300.0",
        "spawndelay": "false",
        "ttl": "99999.0",
        "cpid": "89"
      }
    },
    {
      "type": "Feature",
      "geometry": {
        "type": "Point",
        "coordinates": [7616.895, -3891.31],
        "size": [16, 16]
      },
      "properties": {
        "iconurl": "icons/vehicles_map/mini_stw_aa_medium_rh202.png",
        "iconrotate": "104.632",
        "popupContent": "Amazing information about aaa_rh202 will be found here!"
      },
      "bf2props": {
        "name": "cpname_the_falklands_vehicles64_stanley_arg_aas_missiles_1",
        "class": "ObjectSpawner",
        "name_object": "aaa_rh202",
        "team": "1",
        "obj1": "aaa_rh202",
        "obj2": "null",
        "maxspawn": "300.0",
        "minspawn": "300.0",
        "spawndelay": "false",
        "ttl": "99999.0",
        "cpid": "89"
      }
    },
    {
      "type": "Feature",
      "geometry": {
        "type": "Point",
        "coordinates": [7702.87, -3864.6],
        "size": [16, 16]
      },
      "properties": {
        "iconurl": "icons/vehicles_map/mini_stw_aa_heavy.png",
        "iconrotate": "131.37",
        "popupContent": "Amazing information about sam_tigercat will be found here!"
      },
      "bf2props": {
        "name": "cpname_the_falklands_vehicles64_stanley_arg_aas_cannons_2",
        "class": "ObjectSpawner",
        "name_object": "sam_tigercat",
        "team": "1",
        "obj1": "sam_tigercat",
        "obj2": "null",
        "maxspawn": "300.0",
        "minspawn": "300.0",
        "spawndelay": "false",
        "ttl": "99999.0",
        "cpid": "89"
      }
    },
    {
      "type": "Feature",
      "geometry": {
        "type": "Point",
        "coordinates": [-6853.501, -13155.769],
        "size": [16, 16]
      },
      "properties": {
        "iconurl": "",
        "iconrotate": "90.0",
        "popupContent": "Amazing information about mobileradar_dest will be found here!"
      },
      "bf2props": {
        "name": "cpname_the_falklands_vehicles64_argentina_radar",
        "class": "ObjectSpawner",
        "name_object": "mobileradar_dest",
        "team": "1",
        "obj1": "mobileradar_dest",
        "obj2": "null",
        "maxspawn": "600.0",
        "minspawn": "600.0",
        "spawndelay": "false",
        "ttl": "99999.0",
        "cpid": "91"
      }
    },
    {
      "type": "Feature",
      "geometry": {
        "type": "Point",
        "coordinates": [-7072.927, -13344.581],
        "size": [16, 16]
      },
      "properties": {
        "iconurl": "icons/vehicles_map/mini_jet_attack_light2.png",
        "iconrotate": "0.044",
        "popupContent": "Amazing information about A-4C Skyhawk will be found here!"
      },
      "bf2props": {
        "name": "cpname_the_falklands_vehicles64_argentina_arg_jet_attack_2",
        "class": "ObjectSpawner",
        "name_object": "A-4C Skyhawk",
        "team": "1",
        "obj1": "arg_jet_a4c",
        "obj2": "null",
        "maxspawn": "10.0",
        "minspawn": "10.0",
        "spawndelay": "false",
        "maxnr": "5",
        "ttl": "99999.0",
        "cpid": "91"
      }
    },
    {
      "type": "Feature",
      "geometry": {
        "type": "Point",
        "coordinates": [-6906.4033, -13297.123],
        "size": [16, 16]
      },
      "properties": {
        "iconurl": "icons/vehicles_map/mini_jet_strikefighter2.png",
        "iconrotate": "-34.501",
        "popupContent": "Amazing information about IAI Dagger A will be found here!"
      },
      "bf2props": {
        "name": "cpname_the_falklands_vehicles64_argentina_arg_jet_fighter_0",
        "class": "ObjectSpawner",
        "name_object": "IAI Dagger A",
        "team": "1",
        "obj1": "arg_jet_dagger",
        "obj2": "null",
        "maxspawn": "10.0",
        "minspawn": "10.0",
        "spawndelay": "false",
        "maxnr": "5",
        "ttl": "99999.0",
        "cpid": "91"
      }
    },
    {
      "type": "Feature",
      "geometry": {
        "type": "Point",
        "coordinates": [-6994.5, -13298.397],
        "size": [16, 16]
      },
      "properties": {
        "iconurl": "icons/vehicles_map/mini_jet_asf.png",
        "iconrotate": "-20.238",
        "popupContent": "Amazing information about Mirage IIIEA will be found here!"
      },
      "bf2props": {
        "name": "cpname_the_falklands_vehicles64_argentina_arg_jet_fighter_1",
        "class": "ObjectSpawner",
        "name_object": "Mirage IIIEA",
        "team": "1",
        "obj1": "arg_jet_mirage3ea",
        "obj2": "null",
        "maxspawn": "10.0",
        "minspawn": "10.0",
        "spawndelay": "false",
        "maxnr": "5",
        "ttl": "99999.0",
        "cpid": "91"
      }
    },
    {
      "type": "Feature",
      "geometry": {
        "type": "Point",
        "coordinates": [-6971.0234, -13298.146],
        "size": [16, 16]
      },
      "properties": {
        "iconurl": "icons/vehicles_map/mini_jet_asf.png",
        "iconrotate": "-31.154",
        "popupContent": "Amazing information about Mirage IIIEA will be found here!"
      },
      "bf2props": {
        "name": "cpname_the_falklands_vehicles64_argentina_arg_jet_fighter_2",
        "class": "ObjectSpawner",
        "name_object": "Mirage IIIEA",
        "team": "1",
        "obj1": "arg_jet_mirage3ea",
        "obj2": "null",
        "maxspawn": "10.0",
        "minspawn": "10.0",
        "spawndelay": "false",
        "maxnr": "5",
        "ttl": "99999.0",
        "cpid": "91"
      }
    },
    {
      "type": "Feature",
      "geometry": {
        "type": "Point",
        "coordinates": [8401.24, 1780.7002],
        "size": [16, 16]
      },
      "properties": {
        "iconurl": "",
        "iconrotate": "-10.0",
        "popupContent": "Amazing information about null will be found here!"
      },
      "bf2props": {
        "name": "cpname_the_falklands_vehicles64_hms_invincible_command_post",
        "class": "ObjectSpawner",
        "name_object": "gb_carrier_invincible",
        "team": "2",
        "obj1": "null",
        "obj2": "gb_carrier_invincible",
        "maxspawn": "300.0",
        "minspawn": "300.0",
        "spawndelay": "false",
        "ttl": "99999.0",
        "cpid": "81"
      }
    },
    {
      "type": "Feature",
      "geometry": {
        "type": "Point",
        "coordinates": [8346.757, 1780.189],
        "size": [16, 16]
      },
      "properties": {
        "iconurl": "icons/vehicles_map/mini_jet_attack_light2.png",
        "iconrotate": "145.969",
        "popupContent": "Amazing information about null will be found here!"
      },
      "bf2props": {
        "name": "cpname_the_falklands_vehicles64_hms_invincible_gb_jet_attack_2",
        "class": "ObjectSpawner",
        "name_object": "Harrier GR.3 CAS GPB",
        "team": "2",
        "obj1": "null",
        "obj2": "gb_jet_harrier_gr3",
        "maxspawn": "0.0",
        "minspawn": "60.0",
        "spawndelay": "false",
        "maxnr": "7",
        "ttl": "300.0",
        "cpid": "81"
      }
    },
    {
      "type": "Feature",
      "geometry": {
        "type": "Point",
        "coordinates": [8333.693, 1777.7852],
        "size": [16, 16]
      },
      "properties": {
        "iconurl": "icons/vehicles_map/mini_jet_attack_light2.png",
        "iconrotate": "146.049",
        "popupContent": "Amazing information about null will be found here!"
      },
      "bf2props": {
        "name": "cpname_the_falklands_vehicles64_hms_invincible_gb_jet_attack_3",
        "class": "ObjectSpawner",
        "name_object": "Harrier GR.3 CAS Rockets",
        "team": "2",
        "obj1": "null",
        "obj2": "gb_jet_harrier_gr3c",
        "maxspawn": "0.0",
        "minspawn": "60.0",
        "spawndelay": "false",
        "maxnr": "7",
        "ttl": "300.0",
        "cpid": "81"
      }
    },
    {
      "type": "Feature",
      "geometry": {
        "type": "Point",
        "coordinates": [5094.12, -3201.192],
        "size": [16, 16]
      },
      "properties": {
        "iconurl": "icons/vehicles_map/mini_stw_aa_light.png",
        "iconrotate": "-85.004",
        "popupContent": "Amazing information about null will be found here!"
      },
      "bf2props": {
        "name": "cpname_the_falklands_vehicles64_san_carlos_gb_aas_missiles_1",
        "class": "ObjectSpawner",
        "name_object": "deployable_stinger",
        "team": "2",
        "obj1": "null",
        "obj2": "deployable_stinger",
        "maxspawn": "600.0",
        "minspawn": "600.0",
        "spawndelay": "false",
        "ttl": "99999.0",
        "cpid": "82"
      }
    },
    {
      "type": "Feature",
      "geometry": {
        "type": "Point",
        "coordinates": [5133.2373, -4360.103],
        "size": [16, 16]
      },
      "properties": {
        "iconurl": "icons/vehicles_map/mini_stw_aa_heavy.png",
        "iconrotate": "12.297",
        "popupContent": "Amazing information about sam_tigercat will be found here!"
      },
      "bf2props": {
        "name": "cpname_the_falklands_vehicles64_goose_green_mil_aas_cannons",
        "class": "ObjectSpawner",
        "name_object": "sam_tigercat",
        "team": "1",
        "obj1": "sam_tigercat",
        "obj2": "null",
        "maxspawn": "600.0",
        "minspawn": "600.0",
        "spawndelay": "false",
        "ttl": "99999.0",
        "cpid": "89"
      }
    },
    {
      "type": "Feature",
      "geometry": {
        "type": "Point",
        "coordinates": [4153.729, -2497.4238],
        "size": [16, 16]
      },
      "properties": {
        "iconurl": "icons/vehicles_map/mini_jet_plane.png",
        "iconrotate": "-94.858",
        "popupContent": "Amazing information about A-1H Skyraider will be found here!"
      },
      "bf2props": {
        "name": "cpname_the_falklands_vehicles64_pebble_island_lightattackplane",
        "class": "ObjectSpawner",
        "name_object": "A-1H Skyraider",
        "team": "1",
        "obj1": "arg_jet_a1h",
        "obj2": "null",
        "maxspawn": "0.0",
        "minspawn": "60.0",
        "spawndelay": "false",
        "maxnr": "5",
        "ttl": "99999.0",
        "cpid": "92"
      }
    },
    {
      "type": "Feature",
      "geometry": {
        "type": "Point",
        "coordinates": [4112.361, -2476.28],
        "size": [16, 16]
      },
      "properties": {
        "iconurl": "icons/vehicles_map/mini_stw_aa_medium_rh202.png",
        "iconrotate": "20.708",
        "popupContent": "Amazing information about aaa_rh202 will be found here!"
      },
      "bf2props": {
        "name": "cpname_the_falklands_vehicles64_pebble_island_1_0",
        "class": "ObjectSpawner",
        "name_object": "aaa_rh202",
        "team": "1",
        "obj1": "aaa_rh202",
        "obj2": "null",
        "maxspawn": "300.0",
        "minspawn": "300.0",
        "spawndelay": "false",
        "ttl": "99999.0",
        "cpid": "92"
      }
    },
    {
      "type": "Feature",
      "geometry": {
        "type": "Point",
        "coordinates": [4061.217, -2479.31],
        "size": [16, 16]
      },
      "properties": {
        "iconurl": "icons/vehicles_map/mini_stw_aa_heavy.png",
        "iconrotate": "-50.489",
        "popupContent": "Amazing information about sam_tigercat will be found here!"
      },
      "bf2props": {
        "name": "cpname_the_falklands_vehicles64_pebble_island_1_1",
        "class": "ObjectSpawner",
        "name_object": "sam_tigercat",
        "team": "1",
        "obj1": "sam_tigercat",
        "obj2": "null",
        "maxspawn": "300.0",
        "minspawn": "300.0",
        "spawndelay": "false",
        "ttl": "99999.0",
        "cpid": "92"
      }
    },
    {
      "type": "Feature",
      "geometry": {
        "type": "Point",
        "coordinates": [7790.825, -3792.7139],
        "size": [16, 16]
      },
      "properties": {
        "iconurl": "icons/mini_map/repairdepot.png",
        "iconrotate": "0",
        "popupContent": "Amazing information about Vehicle Depot will be found here!"
      },
      "bf2props": {
        "name": "cpname_the_falklands_vehicles64_stanley_arg_vehicle_depot",
        "class": "ObjectSpawner",
        "name_object": "Vehicle Depot",
        "team": "1",
        "obj1": "vehicle_depot_arg",
        "obj2": "null",
        "maxspawn": "300.0",
        "minspawn": "300.0",
        "spawndelay": "false",
        "ttl": "99999.0",
        "cpid": "89"
      }
    },
    {
      "type": "Feature",
      "geometry": {
        "type": "Point",
        "coordinates": [7846.937, -3783.576],
        "size": [16, 16]
      },
      "properties": {
        "iconurl": "icons/vehicles_map/mini_stw_aa_medium_rh202.png",
        "iconrotate": "17.92",
        "popupContent": "Amazing information about aaa_rh202 will be found here!"
      },
      "bf2props": {
        "name": "cpname_the_falklands_vehicles64_stanley_arg_aas_cannons_3",
        "class": "ObjectSpawner",
        "name_object": "aaa_rh202",
        "team": "1",
        "obj1": "aaa_rh202",
        "obj2": "null",
        "maxspawn": "300.0",
        "minspawn": "300.0",
        "spawndelay": "false",
        "ttl": "99999.0",
        "cpid": "89"
      }
    },
    {
      "type": "Feature",
      "geometry": {
        "type": "Point",
        "coordinates": [7669.3203, -3821.78],
        "size": [16, 16]
      },
      "properties": {
        "iconurl": "icons/vehicles_map/mini_jep_support.png",
        "iconrotate": "-18.72",
        "popupContent": "Amazing information about Volkswagen Type 1 will be found here!"
      },
      "bf2props": {
        "name": "cpname_the_falklands_vehicles64_stanley_arg_jeep_support",
        "class": "ObjectSpawner",
        "name_object": "Volkswagen Type 1",
        "team": "1",
        "obj1": "arg_jep_vwt1",
        "obj2": "null",
        "maxspawn": "300.0",
        "minspawn": "300.0",
        "spawndelay": "false",
        "ttl": "99999.0",
        "cpid": "89"
      }
    },
    {
      "type": "Feature",
      "geometry": {
        "type": "Point",
        "coordinates": [5129.955, -3506.705],
        "size": [16, 16]
      },
      "properties": {
        "iconurl": "icons/mini_map/repairdepot.png",
        "iconrotate": "0",
        "popupContent": "Amazing information about null will be found here!"
      },
      "bf2props": {
        "name": "cpname_the_falklands_vehicles64_san_carlos_gb_vehicle_depot",
        "class": "ObjectSpawner",
        "name_object": "Vehicle Depot",
        "team": "2",
        "obj1": "null",
        "obj2": "vehicle_depot_gb",
        "maxspawn": "300.0",
        "minspawn": "300.0",
        "spawndelay": "false",
        "ttl": "99999.0",
        "cpid": "82"
      }
    },
    {
      "type": "Feature",
      "geometry": {
        "type": "Point",
        "coordinates": [5173.301, -3518.6938],
        "size": [16, 16]
      },
      "properties": {
        "iconurl": "icons/vehicles_map/mini_jep_support.png",
        "iconrotate": "5.208",
        "popupContent": "Amazing information about null will be found here!"
      },
      "bf2props": {
        "name": "cpname_the_falklands_vehicles64_san_carlos_gb_jeep_support",
        "class": "ObjectSpawner",
        "name_object": "Land Rover Support",
        "team": "2",
        "obj1": "null",
        "obj2": "gb_jep_landrover_support",
        "maxspawn": "600.0",
        "minspawn": "600.0",
        "spawndelay": "false",
        "ttl": "99999.0",
        "cpid": "82"
      }
    },
    {
      "type": "Feature",
      "geometry": {
        "type": "Point",
        "coordinates": [8306.707, 1772.769],
        "size": [16, 16]
      },
      "properties": {
        "iconurl": "icons/vehicles_map/mini_jet_attack_light2.png",
        "iconrotate": "143.901",
        "popupContent": "Amazing information about null will be found here!"
      },
      "bf2props": {
        "name": "cpname_the_falklands_vehicles64_hms_invincible_gb_jet_attack_4",
        "class": "ObjectSpawner",
        "name_object": "Harrier GR.3 CAS LGB",
        "team": "2",
        "obj1": "null",
        "obj2": "gb_jet_harrier_gr3b",
        "maxspawn": "300.0",
        "minspawn": "300.0",
        "spawndelay": "true",
        "maxnr": "5",
        "ttl": "99999.0",
        "cpid": "81"
      }
    },
    {
      "type": "Feature",
      "geometry": {
        "type": "Point",
        "coordinates": [5189.794, -4321.106],
        "size": [16, 16]
      },
      "properties": {
        "iconurl": "icons/vehicles_map/mini_trk_logistics.png",
        "iconrotate": "-4.748",
        "popupContent": "Amazing information about M35 Logistics will be found here!"
      },
      "bf2props": {
        "name": "cpname_the_falklands_vehicles64_goose_green_arg_truck_logistics",
        "class": "ObjectSpawner",
        "name_object": "M35 Logistics",
        "team": "1",
        "obj1": "arg_trk_logistics",
        "obj2": "null",
        "maxspawn": "600.0",
        "minspawn": "600.0",
        "spawndelay": "false",
        "ttl": "99999.0",
        "cpid": "89"
      }
    },
    {
      "type": "Feature",
      "geometry": {
        "type": "Point",
        "coordinates": [4969.653, -2993.1519],
        "size": [16, 16]
      },
      "properties": {
        "iconurl": "icons/vehicles_map/mini_stw_aa_heavy.png",
        "iconrotate": "-171.398",
        "popupContent": "Amazing information about null will be found here!"
      },
      "bf2props": {
        "name": "cpname_the_falklands_vehicles64_san_carlos_gb_aas_missiles_2",
        "class": "ObjectSpawner",
        "name_object": "sam_tigercat",
        "team": "2",
        "obj1": "null",
        "obj2": "sam_tigercat",
        "maxspawn": "600.0",
        "minspawn": "600.0",
        "spawndelay": "false",
        "ttl": "0.0",
        "cpid": "82"
      }
    },
    {
      "type": "Feature",
      "geometry": {
        "type": "Point",
        "coordinates": [7774.002, -3805.212],
        "size": [16, 16]
      },
      "properties": {
        "iconurl": "icons/vehicles_map/mini_trk_logistics.png",
        "iconrotate": "-17.78",
        "popupContent": "Amazing information about M35 Logistics will be found here!"
      },
      "bf2props": {
        "name": "cpname_the_falklands_vehicles64_stanley_truck_logistics",
        "class": "ObjectSpawner",
        "name_object": "M35 Logistics",
        "team": "1",
        "obj1": "arg_trk_logistics",
        "obj2": "null",
        "maxspawn": "300.0",
        "minspawn": "300.0",
        "spawndelay": "false",
        "ttl": "99999.0",
        "cpid": "89"
      }
    },
    {
      "type": "Feature",
      "geometry": {
        "type": "Point",
        "coordinates": [-6948.2744, -13297.308],
        "size": [16, 16]
      },
      "properties": {
        "iconurl": "icons/vehicles_map/mini_jet_strikefighter2.png",
        "iconrotate": "-29.828",
        "popupContent": "Amazing information about IAI Dagger A CAS will be found here!"
      },
      "bf2props": {
        "name": "cpname_the_falklands_vehicles64_argentina_jet_fighter",
        "class": "ObjectSpawner",
        "name_object": "IAI Dagger A CAS",
        "team": "1",
        "obj1": "arg_jet_dagger_cas",
        "obj2": "null",
        "maxspawn": "10.0",
        "minspawn": "10.0",
        "spawndelay": "false",
        "maxnr": "5",
        "ttl": "99999.0",
        "cpid": "91"
      }
    },
    {
      "type": "Feature",
      "geometry": {
        "type": "Point",
        "coordinates": [-6927.0596, -13296.954],
        "size": [16, 16]
      },
      "properties": {
        "iconurl": "icons/vehicles_map/mini_jet_strikefighter2.png",
        "iconrotate": "-34.501",
        "popupContent": "Amazing information about IAI Dagger A will be found here!"
      },
      "bf2props": {
        "name": "cpname_the_falklands_vehicles64_argentina_dagger",
        "class": "ObjectSpawner",
        "name_object": "IAI Dagger A",
        "team": "1",
        "obj1": "arg_jet_dagger",
        "obj2": "null",
        "maxspawn": "10.0",
        "minspawn": "10.0",
        "spawndelay": "true",
        "maxnr": "5",
        "ttl": "99999.0",
        "cpid": "91"
      }
    },
    {
      "type": "Feature",
      "geometry": {
        "type": "Point",
        "coordinates": [8477.88, 1802.5898],
        "size": [16, 16]
      },
      "properties": {
        "iconurl": "icons/vehicles_map/mini_jet_attack_light.png",
        "iconrotate": "-173.661",
        "popupContent": "Amazing information about null will be found here!"
      },
      "bf2props": {
        "name": "cpname_the_falklands_vehicles64_hms_invincible_seaharrier",
        "class": "ObjectSpawner",
        "name_object": "Sea Harrier FRS.1 ASF",
        "team": "2",
        "obj1": "null",
        "obj2": "gb_jet_seaharrier",
        "maxspawn": "0.0",
        "minspawn": "60.0",
        "spawndelay": "false",
        "maxnr": "7",
        "ttl": "300.0",
        "cpid": "81"
      }
    },
    {
      "type": "Feature",
      "geometry": {
        "type": "Point",
        "coordinates": [-7043.0215, -13344.143],
        "size": [16, 16]
      },
      "properties": {
        "iconurl": "icons/vehicles_map/mini_jet_attack_light.png",
        "iconrotate": "18.769",
        "popupContent": "Amazing information about A-4Q Skyhawk will be found here!"
      },
      "bf2props": {
        "name": "cpname_the_falklands_vehicles64_argentina_arg_jet_a4q",
        "class": "ObjectSpawner",
        "name_object": "A-4Q Skyhawk",
        "team": "1",
        "obj1": "arg_jet_a4q",
        "obj2": "null",
        "maxspawn": "10.0",
        "minspawn": "10.0",
        "spawndelay": "true",
        "maxnr": "10",
        "ttl": "99999.0",
        "cpid": "91"
      }
    },
    {
      "type": "Feature",
      "geometry": {
        "type": "Point",
        "coordinates": [5171.6553, -4409.091],
        "size": [16, 16]
      },
      "properties": {
        "iconurl": "icons/vehicles_map/mini_stw_aa_medium_rh202.png",
        "iconrotate": "15.074",
        "popupContent": "Amazing information about aaa_rh202 will be found here!"
      },
      "bf2props": {
        "name": "cpname_the_falklands_vehicles64_stanley_arg_aaa",
        "class": "ObjectSpawner",
        "name_object": "aaa_rh202",
        "team": "1",
        "obj1": "aaa_rh202",
        "obj2": "null",
        "maxspawn": "600.0",
        "minspawn": "600.0",
        "spawndelay": "false",
        "ttl": "99999.0",
        "cpid": "89"
      }
    },
    {
      "type": "Feature",
      "geometry": {
        "type": "Point",
        "coordinates": [-7064.992, -13344.822],
        "size": [16, 16]
      },
      "properties": {
        "iconurl": "icons/vehicles_map/mini_jet_attack_light2.png",
        "iconrotate": "-29.781",
        "popupContent": "Amazing information about A-4B Skyhawk will be found here!"
      },
      "bf2props": {
        "name": "cpname_the_falklands_vehicles64_argentina_jet_attack",
        "class": "ObjectSpawner",
        "name_object": "A-4B Skyhawk",
        "team": "1",
        "obj1": "arg_jet_a4b",
        "obj2": "null",
        "maxspawn": "10.0",
        "minspawn": "10.0",
        "spawndelay": "true",
        "maxnr": "5",
        "ttl": "99999.0",
        "cpid": "91"
      }
    },
    {
      "type": "Feature",
      "geometry": {
        "type": "Point",
        "coordinates": [-7016.135, -13300.054],
        "size": [16, 16]
      },
      "properties": {
        "iconurl": "icons/vehicles_map/mini_jet_asf.png",
        "iconrotate": "-8.613",
        "popupContent": "Amazing information about Mirage IIIEA will be found here!"
      },
      "bf2props": {
        "name": "cpname_the_falklands_vehicles64_argentina_arg_jet_fighter_3",
        "class": "ObjectSpawner",
        "name_object": "Mirage IIIEA",
        "team": "1",
        "obj1": "arg_jet_mirage3ea",
        "obj2": "null",
        "maxspawn": "10.0",
        "minspawn": "10.0",
        "spawndelay": "false",
        "maxnr": "5",
        "ttl": "99999.0",
        "cpid": "91"
      }
    },
    {
      "type": "Feature",
      "geometry": {
        "type": "Point",
        "coordinates": [8320.545, 1775.477],
        "size": [16, 16]
      },
      "properties": {
        "iconurl": "icons/vehicles_map/mini_jet_attack_light2.png",
        "iconrotate": "143.862",
        "popupContent": "Amazing information about null will be found here!"
      },
      "bf2props": {
        "name": "cpname_the_falklands_vehicles64_hms_invincible_gb_jet_seaharrier",
        "class": "ObjectSpawner",
        "name_object": "Sea Harrier FRS.1 CAS",
        "team": "2",
        "obj1": "null",
        "obj2": "gb_jet_seaharrier_mk17",
        "maxspawn": "0.0",
        "minspawn": "60.0",
        "spawndelay": "false",
        "maxnr": "7",
        "ttl": "300.0",
        "cpid": "81"
      }
    },
    {
      "type": "Feature",
      "geometry": {
        "type": "Point",
        "coordinates": [7596.0, -296.0],
        "size": [33, 33],
        "radius": "0.0"
      },
      "properties": {
        "iconurl": "icons/flags_map/gb/minimap_cpbase.png",
        "iconrotate": "0",
        "popupContent": "Amazing information about HMS Invincible will be found here!"
      },
      "bf2props": {
        "name": "cpname_the_falklands_vehicles64_hms_invincible",
        "class": "ControlPoint",
        "name_object": "HMS Invincible",
        "team": "2",
        "areavalue1": "0.0",
        "areavalue2": "20.0",
        "cpid": "81",
        "sgid": "-999",
        "uncap": "true",
        "ttgc": "0.0",
        "ttlc": "0.0"
      }
    },
    {
      "type": "Feature",
      "geometry": {
        "type": "Point",
        "coordinates": [5153.7393, -3503.274],
        "size": [33, 33],
        "radius": "300.0"
      },
      "properties": {
        "iconurl": "icons/flags_map/gb/minimap_cpbase.png",
        "iconrotate": "0",
        "popupContent": "Amazing information about San Carlos will be found here!"
      },
      "bf2props": {
        "name": "cpname_the_falklands_vehicles64_san_carlos",
        "class": "ControlPoint",
        "name_object": "San Carlos",
        "team": "2",
        "areavalue1": "0.0",
        "areavalue2": "0.0",
        "cpid": "82",
        "sgid": "-999",
        "uncap": "true",
        "ttgc": "0.0",
        "ttlc": "0.0"
      }
    },
    {
      "type": "Feature",
      "geometry": {
        "type": "Point",
        "coordinates": [7620.116, -3807.008],
        "size": [33, 33],
        "radius": "37.0"
      },
      "properties": {
        "iconurl": "icons/flags_map/arg82/minimap_cpbase.png",
        "iconrotate": "0",
        "popupContent": "Amazing information about Port Stanley will be found here!"
      },
      "bf2props": {
        "name": "cpname_the_falklands_vehicles64_stanley",
        "class": "ControlPoint",
        "name_object": "Port Stanley",
        "team": "1",
        "areavalue1": "0.0",
        "areavalue2": "0.0",
        "cpid": "89",
        "sgid": "-999",
        "uncap": "true",
        "ttgc": "0.0",
        "ttlc": "0.0"
      }
    },
    {
      "type": "Feature",
      "geometry": {
        "type": "Point",
        "coordinates": [352.08203, -7896.0],
        "size": [33, 33],
        "radius": "0.0"
      },
      "properties": {
        "iconurl": "icons/flags_map/arg82/minimap_cpbase.png",
        "iconrotate": "0",
        "popupContent": "Amazing information about Argentina will be found here!"
      },
      "bf2props": {
        "name": "cpname_the_falklands_vehicles64_argentina",
        "class": "ControlPoint",
        "name_object": "Argentina",
        "team": "1",
        "areavalue1": "20.0",
        "areavalue2": "0.0",
        "cpid": "91",
        "sgid": "-999",
        "uncap": "true",
        "ttgc": "0.0",
        "ttlc": "0.0"
      }
    },
    {
      "type": "Feature",
      "geometry": {
        "type": "Point",
        "coordinates": [4097.772, -2496.268],
        "size": [33, 33],
        "radius": "0.0"
      },
      "properties": {
        "iconurl": "icons/flags_map/arg82/minimap_cpbase.png",
        "iconrotate": "0",
        "popupContent": "Amazing information about Pebble Island will be found here!"
      },
      "bf2props": {
        "name": "cpname_the_falklands_vehicles64_pebble_island",
        "class": "ControlPoint",
        "name_object": "Pebble Island",
        "team": "1",
        "areavalue1": "0.0",
        "areavalue2": "0.0",
        "cpid": "92",
        "sgid": "-999",
        "uncap": "true",
        "ttgc": "0.0",
        "ttlc": "0.0"
      }
    },
    {
      "type": "Feature",
      "geometry": {
        "type": "Point",
        "coordinates": [6296.0, -1896.0],
        "size": [33, 33],
        "radius": "1500.0"
      },
      "properties": {
        "iconurl": "icons/flags_map/neutral/minimap_cp.png",
        "iconrotate": "0",
        "popupContent": "Amazing information about North East Combat Air Patrol 1.5km will be found here!"
      },
      "bf2props": {
        "name": "cpname_the_falklands_vehicles64_cap_ne",
        "class": "ControlPoint",
        "name_object": "North East Combat Air Patrol 1.5km",
        "team": "0",
        "areavalue1": "20.0",
        "areavalue2": "20.0",
        "cpid": "901",
        "sgid": "20",
        "uncap": "false",
        "ttgc": "60.0",
        "ttlc": "45.0"
      }
    },
    {
      "type": "Feature",
      "geometry": {
        "type": "Point",
        "coordinates": [6296.0, -6296.0],
        "size": [33, 33],
        "radius": "1500.0"
      },
      "properties": {
        "iconurl": "icons/flags_map/neutral/minimap_cp.png",
        "iconrotate": "0",
        "popupContent": "Amazing information about South East Combat Air Patrol 1.5km will be found here!"
      },
      "bf2props": {
        "name": "cpname_the_falklands_vehicles64_cap_se",
        "class": "ControlPoint",
        "name_object": "South East Combat Air Patrol 1.5km",
        "team": "0",
        "areavalue1": "20.0",
        "areavalue2": "20.0",
        "cpid": "902",
        "sgid": "20",
        "uncap": "false",
        "ttgc": "30.0",
        "ttlc": "60.0"
      }
    },
    {
      "type": "Feature",
      "geometry": {
        "type": "Point",
        "coordinates": [1896.0, -6296.0],
        "size": [33, 33],
        "radius": "1500.0"
      },
      "properties": {
        "iconurl": "icons/flags_map/neutral/minimap_cp.png",
        "iconrotate": "0",
        "popupContent": "Amazing information about South West Combat Air Patrol 1.5km will be found here!"
      },
      "bf2props": {
        "name": "cpname_the_falklands_vehicles64_cap_sw",
        "class": "ControlPoint",
        "name_object": "South West Combat Air Patrol 1.5km",
        "team": "0",
        "areavalue1": "20.0",
        "areavalue2": "20.0",
        "cpid": "903",
        "sgid": "20",
        "uncap": "false",
        "ttgc": "20.0",
        "ttlc": "90.0"
      }
    },
    {
      "type": "Feature",
      "geometry": {
        "type": "Point",
        "coordinates": [1896.0, -1896.0],
        "size": [33, 33],
        "radius": "1500.0"
      },
      "properties": {
        "iconurl": "icons/flags_map/neutral/minimap_cp.png",
        "iconrotate": "0",
        "popupContent": "Amazing information about North West Combat Air Patrol 1.5km will be found here!"
      },
      "bf2props": {
        "name": "cpname_the_falklands_vehicles64_cap_nw",
        "class": "ControlPoint",
        "name_object": "North West Combat Air Patrol 1.5km",
        "team": "0",
        "areavalue1": "20.0",
        "areavalue2": "20.0",
        "cpid": "904",
        "sgid": "20",
        "uncap": "false",
        "ttgc": "40.0",
        "ttlc": "50.0"
      }
    },
    {
      "type": "Feature",
      "geometry": {
        "type": "Point",
        "coordinates": [4096.0, -4096.0],
        "size": [33, 33],
        "radius": "1250.0"
      },
      "properties": {
        "iconurl": "icons/flags_map/neutral/minimap_cp.png",
        "iconrotate": "0",
        "popupContent": "Amazing information about Central Combat Air Patrol 1.25km will be found here!"
      },
      "bf2props": {
        "name": "cpname_the_falklands_vehicles64_cap_centre",
        "class": "ControlPoint",
        "name_object": "Central Combat Air Patrol 1.25km",
        "team": "0",
        "areavalue1": "20.0",
        "areavalue2": "20.0",
        "cpid": "905",
        "sgid": "20",
        "uncap": "false",
        "ttgc": "30.0",
        "ttlc": "50.0"
      }
    },
    {
      "type": "Feature",
      "geometry": {
        "type": "Polygon",
        "coordinates": [
          [
            [0,0],
            [0,-8192],
            [8192,-8192],
            [8192,0]
          ],[
            [8192.0, 0.0],
            [8192.0, -8192.0],
            [0.0, -8192.0],
            [0.0, 0.0]
          ]
        ]
      },
      "bf2props": {
        "code": "combatarea_0_vw_64",
        "class": "CombatArea",
        "team": "0",
        "vehicles": "4",
        "layer": "10",
        "inverted": "false",
        "max": [0.0, 0.0],
        "min": [0.0, 0.0]
      }
    }
  ]
}