50cal_tripod = null
aa_m167 = null
aircontroltower = null
aircontroltower_cf = null
aircontroltower_chi = null
aircontroltower_chins = null
aircontroltower_fr = null
aircontroltower_gb = null
aircontroltower_idf = null
aircontroltower_mec = null
aircontroltower_ru = null
ammocache = null
arf_acv_technical = null
ars_d30 = null
artillery_team1 = null
artillery_team2 = null
ats_hj8 = null
ats_hj8_ndl = null
ats_tow = null
ats_tow_ndl = null
bipod_gpmg_l7a2 = null
bipod_gpmg_m60 = null
bipod_gpmg_pkm = null
bipod_gpmg_pkp = null
boat_rib = RHIB
boat_rib_agl_mk19 = RHIB
boat_rib_gpmg_anf1 = RHIB
boat_rib_gpmg_c6 = RHIB
boat_rib_gpmg_l7a2 = RHIB
boat_rib_gpmg_m240b = RHIB
boat_rib_gpmg_mg3 = RHIB
boat_rib_gpmg_pkp = RHIB
boat_rib_hmg_m2 = RHIB
cf_acv_lav3cpv = null
cf_apc_lav3 = LAV-3
cf_apc_lav3_bf2 = LAV-3
cf_bipod = null
cf_ifv_coyote = Coyote Recon Vehicle
cf_ifv_coyote_bf2 = Coyote Recon Vehicle
cf_jep_gwagon = Mercedes G-Wagen
cf_jep_gwagon_support = Mercedes G-Wagen Support
cf_jep_gwagon_support_codriver = null
cf_jet_cf18 = CF-188A Hornet
cf_jet_cf18_cas = CF-188A Hornet CAS
cf_jet_cf18_sp = CF-188A Hornet
cf_the_ch146 = CH-146 Griffon
cf_the_ch146_c6 = CH-146 Griffon
cf_the_chinook = CH-147F Chinook
cf_the_uh1n = CH-135 Twin Huey
cf_the_uh1n_c6 = CH-135 Twin Huey
cf_tnk_leo2a6 = Leopard 2A6
cf_tnk_leo2a6_bf2 = Leopard 2A6
cf_trk_logistics = MLVW Logistics
cf_trk_support = MLVW
ch_aav_type95 = Type 95 SPAAA
ch_acv_wz551 = null
ch_ahe_z10 = Z-10
ch_ahe_z10_sp = Z-10
ch_ahe_z9wa = Z-9WA Haitun
ch_ahe_z9wa_23mm_guns = Z-9WA Haitun 23mm
ch_ahe_z9wa_23mm_guns_sp = Z-9WA Haitun 23mm
ch_ahe_z9wa_hf25 = Z-9WA Haitun HF-25
ch_ahe_z9wa_hf25_sp = Z-9WA Haitun HF-25
ch_ahe_z9wa_hf7d = Z-9WA Haitun HF7D
ch_ahe_z9wa_hf7d_sp = Z-9WA Haitun HF7D
ch_ahe_z9wa_hj8 = Z-9WA Haitun HJ-8
ch_apc_wz551 = ZSL-92 25mm
ch_apc_wz551_bf2 = ZSL-92 25mm
ch_apc_wz551a = ZSL-92A
ch_atm_wz550 = WZ550
ch_bipod = null
ch_boat = Landing Boat
ch_ifv_type86 = Type 86G
ch_ifv_type86_bf2 = Type 86G
ch_ifv_wz551b = ZSL-92B 30mm
ch_jep_paratrooper = Norinco FAV
ch_jep_uaz = BJ2020
ch_jep_vn3 = VN-3
ch_jet_fantan = Q-5 Fantan
ch_jet_j10 = J-10 Firebird
ch_jet_j10_sp = J-10 Firebird
ch_jet_su30 = Su-30MKK Flanker-G
ch_jet_su30_sp = Su-30MKK Flanker-G
ch_the_mi17 = Mi-17 Hip-H
ch_the_z8 = Z-8KA
ch_the_z9b = Zhi-9B
ch_tnk_type98 = ZTZ-98
ch_tnk_type98_bf2 = ZTZ-98
ch_tnk_ztz99 = ZTZ-99A2
ch_trk_logistics = EQ2080 Logistics
ch_trk_support = EQ2080 2.5 Ton
civ_aav_uralzu232 = Ural-4320 ZU-23-2
civ_atm_technical = SPG-9 Technical
civ_atm_technical_militia = SPG-9 Technical
civ_atm_technical_rocket = Rocket Technical
civ_bik_atv = All-Terrain Vehicle
civ_bik_dirtbike = Dirtbike
civ_bik_hondacb500 = Honda CB500
civ_jep_car = Civilian Car
civ_jep_car_black = Civilian Car
civ_jep_car_blue = Civilian Car
civ_jep_car_bomber = Car Bomb
civ_jep_car_bomber_black = Car Bomb
civ_jep_car_bomber_blue = Car Bomb
civ_jep_car_bomber_white = Car Bomb
civ_jep_car_white = Civilian Car
civ_jep_forklift = Industrial Forklift
civ_jep_forklift_gunner = null
civ_jep_forklift_gunner_2 = null
civ_jep_support = Logistics Technical
civ_jep_support_arf = Logistics Technical
civ_jep_support_militia = Logistics Technical
civ_jep_technical = DShKM Technical
civ_jep_technical2 = DShKM Technical
civ_jep_technical_black = M2HB Technical
civ_jep_technical_blue = DShKM Technical
civ_jep_technical_militia = DShKM Technical
civ_jep_technical_red = M2HB Technical
civ_jep_zastava900ak = Zastava 900AK Van
civ_jep_zastava900ak_militia = Zastava 900AK Van
civ_trk_dumpster = Dumpster Truck
civ_trk_dumpster_bomber = Suicide Dumpster Truck
civ_trk_semi = Semi Trailer Truck
civ_trk_semi_bomber = Suicide Semi Trailer Truck
civiliancar2 = Civilian Car
deployable_50cal_tripod_ch = null
deployable_50cal_tripod_ch_dummy = null
deployable_50cal_tripod_ch_sp = null
deployable_50cal_tripod_mec = null
deployable_50cal_tripod_mec_dummy = null
deployable_50cal_tripod_mec_sp = null
deployable_50cal_tripod_mil = null
deployable_50cal_tripod_mil_dummy = null
deployable_50cal_tripod_mil_sp = null
deployable_50cal_tripod_us = null
deployable_50cal_tripod_us_dummy = null
deployable_50cal_tripod_us_is = null
deployable_50cal_tripod_us_sp = null
deployable_agl_tripod_us = null
deployable_bunker = null
deployable_bunker_dummy = null
deployable_commandpost_cf = null
deployable_commandpost_ch = null
deployable_commandpost_ch_dummy = null
deployable_commandpost_chins = null
deployable_commandpost_fr = null
deployable_commandpost_gb = null
deployable_commandpost_gb_dummy = null
deployable_commandpost_ger = null
deployable_commandpost_idf = null
deployable_commandpost_mec = null
deployable_commandpost_mec_dummy = null
deployable_commandpost_meins = null
deployable_commandpost_nl = null
deployable_commandpost_ru = null
deployable_commandpost_us = null
deployable_commandpost_us_dummy = null
deployable_djigit = null
deployable_djigit_dummy = null
deployable_djigit_sp = null
deployable_firebase = null
deployable_firebase_dummy = null
deployable_firebase_sp = null
deployable_foxhole = null
deployable_foxhole_dummy = null
deployable_foxhole_sp = null
deployable_hj8 = null
deployable_hj8_dummy = null
deployable_hj8_sp = null
deployable_insurgent_hideout = null
deployable_insurgent_hideout_dummy = null
deployable_insurgent_hideout_sp = null
deployable_milan = null
deployable_milan_dummy = null
deployable_milan_sp = null
deployable_mortar_m252 = null
deployable_mortar_m252_dummy = null
deployable_mortar_m252_ins = null
deployable_mortar_m252_ins_dummy = null
deployable_mortar_m252_ins_sp = null
deployable_mortar_m252_sp = null
deployable_pillbox = null
deployable_pillbox_dummy = null
deployable_razorwire = null
deployable_razorwire_dummy = null
deployable_razorwire_sp = null
deployable_roadblock_l01 = null
deployable_roadblock_l01_sp = null
deployable_roadblock_l02 = null
deployable_roadblock_l02_sp = null
deployable_roadblock_l03 = null
deployable_roadblock_l03_sp = null
deployable_roadblock_long_dummy = null
deployable_roadblock_s01 = null
deployable_roadblock_s01_sp = null
deployable_roadblock_s02 = null
deployable_roadblock_s02_sp = null
deployable_roadblock_short_dummy = null
deployable_sandbags_5m = null
deployable_sandbags_5m_dummy = null
deployable_sandbags_5m_sp = null
deployable_spg9 = null
deployable_spg9_dummy = null
deployable_spg9_sp = null
deployable_stinger = null
deployable_stinger_dummy = null
deployable_stinger_sp = null
deployable_tow = null
deployable_tow_dummy = null
deployable_tow_sp = null
dummy = null
fixed_50cal_tripod_ch = null
fixed_50cal_tripod_mec = null
fixed_50cal_tripod_us = null
fixed_bunker = null
fixed_carrier = null
fixed_firebase = null
fixed_insurgent_hideout = null
fixed_mortar = null
fixed_mortar_ins = null
fixed_spawn = null
fixed_spawn_cache = null
fixed_supply_crate = null
fr_acv_vab = null
fr_ahe_tiger = EC 665 Tigre HAP
fr_ahe_tiger_sp = EC 665 Tigre HAP
fr_apc_vab = VAB VTT
fr_apc_vbci = VBCI
fr_apc_vbci_bf2 = VBCI
fr_the_chinook = CH-147 Chinook
fr_the_nh90 = NH90 TTH
fr_the_nh90_navy = NH90 NFH
fr_the_panther = AS565 MB Panther
fr_tnk_amx10rc = AMX-10RC
fr_tnk_amx10rc_bf2 = AMX-10RC
fr_tnk_leclerc = AMX-56 Leclerc
fr_tnk_leclerc_bf2 = AMX-56 Leclerc
fr_trk_logistics = GBC 180 Logistics
fr_trk_support = GBC-180
fsa_ifv_bmp1 = BMP-1
fsa_jep_zastava900ak_logistics = Logistics Van
fsa_tnk_t62 = T-62
gb_aav_stormer = Stormer HVM
gb_acv_sultan = null
gb_ahe_apache = Apache AH1
gb_ahe_apache_sp = Apache AH1
gb_apc_warrior = FV 510 Warrior
gb_apc_warrior_bf2 = FV 510 Warrior
gb_bipod = null
gb_ifv_scimitar = FV 107 Scimitar
gb_ifv_scimitar_bf2 = FV 107 Scimitar
gb_ifv_scimitar_cage = FV 107 Scimitar
gb_jep_landrover = Land Rover
gb_jep_landrover_gmg = Land Rover GMG
gb_jep_landrover_support = Land Rover Support
gb_jep_panther = Panther CLV
gb_jep_panther_alt = Panther CLV
gb_jet_eurofighter = Eurofighter Typhoon
gb_jet_eurofighter_sp = Eurofighter Typhoon
gb_jet_harrier = Harrier GR.9
gb_jet_harrier_gr9_asf = Harrier GR.9 ASF
gb_jet_tornadogr4_mw1 = Tornado GR4
gb_the_chinook = Chinook HC4
gb_the_lynx = Lynx AH.7
gb_the_lynx_alt = Lynx AH.7
gb_the_lynx_l7a2 = Lynx AH.7
gb_the_lynx_l7a2_alt = Lynx AH.7
gb_the_lynx_sp = killed
gb_the_merlin = Merlin HC3
gb_tnk_challenger = FV4034 Challenger 2
gb_tnk_challenger_alt = FV4034 Challenger 2
gb_tnk_challenger_alt_bf2 = FV4034 Challenger 2
gb_tnk_challenger_bf2 = FV4034 Challenger 2
gb_trk_logistics = MAN SV Logistics
gb_trk_logistics_cage = MAN SV Logistics
gb_trk_support = MAN Support Vehicle
ger_acv_m557a2 = null
ger_ahe_tiger = EC 665 UH Tiger
ger_ahe_tiger_sp = EC 665 UH Tiger
ger_apc_fuchs = TPz Fuchs 1A8
ger_apc_puma = Puma
ger_bipod = null
ger_ifv_puma = Puma IFV
ger_ifv_puma_bf2 = Puma IFV
ger_jep_gwagon_support = Mercedes G-Wagen
ger_jep_gwagon_support_alt = Mercedes G-Wagen
ger_jet_eurofighter = Eurofighter Typhoon
ger_jet_eurofighter_sp = Eurofighter Typhoon
ger_jet_tornadogr4_mw1 = Tornado IDS
ger_the_nh90 = NH90 TTH
ger_the_uh1d = Bell UH-1D
ger_the_uh1d_mg3 = Bell UH-1D
ger_tnk_leo2a6 = Leopard 2A6
ger_tnk_leo2a6_bf2 = Leopard 2A6
ger_trk_logistics = MAN SV Logistics
ger_trk_support = MAN Support Vehicle
glu-1_firebomb = null
glu-1_firebomb_fire = null
idf_acv_m557 = null
idf_ahe_apache = AH-64D Saraph
idf_ahe_apache_sp = AH-64D Saraph
idf_apc_m113 = M113
idf_apc_m113_logistics = M113 Logistics
idf_apc_namer = Namer
idf_jep_hmmwv = HMMWV SIYUR
idf_jep_hmmwvopen = HMMWV SIYUR
idf_jet_f16 = F-16C Barak
idf_the_uh60 = UH-60L Yanshuf
idf_tnk_merkava = Merkava Mark IV
idf_tnk_merkava_bf2 = Merkava Mark IV
idf_trk_logistics = M35 Logistics
idf_trk_support = M35 2.5 Ton
igla_djigit = null
init_air_obj = null
init_air_spn = null
init_air_spn_alt = null
insrg_bipod = null
insurgent_hideout = null
invisible_object = null
jdam_flyby = null
jdam_team1 = null
jdam_team2 = null
kitcol = null
mark_coordinates = null
mark_laser = null
mark_team1 = null
mark_team1_holder = null
mark_team2 = null
mark_team2_holder = null
marker_ammo = null
marker_area_attack = null
marker_area_attack_revealed = null
marker_area_attack_revealed_secondary = null
marker_area_attack_secondary = null
marker_area_defend = null
marker_area_defend_revealed = null
marker_area_defend_revealed_secondary = null
marker_area_defend_secondary = null
marker_cas = null
marker_extract = null
marker_extract_apc = null
marker_extract_helo = null
marker_extract_jeep = null
marker_laser = null
marker_lz = null
marker_lz_1 = null
marker_lz_2 = null
marker_lz_3 = null
marker_lz_4 = null
marker_lz_5 = null
marker_lz_6 = null
marker_lz_7 = null
marker_medic = null
marker_mines = null
marker_mortar = null
marker_paradrop_end = null
marker_paradrop_start = null
marker_point_attack = null
marker_point_attack_revealed = null
marker_point_attack_revealed_a = null
marker_point_attack_revealed_secondary = null
marker_point_attack_revealed_secondary_a = null
marker_point_attack_secondary = null
marker_point_defend = null
marker_point_defend_revealed = null
marker_point_defend_revealed_secondary = null
marker_point_defend_secondary = null
marker_repair = null
marker_spotted = null
marker_spotted_aa = null
marker_spotted_aav = null
marker_spotted_apc = null
marker_spotted_at = null
marker_spotted_atm = null
marker_spotted_bridge = null
marker_spotted_destroyedbridge = null
marker_spotted_ifv = null
marker_spotted_infantry = null
marker_spotted_jeep = null
marker_spotted_mine = null
marker_spotted_objective = null
marker_spotted_objective_commander = null
marker_spotted_outpost = null
marker_spotted_outpost_commander = null
marker_spotted_rally = null
marker_spotted_razorwire = null
marker_spotted_sniper = null
marker_spotted_spotter = null
marker_spotted_stationaryaa = null
marker_spotted_stationaryat = null
marker_spotted_stationarymg = null
marker_spotted_stationarymortar = null
marker_spotted_stationarymortar_commander = null
marker_spotted_tank = null
marker_spotted_truck = null
marker_status = null
marker_status_attack = null
marker_status_build = null
marker_status_defend = null
marker_status_destroy = null
marker_status_move = null
marker_status_observe = null
marker_supply = null
marker_support = null
marker_support_armor = null
marker_support_bombcar = null
marker_support_cas = null
marker_support_jeep = null
marker_target = null
marker_uav = null
marker_uncappable = null
mec_aav_gaskin = 9K31 Gaskin
mec_aav_gopher = 9K35 Gopher
mec_aav_shilka = ZSU-23-4 Shilka
mec_acv_btr60pu = null
mec_ahe_ec635 = EC635 Eurocopter
mec_ahe_havoc = Mi-28N Havoc
mec_ahe_havoc_sp = Mi-28N Havoc
mec_ahe_mi24 = Mi-35P Hind
mec_ahe_mi24_light = Mi-35 Hind
mec_ahe_mi24_light_sp = Mi-35 Hind
mec_ahe_sa341h = SOKO HN-45M Gama 2
mec_apc_bmp2 = BMP-2
mec_apc_bmp2_bf2 = BMP-2
mec_apc_boragh = Boragh
mec_apc_btr60 = BTR-60PB
mec_apc_btr60_bf2 = BTR-60PB
mec_apc_btr80 = BTR-80
mec_apc_btr80_alt = BTR-80
mec_apc_mtlb = MT-LB
mec_apc_mtlb_30mm = MT-LB 6MA
mec_apc_mtlb_30mm_bf2 = MT-LB 6MA
mec_apc_mtlb_hmg = MT-LB 6M
mec_atm_shturm = 9P149 Shturm-S
mec_atm_spandrel = 9P148 Spandrel
mec_atm_spandrel_bf2 = 9P148 Spandrel
mec_ats_milan = null
mec_ats_milan_ndl = null
mec_bipod = null
mec_ifv_bmp2m = BMP-2M
mec_ifv_bmp2m_bf2 = BMP-2M
mec_ifv_bmp3 = BMP-3
mec_ifv_bmp3_bf2 = BMP-3
mec_ifv_scorpion = FV101 Scorpion
mec_ifv_scorpion_bf2 = FV101 Scorpion
mec_jep_brdm2 = BRDM-2
mec_jep_brdm2_support = BRDM-2 Support
mec_jep_uaz = UAZ-469 Support
mec_jep_uaz_mg = UAZ-469
mec_jet_mig29 = MiG-29 Fulcrum
mec_jet_mig29_bijar = MiG-29 Fulcrum
mec_jet_mig29_sp = MiG-29 Fulcrum
mec_jet_su22 = Su-22 Fitter
mec_jet_su22_sp = Su-22 Fitter
mec_jet_su25a = Su-25 Frogfoot
mec_jet_su25a_sp = Su-25 Frogfoot
mec_the_mi17 = Mi-17 Hip-H
mec_the_mi17_sp = Mi-17 Hip-H
mec_the_sa341h = SOKO HO-42
mec_tnk_t72 = T-72M1
mec_tnk_t72_bf2 = T-72M1
mec_trk_logistics = Ural-4320 Logistics
mec_trk_support = Ural-4320
mil_acv_technical = null
mil_ifv_bmp1 = BMP-1
mil_ifv_bmp1_bf2 = BMP-1
mil_tnk_t62 = T-62
mil_tnk_t62_bf2 = T-62
mil_trk_logistics = Ural-4320 Logistics
mil_trk_support = Ural-4320
mobileradar_ch_dest = null
mobileradar_dest = null
mobileradar_gb_dest = null
mobileradar_mech_dest = null
mobileradar_us_dest = null
mortar_team1 = null
mortar_team2 = null
nl_aav_fennekswp = Fennek SWP
nl_acv_boxer = null
nl_ahe_apache = AH-64D Apache
nl_ahe_apache_sp = AH-64D Apache
nl_apc_boxer = Boxer PWV
nl_apc_ypr50 = YPR-765
nl_apc_ypr50_gpmg = YPR-765 GPMG
nl_jep_bushmaster = Bushmaster PMV
nl_jep_bushmaster_crows = Bushmaster PMV CROWS
nl_jep_fennek = Fennek VWWRN
nl_jep_gwagon_support = Mercedes-Benz G280
nl_jep_landrover = Land Rover Defender 110XD WW
nl_jet_f16 = F-16C Fighting Falcon
nl_jet_f16_cas = F-16C Fighting Falcon CAS
nl_jet_f35a = F-35A Lightning II
nl_jet_f35a_asf = F-35A Lightning II ASF
nl_the_chinook = CH-47D Chinook
nl_the_nh90 = NH90 TTH
nl_tnk_leo2a6 = Leopard 2A6
nl_trk_logistics = DAF YAC-2300
nl_trk_support = DAF YA 4440
nva_aav_zsu57 = ZSU-57-2
nva_apc_btr60 = BTR-60PB
nva_jep_uaz = UAZ-469 Support
nva_jep_uaz_mg = UAZ-469
nva_jet_mig21 = MiG-21 Fishbed
nva_tnk_pt76 = PT-76
nva_trk_support = ZIL 131
nva_trk_zis5 = ZIS-5V
obj_ammodump_lrg = null
obj_arty_arsd30 = null
obj_arty_lw155 = null
obj_bridge_dambridge_part1 = null
obj_bridge_dambridge_part2 = null
obj_bridge_dambridge_part3 = null
obj_bridge_highwaysegment_1 = null
obj_bridge_highwaysegment_2 = null
obj_bridgetrain_section = null
obj_fueldump_fueltank = null
obj_radiotower = null
obj_staticvehicle_f35b = null
obj_staticvehicle_nanjing = null
obj_staticvehicle_nanjing_2 = null
obj_staticvehicle_type95 = null
obj_staticvehicle_type98 = null
obj_staticvehicle_type98_2 = null
obj_staticvehicle_wz551 = null
objective_leo2a6 = null
objective_t90 = null
para_supply_crate = null
paradrop = null
paradrop_noexpire = null
rallypoint_arf_0 = null
rallypoint_arf_1 = null
rallypoint_arf_2 = null
rallypoint_arf_3 = null
rallypoint_arf_4 = null
rallypoint_arf_5 = null
rallypoint_arf_6 = null
rallypoint_arf_7 = null
rallypoint_arf_8 = null
rallypoint_arf_9 = null
rallypoint_arf_placeable = null
rallypoint_arf_placeable_noexpire = null
rallypoint_arf_placeable_noexpire_random = null
rallypoint_arf_placeable_random = null
rallypoint_cf_0 = null
rallypoint_cf_1 = null
rallypoint_cf_2 = null
rallypoint_cf_3 = null
rallypoint_cf_4 = null
rallypoint_cf_5 = null
rallypoint_cf_6 = null
rallypoint_cf_7 = null
rallypoint_cf_8 = null
rallypoint_cf_9 = null
rallypoint_cf_placeable = null
rallypoint_cf_placeable_noexpire = null
rallypoint_cf_placeable_noexpire_random = null
rallypoint_cf_placeable_random = null
rallypoint_ch_0 = null
rallypoint_ch_1 = null
rallypoint_ch_2 = null
rallypoint_ch_3 = null
rallypoint_ch_4 = null
rallypoint_ch_5 = null
rallypoint_ch_6 = null
rallypoint_ch_7 = null
rallypoint_ch_8 = null
rallypoint_ch_9 = null
rallypoint_ch_placeable = null
rallypoint_ch_placeable_noexpire = null
rallypoint_ch_placeable_noexpire_random = null
rallypoint_ch_placeable_random = null
rallypoint_chinsurgent_0 = null
rallypoint_chinsurgent_1 = null
rallypoint_chinsurgent_2 = null
rallypoint_chinsurgent_3 = null
rallypoint_chinsurgent_4 = null
rallypoint_chinsurgent_5 = null
rallypoint_chinsurgent_6 = null
rallypoint_chinsurgent_7 = null
rallypoint_chinsurgent_8 = null
rallypoint_chinsurgent_9 = null
rallypoint_chinsurgent_placeable = null
rallypoint_chinsurgent_placeable_noexpire = null
rallypoint_chinsurgent_placeable_noexpire_random = null
rallypoint_chinsurgent_placeable_random = null
rallypoint_fr_0 = null
rallypoint_fr_1 = null
rallypoint_fr_2 = null
rallypoint_fr_3 = null
rallypoint_fr_4 = null
rallypoint_fr_5 = null
rallypoint_fr_6 = null
rallypoint_fr_7 = null
rallypoint_fr_8 = null
rallypoint_fr_9 = null
rallypoint_fr_placeable = null
rallypoint_fr_placeable_noexpire = null
rallypoint_fr_placeable_noexpire_random = null
rallypoint_fr_placeable_random = null
rallypoint_fsa_0 = null
rallypoint_fsa_1 = null
rallypoint_fsa_2 = null
rallypoint_fsa_3 = null
rallypoint_fsa_4 = null
rallypoint_fsa_5 = null
rallypoint_fsa_6 = null
rallypoint_fsa_7 = null
rallypoint_fsa_8 = null
rallypoint_fsa_9 = null
rallypoint_fsa_placeable = null
rallypoint_fsa_placeable_noexpire = null
rallypoint_fsa_placeable_noexpire_random = null
rallypoint_fsa_placeable_random = null
rallypoint_gb_0 = null
rallypoint_gb_1 = null
rallypoint_gb_2 = null
rallypoint_gb_3 = null
rallypoint_gb_4 = null
rallypoint_gb_5 = null
rallypoint_gb_6 = null
rallypoint_gb_7 = null
rallypoint_gb_8 = null
rallypoint_gb_9 = null
rallypoint_gb_placeable = null
rallypoint_gb_placeable_noexpire = null
rallypoint_gb_placeable_noexpire_random = null
rallypoint_gb_placeable_random = null
rallypoint_ger_0 = null
rallypoint_ger_1 = null
rallypoint_ger_2 = null
rallypoint_ger_3 = null
rallypoint_ger_4 = null
rallypoint_ger_5 = null
rallypoint_ger_6 = null
rallypoint_ger_7 = null
rallypoint_ger_8 = null
rallypoint_ger_9 = null
rallypoint_ger_placeable = null
rallypoint_ger_placeable_noexpire = null
rallypoint_ger_placeable_noexpire_random = null
rallypoint_ger_placeable_random = null
rallypoint_hamas_0 = null
rallypoint_hamas_1 = null
rallypoint_hamas_2 = null
rallypoint_hamas_3 = null
rallypoint_hamas_4 = null
rallypoint_hamas_5 = null
rallypoint_hamas_6 = null
rallypoint_hamas_7 = null
rallypoint_hamas_8 = null
rallypoint_hamas_9 = null
rallypoint_hamas_placeable = null
rallypoint_hamas_placeable_noexpire = null
rallypoint_hamas_placeable_noexpire_random = null
rallypoint_hamas_placeable_random = null
rallypoint_idf_0 = null
rallypoint_idf_1 = null
rallypoint_idf_2 = null
rallypoint_idf_3 = null
rallypoint_idf_4 = null
rallypoint_idf_5 = null
rallypoint_idf_6 = null
rallypoint_idf_7 = null
rallypoint_idf_8 = null
rallypoint_idf_9 = null
rallypoint_idf_placeable = null
rallypoint_idf_placeable_noexpire = null
rallypoint_idf_placeable_noexpire_random = null
rallypoint_idf_placeable_random = null
rallypoint_mec_0 = null
rallypoint_mec_1 = null
rallypoint_mec_2 = null
rallypoint_mec_3 = null
rallypoint_mec_4 = null
rallypoint_mec_5 = null
rallypoint_mec_6 = null
rallypoint_mec_7 = null
rallypoint_mec_8 = null
rallypoint_mec_9 = null
rallypoint_mec_placeable = null
rallypoint_mec_placeable_noexpire = null
rallypoint_mec_placeable_noexpire_random = null
rallypoint_mec_placeable_random = null
rallypoint_meinsurgent_placeable = null
rallypoint_meinsurgent_placeable_noexpire = null
rallypoint_meinsurgent_placeable_noexpire_random = null
rallypoint_meinsurgent_placeable_random = null
rallypoint_nl_0 = null
rallypoint_nl_1 = null
rallypoint_nl_2 = null
rallypoint_nl_3 = null
rallypoint_nl_4 = null
rallypoint_nl_5 = null
rallypoint_nl_6 = null
rallypoint_nl_7 = null
rallypoint_nl_8 = null
rallypoint_nl_9 = null
rallypoint_nl_placeable = null
rallypoint_nl_placeable_noexpire = null
rallypoint_nl_placeable_noexpire_random = null
rallypoint_nl_placeable_random = null
rallypoint_ru_0 = null
rallypoint_ru_1 = null
rallypoint_ru_2 = null
rallypoint_ru_3 = null
rallypoint_ru_4 = null
rallypoint_ru_5 = null
rallypoint_ru_6 = null
rallypoint_ru_7 = null
rallypoint_ru_8 = null
rallypoint_ru_9 = null
rallypoint_ru_placeable = null
rallypoint_ru_placeable_noexpire = null
rallypoint_ru_placeable_noexpire_random = null
rallypoint_ru_placeable_random = null
rallypoint_taliban_0 = null
rallypoint_taliban_1 = null
rallypoint_taliban_2 = null
rallypoint_taliban_3 = null
rallypoint_taliban_4 = null
rallypoint_taliban_5 = null
rallypoint_taliban_6 = null
rallypoint_taliban_7 = null
rallypoint_taliban_8 = null
rallypoint_taliban_9 = null
rallypoint_taliban_placeable = null
rallypoint_taliban_placeable_noexpire = null
rallypoint_taliban_placeable_noexpire_random = null
rallypoint_taliban_placeable_random = null
rallypoint_us_0 = null
rallypoint_us_1 = null
rallypoint_us_2 = null
rallypoint_us_3 = null
rallypoint_us_4 = null
rallypoint_us_5 = null
rallypoint_us_6 = null
rallypoint_us_7 = null
rallypoint_us_8 = null
rallypoint_us_9 = null
rallypoint_us_placeable = null
rallypoint_us_placeable_noexpire = null
rallypoint_us_placeable_noexpire_random = null
rallypoint_us_placeable_random = null
rallypoint_usa_0 = null
rallypoint_usa_1 = null
rallypoint_usa_2 = null
rallypoint_usa_3 = null
rallypoint_usa_4 = null
rallypoint_usa_5 = null
rallypoint_usa_6 = null
rallypoint_usa_7 = null
rallypoint_usa_8 = null
rallypoint_usa_9 = null
rallypoint_usa_placeable = null
rallypoint_usa_placeable_noexpire = null
rallypoint_usa_placeable_noexpire_random = null
rallypoint_usa_placeable_random = null
rallypoint_vnnva_0 = null
rallypoint_vnnva_1 = null
rallypoint_vnnva_2 = null
rallypoint_vnnva_3 = null
rallypoint_vnnva_4 = null
rallypoint_vnnva_5 = null
rallypoint_vnnva_6 = null
rallypoint_vnnva_7 = null
rallypoint_vnnva_8 = null
rallypoint_vnnva_9 = null
rallypoint_vnnva_placeable = null
rallypoint_vnnva_placeable_noexpire = null
rallypoint_vnnva_placeable_noexpire_random = null
rallypoint_vnnva_placeable_random = null
rallypoint_vnusa_0 = null
rallypoint_vnusa_1 = null
rallypoint_vnusa_2 = null
rallypoint_vnusa_3 = null
rallypoint_vnusa_4 = null
rallypoint_vnusa_5 = null
rallypoint_vnusa_6 = null
rallypoint_vnusa_7 = null
rallypoint_vnusa_8 = null
rallypoint_vnusa_9 = null
rallypoint_vnusa_placeable = null
rallypoint_vnusa_placeable_noexpire = null
rallypoint_vnusa_placeable_noexpire_random = null
rallypoint_vnusa_placeable_random = null
rallypoint_vnusmc_0 = null
rallypoint_vnusmc_1 = null
rallypoint_vnusmc_2 = null
rallypoint_vnusmc_3 = null
rallypoint_vnusmc_4 = null
rallypoint_vnusmc_5 = null
rallypoint_vnusmc_6 = null
rallypoint_vnusmc_7 = null
rallypoint_vnusmc_8 = null
rallypoint_vnusmc_9 = null
rallypoint_vnusmc_placeable = null
rallypoint_vnusmc_placeable_noexpire = null
rallypoint_vnusmc_placeable_noexpire_random = null
rallypoint_vnusmc_placeable_random = null
ru_aav_gopher = 9K35 Gopher
ru_aav_tunguska = 9K22 Tunguska
ru_acv_btr60pu = null
ru_ahe_havoc = Mi-28N Havoc
ru_ahe_havoc_sp = Mi-28N Havoc
ru_ahe_mi24 = Mi-24P Hind-F
ru_ahe_mi24_light = Mi-24V Hind-E
ru_ahe_mi24_sp = Mi-24P Hind-F
ru_apc_bmp2 = BMP-2
ru_apc_bmp2_bf2 = BMP-2
ru_apc_btr60 = BTR-60PB
ru_apc_btr60_bf2 = BTR-60PB
ru_apc_btr80 = BTR-80
ru_apc_btr80_alt = BTR-80
ru_apc_btr80_bf2 = BTR-80
ru_apc_btr80a = BTR-80A
ru_apc_btr80a_bf2 = BTR-80A
ru_apc_mtlb = MT-LB
ru_apc_mtlb_hmg = MT-LBM
ru_atm_shturm = 9P149 Shturm-S
ru_atm_spandrel = 9P148 Spandrel
ru_atm_spandrel_bf2 = 9P148 Spandrel
ru_bipod = null
ru_ifv_bmp2 = BMP-2
ru_ifv_bmp2_bf2 = BMP-2
ru_ifv_bmp3 = BMP-3
ru_ifv_bmp3_bf2 = BMP-3
ru_jep_brdm2 = BRDM-2
ru_jep_brdm2_alt = BRDM-2
ru_jep_brdm2_support = BRDM-2 Support
ru_jet_mig21 = MiG-21MF Fishbed
ru_jet_mig29 = MiG-29S Fulcrum
ru_jet_mig29_asf = MiG-29S Fulcrum ASF
ru_jet_mig29_sp = MiG-29S Fulcrum
ru_jet_su25a = Su-25 Frogfoot
ru_jet_su25a_sp = Su-25 Frogfoot
ru_jet_su27 = Su-27SM Flanker-B
ru_jet_su27_asf = Su-27SM Flanker-B ASF
ru_jet_su34 = Su-34 Fullback
ru_jet_su39 = Su-39 Frogfoot
ru_the_mi8 = Mi-8MT Hip-C
ru_tnk_t90 = T-90A
ru_tnk_t90_alt = T-90A
ru_tnk_t90_bf2 = T-90A
ru_trk_logistics = Ural-4320 Logistics
ru_trk_support = Ural-4320
sam_sa3 = null
sam_sa3_alt1 = null
spectator_camera = null
spectator_camera_2 = null
spectator_camera_3 = null
spectator_camera_4 = null
spectator_camera_alt = null
static_uav_1_1km = null
static_uav_1_2km = null
static_uav_1_4km = null
static_uav_2_1km = null
static_uav_2_2km = null
static_uav_2_4km = null
target_pr = null
truck1 = null
uav_fuel = null
us_aav_avenger = AN/TWQ-1 Avenger
us_acv_lavc2 = null
us_acv_stryker = null
us_ahe_ah1z = AH-1 SuperCobra
us_ahe_ah1z_sp = AH-1 SuperCobra
us_ahe_ah6 = AH-6 Littlebird
us_ahe_ah6_sp = AH-6 Littlebird
us_ahe_ah6a = AH-6 Littlebird
us_ahe_apache = AH-64D Apache Longbow
us_ahe_apache_sp = AH-64D Apache Longbow
us_ahe_kiowa = OH-58D Kiowa Hydra/.50
us_ahe_kiowa_alt = OH-58D Kiowa Hydra
us_ahe_kiowa_alt2 = OH-58D Kiowa Hellfire
us_ahe_kiowa_alt_sp = OH-58D Kiowa Hydra
us_ahe_kiowa_sp = OH-58D Kiowa Hydra/.50
us_ahe_oh6 = OH-6 Cayuse
us_ahe_uh1c = UH-1C Huey
us_ahe_uh1c_sp = UH-1C Huey
us_ahe_uh1nrockets = UH-1N Twin Huey CAS
us_ahe_uh1nrockets_sp = UH-1N Twin Huey CAS
us_apc_aavp7a1 = AAVP7A1 RAM/RS
us_apc_aavp7a1_bf2 = AAVP7A1 RAM/RS
us_apc_acav = M113 ACAV
us_apc_lav25 = LAV-25
us_apc_lav25_bf2 = LAV-25
us_apc_m113 = M113
us_apc_stryker = M1126 Stryker ICV
us_apc_stryker_mk19 = M1126 Stryker ICV MK19
us_atm_hmmwv = M1045A1 HMMWV TOW
us_atm_hmmwv_uparmored = M1167 HMMWV Up-Armored TOW
us_bipod = null
us_ifv_m2a2 = M2A2 Bradley ODS
us_ifv_m2a2_bf2 = M2A2 Bradley ODS
us_jep_hmmwv = M1025 HMMWV
us_jep_hmmwv_crows = M1025 HMMWV CROWS
us_jep_hmmwv_mk19 = M1025 HMMWV MK19
us_jep_hmmwv_support = M1038A1 HMMWV
us_jep_hmmwv_uparmored = M1151 Up-Armored HMMWV
us_jep_hmmwv_uparmored_alt = M1151 Up-Armored HMMWV
us_jep_hmmwv_uparmored_crows = M1151 Up-Armored HMMWV CROWS
us_jep_hmmwv_uparmored_mk19 = M1151 Up-Armored HMMWV MK19
us_jep_m151a2 = M151A2
us_jep_m151a2_support = M151A2 Support
us_jet_a10a = A-10A Thunderbolt II
us_jet_a10a_sp = A-10A Thunderbolt II
us_jet_a1h = A-1H Skyraider
us_jet_a4 = A-4C Skyhawk
us_jet_f15 = F-15E Strike Eagle
us_jet_f16 = F-16C Fighting Falcon
us_jet_f16_sp = F-16C Fighting Falcon
us_jet_f18c = F/A-18C Hornet
us_jet_f35a = F-35A Lightning II
us_jet_f35a_asf = F-35A Lightning II ASF
us_jet_f35b = YF-35B Lightning II
us_jet_harrier = AV-8B Harrier II+
us_jet_harrier_sp = AV-8B Harrier II+
us_jet_harrierb = AV-8B Harrier II+ CAS
us_shp_pbr = Patrol Boat-River
us_shp_swiftboat = US Swift Boat
us_the_chinook = CH-47D Chinook
us_the_h-34 = H-34 Choctaw
us_the_mh6 = MH-6 Littlebird
us_the_mv22 = MV-22 Osprey
us_the_uh1c = UH-1C Huey
us_the_uh1c_sp = UH-1C Huey
us_the_uh1d = UH-1D Huey
us_the_uh1d_medevac = UH-1D Huey
us_the_uh1n = UH-1N Twin Huey
us_the_uh1n_m240d = UH-1N Twin Huey
us_the_uh1n_sp = UH-1N Twin Huey
us_the_uh60 = UH-60L Blackhawk
us_the_uh60_alt = UH-60L Blackhawk
us_the_uh60_soar = MH-60L Blackhawk
us_the_uh60_sp = UH-60L Blackhawk
us_tnk_m1a1 = M1A1 Abrams
us_tnk_m1a1_alt = M1A1 Abrams TUSK
us_tnk_m1a1_bf2 = M1A1 Abrams
us_tnk_m1a2 = M1A2 Abrams
us_tnk_m1a2_alt = M1A2 Abrams TUSK
us_tnk_m1a2_bf2 = M1A2 Abrams
us_tnk_m48a1 = M48A1 Patton
us_tnk_m67 = M67 Zippo
us_trk_logistics = M35 Logistics
us_trk_m35 = M35 2.5 Ton
us_trk_m548a1 = M548A1
us_trk_support = M35 2.5 Ton
usaas_stinger = null
usart_lw155 = null
vc_shp_sampan = Sampan
vehicle_depot = null
vehicle_depot_cf = null
vehicle_depot_ch = null
vehicle_depot_fr = null
vehicle_depot_fsa = null
vehicle_depot_gb = null
vehicle_depot_ger = null
vehicle_depot_idf = null
vehicle_depot_mec = null
vehicle_depot_mil = null
vehicle_depot_nl = null
vehicle_depot_ru = null
vehicle_depot_tal = null
vehicle_depot_us = null
vehicle_depot_vnnva = null
wasp_defence_back = null
wasp_defence_back_atc = null
wasp_defence_front = null
wasp_defence_front_atc = null
zis3 = ZiS-3 Field Gun
zis3_sp = null
zpu4 = null
zpu4_atc = null
zu232 = null
