{
  "team1":"vnnva",
  "team2":"vnusmc",
  "team1tickets":"500",
  "team2tickets":"500",
  "mapsize":"2048",
  "viewdistance":"600",
  "combatareause":"true",
  "combatareadamage":"20.0",
  "combatareaallowoutside":"10.0",
  "routes": [
    [
      [
        "cpname_battle_of_ia_drang_coop64_nvabase"
      ],
      [
        "cpname_battle_of_ia_drang_coop64_nvasentry"
      ],
      [
        "cpname_battle_of_ia_drang_coop64_nvacamp",
        "cpname_battle_of_ia_drang_coop64_aapit"
      ],
      [
        "cpname_battle_of_ia_drang_coop64_uslz"
      ]
    ]
  ],
  "type": "FeatureCollection",
  "features": [
    {
      "type": "Feature",
      "geometry": {
        "type": "Point",
        "coordinates": [1025.237, -1844.681],
        "size": [16, 16]
      },
      "properties": {
        "iconurl": "icons/vehicles_map/mini_smgsmall.png",
        "iconrotate": "0.0",
        "popupContent": "Amazing information about Stationary PKM will be found here!"
      },
      "bf2props": {
        "name": "cpname_battle_of_ia_drang_coop64_nvacamp_mg",
        "class": "ObjectSpawner",
        "name_object": "Stationary PKM",
        "team": "1",
        "obj1": "bipod_gpmg_pkm",
        "obj2": "null",
        "maxspawn": "0.0",
        "minspawn": "0.0",
        "spawndelay": "false",
        "ttl": "0.0",
        "cpid": "202"
      }
    },
    {
      "type": "Feature",
      "geometry": {
        "type": "Point",
        "coordinates": [520.0, -1446.0],
        "size": [16, 16]
      },
      "properties": {
        "iconurl": "icons/vehicles_map/mini_stw_aa_medium.png",
        "iconrotate": "0.0",
        "popupContent": "Amazing information about zpu4 will be found here!"
      },
      "bf2props": {
        "name": "cpname_battle_of_ia_drang_coop64_aapit_aa",
        "class": "ObjectSpawner",
        "name_object": "zpu4",
        "team": "1",
        "obj1": "zpu4",
        "obj2": "null",
        "maxspawn": "300.0",
        "minspawn": "300.0",
        "spawndelay": "false",
        "ttl": "0.0",
        "cpid": "203"
      }
    },
    {
      "type": "Feature",
      "geometry": {
        "type": "Point",
        "coordinates": [317.477, -1844.151],
        "size": [16, 16]
      },
      "properties": {
        "iconurl": "icons/vehicles_map/mini_smgsmall.png",
        "iconrotate": "37.454",
        "popupContent": "Amazing information about Stationary PKM will be found here!"
      },
      "bf2props": {
        "name": "cpname_battle_of_ia_drang_coop64_nvasentry_mg",
        "class": "ObjectSpawner",
        "name_object": "Stationary PKM",
        "team": "1",
        "obj1": "bipod_gpmg_pkm",
        "obj2": "null",
        "maxspawn": "0.0",
        "minspawn": "0.0",
        "spawndelay": "false",
        "ttl": "0.0",
        "cpid": "205"
      }
    },
    {
      "type": "Feature",
      "geometry": {
        "type": "Point",
        "coordinates": [1893.0, -98.0],
        "size": [16, 16]
      },
      "properties": {
        "iconurl": "icons/vehicles_map/mini_ahe_light.png",
        "iconrotate": "-140.0",
        "popupContent": "Amazing information about null will be found here!"
      },
      "bf2props": {
        "name": "cpname_battle_of_ia_drang_coop64_uslz_cr_0",
        "class": "ObjectSpawner",
        "name_object": "UH-1C Huey",
        "team": "2",
        "obj1": "null",
        "obj2": "us_ahe_uh1c",
        "maxspawn": "600.0",
        "minspawn": "600.0",
        "spawndelay": "false",
        "ttl": "99999.0",
        "cpid": "201"
      }
    },
    {
      "type": "Feature",
      "geometry": {
        "type": "Point",
        "coordinates": [1874.0, -83.0],
        "size": [16, 16]
      },
      "properties": {
        "iconurl": "icons/vehicles_map/mini_ahe_light.png",
        "iconrotate": "-140.0",
        "popupContent": "Amazing information about null will be found here!"
      },
      "bf2props": {
        "name": "cpname_battle_of_ia_drang_coop64_uslz_ahe",
        "class": "ObjectSpawner",
        "name_object": "UH-1C Huey",
        "team": "2",
        "obj1": "null",
        "obj2": "us_ahe_uh1c",
        "maxspawn": "600.0",
        "minspawn": "600.0",
        "spawndelay": "false",
        "ttl": "99999.0",
        "cpid": "201"
      }
    },
    {
      "type": "Feature",
      "geometry": {
        "type": "Point",
        "coordinates": [1840.0, -86.0],
        "size": [16, 16]
      },
      "properties": {
        "iconurl": "icons/vehicles_map/mini_the_medium.png",
        "iconrotate": "-140.0",
        "popupContent": "Amazing information about null will be found here!"
      },
      "bf2props": {
        "name": "cpname_battle_of_ia_drang_coop64_uslz_the",
        "class": "ObjectSpawner",
        "name_object": "H-34 Choctaw",
        "team": "2",
        "obj1": "null",
        "obj2": "us_the_h-34",
        "maxspawn": "600.0",
        "minspawn": "600.0",
        "spawndelay": "false",
        "ttl": "99999.0",
        "cpid": "201"
      }
    },
    {
      "type": "Feature",
      "geometry": {
        "type": "Point",
        "coordinates": [1860.0, -101.0],
        "size": [16, 16]
      },
      "properties": {
        "iconurl": "icons/vehicles_map/mini_the_light.png",
        "iconrotate": "-140.0",
        "popupContent": "Amazing information about null will be found here!"
      },
      "bf2props": {
        "name": "cpname_battle_of_ia_drang_coop64_uslz_the_0",
        "class": "ObjectSpawner",
        "name_object": "UH-1D Huey",
        "team": "2",
        "obj1": "null",
        "obj2": "us_the_uh1d",
        "maxspawn": "300.0",
        "minspawn": "300.0",
        "spawndelay": "false",
        "ttl": "99999.0",
        "cpid": "201"
      }
    },
    {
      "type": "Feature",
      "geometry": {
        "type": "Point",
        "coordinates": [1879.0, -116.0],
        "size": [16, 16]
      },
      "properties": {
        "iconurl": "icons/vehicles_map/mini_the_light.png",
        "iconrotate": "-140.0",
        "popupContent": "Amazing information about null will be found here!"
      },
      "bf2props": {
        "name": "cpname_battle_of_ia_drang_coop64_uslz_the_1",
        "class": "ObjectSpawner",
        "name_object": "UH-1D Huey",
        "team": "2",
        "obj1": "null",
        "obj2": "us_the_uh1d",
        "maxspawn": "300.0",
        "minspawn": "300.0",
        "spawndelay": "false",
        "ttl": "99999.0",
        "cpid": "201"
      }
    },
    {
      "type": "Feature",
      "geometry": {
        "type": "Point",
        "coordinates": [1789.0, -91.0],
        "size": [16, 16]
      },
      "properties": {
        "iconurl": "icons/vehicles_map/mini_jet_plane.png",
        "iconrotate": "-140.0",
        "popupContent": "Amazing information about null will be found here!"
      },
      "bf2props": {
        "name": "cpname_battle_of_ia_drang_coop64_uslz_jet",
        "class": "ObjectSpawner",
        "name_object": "A-1H Skyraider",
        "team": "2",
        "obj1": "null",
        "obj2": "us_jet_a1h",
        "maxspawn": "900.0",
        "minspawn": "900.0",
        "spawndelay": "false",
        "maxnr": "2",
        "ttl": "99999.0",
        "cpid": "201"
      }
    },
    {
      "type": "Feature",
      "geometry": {
        "type": "Point",
        "coordinates": [1028.0, -1888.0],
        "size": [16, 16]
      },
      "properties": {
        "iconurl": "icons/vehicles_map/mini_stw_aa_medium.png",
        "iconrotate": "0.0",
        "popupContent": "Amazing information about zpu4 will be found here!"
      },
      "bf2props": {
        "name": "cpname_battle_of_ia_drang_coop64_nvacamp_aa",
        "class": "ObjectSpawner",
        "name_object": "zpu4",
        "team": "1",
        "obj1": "zpu4",
        "obj2": "null",
        "maxspawn": "300.0",
        "minspawn": "300.0",
        "spawndelay": "false",
        "ttl": "0.0",
        "cpid": "202"
      }
    },
    {
      "type": "Feature",
      "geometry": {
        "type": "Point",
        "coordinates": [296.0, -1875.0],
        "size": [16, 16]
      },
      "properties": {
        "iconurl": "icons/vehicles_map/mini_stw_aa_medium.png",
        "iconrotate": "0.0",
        "popupContent": "Amazing information about zpu4 will be found here!"
      },
      "bf2props": {
        "name": "cpname_battle_of_ia_drang_coop64_nvasentry_aa",
        "class": "ObjectSpawner",
        "name_object": "zpu4",
        "team": "1",
        "obj1": "zpu4",
        "obj2": "null",
        "maxspawn": "300.0",
        "minspawn": "300.0",
        "spawndelay": "false",
        "ttl": "0.0",
        "cpid": "205"
      }
    },
    {
      "type": "Feature",
      "geometry": {
        "type": "Point",
        "coordinates": [1964.0, -157.0],
        "size": [16, 16]
      },
      "properties": {
        "iconurl": "icons/vehicles_map/mini_ahe_light.png",
        "iconrotate": "-140.0",
        "popupContent": "Amazing information about null will be found here!"
      },
      "bf2props": {
        "name": "cpname_battle_of_ia_drang_coop64_uslz_ahesp",
        "class": "ObjectSpawner",
        "name_object": "UH-1C Huey",
        "team": "2",
        "obj1": "null",
        "obj2": "us_ahe_uh1c_sp",
        "maxspawn": "600.0",
        "minspawn": "600.0",
        "spawndelay": "false",
        "ttl": "99999.0",
        "cpid": "201"
      }
    },
    {
      "type": "Feature",
      "geometry": {
        "type": "Point",
        "coordinates": [1976.0, -167.0],
        "size": [16, 16]
      },
      "properties": {
        "iconurl": "icons/vehicles_map/mini_ahe_light.png",
        "iconrotate": "-140.0",
        "popupContent": "Amazing information about null will be found here!"
      },
      "bf2props": {
        "name": "cpname_battle_of_ia_drang_coop64_uslz_ahesp_0",
        "class": "ObjectSpawner",
        "name_object": "UH-1C Huey",
        "team": "2",
        "obj1": "null",
        "obj2": "us_ahe_uh1c_sp",
        "maxspawn": "600.0",
        "minspawn": "600.0",
        "spawndelay": "false",
        "ttl": "99999.0",
        "cpid": "201"
      }
    },
    {
      "type": "Feature",
      "geometry": {
        "type": "Point",
        "coordinates": [977.852, -1446.665],
        "size": [33, 33],
        "radius": "80.0"
      },
      "properties": {
        "iconurl": "icons/flags_map/us/minimap_cp.png",
        "iconrotate": "0",
        "popupContent": "Amazing information about US Insertion Point 80m will be found here!"
      },
      "bf2props": {
        "name": "cpname_battle_of_ia_drang_coop64_uslz",
        "class": "ControlPoint",
        "name_object": "US Insertion Point 80m",
        "team": "2",
        "areavalue1": "0.0",
        "areavalue2": "0.0",
        "cpid": "201",
        "sgid": "40",
        "uncap": "false",
        "ttgc": "120.0",
        "ttlc": "90.0"
      }
    },
    {
      "type": "Feature",
      "geometry": {
        "type": "Point",
        "coordinates": [1030.0, -1874.0],
        "size": [33, 33],
        "radius": "50.0"
      },
      "properties": {
        "iconurl": "icons/flags_map/vnnva/minimap_cp.png",
        "iconrotate": "0",
        "popupContent": "Amazing information about NVA Camp 50m will be found here!"
      },
      "bf2props": {
        "name": "cpname_battle_of_ia_drang_coop64_nvacamp",
        "class": "ControlPoint",
        "name_object": "NVA Camp 50m",
        "team": "1",
        "areavalue1": "75.0",
        "areavalue2": "0.0",
        "cpid": "202",
        "sgid": "30",
        "uncap": "false",
        "ttgc": "120.0",
        "ttlc": "90.0"
      }
    },
    {
      "type": "Feature",
      "geometry": {
        "type": "Point",
        "coordinates": [542.898, -1441.889],
        "size": [33, 33],
        "radius": "50.0"
      },
      "properties": {
        "iconurl": "icons/flags_map/vnnva/minimap_cp.png",
        "iconrotate": "0",
        "popupContent": "Amazing information about Anti-Air Pit 50m will be found here!"
      },
      "bf2props": {
        "name": "cpname_battle_of_ia_drang_coop64_aapit",
        "class": "ControlPoint",
        "name_object": "Anti-Air Pit 50m",
        "team": "1",
        "areavalue1": "75.0",
        "areavalue2": "0.0",
        "cpid": "203",
        "sgid": "30",
        "uncap": "false",
        "ttgc": "120.0",
        "ttlc": "90.0"
      }
    },
    {
      "type": "Feature",
      "geometry": {
        "type": "Point",
        "coordinates": [311.0, -1856.0],
        "size": [33, 33],
        "radius": "50.0"
      },
      "properties": {
        "iconurl": "icons/flags_map/vnnva/minimap_cp.png",
        "iconrotate": "0",
        "popupContent": "Amazing information about NVA Sentry Camp 50m will be found here!"
      },
      "bf2props": {
        "name": "cpname_battle_of_ia_drang_coop64_nvasentry",
        "class": "ControlPoint",
        "name_object": "NVA Sentry Camp 50m",
        "team": "1",
        "areavalue1": "0.0",
        "areavalue2": "110.0",
        "cpid": "205",
        "sgid": "20",
        "uncap": "false",
        "ttgc": "120.0",
        "ttlc": "90.0"
      }
    },
    {
      "type": "Feature",
      "geometry": {
        "type": "Point",
        "coordinates": [142.0, -1942.0],
        "size": [33, 33],
        "radius": "30.0"
      },
      "properties": {
        "iconurl": "icons/flags_map/vnnva/minimap_cp.png",
        "iconrotate": "0",
        "popupContent": "Amazing information about Chu Pong Mountain 30m will be found here!"
      },
      "bf2props": {
        "name": "cpname_battle_of_ia_drang_coop64_nvabase",
        "class": "ControlPoint",
        "name_object": "Chu Pong Mountain 30m",
        "team": "1",
        "areavalue1": "0.0",
        "areavalue2": "200.0",
        "cpid": "206",
        "sgid": "10",
        "uncap": "false",
        "ttgc": "120.0",
        "ttlc": "90.0"
      }
    },
    {
      "type": "Feature",
      "geometry": {
        "type": "Polygon",
        "coordinates": [
          [
            [0,0],
            [0,-2048],
            [2048,-2048],
            [2048,0]
          ],[
            [4.9259033, -2043.4155],
            [2042.1565, -2042.158],
            [2041.9397, -6.1290283],
            [6.1714478, -5.9172363]
          ]
        ]
      },
      "bf2props": {
        "code": "combatarea_0_coop64",
        "class": "CombatArea",
        "team": "0",
        "vehicles": "4",
        "layer": "3",
        "inverted": "false",
        "max": [0.0, 0.0],
        "min": [0.0, 0.0]
      }
    }
  ]
}