{
  "team1":"vnnva",
  "team2":"vnusa",
  "team1tickets":"550",
  "team2tickets":"550",
  "mapsize":"2048",
  "viewdistance":"600",
  "combatareause":"true",
  "combatareadamage":"20.0",
  "combatareaallowoutside":"10.0",
  "routes": [
  ],
  "type": "FeatureCollection",
  "features": [
    {
      "type": "Feature",
      "geometry": {
        "type": "Point",
        "coordinates": [1028.181, -1889.9451],
        "size": [16, 16]
      },
      "properties": {
        "iconurl": "icons/vehicles_map/mini_stw_aa_medium.png",
        "iconrotate": "0.0",
        "popupContent": "Amazing information about zpu4 will be found here!"
      },
      "bf2props": {
        "name": "cpname_battle_of_ia_drang_cnc64_chupongmountain_zpu4",
        "class": "ObjectSpawner",
        "name_object": "zpu4",
        "team": "1",
        "obj1": "zpu4",
        "obj2": "null",
        "maxspawn": "99999.0",
        "minspawn": "99999.0",
        "spawndelay": "false",
        "ttl": "99999.0",
        "cpid": "604"
      }
    },
    {
      "type": "Feature",
      "geometry": {
        "type": "Point",
        "coordinates": [306.27698, -1885.042],
        "size": [16, 16]
      },
      "properties": {
        "iconurl": "icons/vehicles_map/mini_trk_logistics.png",
        "iconrotate": "-29.0",
        "popupContent": "Amazing information about ZIS-5V will be found here!"
      },
      "bf2props": {
        "name": "cpname_battle_of_ia_drang_cnc64_chupongmountain_nvalogi",
        "class": "ObjectSpawner",
        "name_object": "ZIS-5V",
        "team": "1",
        "obj1": "nva_trk_zis5",
        "obj2": "null",
        "maxspawn": "300.0",
        "minspawn": "300.0",
        "spawndelay": "false",
        "ttl": "99999.0",
        "cpid": "604"
      }
    },
    {
      "type": "Feature",
      "geometry": {
        "type": "Point",
        "coordinates": [281.05603, -1852.575],
        "size": [16, 16]
      },
      "properties": {
        "iconurl": "icons/mini_map/repairdepot.png",
        "iconrotate": "0",
        "popupContent": "Amazing information about Vehicle Depot will be found here!"
      },
      "bf2props": {
        "name": "cpname_battle_of_ia_drang_cnc64_chupongmountain_nvasupply",
        "class": "ObjectSpawner",
        "name_object": "Vehicle Depot",
        "team": "1",
        "obj1": "vehicle_depot_vnnva",
        "obj2": "null",
        "maxspawn": "99999.0",
        "minspawn": "99999.0",
        "spawndelay": "false",
        "ttl": "99999.0",
        "cpid": "604"
      }
    },
    {
      "type": "Feature",
      "geometry": {
        "type": "Point",
        "coordinates": [520.185, -1446.452],
        "size": [16, 16]
      },
      "properties": {
        "iconurl": "icons/vehicles_map/mini_stw_aa_medium.png",
        "iconrotate": "22.728",
        "popupContent": "Amazing information about zpu4 will be found here!"
      },
      "bf2props": {
        "name": "cpname_battle_of_ia_drang_cnc64_chupongmountain_0_1",
        "class": "ObjectSpawner",
        "name_object": "zpu4",
        "team": "1",
        "obj1": "zpu4",
        "obj2": "null",
        "maxspawn": "99999.0",
        "minspawn": "99999.0",
        "spawndelay": "false",
        "ttl": "99999.0",
        "cpid": "604"
      }
    },
    {
      "type": "Feature",
      "geometry": {
        "type": "Point",
        "coordinates": [314.00702, -1881.041],
        "size": [16, 16]
      },
      "properties": {
        "iconurl": "icons/vehicles_map/mini_trk_logistics.png",
        "iconrotate": "-29.0",
        "popupContent": "Amazing information about ZIS-5V will be found here!"
      },
      "bf2props": {
        "name": "cpname_battle_of_ia_drang_cnc64_chupongmountain_nvalogi2",
        "class": "ObjectSpawner",
        "name_object": "ZIS-5V",
        "team": "1",
        "obj1": "nva_trk_zis5",
        "obj2": "null",
        "maxspawn": "300.0",
        "minspawn": "300.0",
        "spawndelay": "false",
        "ttl": "99999.0",
        "cpid": "604"
      }
    },
    {
      "type": "Feature",
      "geometry": {
        "type": "Point",
        "coordinates": [177.90802, -1017.93],
        "size": [16, 16]
      },
      "properties": {
        "iconurl": "icons/vehicles_map/mini_stw_aa_medium.png",
        "iconrotate": "84.363",
        "popupContent": "Amazing information about zpu4 will be found here!"
      },
      "bf2props": {
        "name": "cpname_battle_of_ia_drang_cnc64_chupongmountain_20",
        "class": "ObjectSpawner",
        "name_object": "zpu4",
        "team": "1",
        "obj1": "zpu4",
        "obj2": "null",
        "maxspawn": "99999.0",
        "minspawn": "99999.0",
        "spawndelay": "false",
        "ttl": "99999.0",
        "cpid": "604"
      }
    },
    {
      "type": "Feature",
      "geometry": {
        "type": "Point",
        "coordinates": [-129.693, -2203.58],
        "size": [16, 16]
      },
      "properties": {
        "iconurl": "icons/mini_map/airdef.png",
        "iconrotate": "0",
        "popupContent": "Amazing information about Artillery Barrage Call-In will be found here!"
      },
      "bf2props": {
        "name": "cpname_battle_of_ia_drang_cnc64_chupongmountain_artillery1",
        "class": "ObjectSpawner",
        "name_object": "Artillery Barrage Call-In",
        "team": "1",
        "obj1": "artillery_team1",
        "obj2": "null",
        "maxspawn": "2400.0",
        "minspawn": "2400.0",
        "spawndelay": "true",
        "ttl": "0.0",
        "cpid": "604"
      }
    },
    {
      "type": "Feature",
      "geometry": {
        "type": "Point",
        "coordinates": [-122.10205, -2211.865],
        "size": [16, 16]
      },
      "properties": {
        "iconurl": "icons/mini_map/airdef.png",
        "iconrotate": "0",
        "popupContent": "Amazing information about Artillery Barrage Call-In will be found here!"
      },
      "bf2props": {
        "name": "cpname_battle_of_ia_drang_cnc64_chupongmountain_artillery2",
        "class": "ObjectSpawner",
        "name_object": "Artillery Barrage Call-In",
        "team": "1",
        "obj1": "artillery_team1",
        "obj2": "null",
        "maxspawn": "2400.0",
        "minspawn": "2400.0",
        "spawndelay": "true",
        "ttl": "0.0",
        "cpid": "604"
      }
    },
    {
      "type": "Feature",
      "geometry": {
        "type": "Point",
        "coordinates": [-131.55798, -2192.4219],
        "size": [16, 16]
      },
      "properties": {
        "iconurl": "icons/mini_map/airdef.png",
        "iconrotate": "0",
        "popupContent": "Amazing information about Artillery Barrage Call-In will be found here!"
      },
      "bf2props": {
        "name": "cpname_battle_of_ia_drang_cnc64_chupongmountain_artillery3",
        "class": "ObjectSpawner",
        "name_object": "Artillery Barrage Call-In",
        "team": "1",
        "obj1": "artillery_team1",
        "obj2": "null",
        "maxspawn": "2400.0",
        "minspawn": "2400.0",
        "spawndelay": "true",
        "ttl": "0.0",
        "cpid": "604"
      }
    },
    {
      "type": "Feature",
      "geometry": {
        "type": "Point",
        "coordinates": [-141.26794, -2207.0278],
        "size": [16, 16]
      },
      "properties": {
        "iconurl": "icons/mini_map/airdef.png",
        "iconrotate": "0",
        "popupContent": "Amazing information about Artillery Barrage Call-In will be found here!"
      },
      "bf2props": {
        "name": "cpname_battle_of_ia_drang_cnc64_chupongmountain_artillery4",
        "class": "ObjectSpawner",
        "name_object": "Artillery Barrage Call-In",
        "team": "1",
        "obj1": "artillery_team1",
        "obj2": "null",
        "maxspawn": "2400.0",
        "minspawn": "2400.0",
        "spawndelay": "true",
        "ttl": "0.0",
        "cpid": "604"
      }
    },
    {
      "type": "Feature",
      "geometry": {
        "type": "Point",
        "coordinates": [-146.15198, -2197.044],
        "size": [16, 16]
      },
      "properties": {
        "iconurl": "icons/mini_map/airdef.png",
        "iconrotate": "0",
        "popupContent": "Amazing information about Artillery Barrage Call-In will be found here!"
      },
      "bf2props": {
        "name": "cpname_battle_of_ia_drang_cnc64_chupongmountain_artillery5",
        "class": "ObjectSpawner",
        "name_object": "Artillery Barrage Call-In",
        "team": "1",
        "obj1": "artillery_team1",
        "obj2": "null",
        "maxspawn": "2400.0",
        "minspawn": "2400.0",
        "spawndelay": "true",
        "ttl": "0.0",
        "cpid": "604"
      }
    },
    {
      "type": "Feature",
      "geometry": {
        "type": "Point",
        "coordinates": [-143.51404, -2184.21],
        "size": [16, 16]
      },
      "properties": {
        "iconurl": "icons/mini_map/airdef.png",
        "iconrotate": "0",
        "popupContent": "Amazing information about Artillery Barrage Call-In will be found here!"
      },
      "bf2props": {
        "name": "cpname_battle_of_ia_drang_cnc64_chupongmountain_artillery6",
        "class": "ObjectSpawner",
        "name_object": "Artillery Barrage Call-In",
        "team": "1",
        "obj1": "artillery_team1",
        "obj2": "null",
        "maxspawn": "2400.0",
        "minspawn": "2400.0",
        "spawndelay": "true",
        "ttl": "0.0",
        "cpid": "604"
      }
    },
    {
      "type": "Feature",
      "geometry": {
        "type": "Point",
        "coordinates": [291.964, -1878.646],
        "size": [16, 16]
      },
      "properties": {
        "iconurl": "icons/vehicles_map/mini_trk_support.png",
        "iconrotate": "-12.515",
        "popupContent": "Amazing information about ZIL 131 will be found here!"
      },
      "bf2props": {
        "name": "cpname_battle_of_ia_drang_cnc64_chupongmountain_trk01",
        "class": "ObjectSpawner",
        "name_object": "ZIL 131",
        "team": "1",
        "obj1": "nva_trk_support",
        "obj2": "null",
        "maxspawn": "300.0",
        "minspawn": "300.0",
        "spawndelay": "false",
        "maxnr": "2",
        "ttl": "99999.0",
        "cpid": "604"
      }
    },
    {
      "type": "Feature",
      "geometry": {
        "type": "Point",
        "coordinates": [298.05103, -1854.2219],
        "size": [16, 16]
      },
      "properties": {
        "iconurl": "icons/vehicles_map/mini_jep_support.png",
        "iconrotate": "-150.669",
        "popupContent": "Amazing information about UAZ-469 Support will be found here!"
      },
      "bf2props": {
        "name": "cpname_battle_of_ia_drang_cnc64_chupongmountain_trk02",
        "class": "ObjectSpawner",
        "name_object": "UAZ-469 Support",
        "team": "1",
        "obj1": "nva_jep_uaz",
        "obj2": "null",
        "maxspawn": "300.0",
        "minspawn": "300.0",
        "spawndelay": "false",
        "ttl": "99999.0",
        "cpid": "604"
      }
    },
    {
      "type": "Feature",
      "geometry": {
        "type": "Point",
        "coordinates": [1892.754, -98.104004],
        "size": [16, 16]
      },
      "properties": {
        "iconurl": "icons/vehicles_map/mini_the_light.png",
        "iconrotate": "-123.288",
        "popupContent": "Amazing information about null will be found here!"
      },
      "bf2props": {
        "name": "cpname_battle_of_ia_drang_cnc64_usbasecamp_helo01",
        "class": "ObjectSpawner",
        "name_object": "UH-1D Huey",
        "team": "2",
        "obj1": "null",
        "obj2": "us_the_uh1d",
        "maxspawn": "300.0",
        "minspawn": "300.0",
        "spawndelay": "false",
        "ttl": "12000.0",
        "cpid": "606"
      }
    },
    {
      "type": "Feature",
      "geometry": {
        "type": "Point",
        "coordinates": [1874.154, -83.20001],
        "size": [16, 16]
      },
      "properties": {
        "iconurl": "icons/vehicles_map/mini_the_light.png",
        "iconrotate": "-123.3",
        "popupContent": "Amazing information about null will be found here!"
      },
      "bf2props": {
        "name": "cpname_battle_of_ia_drang_cnc64_usbasecamp_helo02",
        "class": "ObjectSpawner",
        "name_object": "UH-1D Huey",
        "team": "2",
        "obj1": "null",
        "obj2": "us_the_uh1d",
        "maxspawn": "300.0",
        "minspawn": "300.0",
        "spawndelay": "false",
        "ttl": "12000.0",
        "cpid": "606"
      }
    },
    {
      "type": "Feature",
      "geometry": {
        "type": "Point",
        "coordinates": [1854.737, -67.93701],
        "size": [16, 16]
      },
      "properties": {
        "iconurl": "icons/vehicles_map/mini_ahe_light.png",
        "iconrotate": "-123.3",
        "popupContent": "Amazing information about null will be found here!"
      },
      "bf2props": {
        "name": "cpname_battle_of_ia_drang_cnc64_usbasecamp_helo03",
        "class": "ObjectSpawner",
        "name_object": "UH-1C Huey",
        "team": "2",
        "obj1": "null",
        "obj2": "us_ahe_uh1c",
        "maxspawn": "1200.0",
        "minspawn": "1200.0",
        "spawndelay": "false",
        "ttl": "12000.0",
        "cpid": "606"
      }
    },
    {
      "type": "Feature",
      "geometry": {
        "type": "Point",
        "coordinates": [1877.9829, -116.08099],
        "size": [16, 16]
      },
      "properties": {
        "iconurl": "icons/vehicles_map/mini_the_light.png",
        "iconrotate": "-141.3",
        "popupContent": "Amazing information about null will be found here!"
      },
      "bf2props": {
        "name": "cpname_battle_of_ia_drang_cnc64_usbasecamp_helo04",
        "class": "ObjectSpawner",
        "name_object": "UH-1D Huey",
        "team": "2",
        "obj1": "null",
        "obj2": "us_the_uh1d",
        "maxspawn": "300.0",
        "minspawn": "300.0",
        "spawndelay": "false",
        "ttl": "12000.0",
        "cpid": "606"
      }
    },
    {
      "type": "Feature",
      "geometry": {
        "type": "Point",
        "coordinates": [1859.995, -101.19501],
        "size": [16, 16]
      },
      "properties": {
        "iconurl": "icons/vehicles_map/mini_the_light.png",
        "iconrotate": "-141.3",
        "popupContent": "Amazing information about null will be found here!"
      },
      "bf2props": {
        "name": "cpname_battle_of_ia_drang_cnc64_usbasecamp_helo05",
        "class": "ObjectSpawner",
        "name_object": "UH-1D Huey",
        "team": "2",
        "obj1": "null",
        "obj2": "us_the_uh1d",
        "maxspawn": "300.0",
        "minspawn": "300.0",
        "spawndelay": "false",
        "ttl": "12000.0",
        "cpid": "606"
      }
    },
    {
      "type": "Feature",
      "geometry": {
        "type": "Point",
        "coordinates": [1839.994, -85.612976],
        "size": [16, 16]
      },
      "properties": {
        "iconurl": "",
        "iconrotate": "-141.3",
        "popupContent": "Amazing information about null will be found here!"
      },
      "bf2props": {
        "name": "cpname_battle_of_ia_drang_cnc64_usbasecamp_helo06",
        "class": "ObjectSpawner",
        "name_object": "null",
        "team": "2",
        "obj1": "null",
        "obj2": "dummy",
        "maxspawn": "600.0",
        "minspawn": "600.0",
        "spawndelay": "false",
        "ttl": "12000.0",
        "cpid": "606"
      }
    },
    {
      "type": "Feature",
      "geometry": {
        "type": "Point",
        "coordinates": [1975.072, -167.703],
        "size": [16, 16]
      },
      "properties": {
        "iconurl": "",
        "iconrotate": "-141.3",
        "popupContent": "Amazing information about null will be found here!"
      },
      "bf2props": {
        "name": "cpname_battle_of_ia_drang_cnc64_usbasecamp_medichelo01",
        "class": "ObjectSpawner",
        "name_object": "null",
        "team": "2",
        "obj1": "null",
        "obj2": "dummy",
        "maxspawn": "600.0",
        "minspawn": "600.0",
        "spawndelay": "false",
        "ttl": "12000.0",
        "cpid": "606"
      }
    },
    {
      "type": "Feature",
      "geometry": {
        "type": "Point",
        "coordinates": [1963.36, -158.35498],
        "size": [16, 16]
      },
      "properties": {
        "iconurl": "",
        "iconrotate": "-123.3",
        "popupContent": "Amazing information about null will be found here!"
      },
      "bf2props": {
        "name": "cpname_battle_of_ia_drang_cnc64_usbasecamp_medichelo02",
        "class": "ObjectSpawner",
        "name_object": "null",
        "team": "2",
        "obj1": "null",
        "obj2": "dummy",
        "maxspawn": "600.0",
        "minspawn": "600.0",
        "spawndelay": "false",
        "ttl": "12000.0",
        "cpid": "606"
      }
    },
    {
      "type": "Feature",
      "geometry": {
        "type": "Point",
        "coordinates": [1863.369, -178.03003],
        "size": [16, 16]
      },
      "properties": {
        "iconurl": "icons/vehicles_map/mini_the_medium.png",
        "iconrotate": "-140.6",
        "popupContent": "Amazing information about null will be found here!"
      },
      "bf2props": {
        "name": "cpname_battle_of_ia_drang_cnc64_usbasecamp_heavyheli",
        "class": "ObjectSpawner",
        "name_object": "H-34 Choctaw",
        "team": "2",
        "obj1": "null",
        "obj2": "us_the_h-34",
        "maxspawn": "600.0",
        "minspawn": "600.0",
        "spawndelay": "false",
        "ttl": "12000.0",
        "cpid": "606"
      }
    },
    {
      "type": "Feature",
      "geometry": {
        "type": "Point",
        "coordinates": [1930.98, -122.302],
        "size": [16, 16]
      },
      "properties": {
        "iconurl": "icons/mini_map/repairdepot.png",
        "iconrotate": "0",
        "popupContent": "Amazing information about null will be found here!"
      },
      "bf2props": {
        "name": "cpname_battle_of_ia_drang_cnc64_usbasecamp_supplydepot",
        "class": "ObjectSpawner",
        "name_object": "Vehicle Depot",
        "team": "2",
        "obj1": "null",
        "obj2": "vehicle_depot_us",
        "maxspawn": "99999.0",
        "minspawn": "99999.0",
        "spawndelay": "false",
        "ttl": "99999.0",
        "cpid": "606"
      }
    },
    {
      "type": "Feature",
      "geometry": {
        "type": "Point",
        "coordinates": [2217.2969, 83.31897],
        "size": [16, 16]
      },
      "properties": {
        "iconurl": "icons/mini_map/airdef.png",
        "iconrotate": "0",
        "popupContent": "Amazing information about null will be found here!"
      },
      "bf2props": {
        "name": "cpname_battle_of_ia_drang_cnc64_usbasecamp_artillery01",
        "class": "ObjectSpawner",
        "name_object": "Artillery Barrage Call-In",
        "team": "2",
        "obj1": "null",
        "obj2": "artillery_team2",
        "maxspawn": "2400.0",
        "minspawn": "2400.0",
        "spawndelay": "true",
        "ttl": "0.0",
        "cpid": "606"
      }
    },
    {
      "type": "Feature",
      "geometry": {
        "type": "Point",
        "coordinates": [2216.638, 76.30603],
        "size": [16, 16]
      },
      "properties": {
        "iconurl": "icons/mini_map/airdef.png",
        "iconrotate": "0",
        "popupContent": "Amazing information about null will be found here!"
      },
      "bf2props": {
        "name": "cpname_battle_of_ia_drang_cnc64_usbasecamp_artillery02",
        "class": "ObjectSpawner",
        "name_object": "Artillery Barrage Call-In",
        "team": "2",
        "obj1": "null",
        "obj2": "artillery_team2",
        "maxspawn": "2400.0",
        "minspawn": "2400.0",
        "spawndelay": "true",
        "ttl": "0.0",
        "cpid": "606"
      }
    },
    {
      "type": "Feature",
      "geometry": {
        "type": "Point",
        "coordinates": [2214.5898, 67.16199],
        "size": [16, 16]
      },
      "properties": {
        "iconurl": "icons/mini_map/airdef.png",
        "iconrotate": "0",
        "popupContent": "Amazing information about null will be found here!"
      },
      "bf2props": {
        "name": "cpname_battle_of_ia_drang_cnc64_usbasecamp_artillery03",
        "class": "ObjectSpawner",
        "name_object": "Artillery Barrage Call-In",
        "team": "2",
        "obj1": "null",
        "obj2": "artillery_team2",
        "maxspawn": "2400.0",
        "minspawn": "2400.0",
        "spawndelay": "true",
        "ttl": "0.0",
        "cpid": "606"
      }
    },
    {
      "type": "Feature",
      "geometry": {
        "type": "Point",
        "coordinates": [210.57, -1860.808],
        "size": [33, 33],
        "radius": "0.0"
      },
      "properties": {
        "iconurl": "icons/flags_map/vnnva/minimap_cpbase.png",
        "iconrotate": "0",
        "popupContent": "Amazing information about Chu Pong Mountain will be found here!"
      },
      "bf2props": {
        "name": "cpname_battle_of_ia_drang_cnc64_chupongmountain",
        "class": "ControlPoint",
        "name_object": "Chu Pong Mountain",
        "team": "1",
        "areavalue1": "0.0",
        "areavalue2": "0.0",
        "cpid": "604",
        "sgid": "1",
        "uncap": "true",
        "ttgc": "0.0",
        "ttlc": "0.0"
      }
    },
    {
      "type": "Feature",
      "geometry": {
        "type": "Point",
        "coordinates": [1901.641, -184.30603],
        "size": [33, 33],
        "radius": "0.0"
      },
      "properties": {
        "iconurl": "icons/flags_map/us/minimap_cpbase.png",
        "iconrotate": "0",
        "popupContent": "Amazing information about US Base Camp will be found here!"
      },
      "bf2props": {
        "name": "cpname_battle_of_ia_drang_cnc64_usbasecamp",
        "class": "ControlPoint",
        "name_object": "US Base Camp",
        "team": "2",
        "areavalue1": "0.0",
        "areavalue2": "0.0",
        "cpid": "606",
        "sgid": "-999",
        "uncap": "true",
        "ttgc": "0.0",
        "ttlc": "0.0"
      }
    },
    {
      "type": "Feature",
      "geometry": {
        "type": "Polygon",
        "coordinates": [
          [
            [0,0],
            [0,-2048],
            [2048,-2048],
            [2048,0]
          ],[
            [2046.0, -2.0],
            [2.0, -2.0],
            [2.0, -2046.0],
            [2046.0, -2046.0]
          ]
        ]
      },
      "bf2props": {
        "code": "combatarea_7_default",
        "class": "CombatArea",
        "team": "0",
        "vehicles": "4",
        "layer": "2",
        "inverted": "false",
        "max": [0.0, 0.0],
        "min": [0.0, 0.0]
      }
    },
    {
      "type": "Feature",
      "geometry": {
        "type": "Polygon",
        "coordinates": [
          [
            [0.35430908, -2047.0437],
            [703.82007, -2046.8455],
            [624.7244, -1852.5172],
            [388.39185, -1691.9578],
            [137.5232, -1606.3973],
            [2.7399292, -1558.8145]
          ]
        ]
      },
      "bf2props": {
        "code": "combatarea_11_default",
        "class": "CombatArea",
        "team": "2",
        "vehicles": "4",
        "layer": "2",
        "inverted": "true",
        "max": [0.0, 0.0],
        "min": [0.0, 0.0]
      }
    },
    {
      "type": "Feature",
      "geometry": {
        "type": "Polygon",
        "coordinates": [
          [
            [2047.0, -945.39307],
            [1746.0491, -761.1564],
            [1572.6122, -628.1256],
            [1431.3662, -585.3047],
            [1221.3625, -364.96936],
            [1120.1295, -205.05688],
            [937.11676, -104.112305],
            [817.5303, -1.0],
            [2047.0, -1.0]
          ]
        ]
      },
      "bf2props": {
        "code": "combatarea_14_default",
        "class": "CombatArea",
        "team": "1",
        "vehicles": "4",
        "layer": "2",
        "inverted": "true",
        "max": [0.0, 0.0],
        "min": [0.0, 0.0]
      }
    }
  ]
}