{
  "team1":"ru",
  "team2":"nl",
  "team1tickets":"700",
  "team2tickets":"700",
  "mapsize":"2048",
  "viewdistance":"650",
  "combatareause":"true",
  "combatareadamage":"20.0",
  "combatareaallowoutside":"10.0",
  "routes": [
    [
      [
        "cpname_route_coop16_farm"
      ],
      [
        "cpname_route_coop16_construction_site",
        "cpname_route_coop16_gas_station",
        "cpname_route_coop16_east_village"
      ],
      [
        "cpname_route_coop16_south_village"
      ]
    ]
  ],
  "type": "FeatureCollection",
  "features": [
    {
      "type": "Feature",
      "geometry": {
        "type": "Point",
        "coordinates": [836.0, -1806.0],
        "size": [16, 16]
      },
      "properties": {
        "iconurl": "icons/vehicles_map/mini_stw_mortar.png",
        "iconrotate": "0.0",
        "popupContent": "Amazing information about null will be found here!"
      },
      "bf2props": {
        "name": "cpname_route_coop16_south_village_mortar",
        "class": "ObjectSpawner",
        "name_object": "fixed_mortar",
        "team": "2",
        "obj1": "null",
        "obj2": "fixed_mortar",
        "maxspawn": "300.0",
        "minspawn": "300.0",
        "spawndelay": "false",
        "ttl": "0.0",
        "cpid": "205"
      }
    },
    {
      "type": "Feature",
      "geometry": {
        "type": "Point",
        "coordinates": [901.0, -1812.0],
        "size": [16, 16]
      },
      "properties": {
        "iconurl": "icons/mini_map/repairdepot.png",
        "iconrotate": "0",
        "popupContent": "Amazing information about null will be found here!"
      },
      "bf2props": {
        "name": "cpname_route_coop16_south_village_veh",
        "class": "ObjectSpawner",
        "name_object": "Vehicle Depot",
        "team": "2",
        "obj1": "null",
        "obj2": "vehicle_depot_nl",
        "maxspawn": "0.0",
        "minspawn": "0.0",
        "spawndelay": "false",
        "ttl": "0.0",
        "cpid": "205"
      }
    },
    {
      "type": "Feature",
      "geometry": {
        "type": "Point",
        "coordinates": [905.0, -1804.0],
        "size": [16, 16]
      },
      "properties": {
        "iconurl": "icons/vehicles_map/mini_jep_medium.png",
        "iconrotate": "-60.0",
        "popupContent": "Amazing information about null will be found here!"
      },
      "bf2props": {
        "name": "cpname_route_coop16_south_village_jeep",
        "class": "ObjectSpawner",
        "name_object": "Fennek VWWRN",
        "team": "2",
        "obj1": "null",
        "obj2": "nl_jep_fennek",
        "maxspawn": "300.0",
        "minspawn": "300.0",
        "spawndelay": "false",
        "ttl": "99999.0",
        "cpid": "205"
      }
    },
    {
      "type": "Feature",
      "geometry": {
        "type": "Point",
        "coordinates": [739.0, -994.0],
        "size": [16, 16]
      },
      "properties": {
        "iconurl": "icons/mini_map/repairdepot.png",
        "iconrotate": "0",
        "popupContent": "Amazing information about Vehicle Depot will be found here!"
      },
      "bf2props": {
        "name": "cpname_route_coop16_farm_veh",
        "class": "ObjectSpawner",
        "name_object": "Vehicle Depot",
        "team": "1",
        "obj1": "vehicle_depot_ru",
        "obj2": "null",
        "maxspawn": "0.0",
        "minspawn": "0.0",
        "spawndelay": "false",
        "ttl": "0.0",
        "cpid": "201"
      }
    },
    {
      "type": "Feature",
      "geometry": {
        "type": "Point",
        "coordinates": [727.0, -990.0],
        "size": [16, 16]
      },
      "properties": {
        "iconurl": "icons/mini_map/uavtrailer.png",
        "iconrotate": "0",
        "popupContent": "Amazing information about UAV Terminal will be found here!"
      },
      "bf2props": {
        "name": "cpname_route_coop16_farm_acv",
        "class": "ObjectSpawner",
        "name_object": "UAV Terminal",
        "team": "1",
        "obj1": "ru_acv_btr60pu",
        "obj2": "null",
        "maxspawn": "0.0",
        "minspawn": "0.0",
        "spawndelay": "false",
        "ttl": "0.0",
        "cpid": "201"
      }
    },
    {
      "type": "Feature",
      "geometry": {
        "type": "Point",
        "coordinates": [737.0, -1041.0],
        "size": [16, 16]
      },
      "properties": {
        "iconurl": "icons/vehicles_map/mini_apc_light.png",
        "iconrotate": "-160.0",
        "popupContent": "Amazing information about MT-LB will be found here!"
      },
      "bf2props": {
        "name": "cpname_route_coop16_farm_apc",
        "class": "ObjectSpawner",
        "name_object": "MT-LB",
        "team": "1",
        "obj1": "ru_apc_mtlb",
        "obj2": "null",
        "maxspawn": "300.0",
        "minspawn": "300.0",
        "spawndelay": "false",
        "ttl": "99999.0",
        "cpid": "201"
      }
    },
    {
      "type": "Feature",
      "geometry": {
        "type": "Point",
        "coordinates": [733.0, -1039.0],
        "size": [16, 16]
      },
      "properties": {
        "iconurl": "icons/vehicles_map/mini_apc_light.png",
        "iconrotate": "-160.0",
        "popupContent": "Amazing information about MT-LBM will be found here!"
      },
      "bf2props": {
        "name": "cpname_route_coop16_farm_apc2",
        "class": "ObjectSpawner",
        "name_object": "MT-LBM",
        "team": "1",
        "obj1": "ru_apc_mtlb_hmg",
        "obj2": "null",
        "maxspawn": "300.0",
        "minspawn": "300.0",
        "spawndelay": "false",
        "ttl": "99999.0",
        "cpid": "201"
      }
    },
    {
      "type": "Feature",
      "geometry": {
        "type": "Point",
        "coordinates": [863.0, -1811.0],
        "size": [16, 16]
      },
      "properties": {
        "iconurl": "icons/mini_map/uavtrailer.png",
        "iconrotate": "0",
        "popupContent": "Amazing information about null will be found here!"
      },
      "bf2props": {
        "name": "cpname_route_coop16_south_village_acv",
        "class": "ObjectSpawner",
        "name_object": "UAV Terminal",
        "team": "2",
        "obj1": "null",
        "obj2": "nl_acv_boxer",
        "maxspawn": "0.0",
        "minspawn": "0.0",
        "spawndelay": "false",
        "ttl": "0.0",
        "cpid": "205"
      }
    },
    {
      "type": "Feature",
      "geometry": {
        "type": "Point",
        "coordinates": [716.0, -1011.0],
        "size": [16, 16]
      },
      "properties": {
        "iconurl": "icons/vehicles_map/mini_stw_mortar.png",
        "iconrotate": "-180.0",
        "popupContent": "Amazing information about fixed_mortar will be found here!"
      },
      "bf2props": {
        "name": "cpname_route_coop16_farm_mortar",
        "class": "ObjectSpawner",
        "name_object": "fixed_mortar",
        "team": "1",
        "obj1": "fixed_mortar",
        "obj2": "null",
        "maxspawn": "300.0",
        "minspawn": "300.0",
        "spawndelay": "false",
        "ttl": "0.0",
        "cpid": "201"
      }
    },
    {
      "type": "Feature",
      "geometry": {
        "type": "Point",
        "coordinates": [917.0, -1804.0],
        "size": [16, 16]
      },
      "properties": {
        "iconurl": "icons/vehicles_map/mini_trk_logistics.png",
        "iconrotate": "-60.0",
        "popupContent": "Amazing information about null will be found here!"
      },
      "bf2props": {
        "name": "cpname_route_coop16_south_village_logi",
        "class": "ObjectSpawner",
        "name_object": "DAF YAC-2300",
        "team": "2",
        "obj1": "null",
        "obj2": "nl_trk_logistics",
        "maxspawn": "300.0",
        "minspawn": "300.0",
        "spawndelay": "false",
        "ttl": "99999.0",
        "cpid": "205"
      }
    },
    {
      "type": "Feature",
      "geometry": {
        "type": "Point",
        "coordinates": [698.0, -1029.0],
        "size": [16, 16]
      },
      "properties": {
        "iconurl": "icons/vehicles_map/mini_trk_logistics.png",
        "iconrotate": "-160.0",
        "popupContent": "Amazing information about Ural-4320 Logistics will be found here!"
      },
      "bf2props": {
        "name": "cpname_route_coop16_farm_logi",
        "class": "ObjectSpawner",
        "name_object": "Ural-4320 Logistics",
        "team": "1",
        "obj1": "ru_trk_logistics",
        "obj2": "null",
        "maxspawn": "300.0",
        "minspawn": "300.0",
        "spawndelay": "false",
        "ttl": "99999.0",
        "cpid": "201"
      }
    },
    {
      "type": "Feature",
      "geometry": {
        "type": "Point",
        "coordinates": [721.0, -1046.0],
        "size": [33, 33],
        "radius": "60.0"
      },
      "properties": {
        "iconurl": "icons/flags_map/ru/minimap_cp.png",
        "iconrotate": "0",
        "popupContent": "Amazing information about Farm 60m will be found here!"
      },
      "bf2props": {
        "name": "cpname_route_coop16_farm",
        "class": "ControlPoint",
        "name_object": "Farm 60m",
        "team": "1",
        "areavalue1": "0.0",
        "areavalue2": "1000.0",
        "cpid": "201",
        "sgid": "1",
        "uncap": "false",
        "ttgc": "90.0",
        "ttlc": "90.0"
      }
    },
    {
      "type": "Feature",
      "geometry": {
        "type": "Point",
        "coordinates": [463.0, -1268.0],
        "size": [33, 33],
        "radius": "70.0"
      },
      "properties": {
        "iconurl": "icons/flags_map/neutral/minimap_cp.png",
        "iconrotate": "0",
        "popupContent": "Amazing information about Construction Site 70m will be found here!"
      },
      "bf2props": {
        "name": "cpname_route_coop16_construction_site",
        "class": "ControlPoint",
        "name_object": "Construction Site 70m",
        "team": "0",
        "areavalue1": "35.0",
        "areavalue2": "35.0",
        "cpid": "202",
        "sgid": "2",
        "uncap": "false",
        "ttgc": "90.0",
        "ttlc": "90.0"
      }
    },
    {
      "type": "Feature",
      "geometry": {
        "type": "Point",
        "coordinates": [757.0, -1460.0],
        "size": [33, 33],
        "radius": "60.0"
      },
      "properties": {
        "iconurl": "icons/flags_map/neutral/minimap_cp.png",
        "iconrotate": "0",
        "popupContent": "Amazing information about Gas Station 60m will be found here!"
      },
      "bf2props": {
        "name": "cpname_route_coop16_gas_station",
        "class": "ControlPoint",
        "name_object": "Gas Station 60m",
        "team": "0",
        "areavalue1": "35.0",
        "areavalue2": "35.0",
        "cpid": "203",
        "sgid": "2",
        "uncap": "false",
        "ttgc": "90.0",
        "ttlc": "90.0"
      }
    },
    {
      "type": "Feature",
      "geometry": {
        "type": "Point",
        "coordinates": [1101.0, -1379.0],
        "size": [33, 33],
        "radius": "80.0"
      },
      "properties": {
        "iconurl": "icons/flags_map/neutral/minimap_cp.png",
        "iconrotate": "0",
        "popupContent": "Amazing information about East Village 80m will be found here!"
      },
      "bf2props": {
        "name": "cpname_route_coop16_east_village",
        "class": "ControlPoint",
        "name_object": "East Village 80m",
        "team": "0",
        "areavalue1": "35.0",
        "areavalue2": "35.0",
        "cpid": "204",
        "sgid": "2",
        "uncap": "false",
        "ttgc": "90.0",
        "ttlc": "90.0"
      }
    },
    {
      "type": "Feature",
      "geometry": {
        "type": "Point",
        "coordinates": [780.0, -1745.0],
        "size": [33, 33],
        "radius": "60.0"
      },
      "properties": {
        "iconurl": "icons/flags_map/nl/minimap_cp.png",
        "iconrotate": "0",
        "popupContent": "Amazing information about South Village 60m will be found here!"
      },
      "bf2props": {
        "name": "cpname_route_coop16_south_village",
        "class": "ControlPoint",
        "name_object": "South Village 60m",
        "team": "2",
        "areavalue1": "1000.0",
        "areavalue2": "0.0",
        "cpid": "205",
        "sgid": "3",
        "uncap": "false",
        "ttgc": "90.0",
        "ttlc": "90.0"
      }
    },
    {
      "type": "Feature",
      "geometry": {
        "type": "Polygon",
        "coordinates": [
          [
            [0,0],
            [0,-2048],
            [2048,-2048],
            [2048,0]
          ],[
            [289.0517, -1357.3351],
            [699.7476, -1831.1301],
            [967.09735, -1867.7819],
            [1239.3093, -1407.4319],
            [1147.7623, -1187.1956],
            [790.1229, -976.2323],
            [630.8704, -924.49036],
            [301.386, -1256.7196]
          ]
        ]
      },
      "bf2props": {
        "code": "combatarea_73_coop16",
        "class": "CombatArea",
        "team": "0",
        "vehicles": "4",
        "layer": "3",
        "inverted": "false",
        "max": [0.0, 0.0],
        "min": [0.0, 0.0]
      }
    }
  ]
}