{
  "team1":"ru",
  "team2":"nl",
  "team1tickets":"700",
  "team2tickets":"700",
  "mapsize":"2048",
  "viewdistance":"650",
  "combatareause":"true",
  "combatareadamage":"20.0",
  "combatareaallowoutside":"10.0",
  "routes": [
    [
      [
        "cpname_route_aas64_ru_main"
      ],
      [
        "cpname_route_aas64_western_village"
      ],
      [
        "cpname_route_aas64_bridge2",
        "cpname_route_aas64_farm2"
      ],
      [
        "cpname_route_aas64_kumi_river2"
      ],
      [
        "cpname_route_aas64_sandlily2",
        "cpname_route_aas64_hermit2"
      ],
      [
        "cpname_route_aas64_southvillage"
      ],
      [
        "cpname_route_aas64_us_main"
      ]
    ],
    [
      [
        "cpname_route_aas64_ru_main"
      ],
      [
        "cpname_route_aas64_kiosk",
        "cpname_route_aas64_facility"
      ],
      [
        "cpname_route_aas64_northvillage",
        "cpname_route_aas64_estate",
        "cpname_route_aas64_bridge"
      ],
      [
        "cpname_route_aas64_farm",
        "cpname_route_aas64_zemo"
      ],
      [
        "cpname_route_aas64_gasstation",
        "cpname_route_aas64_newdevelopment"
      ],
      [
        "cpname_route_aas64_southvillage"
      ],
      [
        "cpname_route_aas64_us_main"
      ]
    ],
    [
      [
        "cpname_route_aas64_ru_main"
      ],
      [
        "cpname_route_aas64_facility2",
        "cpname_route_aas64_kiosk2"
      ],
      [
        "cpname_route_aas64_northvillage2",
        "cpname_route_aas64_estate2"
      ],
      [
        "cpname_route_aas64_kumi_river"
      ],
      [
        "cpname_route_aas64_hermit",
        "cpname_route_aas64_sandlily"
      ],
      [
        "cpname_route_aas64_southvillage"
      ],
      [
        "cpname_route_aas64_us_main"
      ]
    ]
  ],
  "type": "FeatureCollection",
  "features": [
    {
      "type": "Feature",
      "geometry": {
        "type": "Point",
        "coordinates": [325.46503, -1892.1909],
        "size": [16, 16]
      },
      "properties": {
        "iconurl": "icons/vehicles_map/mini_jep_light.png",
        "iconrotate": "68.534",
        "popupContent": "Amazing information about null will be found here!"
      },
      "bf2props": {
        "name": "hmmvee",
        "class": "ObjectSpawner",
        "name_object": "Land Rover Defender 110XD WW",
        "team": "2",
        "obj1": "null",
        "obj2": "nl_jep_landrover",
        "maxspawn": "600.0",
        "minspawn": "600.0",
        "spawndelay": "false",
        "ttl": "99999.0",
        "cpid": "2"
      }
    },
    {
      "type": "Feature",
      "geometry": {
        "type": "Point",
        "coordinates": [331.011, -1861.359],
        "size": [16, 16]
      },
      "properties": {
        "iconurl": "icons/vehicles_map/mini_apc_light.png",
        "iconrotate": "172.142",
        "popupContent": "Amazing information about null will be found here!"
      },
      "bf2props": {
        "name": "stryker",
        "class": "ObjectSpawner",
        "name_object": "Boxer PWV",
        "team": "2",
        "obj1": "null",
        "obj2": "nl_apc_boxer",
        "maxspawn": "600.0",
        "minspawn": "600.0",
        "spawndelay": "true",
        "ttl": "99999.0",
        "cpid": "2"
      }
    },
    {
      "type": "Feature",
      "geometry": {
        "type": "Point",
        "coordinates": [277.417, -1935.685],
        "size": [16, 16]
      },
      "properties": {
        "iconurl": "icons/vehicles_map/mini_trk_support.png",
        "iconrotate": "35.843",
        "popupContent": "Amazing information about null will be found here!"
      },
      "bf2props": {
        "name": "truck",
        "class": "ObjectSpawner",
        "name_object": "DAF YA 4440",
        "team": "2",
        "obj1": "null",
        "obj2": "nl_trk_support",
        "maxspawn": "300.0",
        "minspawn": "300.0",
        "spawndelay": "false",
        "ttl": "99999.0",
        "cpid": "2"
      }
    },
    {
      "type": "Feature",
      "geometry": {
        "type": "Point",
        "coordinates": [486.68, -80.403015],
        "size": [16, 16]
      },
      "properties": {
        "iconurl": "icons/vehicles_map/mini_apc_heavy.png",
        "iconrotate": "93.84",
        "popupContent": "Amazing information about BMP-2 will be found here!"
      },
      "bf2props": {
        "name": "t_72",
        "class": "ObjectSpawner",
        "name_object": "BMP-2",
        "team": "1",
        "obj1": "ru_ifv_bmp2",
        "obj2": "null",
        "maxspawn": "900.0",
        "minspawn": "900.0",
        "spawndelay": "true",
        "ttl": "99999.0",
        "cpid": "1"
      }
    },
    {
      "type": "Feature",
      "geometry": {
        "type": "Point",
        "coordinates": [562.417, -76.74298],
        "size": [16, 16]
      },
      "properties": {
        "iconurl": "icons/vehicles_map/mini_trk_support.png",
        "iconrotate": "93.662",
        "popupContent": "Amazing information about Ural-4320 will be found here!"
      },
      "bf2props": {
        "name": "ru_truck",
        "class": "ObjectSpawner",
        "name_object": "Ural-4320",
        "team": "1",
        "obj1": "ru_trk_support",
        "obj2": "null",
        "maxspawn": "300.0",
        "minspawn": "300.0",
        "spawndelay": "false",
        "ttl": "99999.0",
        "cpid": "1"
      }
    },
    {
      "type": "Feature",
      "geometry": {
        "type": "Point",
        "coordinates": [516.677, -119.91101],
        "size": [16, 16]
      },
      "properties": {
        "iconurl": "icons/vehicles_map/mini_apc_medium.png",
        "iconrotate": "97.091",
        "popupContent": "Amazing information about BTR-80 will be found here!"
      },
      "bf2props": {
        "name": "mtlb",
        "class": "ObjectSpawner",
        "name_object": "BTR-80",
        "team": "1",
        "obj1": "ru_apc_btr80",
        "obj2": "null",
        "maxspawn": "600.0",
        "minspawn": "600.0",
        "spawndelay": "false",
        "ttl": "999999.0",
        "cpid": "1"
      }
    },
    {
      "type": "Feature",
      "geometry": {
        "type": "Point",
        "coordinates": [260.26, -1808.47],
        "size": [16, 16]
      },
      "properties": {
        "iconurl": "icons/vehicles_map/mini_the_medium.png",
        "iconrotate": "52.015",
        "popupContent": "Amazing information about null will be found here!"
      },
      "bf2props": {
        "name": "blackhawk",
        "class": "ObjectSpawner",
        "name_object": "NH90 TTH",
        "team": "2",
        "obj1": "null",
        "obj2": "nl_the_nh90",
        "maxspawn": "300.0",
        "minspawn": "300.0",
        "spawndelay": "true",
        "ttl": "999999.0",
        "cpid": "2"
      }
    },
    {
      "type": "Feature",
      "geometry": {
        "type": "Point",
        "coordinates": [270.63898, -1897.167],
        "size": [16, 16]
      },
      "properties": {
        "iconurl": "icons/vehicles_map/mini_trk_logistics.png",
        "iconrotate": "131.338",
        "popupContent": "Amazing information about null will be found here!"
      },
      "bf2props": {
        "name": "us_logi",
        "class": "ObjectSpawner",
        "name_object": "DAF YAC-2300",
        "team": "2",
        "obj1": "null",
        "obj2": "nl_trk_logistics",
        "maxspawn": "300.0",
        "minspawn": "300.0",
        "spawndelay": "false",
        "ttl": "99999.0",
        "cpid": "2"
      }
    },
    {
      "type": "Feature",
      "geometry": {
        "type": "Point",
        "coordinates": [274.37598, -1892.8569],
        "size": [16, 16]
      },
      "properties": {
        "iconurl": "icons/vehicles_map/mini_trk_logistics.png",
        "iconrotate": "134.249",
        "popupContent": "Amazing information about null will be found here!"
      },
      "bf2props": {
        "name": "us_logi_0",
        "class": "ObjectSpawner",
        "name_object": "DAF YAC-2300",
        "team": "2",
        "obj1": "null",
        "obj2": "nl_trk_logistics",
        "maxspawn": "300.0",
        "minspawn": "300.0",
        "spawndelay": "false",
        "ttl": "99999.0",
        "cpid": "2"
      }
    },
    {
      "type": "Feature",
      "geometry": {
        "type": "Point",
        "coordinates": [292.95697, -1915.998],
        "size": [16, 16]
      },
      "properties": {
        "iconurl": "icons/vehicles_map/mini_trk_support.png",
        "iconrotate": "43.563",
        "popupContent": "Amazing information about null will be found here!"
      },
      "bf2props": {
        "name": "us_truck",
        "class": "ObjectSpawner",
        "name_object": "DAF YA 4440",
        "team": "2",
        "obj1": "null",
        "obj2": "nl_trk_support",
        "maxspawn": "300.0",
        "minspawn": "300.0",
        "spawndelay": "false",
        "ttl": "99999.0",
        "cpid": "2"
      }
    },
    {
      "type": "Feature",
      "geometry": {
        "type": "Point",
        "coordinates": [300.12598, -1907.8679],
        "size": [16, 16]
      },
      "properties": {
        "iconurl": "icons/vehicles_map/mini_trk_support.png",
        "iconrotate": "44.782",
        "popupContent": "Amazing information about null will be found here!"
      },
      "bf2props": {
        "name": "us_truck_0",
        "class": "ObjectSpawner",
        "name_object": "DAF YA 4440",
        "team": "2",
        "obj1": "null",
        "obj2": "nl_trk_support",
        "maxspawn": "300.0",
        "minspawn": "300.0",
        "spawndelay": "false",
        "ttl": "99999.0",
        "cpid": "2"
      }
    },
    {
      "type": "Feature",
      "geometry": {
        "type": "Point",
        "coordinates": [286.149, -1924.436],
        "size": [16, 16]
      },
      "properties": {
        "iconurl": "icons/vehicles_map/mini_trk_support.png",
        "iconrotate": "39.96",
        "popupContent": "Amazing information about null will be found here!"
      },
      "bf2props": {
        "name": "us_truck_1",
        "class": "ObjectSpawner",
        "name_object": "DAF YA 4440",
        "team": "2",
        "obj1": "null",
        "obj2": "nl_trk_support",
        "maxspawn": "300.0",
        "minspawn": "300.0",
        "spawndelay": "false",
        "ttl": "99999.0",
        "cpid": "2"
      }
    },
    {
      "type": "Feature",
      "geometry": {
        "type": "Point",
        "coordinates": [316.79602, -1896.6321],
        "size": [16, 16]
      },
      "properties": {
        "iconurl": "icons/vehicles_map/mini_jep_support.png",
        "iconrotate": "67.795",
        "popupContent": "Amazing information about null will be found here!"
      },
      "bf2props": {
        "name": "us_jeep",
        "class": "ObjectSpawner",
        "name_object": "Mercedes-Benz G280",
        "team": "2",
        "obj1": "null",
        "obj2": "nl_jep_gwagon_support",
        "maxspawn": "600.0",
        "minspawn": "600.0",
        "spawndelay": "false",
        "ttl": "99999.0",
        "cpid": "2"
      }
    },
    {
      "type": "Feature",
      "geometry": {
        "type": "Point",
        "coordinates": [308.851, -1901.4819],
        "size": [16, 16]
      },
      "properties": {
        "iconurl": "icons/vehicles_map/mini_jep_medium.png",
        "iconrotate": "51.674",
        "popupContent": "Amazing information about null will be found here!"
      },
      "bf2props": {
        "name": "us_jeep_0",
        "class": "ObjectSpawner",
        "name_object": "Fennek VWWRN",
        "team": "2",
        "obj1": "null",
        "obj2": "nl_jep_fennek",
        "maxspawn": "600.0",
        "minspawn": "600.0",
        "spawndelay": "true",
        "ttl": "99999.0",
        "cpid": "2"
      }
    },
    {
      "type": "Feature",
      "geometry": {
        "type": "Point",
        "coordinates": [334.735, -1888.948],
        "size": [16, 16]
      },
      "properties": {
        "iconurl": "icons/vehicles_map/mini_jep_light.png",
        "iconrotate": "71.156",
        "popupContent": "Amazing information about null will be found here!"
      },
      "bf2props": {
        "name": "hmve",
        "class": "ObjectSpawner",
        "name_object": "Land Rover Defender 110XD WW",
        "team": "2",
        "obj1": "null",
        "obj2": "nl_jep_landrover",
        "maxspawn": "600.0",
        "minspawn": "600.0",
        "spawndelay": "false",
        "ttl": "99999.0",
        "cpid": "2"
      }
    },
    {
      "type": "Feature",
      "geometry": {
        "type": "Point",
        "coordinates": [574.895, -91.45502],
        "size": [16, 16]
      },
      "properties": {
        "iconurl": "icons/vehicles_map/mini_trk_support.png",
        "iconrotate": "96.988",
        "popupContent": "Amazing information about Ural-4320 will be found here!"
      },
      "bf2props": {
        "name": "ru_truck_0",
        "class": "ObjectSpawner",
        "name_object": "Ural-4320",
        "team": "1",
        "obj1": "ru_trk_support",
        "obj2": "null",
        "maxspawn": "300.0",
        "minspawn": "300.0",
        "spawndelay": "false",
        "ttl": "99999.0",
        "cpid": "1"
      }
    },
    {
      "type": "Feature",
      "geometry": {
        "type": "Point",
        "coordinates": [554.838, -76.10101],
        "size": [16, 16]
      },
      "properties": {
        "iconurl": "icons/vehicles_map/mini_trk_support.png",
        "iconrotate": "94.37",
        "popupContent": "Amazing information about Ural-4320 will be found here!"
      },
      "bf2props": {
        "name": "ru_truck_1",
        "class": "ObjectSpawner",
        "name_object": "Ural-4320",
        "team": "1",
        "obj1": "ru_trk_support",
        "obj2": "null",
        "maxspawn": "300.0",
        "minspawn": "300.0",
        "spawndelay": "false",
        "ttl": "99999.0",
        "cpid": "1"
      }
    },
    {
      "type": "Feature",
      "geometry": {
        "type": "Point",
        "coordinates": [567.234, -90.872986],
        "size": [16, 16]
      },
      "properties": {
        "iconurl": "icons/vehicles_map/mini_trk_support.png",
        "iconrotate": "97.789",
        "popupContent": "Amazing information about Ural-4320 will be found here!"
      },
      "bf2props": {
        "name": "ru_truck_2",
        "class": "ObjectSpawner",
        "name_object": "Ural-4320",
        "team": "1",
        "obj1": "ru_trk_support",
        "obj2": "null",
        "maxspawn": "300.0",
        "minspawn": "300.0",
        "spawndelay": "false",
        "ttl": "99999.0",
        "cpid": "1"
      }
    },
    {
      "type": "Feature",
      "geometry": {
        "type": "Point",
        "coordinates": [515.403, -131.276],
        "size": [16, 16]
      },
      "properties": {
        "iconurl": "icons/vehicles_map/mini_trk_logistics.png",
        "iconrotate": "93.472",
        "popupContent": "Amazing information about Ural-4320 Logistics will be found here!"
      },
      "bf2props": {
        "name": "logi",
        "class": "ObjectSpawner",
        "name_object": "Ural-4320 Logistics",
        "team": "1",
        "obj1": "ru_trk_logistics",
        "obj2": "null",
        "maxspawn": "300.0",
        "minspawn": "300.0",
        "spawndelay": "false",
        "ttl": "99999.0",
        "cpid": "1"
      }
    },
    {
      "type": "Feature",
      "geometry": {
        "type": "Point",
        "coordinates": [558.627, -90.31799],
        "size": [16, 16]
      },
      "properties": {
        "iconurl": "icons/vehicles_map/mini_trk_logistics.png",
        "iconrotate": "92.898",
        "popupContent": "Amazing information about Ural-4320 Logistics will be found here!"
      },
      "bf2props": {
        "name": "logi_0",
        "class": "ObjectSpawner",
        "name_object": "Ural-4320 Logistics",
        "team": "1",
        "obj1": "ru_trk_logistics",
        "obj2": "null",
        "maxspawn": "300.0",
        "minspawn": "300.0",
        "spawndelay": "false",
        "ttl": "99999.0",
        "cpid": "1"
      }
    },
    {
      "type": "Feature",
      "geometry": {
        "type": "Point",
        "coordinates": [549.401, -92.945984],
        "size": [16, 16]
      },
      "properties": {
        "iconurl": "icons/vehicles_map/mini_rec_light.png",
        "iconrotate": "66.076",
        "popupContent": "Amazing information about BRDM-2 will be found here!"
      },
      "bf2props": {
        "name": "brdm_0",
        "class": "ObjectSpawner",
        "name_object": "BRDM-2",
        "team": "1",
        "obj1": "ru_jep_brdm2",
        "obj2": "null",
        "maxspawn": "600.0",
        "minspawn": "600.0",
        "spawndelay": "true",
        "ttl": "999999.0",
        "cpid": "1"
      }
    },
    {
      "type": "Feature",
      "geometry": {
        "type": "Point",
        "coordinates": [515.954, -125.77698],
        "size": [16, 16]
      },
      "properties": {
        "iconurl": "icons/vehicles_map/mini_trk_logistics.png",
        "iconrotate": "93.661",
        "popupContent": "Amazing information about Ural-4320 Logistics will be found here!"
      },
      "bf2props": {
        "name": "logi_1",
        "class": "ObjectSpawner",
        "name_object": "Ural-4320 Logistics",
        "team": "1",
        "obj1": "ru_trk_logistics",
        "obj2": "null",
        "maxspawn": "300.0",
        "minspawn": "300.0",
        "spawndelay": "false",
        "ttl": "99999.0",
        "cpid": "1"
      }
    },
    {
      "type": "Feature",
      "geometry": {
        "type": "Point",
        "coordinates": [314.72302, -1865.738],
        "size": [16, 16]
      },
      "properties": {
        "iconurl": "icons/mini_map/uavtrailer.png",
        "iconrotate": "0",
        "popupContent": "Amazing information about null will be found here!"
      },
      "bf2props": {
        "name": "repair",
        "class": "ObjectSpawner",
        "name_object": "UAV Terminal",
        "team": "2",
        "obj1": "null",
        "obj2": "nl_acv_boxer",
        "maxspawn": "0.0",
        "minspawn": "0.0",
        "spawndelay": "false",
        "ttl": "0.0",
        "cpid": "2"
      }
    },
    {
      "type": "Feature",
      "geometry": {
        "type": "Point",
        "coordinates": [271.727, -1908.6011],
        "size": [16, 16]
      },
      "properties": {
        "iconurl": "icons/mini_map/repairdepot.png",
        "iconrotate": "0",
        "popupContent": "Amazing information about null will be found here!"
      },
      "bf2props": {
        "name": "realrepair",
        "class": "ObjectSpawner",
        "name_object": "Vehicle Depot",
        "team": "2",
        "obj1": "null",
        "obj2": "vehicle_depot_nl",
        "maxspawn": "0.0",
        "minspawn": "0.0",
        "spawndelay": "false",
        "ttl": "99999.0",
        "cpid": "2"
      }
    },
    {
      "type": "Feature",
      "geometry": {
        "type": "Point",
        "coordinates": [552.944, -123.051025],
        "size": [16, 16]
      },
      "properties": {
        "iconurl": "icons/mini_map/uavtrailer.png",
        "iconrotate": "0",
        "popupContent": "Amazing information about UAV Terminal will be found here!"
      },
      "bf2props": {
        "name": "ruacv",
        "class": "ObjectSpawner",
        "name_object": "UAV Terminal",
        "team": "1",
        "obj1": "ru_acv_btr60pu",
        "obj2": "null",
        "maxspawn": "0.0",
        "minspawn": "0.0",
        "spawndelay": "false",
        "ttl": "99999.0",
        "cpid": "1"
      }
    },
    {
      "type": "Feature",
      "geometry": {
        "type": "Point",
        "coordinates": [520.66797, -141.617],
        "size": [16, 16]
      },
      "properties": {
        "iconurl": "icons/mini_map/repairdepot.png",
        "iconrotate": "0",
        "popupContent": "Amazing information about Vehicle Depot will be found here!"
      },
      "bf2props": {
        "name": "rurepair",
        "class": "ObjectSpawner",
        "name_object": "Vehicle Depot",
        "team": "1",
        "obj1": "vehicle_depot_ru",
        "obj2": "null",
        "maxspawn": "0.0",
        "minspawn": "0.0",
        "spawndelay": "false",
        "ttl": "99999.0",
        "cpid": "1"
      }
    },
    {
      "type": "Feature",
      "geometry": {
        "type": "Point",
        "coordinates": [463.36798, -340.318],
        "size": [16, 16]
      },
      "properties": {
        "iconurl": "icons/vehicles_map/mini_shp_light.png",
        "iconrotate": "125.553",
        "popupContent": "Amazing information about RHIB will be found here!"
      },
      "bf2props": {
        "name": "boat",
        "class": "ObjectSpawner",
        "name_object": "RHIB",
        "team": "1",
        "obj1": "boat_rib_gpmg_pkp",
        "obj2": "null",
        "maxspawn": "9999.0",
        "minspawn": "9999.0",
        "spawndelay": "false",
        "ttl": "99999.0",
        "cpid": "1"
      }
    },
    {
      "type": "Feature",
      "geometry": {
        "type": "Point",
        "coordinates": [547.53796, 63.88501],
        "size": [16, 16]
      },
      "properties": {
        "iconurl": "icons/mini_map/airdef.png",
        "iconrotate": "0",
        "popupContent": "Amazing information about Artillery Barrage Call-In will be found here!"
      },
      "bf2props": {
        "name": "offmaparty",
        "class": "ObjectSpawner",
        "name_object": "Artillery Barrage Call-In",
        "team": "1",
        "obj1": "artillery_team1",
        "obj2": "null",
        "maxspawn": "1800.0",
        "minspawn": "1800.0",
        "spawndelay": "true",
        "ttl": "99999.0",
        "cpid": "1"
      }
    },
    {
      "type": "Feature",
      "geometry": {
        "type": "Point",
        "coordinates": [142.42499, -2138.664],
        "size": [16, 16]
      },
      "properties": {
        "iconurl": "icons/mini_map/airdef.png",
        "iconrotate": "0",
        "popupContent": "Amazing information about null will be found here!"
      },
      "bf2props": {
        "name": "offmapmortar",
        "class": "ObjectSpawner",
        "name_object": "Mortar Barrage Call-In",
        "team": "2",
        "obj1": "null",
        "obj2": "mortar_team2",
        "maxspawn": "1200.0",
        "minspawn": "1200.0",
        "spawndelay": "true",
        "ttl": "99999.0",
        "cpid": "2"
      }
    },
    {
      "type": "Feature",
      "geometry": {
        "type": "Point",
        "coordinates": [138.04901, -2130.699],
        "size": [16, 16]
      },
      "properties": {
        "iconurl": "icons/mini_map/airdef.png",
        "iconrotate": "0",
        "popupContent": "Amazing information about null will be found here!"
      },
      "bf2props": {
        "name": "offmapmortar_0",
        "class": "ObjectSpawner",
        "name_object": "Mortar Barrage Call-In",
        "team": "2",
        "obj1": "null",
        "obj2": "mortar_team2",
        "maxspawn": "1200.0",
        "minspawn": "1200.0",
        "spawndelay": "true",
        "ttl": "99999.0",
        "cpid": "2"
      }
    },
    {
      "type": "Feature",
      "geometry": {
        "type": "Point",
        "coordinates": [139.87903, -2121.814],
        "size": [16, 16]
      },
      "properties": {
        "iconurl": "icons/mini_map/airdef.png",
        "iconrotate": "0",
        "popupContent": "Amazing information about null will be found here!"
      },
      "bf2props": {
        "name": "offmapmortar_1",
        "class": "ObjectSpawner",
        "name_object": "Mortar Barrage Call-In",
        "team": "2",
        "obj1": "null",
        "obj2": "mortar_team2",
        "maxspawn": "1200.0",
        "minspawn": "1200.0",
        "spawndelay": "true",
        "ttl": "99999.0",
        "cpid": "2"
      }
    },
    {
      "type": "Feature",
      "geometry": {
        "type": "Point",
        "coordinates": [133.23401, -2119.1318],
        "size": [16, 16]
      },
      "properties": {
        "iconurl": "icons/mini_map/airdef.png",
        "iconrotate": "0",
        "popupContent": "Amazing information about null will be found here!"
      },
      "bf2props": {
        "name": "offmapmortar_2",
        "class": "ObjectSpawner",
        "name_object": "Mortar Barrage Call-In",
        "team": "2",
        "obj1": "null",
        "obj2": "mortar_team2",
        "maxspawn": "1200.0",
        "minspawn": "1200.0",
        "spawndelay": "true",
        "ttl": "99999.0",
        "cpid": "2"
      }
    },
    {
      "type": "Feature",
      "geometry": {
        "type": "Point",
        "coordinates": [559.161, 48.595947],
        "size": [16, 16]
      },
      "properties": {
        "iconurl": "icons/mini_map/airdef.png",
        "iconrotate": "0",
        "popupContent": "Amazing information about Artillery Barrage Call-In will be found here!"
      },
      "bf2props": {
        "name": "offmaparty_0",
        "class": "ObjectSpawner",
        "name_object": "Artillery Barrage Call-In",
        "team": "1",
        "obj1": "artillery_team1",
        "obj2": "null",
        "maxspawn": "1800.0",
        "minspawn": "1800.0",
        "spawndelay": "true",
        "ttl": "99999.0",
        "cpid": "1"
      }
    },
    {
      "type": "Feature",
      "geometry": {
        "type": "Point",
        "coordinates": [278.513, -1888.8931],
        "size": [16, 16]
      },
      "properties": {
        "iconurl": "icons/vehicles_map/mini_jep_support.png",
        "iconrotate": "137.356",
        "popupContent": "Amazing information about null will be found here!"
      },
      "bf2props": {
        "name": "new_jeep",
        "class": "ObjectSpawner",
        "name_object": "Mercedes-Benz G280",
        "team": "2",
        "obj1": "null",
        "obj2": "nl_jep_gwagon_support",
        "maxspawn": "600.0",
        "minspawn": "600.0",
        "spawndelay": "false",
        "ttl": "99999.0",
        "cpid": "2"
      }
    },
    {
      "type": "Feature",
      "geometry": {
        "type": "Point",
        "coordinates": [546.141, -119.61499],
        "size": [33, 33],
        "radius": "0.0"
      },
      "properties": {
        "iconurl": "icons/flags_map/ru/minimap_cpbase.png",
        "iconrotate": "0",
        "popupContent": "Amazing information about Russian Camp will be found here!"
      },
      "bf2props": {
        "name": "cpname_route_aas64_ru_main",
        "class": "ControlPoint",
        "name_object": "Russian Camp",
        "team": "1",
        "areavalue1": "0.0",
        "areavalue2": "0.0",
        "cpid": "1",
        "sgid": "1",
        "uncap": "true",
        "ttgc": "0.0",
        "ttlc": "0.0"
      }
    },
    {
      "type": "Feature",
      "geometry": {
        "type": "Point",
        "coordinates": [311.63202, -1858.919],
        "size": [33, 33],
        "radius": "0.0"
      },
      "properties": {
        "iconurl": "icons/flags_map/nl/minimap_cpbase.png",
        "iconrotate": "0",
        "popupContent": "Amazing information about Dutch Starting Zone will be found here!"
      },
      "bf2props": {
        "name": "cpname_route_aas64_us_main",
        "class": "ControlPoint",
        "name_object": "Dutch Starting Zone",
        "team": "2",
        "areavalue1": "0.0",
        "areavalue2": "0.0",
        "cpid": "2",
        "sgid": "-999",
        "uncap": "true",
        "ttgc": "0.0",
        "ttlc": "0.0"
      }
    },
    {
      "type": "Feature",
      "geometry": {
        "type": "Point",
        "coordinates": [1226.7681, -412.097],
        "size": [33, 33],
        "radius": "100.0"
      },
      "properties": {
        "iconurl": "icons/flags_map/neutral/minimap_cp.png",
        "iconrotate": "0",
        "popupContent": "Amazing information about Kiosk 100m will be found here!"
      },
      "bf2props": {
        "name": "cpname_route_aas64_kiosk",
        "class": "ControlPoint",
        "name_object": "Kiosk 100m",
        "team": "0",
        "areavalue1": "0.0",
        "areavalue2": "0.0",
        "cpid": "201",
        "sgid": "212",
        "uncap": "false",
        "ttgc": "180.0",
        "ttlc": "180.0"
      }
    },
    {
      "type": "Feature",
      "geometry": {
        "type": "Point",
        "coordinates": [1787.536, -302.599],
        "size": [33, 33],
        "radius": "100.0"
      },
      "properties": {
        "iconurl": "icons/flags_map/ru/minimap_cp.png",
        "iconrotate": "0",
        "popupContent": "Amazing information about Facility 100m will be found here!"
      },
      "bf2props": {
        "name": "cpname_route_aas64_facility",
        "class": "ControlPoint",
        "name_object": "Facility 100m",
        "team": "1",
        "areavalue1": "0.0",
        "areavalue2": "400.0",
        "cpid": "202",
        "sgid": "212",
        "uncap": "false",
        "ttgc": "180.0",
        "ttlc": "180.0"
      }
    },
    {
      "type": "Feature",
      "geometry": {
        "type": "Point",
        "coordinates": [1411.1799, -811.875],
        "size": [33, 33],
        "radius": "75.0"
      },
      "properties": {
        "iconurl": "icons/flags_map/neutral/minimap_cp.png",
        "iconrotate": "0",
        "popupContent": "Amazing information about North Village 75m will be found here!"
      },
      "bf2props": {
        "name": "cpname_route_aas64_northvillage",
        "class": "ControlPoint",
        "name_object": "North Village 75m",
        "team": "0",
        "areavalue1": "0.0",
        "areavalue2": "0.0",
        "cpid": "203",
        "sgid": "312",
        "uncap": "false",
        "ttgc": "180.0",
        "ttlc": "180.0"
      }
    },
    {
      "type": "Feature",
      "geometry": {
        "type": "Point",
        "coordinates": [1698.2681, -898.773],
        "size": [33, 33],
        "radius": "75.0"
      },
      "properties": {
        "iconurl": "icons/flags_map/neutral/minimap_cp.png",
        "iconrotate": "0",
        "popupContent": "Amazing information about Estate 75m will be found here!"
      },
      "bf2props": {
        "name": "cpname_route_aas64_estate",
        "class": "ControlPoint",
        "name_object": "Estate 75m",
        "team": "0",
        "areavalue1": "0.0",
        "areavalue2": "0.0",
        "cpid": "204",
        "sgid": "312",
        "uncap": "false",
        "ttgc": "180.0",
        "ttlc": "180.0"
      }
    },
    {
      "type": "Feature",
      "geometry": {
        "type": "Point",
        "coordinates": [1635.512, -1249.83],
        "size": [33, 33],
        "radius": "125.0"
      },
      "properties": {
        "iconurl": "icons/flags_map/neutral/minimap_cp.png",
        "iconrotate": "0",
        "popupContent": "Amazing information about Kumi River 125m will be found here!"
      },
      "bf2props": {
        "name": "cpname_route_aas64_kumi_river",
        "class": "ControlPoint",
        "name_object": "Kumi River 125m",
        "team": "0",
        "areavalue1": "0.0",
        "areavalue2": "0.0",
        "cpid": "205",
        "sgid": "403",
        "uncap": "false",
        "ttgc": "180.0",
        "ttlc": "180.0"
      }
    },
    {
      "type": "Feature",
      "geometry": {
        "type": "Point",
        "coordinates": [1207.152, -895.38696],
        "size": [33, 33],
        "radius": "100.0"
      },
      "properties": {
        "iconurl": "icons/flags_map/neutral/minimap_cp.png",
        "iconrotate": "0",
        "popupContent": "Amazing information about Bridge 100m will be found here!"
      },
      "bf2props": {
        "name": "cpname_route_aas64_bridge",
        "class": "ControlPoint",
        "name_object": "Bridge 100m",
        "team": "0",
        "areavalue1": "0.0",
        "areavalue2": "0.0",
        "cpid": "207",
        "sgid": "312",
        "uncap": "false",
        "ttgc": "180.0",
        "ttlc": "180.0"
      }
    },
    {
      "type": "Feature",
      "geometry": {
        "type": "Point",
        "coordinates": [742.82, -1460.7161],
        "size": [33, 33],
        "radius": "75.0"
      },
      "properties": {
        "iconurl": "icons/flags_map/neutral/minimap_cp.png",
        "iconrotate": "0",
        "popupContent": "Amazing information about Gas Station 75m will be found here!"
      },
      "bf2props": {
        "name": "cpname_route_aas64_gasstation",
        "class": "ControlPoint",
        "name_object": "Gas Station 75m",
        "team": "0",
        "areavalue1": "0.0",
        "areavalue2": "0.0",
        "cpid": "209",
        "sgid": "512",
        "uncap": "false",
        "ttgc": "180.0",
        "ttlc": "180.0"
      }
    },
    {
      "type": "Feature",
      "geometry": {
        "type": "Point",
        "coordinates": [709.822, -1034.738],
        "size": [33, 33],
        "radius": "125.0"
      },
      "properties": {
        "iconurl": "icons/flags_map/neutral/minimap_cp.png",
        "iconrotate": "0",
        "popupContent": "Amazing information about Farm 125m will be found here!"
      },
      "bf2props": {
        "name": "cpname_route_aas64_farm",
        "class": "ControlPoint",
        "name_object": "Farm 125m",
        "team": "0",
        "areavalue1": "0.0",
        "areavalue2": "0.0",
        "cpid": "210",
        "sgid": "412",
        "uncap": "false",
        "ttgc": "180.0",
        "ttlc": "180.0"
      }
    },
    {
      "type": "Feature",
      "geometry": {
        "type": "Point",
        "coordinates": [885.835, -1743.648],
        "size": [33, 33],
        "radius": "100.0"
      },
      "properties": {
        "iconurl": "icons/flags_map/nl/minimap_cp.png",
        "iconrotate": "0",
        "popupContent": "Amazing information about South Village 100m will be found here!"
      },
      "bf2props": {
        "name": "cpname_route_aas64_southvillage",
        "class": "ControlPoint",
        "name_object": "South Village 100m",
        "team": "2",
        "areavalue1": "400.0",
        "areavalue2": "0.0",
        "cpid": "211",
        "sgid": "6",
        "uncap": "false",
        "ttgc": "180.0",
        "ttlc": "180.0"
      }
    },
    {
      "type": "Feature",
      "geometry": {
        "type": "Point",
        "coordinates": [1120.687, -1372.811],
        "size": [33, 33],
        "radius": "100.0"
      },
      "properties": {
        "iconurl": "icons/flags_map/neutral/minimap_cp.png",
        "iconrotate": "0",
        "popupContent": "Amazing information about Zemo 100m will be found here!"
      },
      "bf2props": {
        "name": "cpname_route_aas64_zemo",
        "class": "ControlPoint",
        "name_object": "Zemo 100m",
        "team": "0",
        "areavalue1": "0.0",
        "areavalue2": "0.0",
        "cpid": "212",
        "sgid": "412",
        "uncap": "false",
        "ttgc": "180.0",
        "ttlc": "180.0"
      }
    },
    {
      "type": "Feature",
      "geometry": {
        "type": "Point",
        "coordinates": [448.43103, -1270.516],
        "size": [33, 33],
        "radius": "100.0"
      },
      "properties": {
        "iconurl": "icons/flags_map/neutral/minimap_cp.png",
        "iconrotate": "0",
        "popupContent": "Amazing information about New Development 100m will be found here!"
      },
      "bf2props": {
        "name": "cpname_route_aas64_newdevelopment",
        "class": "ControlPoint",
        "name_object": "New Development 100m",
        "team": "0",
        "areavalue1": "0.0",
        "areavalue2": "0.0",
        "cpid": "213",
        "sgid": "512",
        "uncap": "false",
        "ttgc": "180.0",
        "ttlc": "180.0"
      }
    },
    {
      "type": "Feature",
      "geometry": {
        "type": "Point",
        "coordinates": [1394.835, -1643.4719],
        "size": [33, 33],
        "radius": "75.0"
      },
      "properties": {
        "iconurl": "icons/flags_map/neutral/minimap_cp.png",
        "iconrotate": "0",
        "popupContent": "Amazing information about Hermit 75m will be found here!"
      },
      "bf2props": {
        "name": "cpname_route_aas64_hermit",
        "class": "ControlPoint",
        "name_object": "Hermit 75m",
        "team": "0",
        "areavalue1": "0.0",
        "areavalue2": "0.0",
        "cpid": "214",
        "sgid": "513",
        "uncap": "false",
        "ttgc": "180.0",
        "ttlc": "180.0"
      }
    },
    {
      "type": "Feature",
      "geometry": {
        "type": "Point",
        "coordinates": [1704.637, -1700.912],
        "size": [33, 33],
        "radius": "150.0"
      },
      "properties": {
        "iconurl": "icons/flags_map/neutral/minimap_cp.png",
        "iconrotate": "0",
        "popupContent": "Amazing information about Sand Lily 150m will be found here!"
      },
      "bf2props": {
        "name": "cpname_route_aas64_sandlily",
        "class": "ControlPoint",
        "name_object": "Sand Lily 150m",
        "team": "0",
        "areavalue1": "0.0",
        "areavalue2": "0.0",
        "cpid": "215",
        "sgid": "513",
        "uncap": "false",
        "ttgc": "180.0",
        "ttlc": "180.0"
      }
    },
    {
      "type": "Feature",
      "geometry": {
        "type": "Point",
        "coordinates": [269.753, -666.916],
        "size": [33, 33],
        "radius": "175.0"
      },
      "properties": {
        "iconurl": "icons/flags_map/neutral/minimap_cp.png",
        "iconrotate": "0",
        "popupContent": "Amazing information about Western Village 175m will be found here!"
      },
      "bf2props": {
        "name": "cpname_route_aas64_western_village",
        "class": "ControlPoint",
        "name_object": "Western Village 175m",
        "team": "0",
        "areavalue1": "0.0",
        "areavalue2": "400.0",
        "cpid": "206",
        "sgid": "201",
        "uncap": "false",
        "ttgc": "180.0",
        "ttlc": "180.0"
      }
    },
    {
      "type": "Feature",
      "geometry": {
        "type": "Point",
        "coordinates": [1411.1799, -811.875],
        "size": [33, 33],
        "radius": "75.0"
      },
      "properties": {
        "iconurl": "icons/flags_map/neutral/minimap_cp.png",
        "iconrotate": "0",
        "popupContent": "Amazing information about North Village 75m will be found here!"
      },
      "bf2props": {
        "name": "cpname_route_aas64_northvillage2",
        "class": "ControlPoint",
        "name_object": "North Village 75m",
        "team": "0",
        "areavalue1": "0.0",
        "areavalue2": "0.0",
        "cpid": "216",
        "sgid": "313",
        "uncap": "false",
        "ttgc": "180.0",
        "ttlc": "180.0"
      }
    },
    {
      "type": "Feature",
      "geometry": {
        "type": "Point",
        "coordinates": [1698.2681, -898.773],
        "size": [33, 33],
        "radius": "75.0"
      },
      "properties": {
        "iconurl": "icons/flags_map/neutral/minimap_cp.png",
        "iconrotate": "0",
        "popupContent": "Amazing information about Estate 75m will be found here!"
      },
      "bf2props": {
        "name": "cpname_route_aas64_estate2",
        "class": "ControlPoint",
        "name_object": "Estate 75m",
        "team": "0",
        "areavalue1": "0.0",
        "areavalue2": "0.0",
        "cpid": "217",
        "sgid": "313",
        "uncap": "false",
        "ttgc": "180.0",
        "ttlc": "180.0"
      }
    },
    {
      "type": "Feature",
      "geometry": {
        "type": "Point",
        "coordinates": [1787.536, -302.599],
        "size": [33, 33],
        "radius": "100.0"
      },
      "properties": {
        "iconurl": "icons/flags_map/ru/minimap_cp.png",
        "iconrotate": "0",
        "popupContent": "Amazing information about Facility 100m will be found here!"
      },
      "bf2props": {
        "name": "cpname_route_aas64_facility2",
        "class": "ControlPoint",
        "name_object": "Facility 100m",
        "team": "1",
        "areavalue1": "0.0",
        "areavalue2": "400.0",
        "cpid": "218",
        "sgid": "213",
        "uncap": "false",
        "ttgc": "180.0",
        "ttlc": "180.0"
      }
    },
    {
      "type": "Feature",
      "geometry": {
        "type": "Point",
        "coordinates": [1226.7681, -412.097],
        "size": [33, 33],
        "radius": "100.0"
      },
      "properties": {
        "iconurl": "icons/flags_map/neutral/minimap_cp.png",
        "iconrotate": "0",
        "popupContent": "Amazing information about Kiosk 100m will be found here!"
      },
      "bf2props": {
        "name": "cpname_route_aas64_kiosk2",
        "class": "ControlPoint",
        "name_object": "Kiosk 100m",
        "team": "0",
        "areavalue1": "0.0",
        "areavalue2": "400.0",
        "cpid": "219",
        "sgid": "213",
        "uncap": "false",
        "ttgc": "180.0",
        "ttlc": "180.0"
      }
    },
    {
      "type": "Feature",
      "geometry": {
        "type": "Point",
        "coordinates": [1704.637, -1700.912],
        "size": [33, 33],
        "radius": "150.0"
      },
      "properties": {
        "iconurl": "icons/flags_map/neutral/minimap_cp.png",
        "iconrotate": "0",
        "popupContent": "Amazing information about Sand Lily 150m will be found here!"
      },
      "bf2props": {
        "name": "cpname_route_aas64_sandlily2",
        "class": "ControlPoint",
        "name_object": "Sand Lily 150m",
        "team": "0",
        "areavalue1": "0.0",
        "areavalue2": "0.0",
        "cpid": "220",
        "sgid": "511",
        "uncap": "false",
        "ttgc": "180.0",
        "ttlc": "180.0"
      }
    },
    {
      "type": "Feature",
      "geometry": {
        "type": "Point",
        "coordinates": [1635.512, -1249.83],
        "size": [33, 33],
        "radius": "125.0"
      },
      "properties": {
        "iconurl": "icons/flags_map/neutral/minimap_cp.png",
        "iconrotate": "0",
        "popupContent": "Amazing information about Kumi River 125m will be found here!"
      },
      "bf2props": {
        "name": "cpname_route_aas64_kumi_river2",
        "class": "ControlPoint",
        "name_object": "Kumi River 125m",
        "team": "0",
        "areavalue1": "0.0",
        "areavalue2": "0.0",
        "cpid": "221",
        "sgid": "401",
        "uncap": "false",
        "ttgc": "180.0",
        "ttlc": "180.0"
      }
    },
    {
      "type": "Feature",
      "geometry": {
        "type": "Point",
        "coordinates": [1207.152, -895.38696],
        "size": [33, 33],
        "radius": "100.0"
      },
      "properties": {
        "iconurl": "icons/flags_map/neutral/minimap_cp.png",
        "iconrotate": "0",
        "popupContent": "Amazing information about Bridge 100m will be found here!"
      },
      "bf2props": {
        "name": "cpname_route_aas64_bridge2",
        "class": "ControlPoint",
        "name_object": "Bridge 100m",
        "team": "0",
        "areavalue1": "0.0",
        "areavalue2": "0.0",
        "cpid": "208",
        "sgid": "311",
        "uncap": "false",
        "ttgc": "180.0",
        "ttlc": "180.0"
      }
    },
    {
      "type": "Feature",
      "geometry": {
        "type": "Point",
        "coordinates": [709.822, -1034.738],
        "size": [33, 33],
        "radius": "125.0"
      },
      "properties": {
        "iconurl": "icons/flags_map/neutral/minimap_cp.png",
        "iconrotate": "0",
        "popupContent": "Amazing information about Farm 125m will be found here!"
      },
      "bf2props": {
        "name": "cpname_route_aas64_farm2",
        "class": "ControlPoint",
        "name_object": "Farm 125m",
        "team": "0",
        "areavalue1": "0.0",
        "areavalue2": "0.0",
        "cpid": "222",
        "sgid": "311",
        "uncap": "false",
        "ttgc": "180.0",
        "ttlc": "180.0"
      }
    },
    {
      "type": "Feature",
      "geometry": {
        "type": "Point",
        "coordinates": [1394.835, -1643.4719],
        "size": [33, 33],
        "radius": "73.0"
      },
      "properties": {
        "iconurl": "icons/flags_map/neutral/minimap_cp.png",
        "iconrotate": "0",
        "popupContent": "Amazing information about Hermit 75m will be found here!"
      },
      "bf2props": {
        "name": "cpname_route_aas64_hermit2",
        "class": "ControlPoint",
        "name_object": "Hermit 75m",
        "team": "0",
        "areavalue1": "0.0",
        "areavalue2": "0.0",
        "cpid": "223",
        "sgid": "511",
        "uncap": "false",
        "ttgc": "180.0",
        "ttlc": "180.0"
      }
    },
    {
      "type": "Feature",
      "geometry": {
        "type": "Polygon",
        "coordinates": [
          [
            [0,0],
            [0,-2048],
            [2048,-2048],
            [2048,0]
          ],[
            [94.7525, -246.63135],
            [480.5857, -31.98767],
            [1183.1029, -48.54016],
            [1722.5109, -112.17297],
            [2003.6016, -134.53284],
            [1977.8702, -345.46582],
            [1906.4658, -471.63782],
            [1926.3707, -607.67285],
            [1958.8954, -719.37756],
            [1997.9077, -920.36597],
            [2003.535, -1126.2483],
            [1999.231, -1354.2341],
            [1995.9432, -1604.0656],
            [1975.5862, -1973.9795],
            [1757.5917, -1981.1567],
            [1401.1765, -1998.1294],
            [1133.6862, -2002.8578],
            [817.4457, -2006.7605],
            [396.4496, -2009.1921],
            [290.7223, -1967.134],
            [55.134216, -1956.5762],
            [34.8631, -1424.8953],
            [46.275574, -998.5342],
            [32.217224, -629.8054],
            [25.159607, -306.42834],
            [94.7525, -246.63135],
            [480.5857, -31.98767],
            [1183.1029, -48.54016],
            [1722.5109, -48.172974],
            [2003.6016, -134.53284],
            [1997.8702, -345.46582],
            [1997.4658, -471.63782],
            [1997.3707, -607.67285],
            [1997.8954, -719.37756],
            [1997.9077, -920.36597],
            [2003.535, -1126.2483],
            [1999.231, -1354.2341],
            [1995.9432, -1604.0656],
            [1975.5862, -1973.9795],
            [1757.5917, -1981.1567],
            [1401.1765, -1998.1294],
            [1133.6862, -2002.8578],
            [817.4457, -2006.7605],
            [396.4496, -2009.1921],
            [290.7223, -1967.134],
            [55.134216, -1956.5762],
            [34.8631, -1424.8953],
            [46.275574, -998.5342],
            [32.217224, -629.8054],
            [25.159607, -306.42834],
            [94.7525, -246.63135],
            [480.5857, -31.98767],
            [1183.1029, -48.54016],
            [1722.5109, -112.17297],
            [2003.6016, -134.53284],
            [1977.8702, -345.46582],
            [1906.4658, -471.63782],
            [1926.3707, -607.67285],
            [1958.8954, -719.37756],
            [1997.9077, -920.36597],
            [2003.535, -1126.2483],
            [1999.231, -1354.2341],
            [1995.9432, -1604.0656],
            [1975.5862, -1973.9795],
            [1757.5917, -1981.1567],
            [1401.1765, -1998.1294],
            [1133.6862, -2002.8578],
            [817.4457, -2006.7605],
            [396.4496, -2009.1921],
            [290.7223, -1967.134],
            [55.134216, -1956.5762],
            [34.8631, -1424.8953],
            [46.275574, -998.5342],
            [32.217224, -629.8054],
            [25.159607, -306.42834]
          ]
        ]
      },
      "bf2props": {
        "code": "combatarea_18_64_player",
        "class": "CombatArea",
        "team": "0",
        "vehicles": "4",
        "layer": "3",
        "inverted": "false",
        "max": [0.0, 0.0],
        "min": [0.0, 0.0]
      }
    },
    {
      "type": "Feature",
      "geometry": {
        "type": "Polygon",
        "coordinates": [
          [
            [52.100586, -1479.2034],
            [438.51013, -1595.2639],
            [677.66394, -1750.0449],
            [725.01385, -1814.5603],
            [733.71405, -2032.3997],
            [9.619507, -2040.6265],
            [9.619507, -2040.6265],
            [7.376404, -1475.2935]
          ]
        ]
      },
      "bf2props": {
        "code": "combatarea_105_16_player",
        "class": "CombatArea",
        "team": "1",
        "vehicles": "4",
        "layer": "3",
        "inverted": "true",
        "max": [0.0, 0.0],
        "min": [0.0, 0.0]
      }
    },
    {
      "type": "Feature",
      "geometry": {
        "type": "Polygon",
        "coordinates": [
          [
            [8.59375, -5.345215],
            [1130.5624, -23.109741],
            [1178.941, -25.092285],
            [1226.3883, -209.61267],
            [1117.4738, -281.80408],
            [949.3793, -360.64697],
            [647.6633, -385.43762],
            [400.7417, -337.74548],
            [202.4046, -261.16406],
            [8.2146, -208.98914]
          ]
        ]
      },
      "bf2props": {
        "code": "combatarea_113_16_player",
        "class": "CombatArea",
        "team": "2",
        "vehicles": "4",
        "layer": "3",
        "inverted": "true",
        "max": [0.0, 0.0],
        "min": [0.0, 0.0]
      }
    }
  ]
}