{
  "team1":"ru",
  "team2":"fr",
  "team1tickets":"800",
  "team2tickets":"800",
  "mapsize":"2048",
  "viewdistance":"800",
  "combatareause":"true",
  "combatareadamage":"20.0",
  "combatareaallowoutside":"10.0",
  "routes": [
    [
      [
        "cpname_nuijamaa_aas64_rubase"
      ],
      [
        "cpname_nuijamaa_aas_east_suburbs",
        "cpname_nuijamaa_aas_west_suburbs"
      ],
      [
        "cpname_nuijamaa_aas_communications",
        "cpname_nuijamaa_aas_forest_farms",
        "cpname_nuijamaa_aas_wind_farm_east"
      ],
      [
        "cpname_nuijamaa_aas_wheat_farm",
        "cpname_nuijamaa_aas_wind_farm_west"
      ],
      [
        "cpname_nuijamaa_aas64_frbase"
      ]
    ],
    [
      [
        "cpname_nuijamaa_aas64_rubase"
      ],
      [
        "cpname_nuijamaa_aas_border_control"
      ],
      [
        "cpname_nuijamaa_aas_immigration",
        "cpname_nuijamaa_aas_south_farm",
        "cpname_nuijamaa_aas_forest"
      ],
      [
        "cpname_nuijamaa_aas_truck_parking"
      ],
      [
        "cpname_nuijamaa_aas_industrial_center"
      ],
      [
        "cpname_nuijamaa_aas64_frbase"
      ]
    ]
  ],
  "type": "FeatureCollection",
  "features": [
    {
      "type": "Feature",
      "geometry": {
        "type": "Point",
        "coordinates": [1565.0, -1976.0],
        "size": [16, 16]
      },
      "properties": {
        "iconurl": "icons/mini_map/repairdepot.png",
        "iconrotate": "0",
        "popupContent": "Amazing information about Vehicle Depot will be found here!"
      },
      "bf2props": {
        "name": "common_ru_vd",
        "class": "ObjectSpawner",
        "name_object": "Vehicle Depot",
        "team": "1",
        "obj1": "vehicle_depot_ru",
        "obj2": "null",
        "maxspawn": "0.0",
        "minspawn": "0.0",
        "spawndelay": "false",
        "ttl": "0.0",
        "cpid": "-1"
      }
    },
    {
      "type": "Feature",
      "geometry": {
        "type": "Point",
        "coordinates": [1546.0, -1977.0],
        "size": [16, 16]
      },
      "properties": {
        "iconurl": "icons/mini_map/uavtrailer.png",
        "iconrotate": "0",
        "popupContent": "Amazing information about UAV Terminal will be found here!"
      },
      "bf2props": {
        "name": "common_ru_acv",
        "class": "ObjectSpawner",
        "name_object": "UAV Terminal",
        "team": "1",
        "obj1": "ru_acv_btr60pu",
        "obj2": "null",
        "maxspawn": "0.0",
        "minspawn": "0.0",
        "spawndelay": "false",
        "ttl": "0.0",
        "cpid": "-1"
      }
    },
    {
      "type": "Feature",
      "geometry": {
        "type": "Point",
        "coordinates": [1596.0, -2376.0],
        "size": [16, 16]
      },
      "properties": {
        "iconurl": "icons/mini_map/airdef.png",
        "iconrotate": "0",
        "popupContent": "Amazing information about Mortar Barrage Call-In will be found here!"
      },
      "bf2props": {
        "name": "common_ru_arty1",
        "class": "ObjectSpawner",
        "name_object": "Mortar Barrage Call-In",
        "team": "1",
        "obj1": "mortar_team1",
        "obj2": "null",
        "maxspawn": "1800.0",
        "minspawn": "1800.0",
        "spawndelay": "true",
        "ttl": "0.0",
        "cpid": "-1"
      }
    },
    {
      "type": "Feature",
      "geometry": {
        "type": "Point",
        "coordinates": [1580.0, -2376.0],
        "size": [16, 16]
      },
      "properties": {
        "iconurl": "icons/mini_map/airdef.png",
        "iconrotate": "0",
        "popupContent": "Amazing information about Mortar Barrage Call-In will be found here!"
      },
      "bf2props": {
        "name": "common_ru_arty2",
        "class": "ObjectSpawner",
        "name_object": "Mortar Barrage Call-In",
        "team": "1",
        "obj1": "mortar_team1",
        "obj2": "null",
        "maxspawn": "1800.0",
        "minspawn": "1800.0",
        "spawndelay": "true",
        "ttl": "0.0",
        "cpid": "-1"
      }
    },
    {
      "type": "Feature",
      "geometry": {
        "type": "Point",
        "coordinates": [1596.0, -2396.0],
        "size": [16, 16]
      },
      "properties": {
        "iconurl": "icons/mini_map/airdef.png",
        "iconrotate": "0",
        "popupContent": "Amazing information about Mortar Barrage Call-In will be found here!"
      },
      "bf2props": {
        "name": "common_ru_arty3",
        "class": "ObjectSpawner",
        "name_object": "Mortar Barrage Call-In",
        "team": "1",
        "obj1": "mortar_team1",
        "obj2": "null",
        "maxspawn": "1800.0",
        "minspawn": "1800.0",
        "spawndelay": "true",
        "ttl": "0.0",
        "cpid": "-1"
      }
    },
    {
      "type": "Feature",
      "geometry": {
        "type": "Point",
        "coordinates": [1580.0, -2396.0],
        "size": [16, 16]
      },
      "properties": {
        "iconurl": "icons/mini_map/airdef.png",
        "iconrotate": "0",
        "popupContent": "Amazing information about Mortar Barrage Call-In will be found here!"
      },
      "bf2props": {
        "name": "common_ru_arty4",
        "class": "ObjectSpawner",
        "name_object": "Mortar Barrage Call-In",
        "team": "1",
        "obj1": "mortar_team1",
        "obj2": "null",
        "maxspawn": "1800.0",
        "minspawn": "1800.0",
        "spawndelay": "true",
        "ttl": "0.0",
        "cpid": "-1"
      }
    },
    {
      "type": "Feature",
      "geometry": {
        "type": "Point",
        "coordinates": [1736.0, -2010.0],
        "size": [16, 16]
      },
      "properties": {
        "iconurl": "icons/player_map/mini_squad.png",
        "iconrotate": "0",
        "popupContent": "Amazing information about Permanent spawnpoint will be found here!"
      },
      "bf2props": {
        "name": "common_ru_boat_rp",
        "class": "ObjectSpawner",
        "name_object": "Permanent spawnpoint",
        "team": "1",
        "obj1": "rallypoint_ru_placeable_noexpire",
        "obj2": "null",
        "maxspawn": "99999.0",
        "minspawn": "99999.0",
        "spawndelay": "false",
        "ttl": "0.0",
        "cpid": "-1"
      }
    },
    {
      "type": "Feature",
      "geometry": {
        "type": "Point",
        "coordinates": [1751.0, -2005.0],
        "size": [16, 16]
      },
      "properties": {
        "iconurl": "icons/vehicles_map/mini_shp_light.png",
        "iconrotate": "45.0",
        "popupContent": "Amazing information about RHIB will be found here!"
      },
      "bf2props": {
        "name": "common_ru_boat1",
        "class": "ObjectSpawner",
        "name_object": "RHIB",
        "team": "1",
        "obj1": "boat_rib_gpmg_pkp",
        "obj2": "null",
        "maxspawn": "300.0",
        "minspawn": "300.0",
        "spawndelay": "false",
        "ttl": "300.0",
        "cpid": "-1"
      }
    },
    {
      "type": "Feature",
      "geometry": {
        "type": "Point",
        "coordinates": [1579.0, -1999.0],
        "size": [16, 16]
      },
      "properties": {
        "iconurl": "icons/vehicles_map/mini_the_medium.png",
        "iconrotate": "0.0",
        "popupContent": "Amazing information about Mi-8MT Hip-C will be found here!"
      },
      "bf2props": {
        "name": "common_ru_the",
        "class": "ObjectSpawner",
        "name_object": "Mi-8MT Hip-C",
        "team": "1",
        "obj1": "ru_the_mi8",
        "obj2": "null",
        "maxspawn": "300.0",
        "minspawn": "300.0",
        "spawndelay": "true",
        "ttl": "99999.0",
        "cpid": "-1"
      }
    },
    {
      "type": "Feature",
      "geometry": {
        "type": "Point",
        "coordinates": [1503.0, -2001.0],
        "size": [16, 16]
      },
      "properties": {
        "iconurl": "icons/vehicles_map/mini_trk_logistics.png",
        "iconrotate": "45.0",
        "popupContent": "Amazing information about Ural-4320 Logistics will be found here!"
      },
      "bf2props": {
        "name": "common_ru_logi1",
        "class": "ObjectSpawner",
        "name_object": "Ural-4320 Logistics",
        "team": "1",
        "obj1": "ru_trk_logistics",
        "obj2": "null",
        "maxspawn": "300.0",
        "minspawn": "300.0",
        "spawndelay": "false",
        "ttl": "99999.0",
        "cpid": "-1"
      }
    },
    {
      "type": "Feature",
      "geometry": {
        "type": "Point",
        "coordinates": [1506.0, -2004.0],
        "size": [16, 16]
      },
      "properties": {
        "iconurl": "icons/vehicles_map/mini_trk_logistics.png",
        "iconrotate": "45.0",
        "popupContent": "Amazing information about Ural-4320 Logistics will be found here!"
      },
      "bf2props": {
        "name": "common_ru_logi2",
        "class": "ObjectSpawner",
        "name_object": "Ural-4320 Logistics",
        "team": "1",
        "obj1": "ru_trk_logistics",
        "obj2": "null",
        "maxspawn": "300.0",
        "minspawn": "300.0",
        "spawndelay": "false",
        "ttl": "99999.0",
        "cpid": "-1"
      }
    },
    {
      "type": "Feature",
      "geometry": {
        "type": "Point",
        "coordinates": [1510.0, -2008.0],
        "size": [16, 16]
      },
      "properties": {
        "iconurl": "icons/vehicles_map/mini_trk_support.png",
        "iconrotate": "45.0",
        "popupContent": "Amazing information about Ural-4320 will be found here!"
      },
      "bf2props": {
        "name": "common_ru_trk1",
        "class": "ObjectSpawner",
        "name_object": "Ural-4320",
        "team": "1",
        "obj1": "ru_trk_support",
        "obj2": "null",
        "maxspawn": "300.0",
        "minspawn": "300.0",
        "spawndelay": "false",
        "ttl": "99999.0",
        "cpid": "-1"
      }
    },
    {
      "type": "Feature",
      "geometry": {
        "type": "Point",
        "coordinates": [1513.0, -2011.0],
        "size": [16, 16]
      },
      "properties": {
        "iconurl": "icons/vehicles_map/mini_trk_support.png",
        "iconrotate": "45.0",
        "popupContent": "Amazing information about Ural-4320 will be found here!"
      },
      "bf2props": {
        "name": "common_ru_trk2",
        "class": "ObjectSpawner",
        "name_object": "Ural-4320",
        "team": "1",
        "obj1": "ru_trk_support",
        "obj2": "null",
        "maxspawn": "300.0",
        "minspawn": "300.0",
        "spawndelay": "false",
        "ttl": "99999.0",
        "cpid": "-1"
      }
    },
    {
      "type": "Feature",
      "geometry": {
        "type": "Point",
        "coordinates": [1525.0, -2018.0],
        "size": [16, 16]
      },
      "properties": {
        "iconurl": "icons/vehicles_map/mini_apc_light.png",
        "iconrotate": "15.0",
        "popupContent": "Amazing information about MT-LBM will be found here!"
      },
      "bf2props": {
        "name": "common_ru_apc1",
        "class": "ObjectSpawner",
        "name_object": "MT-LBM",
        "team": "1",
        "obj1": "ru_apc_mtlb_hmg",
        "obj2": "null",
        "maxspawn": "300.0",
        "minspawn": "300.0",
        "spawndelay": "false",
        "ttl": "99999.0",
        "cpid": "-1"
      }
    },
    {
      "type": "Feature",
      "geometry": {
        "type": "Point",
        "coordinates": [1530.0, -2020.0],
        "size": [16, 16]
      },
      "properties": {
        "iconurl": "icons/vehicles_map/mini_apc_light.png",
        "iconrotate": "15.0",
        "popupContent": "Amazing information about MT-LBM will be found here!"
      },
      "bf2props": {
        "name": "common_ru_apc2",
        "class": "ObjectSpawner",
        "name_object": "MT-LBM",
        "team": "1",
        "obj1": "ru_apc_mtlb_hmg",
        "obj2": "null",
        "maxspawn": "300.0",
        "minspawn": "300.0",
        "spawndelay": "false",
        "ttl": "99999.0",
        "cpid": "-1"
      }
    },
    {
      "type": "Feature",
      "geometry": {
        "type": "Point",
        "coordinates": [1535.0, -2022.0],
        "size": [16, 16]
      },
      "properties": {
        "iconurl": "icons/vehicles_map/mini_apc_light.png",
        "iconrotate": "15.0",
        "popupContent": "Amazing information about MT-LBM will be found here!"
      },
      "bf2props": {
        "name": "common_ru_apc3",
        "class": "ObjectSpawner",
        "name_object": "MT-LBM",
        "team": "1",
        "obj1": "ru_apc_mtlb_hmg",
        "obj2": "null",
        "maxspawn": "300.0",
        "minspawn": "300.0",
        "spawndelay": "false",
        "ttl": "99999.0",
        "cpid": "-1"
      }
    },
    {
      "type": "Feature",
      "geometry": {
        "type": "Point",
        "coordinates": [137.0, -161.0],
        "size": [16, 16]
      },
      "properties": {
        "iconurl": "icons/mini_map/repairdepot.png",
        "iconrotate": "0",
        "popupContent": "Amazing information about null will be found here!"
      },
      "bf2props": {
        "name": "common_fr_vd",
        "class": "ObjectSpawner",
        "name_object": "Vehicle Depot",
        "team": "2",
        "obj1": "null",
        "obj2": "vehicle_depot_fr",
        "maxspawn": "0.0",
        "minspawn": "0.0",
        "spawndelay": "false",
        "ttl": "0.0",
        "cpid": "-1"
      }
    },
    {
      "type": "Feature",
      "geometry": {
        "type": "Point",
        "coordinates": [91.0, -100.0],
        "size": [16, 16]
      },
      "properties": {
        "iconurl": "icons/mini_map/uavtrailer.png",
        "iconrotate": "0",
        "popupContent": "Amazing information about null will be found here!"
      },
      "bf2props": {
        "name": "common_fr_acv",
        "class": "ObjectSpawner",
        "name_object": "UAV Terminal",
        "team": "2",
        "obj1": "null",
        "obj2": "fr_acv_vab",
        "maxspawn": "0.0",
        "minspawn": "0.0",
        "spawndelay": "false",
        "ttl": "0.0",
        "cpid": "-1"
      }
    },
    {
      "type": "Feature",
      "geometry": {
        "type": "Point",
        "coordinates": [94.0, -124.0],
        "size": [16, 16]
      },
      "properties": {
        "iconurl": "icons/vehicles_map/mini_trk_logistics.png",
        "iconrotate": "54.0",
        "popupContent": "Amazing information about null will be found here!"
      },
      "bf2props": {
        "name": "common_fr_logi1",
        "class": "ObjectSpawner",
        "name_object": "GBC 180 Logistics",
        "team": "2",
        "obj1": "null",
        "obj2": "fr_trk_logistics",
        "maxspawn": "300.0",
        "minspawn": "300.0",
        "spawndelay": "false",
        "ttl": "99999.0",
        "cpid": "-1"
      }
    },
    {
      "type": "Feature",
      "geometry": {
        "type": "Point",
        "coordinates": [87.0, -129.0],
        "size": [16, 16]
      },
      "properties": {
        "iconurl": "icons/vehicles_map/mini_trk_logistics.png",
        "iconrotate": "54.0",
        "popupContent": "Amazing information about null will be found here!"
      },
      "bf2props": {
        "name": "common_fr_logi2",
        "class": "ObjectSpawner",
        "name_object": "GBC 180 Logistics",
        "team": "2",
        "obj1": "null",
        "obj2": "fr_trk_logistics",
        "maxspawn": "300.0",
        "minspawn": "300.0",
        "spawndelay": "false",
        "ttl": "99999.0",
        "cpid": "-1"
      }
    },
    {
      "type": "Feature",
      "geometry": {
        "type": "Point",
        "coordinates": [61.0, -83.0],
        "size": [16, 16]
      },
      "properties": {
        "iconurl": "icons/vehicles_map/mini_the_medium.png",
        "iconrotate": "146.0",
        "popupContent": "Amazing information about null will be found here!"
      },
      "bf2props": {
        "name": "common_fr_the",
        "class": "ObjectSpawner",
        "name_object": "NH90 TTH",
        "team": "2",
        "obj1": "null",
        "obj2": "fr_the_nh90",
        "maxspawn": "300.0",
        "minspawn": "300.0",
        "spawndelay": "true",
        "ttl": "99999.0",
        "cpid": "-1"
      }
    },
    {
      "type": "Feature",
      "geometry": {
        "type": "Point",
        "coordinates": [96.0, -127.0],
        "size": [16, 16]
      },
      "properties": {
        "iconurl": "icons/vehicles_map/mini_trk_support.png",
        "iconrotate": "54.0",
        "popupContent": "Amazing information about null will be found here!"
      },
      "bf2props": {
        "name": "common_fr_trk1",
        "class": "ObjectSpawner",
        "name_object": "GBC-180",
        "team": "2",
        "obj1": "null",
        "obj2": "fr_trk_support",
        "maxspawn": "300.0",
        "minspawn": "300.0",
        "spawndelay": "false",
        "ttl": "99999.0",
        "cpid": "-1"
      }
    },
    {
      "type": "Feature",
      "geometry": {
        "type": "Point",
        "coordinates": [89.0, -132.0],
        "size": [16, 16]
      },
      "properties": {
        "iconurl": "icons/vehicles_map/mini_trk_support.png",
        "iconrotate": "54.0",
        "popupContent": "Amazing information about null will be found here!"
      },
      "bf2props": {
        "name": "common_fr_trk2",
        "class": "ObjectSpawner",
        "name_object": "GBC-180",
        "team": "2",
        "obj1": "null",
        "obj2": "fr_trk_support",
        "maxspawn": "300.0",
        "minspawn": "300.0",
        "spawndelay": "false",
        "ttl": "99999.0",
        "cpid": "-1"
      }
    },
    {
      "type": "Feature",
      "geometry": {
        "type": "Point",
        "coordinates": [99.0, -131.0],
        "size": [16, 16]
      },
      "properties": {
        "iconurl": "icons/vehicles_map/mini_apc_light.png",
        "iconrotate": "54.0",
        "popupContent": "Amazing information about null will be found here!"
      },
      "bf2props": {
        "name": "common_fr_apc1",
        "class": "ObjectSpawner",
        "name_object": "VAB VTT",
        "team": "2",
        "obj1": "null",
        "obj2": "fr_apc_vab",
        "maxspawn": "300.0",
        "minspawn": "300.0",
        "spawndelay": "false",
        "ttl": "99999.0",
        "cpid": "-1"
      }
    },
    {
      "type": "Feature",
      "geometry": {
        "type": "Point",
        "coordinates": [102.0, -135.0],
        "size": [16, 16]
      },
      "properties": {
        "iconurl": "icons/vehicles_map/mini_apc_light.png",
        "iconrotate": "54.0",
        "popupContent": "Amazing information about null will be found here!"
      },
      "bf2props": {
        "name": "common_fr_apc2",
        "class": "ObjectSpawner",
        "name_object": "VAB VTT",
        "team": "2",
        "obj1": "null",
        "obj2": "fr_apc_vab",
        "maxspawn": "300.0",
        "minspawn": "300.0",
        "spawndelay": "false",
        "ttl": "99999.0",
        "cpid": "-1"
      }
    },
    {
      "type": "Feature",
      "geometry": {
        "type": "Point",
        "coordinates": [106.0, -141.0],
        "size": [16, 16]
      },
      "properties": {
        "iconurl": "icons/vehicles_map/mini_apc_light.png",
        "iconrotate": "54.0",
        "popupContent": "Amazing information about null will be found here!"
      },
      "bf2props": {
        "name": "common_fr_apc3",
        "class": "ObjectSpawner",
        "name_object": "VAB VTT",
        "team": "2",
        "obj1": "null",
        "obj2": "fr_apc_vab",
        "maxspawn": "300.0",
        "minspawn": "300.0",
        "spawndelay": "false",
        "ttl": "99999.0",
        "cpid": "-1"
      }
    },
    {
      "type": "Feature",
      "geometry": {
        "type": "Point",
        "coordinates": [-264.0, 400.0],
        "size": [16, 16]
      },
      "properties": {
        "iconurl": "icons/mini_map/airdef.png",
        "iconrotate": "0",
        "popupContent": "Amazing information about null will be found here!"
      },
      "bf2props": {
        "name": "common_fr_arty1",
        "class": "ObjectSpawner",
        "name_object": "Mortar Barrage Call-In",
        "team": "2",
        "obj1": "null",
        "obj2": "mortar_team2",
        "maxspawn": "1800.0",
        "minspawn": "1800.0",
        "spawndelay": "true",
        "ttl": "0.0",
        "cpid": "-1"
      }
    },
    {
      "type": "Feature",
      "geometry": {
        "type": "Point",
        "coordinates": [-272.0, 396.0],
        "size": [16, 16]
      },
      "properties": {
        "iconurl": "icons/mini_map/airdef.png",
        "iconrotate": "0",
        "popupContent": "Amazing information about null will be found here!"
      },
      "bf2props": {
        "name": "common_fr_arty2",
        "class": "ObjectSpawner",
        "name_object": "Mortar Barrage Call-In",
        "team": "2",
        "obj1": "null",
        "obj2": "mortar_team2",
        "maxspawn": "1800.0",
        "minspawn": "1800.0",
        "spawndelay": "true",
        "ttl": "0.0",
        "cpid": "-1"
      }
    },
    {
      "type": "Feature",
      "geometry": {
        "type": "Point",
        "coordinates": [-256.0, 392.0],
        "size": [16, 16]
      },
      "properties": {
        "iconurl": "icons/mini_map/airdef.png",
        "iconrotate": "0",
        "popupContent": "Amazing information about null will be found here!"
      },
      "bf2props": {
        "name": "common_fr_arty3",
        "class": "ObjectSpawner",
        "name_object": "Mortar Barrage Call-In",
        "team": "2",
        "obj1": "null",
        "obj2": "mortar_team2",
        "maxspawn": "1800.0",
        "minspawn": "1800.0",
        "spawndelay": "true",
        "ttl": "0.0",
        "cpid": "-1"
      }
    },
    {
      "type": "Feature",
      "geometry": {
        "type": "Point",
        "coordinates": [-264.0, 384.0],
        "size": [16, 16]
      },
      "properties": {
        "iconurl": "icons/mini_map/airdef.png",
        "iconrotate": "0",
        "popupContent": "Amazing information about null will be found here!"
      },
      "bf2props": {
        "name": "common_fr_arty4",
        "class": "ObjectSpawner",
        "name_object": "Mortar Barrage Call-In",
        "team": "2",
        "obj1": "null",
        "obj2": "mortar_team2",
        "maxspawn": "1800.0",
        "minspawn": "1800.0",
        "spawndelay": "true",
        "ttl": "0.0",
        "cpid": "-1"
      }
    },
    {
      "type": "Feature",
      "geometry": {
        "type": "Point",
        "coordinates": [581.0, -57.0],
        "size": [16, 16]
      },
      "properties": {
        "iconurl": "icons/player_map/mini_squad.png",
        "iconrotate": "0",
        "popupContent": "Amazing information about null will be found here!"
      },
      "bf2props": {
        "name": "common_fr_boat_rp",
        "class": "ObjectSpawner",
        "name_object": "Permanent spawnpoint",
        "team": "2",
        "obj1": "null",
        "obj2": "rallypoint_fr_placeable_noexpire",
        "maxspawn": "99999.0",
        "minspawn": "99999.0",
        "spawndelay": "false",
        "ttl": "0.0",
        "cpid": "-1"
      }
    },
    {
      "type": "Feature",
      "geometry": {
        "type": "Point",
        "coordinates": [568.0, -58.0],
        "size": [16, 16]
      },
      "properties": {
        "iconurl": "icons/vehicles_map/mini_shp_light.png",
        "iconrotate": "180.0",
        "popupContent": "Amazing information about null will be found here!"
      },
      "bf2props": {
        "name": "common_fr_boat1",
        "class": "ObjectSpawner",
        "name_object": "RHIB",
        "team": "2",
        "obj1": "null",
        "obj2": "boat_rib_gpmg_anf1",
        "maxspawn": "300.0",
        "minspawn": "300.0",
        "spawndelay": "false",
        "ttl": "300.0",
        "cpid": "-1"
      }
    },
    {
      "type": "Feature",
      "geometry": {
        "type": "Point",
        "coordinates": [1547.0, -2024.0],
        "size": [16, 16]
      },
      "properties": {
        "iconurl": "icons/vehicles_map/mini_apc_medium.png",
        "iconrotate": "0.0",
        "popupContent": "Amazing information about BTR-80A will be found here!"
      },
      "bf2props": {
        "name": "cpname_nuijamaa_aas64_rubase_apc1",
        "class": "ObjectSpawner",
        "name_object": "BTR-80A",
        "team": "1",
        "obj1": "ru_apc_btr80a",
        "obj2": "null",
        "maxspawn": "900.0",
        "minspawn": "900.0",
        "spawndelay": "true",
        "ttl": "99999.0",
        "cpid": "301"
      }
    },
    {
      "type": "Feature",
      "geometry": {
        "type": "Point",
        "coordinates": [1556.0, -2024.0],
        "size": [16, 16]
      },
      "properties": {
        "iconurl": "icons/vehicles_map/mini_apc_medium.png",
        "iconrotate": "0.0",
        "popupContent": "Amazing information about BTR-80A will be found here!"
      },
      "bf2props": {
        "name": "cpname_nuijamaa_aas64_rubase_apc2",
        "class": "ObjectSpawner",
        "name_object": "BTR-80A",
        "team": "1",
        "obj1": "ru_apc_btr80a",
        "obj2": "null",
        "maxspawn": "900.0",
        "minspawn": "900.0",
        "spawndelay": "true",
        "ttl": "99999.0",
        "cpid": "301"
      }
    },
    {
      "type": "Feature",
      "geometry": {
        "type": "Point",
        "coordinates": [112.0, -154.0],
        "size": [16, 16]
      },
      "properties": {
        "iconurl": "icons/vehicles_map/mini_apc_medium.png",
        "iconrotate": "54.0",
        "popupContent": "Amazing information about null will be found here!"
      },
      "bf2props": {
        "name": "cpname_nuijamaa_aas64_frbase_apc1",
        "class": "ObjectSpawner",
        "name_object": "VBCI",
        "team": "2",
        "obj1": "null",
        "obj2": "fr_apc_vbci",
        "maxspawn": "900.0",
        "minspawn": "900.0",
        "spawndelay": "true",
        "ttl": "99999.0",
        "cpid": "302"
      }
    },
    {
      "type": "Feature",
      "geometry": {
        "type": "Point",
        "coordinates": [108.0, -148.0],
        "size": [16, 16]
      },
      "properties": {
        "iconurl": "icons/vehicles_map/mini_apc_medium.png",
        "iconrotate": "54.0",
        "popupContent": "Amazing information about null will be found here!"
      },
      "bf2props": {
        "name": "cpname_nuijamaa_aas64_frbase_apc2",
        "class": "ObjectSpawner",
        "name_object": "VBCI",
        "team": "2",
        "obj1": "null",
        "obj2": "fr_apc_vbci",
        "maxspawn": "900.0",
        "minspawn": "900.0",
        "spawndelay": "true",
        "ttl": "99999.0",
        "cpid": "302"
      }
    },
    {
      "type": "Feature",
      "geometry": {
        "type": "Point",
        "coordinates": [1741.0, -1314.0],
        "size": [33, 33],
        "radius": "150.0"
      },
      "properties": {
        "iconurl": "icons/flags_map/neutral/minimap_cp.png",
        "iconrotate": "0",
        "popupContent": "Amazing information about East Suburbs 150m will be found here!"
      },
      "bf2props": {
        "name": "cpname_nuijamaa_aas_east_suburbs",
        "class": "ControlPoint",
        "name_object": "East Suburbs 150m",
        "team": "0",
        "areavalue1": "0.0",
        "areavalue2": "200.0",
        "cpid": "1",
        "sgid": "211",
        "uncap": "false",
        "ttgc": "180.0",
        "ttlc": "180.0"
      }
    },
    {
      "type": "Feature",
      "geometry": {
        "type": "Point",
        "coordinates": [1706.0, -343.0],
        "size": [33, 33],
        "radius": "150.0"
      },
      "properties": {
        "iconurl": "icons/flags_map/neutral/minimap_cp.png",
        "iconrotate": "0",
        "popupContent": "Amazing information about Communications 150m will be found here!"
      },
      "bf2props": {
        "name": "cpname_nuijamaa_aas_communications",
        "class": "ControlPoint",
        "name_object": "Communications 150m",
        "team": "0",
        "areavalue1": "0.0",
        "areavalue2": "0.0",
        "cpid": "202",
        "sgid": "321",
        "uncap": "false",
        "ttgc": "180.0",
        "ttlc": "180.0"
      }
    },
    {
      "type": "Feature",
      "geometry": {
        "type": "Point",
        "coordinates": [854.0, -417.0],
        "size": [33, 33],
        "radius": "150.0"
      },
      "properties": {
        "iconurl": "icons/flags_map/neutral/minimap_cp.png",
        "iconrotate": "0",
        "popupContent": "Amazing information about Wheat Farm 150m will be found here!"
      },
      "bf2props": {
        "name": "cpname_nuijamaa_aas_wheat_farm",
        "class": "ControlPoint",
        "name_object": "Wheat Farm 150m",
        "team": "0",
        "areavalue1": "200.0",
        "areavalue2": "0.0",
        "cpid": "203",
        "sgid": "411",
        "uncap": "false",
        "ttgc": "180.0",
        "ttlc": "180.0"
      }
    },
    {
      "type": "Feature",
      "geometry": {
        "type": "Point",
        "coordinates": [1287.0, -1387.0],
        "size": [33, 33],
        "radius": "150.0"
      },
      "properties": {
        "iconurl": "icons/flags_map/neutral/minimap_cp.png",
        "iconrotate": "0",
        "popupContent": "Amazing information about West Suburbs 150m will be found here!"
      },
      "bf2props": {
        "name": "cpname_nuijamaa_aas_west_suburbs",
        "class": "ControlPoint",
        "name_object": "West Suburbs 150m",
        "team": "0",
        "areavalue1": "0.0",
        "areavalue2": "200.0",
        "cpid": "204",
        "sgid": "211",
        "uncap": "false",
        "ttgc": "180.0",
        "ttlc": "180.0"
      }
    },
    {
      "type": "Feature",
      "geometry": {
        "type": "Point",
        "coordinates": [841.0, -1003.0],
        "size": [33, 33],
        "radius": "150.0"
      },
      "properties": {
        "iconurl": "icons/flags_map/neutral/minimap_cp.png",
        "iconrotate": "0",
        "popupContent": "Amazing information about Forest Farms 150m will be found here!"
      },
      "bf2props": {
        "name": "cpname_nuijamaa_aas_forest_farms",
        "class": "ControlPoint",
        "name_object": "Forest Farms 150m",
        "team": "0",
        "areavalue1": "0.0",
        "areavalue2": "0.0",
        "cpid": "205",
        "sgid": "321",
        "uncap": "false",
        "ttgc": "180.0",
        "ttlc": "180.0"
      }
    },
    {
      "type": "Feature",
      "geometry": {
        "type": "Point",
        "coordinates": [555.0, -556.0],
        "size": [33, 33],
        "radius": "150.0"
      },
      "properties": {
        "iconurl": "icons/flags_map/neutral/minimap_cp.png",
        "iconrotate": "0",
        "popupContent": "Amazing information about Wind Farm West 150m will be found here!"
      },
      "bf2props": {
        "name": "cpname_nuijamaa_aas_wind_farm_west",
        "class": "ControlPoint",
        "name_object": "Wind Farm West 150m",
        "team": "0",
        "areavalue1": "200.0",
        "areavalue2": "0.0",
        "cpid": "206",
        "sgid": "411",
        "uncap": "false",
        "ttgc": "180.0",
        "ttlc": "180.0"
      }
    },
    {
      "type": "Feature",
      "geometry": {
        "type": "Point",
        "coordinates": [798.0, -1638.0],
        "size": [33, 33],
        "radius": "100.0"
      },
      "properties": {
        "iconurl": "icons/flags_map/neutral/minimap_cp.png",
        "iconrotate": "0",
        "popupContent": "Amazing information about Border Control 100m will be found here!"
      },
      "bf2props": {
        "name": "cpname_nuijamaa_aas_border_control",
        "class": "ControlPoint",
        "name_object": "Border Control 100m",
        "team": "0",
        "areavalue1": "0.0",
        "areavalue2": "200.0",
        "cpid": "207",
        "sgid": "202",
        "uncap": "false",
        "ttgc": "180.0",
        "ttlc": "180.0"
      }
    },
    {
      "type": "Feature",
      "geometry": {
        "type": "Point",
        "coordinates": [634.0, -1393.0],
        "size": [33, 33],
        "radius": "100.0"
      },
      "properties": {
        "iconurl": "icons/flags_map/neutral/minimap_cp.png",
        "iconrotate": "0",
        "popupContent": "Amazing information about Immigration 100m will be found here!"
      },
      "bf2props": {
        "name": "cpname_nuijamaa_aas_immigration",
        "class": "ControlPoint",
        "name_object": "Immigration 100m",
        "team": "0",
        "areavalue1": "0.0",
        "areavalue2": "0.0",
        "cpid": "208",
        "sgid": "312",
        "uncap": "false",
        "ttgc": "180.0",
        "ttlc": "180.0"
      }
    },
    {
      "type": "Feature",
      "geometry": {
        "type": "Point",
        "coordinates": [448.0, -1141.0],
        "size": [33, 33],
        "radius": "100.0"
      },
      "properties": {
        "iconurl": "icons/flags_map/neutral/minimap_cp.png",
        "iconrotate": "0",
        "popupContent": "Amazing information about Truck Parking 100m will be found here!"
      },
      "bf2props": {
        "name": "cpname_nuijamaa_aas_truck_parking",
        "class": "ControlPoint",
        "name_object": "Truck Parking 100m",
        "team": "0",
        "areavalue1": "0.0",
        "areavalue2": "0.0",
        "cpid": "209",
        "sgid": "402",
        "uncap": "false",
        "ttgc": "180.0",
        "ttlc": "180.0"
      }
    },
    {
      "type": "Feature",
      "geometry": {
        "type": "Point",
        "coordinates": [292.0, -711.0],
        "size": [33, 33],
        "radius": "120.0"
      },
      "properties": {
        "iconurl": "icons/flags_map/neutral/minimap_cp.png",
        "iconrotate": "0",
        "popupContent": "Amazing information about Industrial Center 120m will be found here!"
      },
      "bf2props": {
        "name": "cpname_nuijamaa_aas_industrial_center",
        "class": "ControlPoint",
        "name_object": "Industrial Center 120m",
        "team": "0",
        "areavalue1": "0.0",
        "areavalue2": "0.0",
        "cpid": "210",
        "sgid": "502",
        "uncap": "false",
        "ttgc": "180.0",
        "ttlc": "180.0"
      }
    },
    {
      "type": "Feature",
      "geometry": {
        "type": "Point",
        "coordinates": [380.0, -1557.0],
        "size": [33, 33],
        "radius": "120.0"
      },
      "properties": {
        "iconurl": "icons/flags_map/neutral/minimap_cp.png",
        "iconrotate": "0",
        "popupContent": "Amazing information about South Farm 120m will be found here!"
      },
      "bf2props": {
        "name": "cpname_nuijamaa_aas_south_farm",
        "class": "ControlPoint",
        "name_object": "South Farm 120m",
        "team": "0",
        "areavalue1": "0.0",
        "areavalue2": "0.0",
        "cpid": "211",
        "sgid": "312",
        "uncap": "false",
        "ttgc": "180.0",
        "ttlc": "180.0"
      }
    },
    {
      "type": "Feature",
      "geometry": {
        "type": "Point",
        "coordinates": [1356.0, -739.0],
        "size": [33, 33],
        "radius": "150.0"
      },
      "properties": {
        "iconurl": "icons/flags_map/neutral/minimap_cp.png",
        "iconrotate": "0",
        "popupContent": "Amazing information about Wind Farm East 150m will be found here!"
      },
      "bf2props": {
        "name": "cpname_nuijamaa_aas_wind_farm_east",
        "class": "ControlPoint",
        "name_object": "Wind Farm East 150m",
        "team": "0",
        "areavalue1": "0.0",
        "areavalue2": "0.0",
        "cpid": "212",
        "sgid": "321",
        "uncap": "false",
        "ttgc": "180.0",
        "ttlc": "180.0"
      }
    },
    {
      "type": "Feature",
      "geometry": {
        "type": "Point",
        "coordinates": [898.0, -1263.0],
        "size": [33, 33],
        "radius": "125.0"
      },
      "properties": {
        "iconurl": "icons/flags_map/neutral/minimap_cp.png",
        "iconrotate": "0",
        "popupContent": "Amazing information about Forest 125m will be found here!"
      },
      "bf2props": {
        "name": "cpname_nuijamaa_aas_forest",
        "class": "ControlPoint",
        "name_object": "Forest 125m",
        "team": "0",
        "areavalue1": "0.0",
        "areavalue2": "0.0",
        "cpid": "201",
        "sgid": "312",
        "uncap": "false",
        "ttgc": "180.0",
        "ttlc": "180.0"
      }
    },
    {
      "type": "Feature",
      "geometry": {
        "type": "Point",
        "coordinates": [1520.0, -1794.615],
        "size": [33, 33],
        "radius": "0.0"
      },
      "properties": {
        "iconurl": "icons/flags_map/ru/minimap_cpbase.png",
        "iconrotate": "0",
        "popupContent": "Amazing information about Russian Staging Area will be found here!"
      },
      "bf2props": {
        "name": "cpname_nuijamaa_aas64_rubase",
        "class": "ControlPoint",
        "name_object": "Russian Staging Area",
        "team": "1",
        "areavalue1": "0.0",
        "areavalue2": "0.0",
        "cpid": "301",
        "sgid": "1",
        "uncap": "true",
        "ttgc": "180.0",
        "ttlc": "180.0"
      }
    },
    {
      "type": "Feature",
      "geometry": {
        "type": "Point",
        "coordinates": [223.0, -222.0],
        "size": [33, 33],
        "radius": "0.0"
      },
      "properties": {
        "iconurl": "icons/flags_map/fr/minimap_cpbase.png",
        "iconrotate": "0",
        "popupContent": "Amazing information about French Staging Area will be found here!"
      },
      "bf2props": {
        "name": "cpname_nuijamaa_aas64_frbase",
        "class": "ControlPoint",
        "name_object": "French Staging Area",
        "team": "2",
        "areavalue1": "0.0",
        "areavalue2": "0.0",
        "cpid": "302",
        "sgid": "-999",
        "uncap": "true",
        "ttgc": "180.0",
        "ttlc": "180.0"
      }
    },
    {
      "type": "Feature",
      "geometry": {
        "type": "Polygon",
        "coordinates": [
          [
            [0,0],
            [0,-2048],
            [2048,-2048],
            [2048,0]
          ],[
            [2048.0, 0.0],
            [0.0, 0.0],
            [0.0, -2048.0],
            [2048.0, -2048.0]
          ]
        ]
      },
      "bf2props": {
        "code": "combatarea_4_common",
        "class": "CombatArea",
        "team": "0",
        "vehicles": "4",
        "layer": "3",
        "inverted": "false",
        "max": [0.0, 0.0],
        "min": [0.0, 0.0]
      }
    },
    {
      "type": "Feature",
      "geometry": {
        "type": "Polygon",
        "coordinates": [
          [
            [2048.0, -2048.0],
            [2048.0, -1571.4441],
            [1868.6274, -1592.5052],
            [1776.5775, -1628.1686],
            [1658.7478, -1692.5173],
            [1566.6718, -1710.2683],
            [1452.2366, -1787.7766],
            [1374.5328, -1820.7604],
            [1301.1774, -1823.1274],
            [1224.9756, -1780.1139],
            [1190.4069, -1706.2239],
            [1056.7557, -1769.966],
            [909.9543, -2048.0]
          ]
        ]
      },
      "bf2props": {
        "code": "combatarea_13_common",
        "class": "CombatArea",
        "team": "2",
        "vehicles": "4",
        "layer": "3",
        "inverted": "true",
        "max": [0.0, 0.0],
        "min": [0.0, 0.0]
      }
    },
    {
      "type": "Feature",
      "geometry": {
        "type": "Polygon",
        "coordinates": [
          [
            [194.24408, -569.3147],
            [357.10553, -481.61206],
            [499.77576, -305.27075],
            [504.706, -159.3722],
            [504.62268, -25.975952],
            [503.9745, 0.0],
            [0.0, 0.0],
            [0.0, -598.1156]
          ]
        ]
      },
      "bf2props": {
        "code": "combatarea_17_common",
        "class": "CombatArea",
        "team": "1",
        "vehicles": "4",
        "layer": "3",
        "inverted": "true",
        "max": [0.0, 0.0],
        "min": [0.0, 0.0]
      }
    }
  ]
}