{
  "team1":"chinsurgent",
  "team2":"gb",
  "team1tickets":"400",
  "team2tickets":"450",
  "mapsize":"2048",
  "viewdistance":"500",
  "combatareause":"true",
  "combatareadamage":"20.0",
  "combatareaallowoutside":"10.0",
  "routes": [
    [
      [
        "cpname_dragon_fly_coop64_milmain"
      ],
      [
        "cpname_dragon_fly_coop64_southcity"
      ],
      [
        "cpname_dragon_fly_coop64_eastcity",
        "cpname_dragon_fly_coop64_westcity"
      ],
      [
        "cpname_dragon_fly_coop64_northcity"
      ],
      [
        "cpname_dragon_fly_coop64_vcp"
      ]
    ]
  ],
  "type": "FeatureCollection",
  "features": [
    {
      "type": "Feature",
      "geometry": {
        "type": "Point",
        "coordinates": [275.03998, -828.50903],
        "size": [16, 16]
      },
      "properties": {
        "iconurl": "icons/vehicles_map/mini_apc_medium.png",
        "iconrotate": "90.0",
        "popupContent": "Amazing information about null will be found here!"
      },
      "bf2props": {
        "name": "cpname_dragon_fly_coop64_vcp_apc",
        "class": "ObjectSpawner",
        "name_object": "FV 510 Warrior",
        "team": "2",
        "obj1": "null",
        "obj2": "gb_apc_warrior_bf2",
        "maxspawn": "300.0",
        "minspawn": "300.0",
        "spawndelay": "false",
        "ttl": "1200.0",
        "cpid": "6"
      }
    },
    {
      "type": "Feature",
      "geometry": {
        "type": "Point",
        "coordinates": [275.03998, -839.537],
        "size": [16, 16]
      },
      "properties": {
        "iconurl": "icons/vehicles_map/mini_apc_medium.png",
        "iconrotate": "90.0",
        "popupContent": "Amazing information about null will be found here!"
      },
      "bf2props": {
        "name": "cpname_dragon_fly_coop64_vcp_warrior",
        "class": "ObjectSpawner",
        "name_object": "FV 510 Warrior",
        "team": "2",
        "obj1": "null",
        "obj2": "gb_apc_warrior_bf2",
        "maxspawn": "300.0",
        "minspawn": "300.0",
        "spawndelay": "false",
        "ttl": "1200.0",
        "cpid": "6"
      }
    },
    {
      "type": "Feature",
      "geometry": {
        "type": "Point",
        "coordinates": [275.03998, -834.333],
        "size": [16, 16]
      },
      "properties": {
        "iconurl": "icons/vehicles_map/mini_apc_medium.png",
        "iconrotate": "90.0",
        "popupContent": "Amazing information about null will be found here!"
      },
      "bf2props": {
        "name": "cpname_dragon_fly_coop64_vcp_warrior_0",
        "class": "ObjectSpawner",
        "name_object": "FV 510 Warrior",
        "team": "2",
        "obj1": "null",
        "obj2": "gb_apc_warrior_bf2",
        "maxspawn": "300.0",
        "minspawn": "300.0",
        "spawndelay": "false",
        "ttl": "1200.0",
        "cpid": "6"
      }
    },
    {
      "type": "Feature",
      "geometry": {
        "type": "Point",
        "coordinates": [212.20203, -816.95703],
        "size": [16, 16]
      },
      "properties": {
        "iconurl": "icons/mini_map/repairdepot.png",
        "iconrotate": "0",
        "popupContent": "Amazing information about null will be found here!"
      },
      "bf2props": {
        "name": "cpname_dragon_fly_coop64_vcp_depot",
        "class": "ObjectSpawner",
        "name_object": "Vehicle Depot",
        "team": "2",
        "obj1": "null",
        "obj2": "vehicle_depot_gb",
        "maxspawn": "0.0",
        "minspawn": "0.0",
        "spawndelay": "false",
        "ttl": "0.0",
        "cpid": "6"
      }
    },
    {
      "type": "Feature",
      "geometry": {
        "type": "Point",
        "coordinates": [238.552, -828.671],
        "size": [16, 16]
      },
      "properties": {
        "iconurl": "icons/vehicles_map/mini_apc_medium.png",
        "iconrotate": "180.0",
        "popupContent": "Amazing information about null will be found here!"
      },
      "bf2props": {
        "name": "cpname_dragon_fly_coop64_vcp_warrior_1",
        "class": "ObjectSpawner",
        "name_object": "FV 510 Warrior",
        "team": "2",
        "obj1": "null",
        "obj2": "gb_apc_warrior",
        "maxspawn": "300.0",
        "minspawn": "300.0",
        "spawndelay": "false",
        "ttl": "1200.0",
        "cpid": "6"
      }
    },
    {
      "type": "Feature",
      "geometry": {
        "type": "Point",
        "coordinates": [232.89099, -828.671],
        "size": [16, 16]
      },
      "properties": {
        "iconurl": "icons/vehicles_map/mini_apc_medium.png",
        "iconrotate": "180.0",
        "popupContent": "Amazing information about null will be found here!"
      },
      "bf2props": {
        "name": "cpname_dragon_fly_coop64_vcp_warrior_2",
        "class": "ObjectSpawner",
        "name_object": "FV 510 Warrior",
        "team": "2",
        "obj1": "null",
        "obj2": "gb_apc_warrior",
        "maxspawn": "300.0",
        "minspawn": "300.0",
        "spawndelay": "false",
        "ttl": "1200.0",
        "cpid": "6"
      }
    },
    {
      "type": "Feature",
      "geometry": {
        "type": "Point",
        "coordinates": [120.68103, -820.74097],
        "size": [16, 16]
      },
      "properties": {
        "iconurl": "icons/vehicles_map/mini_trk_support.png",
        "iconrotate": "180.0",
        "popupContent": "Amazing information about null will be found here!"
      },
      "bf2props": {
        "name": "cpname_dragon_fly_coop64_vcp_truck",
        "class": "ObjectSpawner",
        "name_object": "MAN Support Vehicle",
        "team": "2",
        "obj1": "null",
        "obj2": "gb_trk_support",
        "maxspawn": "300.0",
        "minspawn": "300.0",
        "spawndelay": "false",
        "ttl": "1200.0",
        "cpid": "6"
      }
    },
    {
      "type": "Feature",
      "geometry": {
        "type": "Point",
        "coordinates": [129.43799, -820.74097],
        "size": [16, 16]
      },
      "properties": {
        "iconurl": "icons/vehicles_map/mini_trk_logistics.png",
        "iconrotate": "180.0",
        "popupContent": "Amazing information about null will be found here!"
      },
      "bf2props": {
        "name": "cpname_dragon_fly_coop64_vcp_logi",
        "class": "ObjectSpawner",
        "name_object": "MAN SV Logistics",
        "team": "2",
        "obj1": "null",
        "obj2": "gb_trk_logistics",
        "maxspawn": "300.0",
        "minspawn": "300.0",
        "spawndelay": "false",
        "ttl": "1200.0",
        "cpid": "6"
      }
    },
    {
      "type": "Feature",
      "geometry": {
        "type": "Point",
        "coordinates": [125.16998, -820.74097],
        "size": [16, 16]
      },
      "properties": {
        "iconurl": "icons/vehicles_map/mini_trk_logistics.png",
        "iconrotate": "180.0",
        "popupContent": "Amazing information about null will be found here!"
      },
      "bf2props": {
        "name": "cpname_dragon_fly_coop64_vcp_truck_0",
        "class": "ObjectSpawner",
        "name_object": "MAN SV Logistics",
        "team": "2",
        "obj1": "null",
        "obj2": "gb_trk_logistics",
        "maxspawn": "300.0",
        "minspawn": "300.0",
        "spawndelay": "false",
        "ttl": "1200.0",
        "cpid": "6"
      }
    },
    {
      "type": "Feature",
      "geometry": {
        "type": "Point",
        "coordinates": [116.21997, -820.74097],
        "size": [16, 16]
      },
      "properties": {
        "iconurl": "icons/vehicles_map/mini_jep_support.png",
        "iconrotate": "180.0",
        "popupContent": "Amazing information about null will be found here!"
      },
      "bf2props": {
        "name": "cpname_dragon_fly_coop64_vcp_jeep",
        "class": "ObjectSpawner",
        "name_object": "Land Rover Support",
        "team": "2",
        "obj1": "null",
        "obj2": "gb_jep_landrover_support",
        "maxspawn": "300.0",
        "minspawn": "300.0",
        "spawndelay": "false",
        "ttl": "1200.0",
        "cpid": "6"
      }
    },
    {
      "type": "Feature",
      "geometry": {
        "type": "Point",
        "coordinates": [130.745, -798.911],
        "size": [16, 16]
      },
      "properties": {
        "iconurl": "icons/vehicles_map/mini_the_light.png",
        "iconrotate": "90.0",
        "popupContent": "Amazing information about null will be found here!"
      },
      "bf2props": {
        "name": "cpname_dragon_fly_coop64_vcp_lynx",
        "class": "ObjectSpawner",
        "name_object": "Lynx AH.7",
        "team": "2",
        "obj1": "null",
        "obj2": "gb_the_lynx_l7a2_alt",
        "maxspawn": "300.0",
        "minspawn": "300.0",
        "spawndelay": "false",
        "ttl": "1200.0",
        "cpid": "6"
      }
    },
    {
      "type": "Feature",
      "geometry": {
        "type": "Point",
        "coordinates": [258.214, -839.03503],
        "size": [16, 16]
      },
      "properties": {
        "iconurl": "icons/player_map/mini_squad.png",
        "iconrotate": "0",
        "popupContent": "Amazing information about null will be found here!"
      },
      "bf2props": {
        "name": "cpname_dragon_fly_coop64_vcp_rally",
        "class": "ObjectSpawner",
        "name_object": "Permanent spawnpoint",
        "team": "2",
        "obj1": "null",
        "obj2": "rallypoint_gb_placeable_noexpire",
        "maxspawn": "300.0",
        "minspawn": "300.0",
        "spawndelay": "false",
        "ttl": "1200.0",
        "cpid": "6"
      }
    },
    {
      "type": "Feature",
      "geometry": {
        "type": "Point",
        "coordinates": [168.16101, -803.58],
        "size": [16, 16]
      },
      "properties": {
        "iconurl": "icons/player_map/mini_squad.png",
        "iconrotate": "0",
        "popupContent": "Amazing information about null will be found here!"
      },
      "bf2props": {
        "name": "cpname_dragon_fly_coop64_vcp_rally_0",
        "class": "ObjectSpawner",
        "name_object": "Permanent spawnpoint",
        "team": "2",
        "obj1": "null",
        "obj2": "rallypoint_gb_placeable_noexpire",
        "maxspawn": "300.0",
        "minspawn": "300.0",
        "spawndelay": "false",
        "ttl": "1200.0",
        "cpid": "6"
      }
    },
    {
      "type": "Feature",
      "geometry": {
        "type": "Point",
        "coordinates": [1973.536, -1761.12],
        "size": [16, 16]
      },
      "properties": {
        "iconurl": "icons/vehicles_map/mini_tank_medium.png",
        "iconrotate": "-85.0",
        "popupContent": "Amazing information about T-62 will be found here!"
      },
      "bf2props": {
        "name": "cpname_dragon_fly_coop64_milmain_tank",
        "class": "ObjectSpawner",
        "name_object": "T-62",
        "team": "1",
        "obj1": "mil_tnk_t62",
        "obj2": "null",
        "maxspawn": "600.0",
        "minspawn": "600.0",
        "spawndelay": "false",
        "ttl": "1200.0",
        "cpid": "1"
      }
    },
    {
      "type": "Feature",
      "geometry": {
        "type": "Point",
        "coordinates": [1992.523, -1767.667],
        "size": [16, 16]
      },
      "properties": {
        "iconurl": "icons/vehicles_map/mini_tank_medium.png",
        "iconrotate": "-65.564",
        "popupContent": "Amazing information about T-62 will be found here!"
      },
      "bf2props": {
        "name": "cpname_dragon_fly_coop64_milmain_tank_0",
        "class": "ObjectSpawner",
        "name_object": "T-62",
        "team": "1",
        "obj1": "mil_tnk_t62",
        "obj2": "null",
        "maxspawn": "600.0",
        "minspawn": "600.0",
        "spawndelay": "false",
        "ttl": "1200.0",
        "cpid": "1"
      }
    },
    {
      "type": "Feature",
      "geometry": {
        "type": "Point",
        "coordinates": [1953.681, -1758.381],
        "size": [16, 16]
      },
      "properties": {
        "iconurl": "icons/vehicles_map/mini_apc_heavy.png",
        "iconrotate": "-85.0",
        "popupContent": "Amazing information about BMP-1 will be found here!"
      },
      "bf2props": {
        "name": "cpname_dragon_fly_coop64_milmain_bmp",
        "class": "ObjectSpawner",
        "name_object": "BMP-1",
        "team": "1",
        "obj1": "mil_ifv_bmp1_bf2",
        "obj2": "null",
        "maxspawn": "300.0",
        "minspawn": "300.0",
        "spawndelay": "false",
        "ttl": "1200.0",
        "cpid": "1"
      }
    },
    {
      "type": "Feature",
      "geometry": {
        "type": "Point",
        "coordinates": [1936.2671, -1759.376],
        "size": [16, 16]
      },
      "properties": {
        "iconurl": "icons/vehicles_map/mini_apc_heavy.png",
        "iconrotate": "-104.819",
        "popupContent": "Amazing information about BMP-1 will be found here!"
      },
      "bf2props": {
        "name": "cpname_dragon_fly_coop64_milmain_bmp_0",
        "class": "ObjectSpawner",
        "name_object": "BMP-1",
        "team": "1",
        "obj1": "mil_ifv_bmp1_bf2",
        "obj2": "null",
        "maxspawn": "300.0",
        "minspawn": "300.0",
        "spawndelay": "false",
        "ttl": "1200.0",
        "cpid": "1"
      }
    },
    {
      "type": "Feature",
      "geometry": {
        "type": "Point",
        "coordinates": [1970.052, -1819.2119],
        "size": [16, 16]
      },
      "properties": {
        "iconurl": "icons/mini_map/uavtrailer.png",
        "iconrotate": "0",
        "popupContent": "Amazing information about UAV Terminal will be found here!"
      },
      "bf2props": {
        "name": "cpname_dragon_fly_coop64_milmain_acv",
        "class": "ObjectSpawner",
        "name_object": "UAV Terminal",
        "team": "1",
        "obj1": "mil_acv_technical",
        "obj2": "null",
        "maxspawn": "0.0",
        "minspawn": "0.0",
        "spawndelay": "false",
        "ttl": "0.0",
        "cpid": "1"
      }
    },
    {
      "type": "Feature",
      "geometry": {
        "type": "Point",
        "coordinates": [1548.6951, -1699.981],
        "size": [16, 16]
      },
      "properties": {
        "iconurl": "icons/vehicles_map/mini_jep_light.png",
        "iconrotate": "120.0",
        "popupContent": "Amazing information about DShKM Technical will be found here!"
      },
      "bf2props": {
        "name": "cpname_dragon_fly_coop64_milmain_techie",
        "class": "ObjectSpawner",
        "name_object": "DShKM Technical",
        "team": "1",
        "obj1": "civ_jep_technical_militia",
        "obj2": "null",
        "maxspawn": "300.0",
        "minspawn": "300.0",
        "spawndelay": "false",
        "ttl": "1200.0",
        "cpid": "1"
      }
    },
    {
      "type": "Feature",
      "geometry": {
        "type": "Point",
        "coordinates": [1311.812, -1811.4661],
        "size": [16, 16]
      },
      "properties": {
        "iconurl": "icons/vehicles_map/mini_jep_light.png",
        "iconrotate": "20.0",
        "popupContent": "Amazing information about DShKM Technical will be found here!"
      },
      "bf2props": {
        "name": "cpname_dragon_fly_coop64_milmain_techie_0",
        "class": "ObjectSpawner",
        "name_object": "DShKM Technical",
        "team": "1",
        "obj1": "civ_jep_technical_militia",
        "obj2": "null",
        "maxspawn": "300.0",
        "minspawn": "300.0",
        "spawndelay": "false",
        "ttl": "1200.0",
        "cpid": "1"
      }
    },
    {
      "type": "Feature",
      "geometry": {
        "type": "Point",
        "coordinates": [1949.335, -1823.354],
        "size": [16, 16]
      },
      "properties": {
        "iconurl": "icons/vehicles_map/mini_trk_support.png",
        "iconrotate": "0.0",
        "popupContent": "Amazing information about Ural-4320 will be found here!"
      },
      "bf2props": {
        "name": "cpname_dragon_fly_coop64_milmain_truck",
        "class": "ObjectSpawner",
        "name_object": "Ural-4320",
        "team": "1",
        "obj1": "mil_trk_support",
        "obj2": "null",
        "maxspawn": "300.0",
        "minspawn": "300.0",
        "spawndelay": "false",
        "ttl": "1200.0",
        "cpid": "1"
      }
    },
    {
      "type": "Feature",
      "geometry": {
        "type": "Point",
        "coordinates": [2025.595, -1778.546],
        "size": [16, 16]
      },
      "properties": {
        "iconurl": "icons/mini_map/repairdepot.png",
        "iconrotate": "0",
        "popupContent": "Amazing information about Vehicle Depot will be found here!"
      },
      "bf2props": {
        "name": "cpname_dragon_fly_coop64_milmain_depot",
        "class": "ObjectSpawner",
        "name_object": "Vehicle Depot",
        "team": "1",
        "obj1": "vehicle_depot_mil",
        "obj2": "null",
        "maxspawn": "0.0",
        "minspawn": "0.0",
        "spawndelay": "false",
        "ttl": "0.0",
        "cpid": "1"
      }
    },
    {
      "type": "Feature",
      "geometry": {
        "type": "Point",
        "coordinates": [2023.265, -1771.428],
        "size": [16, 16]
      },
      "properties": {
        "iconurl": "icons/vehicles_map/mini_trk_logistics.png",
        "iconrotate": "-90.0",
        "popupContent": "Amazing information about Ural-4320 Logistics will be found here!"
      },
      "bf2props": {
        "name": "cpname_dragon_fly_coop64_milmain_logi",
        "class": "ObjectSpawner",
        "name_object": "Ural-4320 Logistics",
        "team": "1",
        "obj1": "mil_trk_logistics",
        "obj2": "null",
        "maxspawn": "300.0",
        "minspawn": "300.0",
        "spawndelay": "false",
        "ttl": "1200.0",
        "cpid": "1"
      }
    },
    {
      "type": "Feature",
      "geometry": {
        "type": "Point",
        "coordinates": [1117.637, -644.353],
        "size": [16, 16]
      },
      "properties": {
        "iconurl": "icons/player_map/mini_squad.png",
        "iconrotate": "0",
        "popupContent": "Amazing information about null will be found here!"
      },
      "bf2props": {
        "name": "cpname_dragon_fly_coop64_northcity_rally",
        "class": "ObjectSpawner",
        "name_object": "Permanent spawnpoint",
        "team": "2",
        "obj1": "null",
        "obj2": "rallypoint_gb_placeable_noexpire",
        "maxspawn": "120.0",
        "minspawn": "120.0",
        "spawndelay": "false",
        "ttl": "1200.0",
        "cpid": "5"
      }
    },
    {
      "type": "Feature",
      "geometry": {
        "type": "Point",
        "coordinates": [1418.118, -1028.009],
        "size": [16, 16]
      },
      "properties": {
        "iconurl": "icons/vehicles_map/mini_stw_mortar.png",
        "iconrotate": "-87.412",
        "popupContent": "Amazing information about fixed_mortar_ins will be found here!"
      },
      "bf2props": {
        "name": "cpname_dragon_fly_coop64_eastcity_mortar",
        "class": "ObjectSpawner",
        "name_object": "fixed_mortar_ins",
        "team": "1",
        "obj1": "fixed_mortar_ins",
        "obj2": "null",
        "maxspawn": "600.0",
        "minspawn": "600.0",
        "spawndelay": "false",
        "ttl": "0.0",
        "cpid": "3"
      }
    },
    {
      "type": "Feature",
      "geometry": {
        "type": "Point",
        "coordinates": [1423.837, -1014.696],
        "size": [16, 16]
      },
      "properties": {
        "iconurl": "icons/vehicles_map/mini_stw_mortar.png",
        "iconrotate": "-87.412",
        "popupContent": "Amazing information about fixed_mortar_ins will be found here!"
      },
      "bf2props": {
        "name": "cpname_dragon_fly_coop64_eastcity_mortar_0",
        "class": "ObjectSpawner",
        "name_object": "fixed_mortar_ins",
        "team": "1",
        "obj1": "fixed_mortar_ins",
        "obj2": "null",
        "maxspawn": "600.0",
        "minspawn": "600.0",
        "spawndelay": "false",
        "ttl": "0.0",
        "cpid": "3"
      }
    },
    {
      "type": "Feature",
      "geometry": {
        "type": "Point",
        "coordinates": [1466.081, -1541.918],
        "size": [16, 16]
      },
      "properties": {
        "iconurl": "icons/vehicles_map/mini_stw_mortar.png",
        "iconrotate": "-87.412",
        "popupContent": "Amazing information about fixed_mortar_ins will be found here!"
      },
      "bf2props": {
        "name": "cpname_dragon_fly_coop64_milmain_mortar",
        "class": "ObjectSpawner",
        "name_object": "fixed_mortar_ins",
        "team": "1",
        "obj1": "fixed_mortar_ins",
        "obj2": "null",
        "maxspawn": "600.0",
        "minspawn": "600.0",
        "spawndelay": "false",
        "ttl": "0.0",
        "cpid": "1"
      }
    },
    {
      "type": "Feature",
      "geometry": {
        "type": "Point",
        "coordinates": [1569.2319, -1714.944],
        "size": [33, 33],
        "radius": "80.0"
      },
      "properties": {
        "iconurl": "icons/flags_map/chinsurgent/minimap_cp.png",
        "iconrotate": "0",
        "popupContent": "Amazing information about Militia Base will be found here!"
      },
      "bf2props": {
        "name": "cpname_dragon_fly_coop64_milmain",
        "class": "ControlPoint",
        "name_object": "Militia Base",
        "team": "1",
        "areavalue1": "0.0",
        "areavalue2": "99999.0",
        "cpid": "1",
        "sgid": "1",
        "uncap": "false",
        "ttgc": "90.0",
        "ttlc": "90.0"
      }
    },
    {
      "type": "Feature",
      "geometry": {
        "type": "Point",
        "coordinates": [1243.561, -1344.942],
        "size": [33, 33],
        "radius": "60.0"
      },
      "properties": {
        "iconurl": "icons/flags_map/chinsurgent/minimap_cp.png",
        "iconrotate": "0",
        "popupContent": "Amazing information about South City 60m will be found here!"
      },
      "bf2props": {
        "name": "cpname_dragon_fly_coop64_southcity",
        "class": "ControlPoint",
        "name_object": "South City 60m",
        "team": "1",
        "areavalue1": "0.0",
        "areavalue2": "0.0",
        "cpid": "2",
        "sgid": "2",
        "uncap": "false",
        "ttgc": "120.0",
        "ttlc": "120.0"
      }
    },
    {
      "type": "Feature",
      "geometry": {
        "type": "Point",
        "coordinates": [1254.127, -1065.321],
        "size": [33, 33],
        "radius": "50.0"
      },
      "properties": {
        "iconurl": "icons/flags_map/chinsurgent/minimap_cp.png",
        "iconrotate": "0",
        "popupContent": "Amazing information about East City 50m will be found here!"
      },
      "bf2props": {
        "name": "cpname_dragon_fly_coop64_eastcity",
        "class": "ControlPoint",
        "name_object": "East City 50m",
        "team": "1",
        "areavalue1": "0.0",
        "areavalue2": "0.0",
        "cpid": "3",
        "sgid": "3",
        "uncap": "false",
        "ttgc": "120.0",
        "ttlc": "120.0"
      }
    },
    {
      "type": "Feature",
      "geometry": {
        "type": "Point",
        "coordinates": [1077.83, -1003.618],
        "size": [33, 33],
        "radius": "50.0"
      },
      "properties": {
        "iconurl": "icons/flags_map/chinsurgent/minimap_cp.png",
        "iconrotate": "0",
        "popupContent": "Amazing information about West City 50m will be found here!"
      },
      "bf2props": {
        "name": "cpname_dragon_fly_coop64_westcity",
        "class": "ControlPoint",
        "name_object": "West City 50m",
        "team": "1",
        "areavalue1": "0.0",
        "areavalue2": "0.0",
        "cpid": "4",
        "sgid": "3",
        "uncap": "false",
        "ttgc": "120.0",
        "ttlc": "120.0"
      }
    },
    {
      "type": "Feature",
      "geometry": {
        "type": "Point",
        "coordinates": [1137.72, -704.645],
        "size": [33, 33],
        "radius": "80.0"
      },
      "properties": {
        "iconurl": "icons/flags_map/neutral/minimap_cp.png",
        "iconrotate": "0",
        "popupContent": "Amazing information about North City 80m will be found here!"
      },
      "bf2props": {
        "name": "cpname_dragon_fly_coop64_northcity",
        "class": "ControlPoint",
        "name_object": "North City 80m",
        "team": "0",
        "areavalue1": "0.0",
        "areavalue2": "0.0",
        "cpid": "5",
        "sgid": "4",
        "uncap": "false",
        "ttgc": "120.0",
        "ttlc": "120.0"
      }
    },
    {
      "type": "Feature",
      "geometry": {
        "type": "Point",
        "coordinates": [172.17401, -808.724],
        "size": [33, 33],
        "radius": "20.0"
      },
      "properties": {
        "iconurl": "icons/flags_map/gb/minimap_cpbase.png",
        "iconrotate": "0",
        "popupContent": "Amazing information about VCP will be found here!"
      },
      "bf2props": {
        "name": "cpname_dragon_fly_coop64_vcp",
        "class": "ControlPoint",
        "name_object": "VCP",
        "team": "2",
        "areavalue1": "0.0",
        "areavalue2": "0.0",
        "cpid": "6",
        "sgid": "5",
        "uncap": "true",
        "ttgc": "120.0",
        "ttlc": "120.0"
      }
    },
    {
      "type": "Feature",
      "geometry": {
        "type": "Polygon",
        "coordinates": [
          [
            [0,0],
            [0,-2048],
            [2048,-2048],
            [2048,0]
          ],[
            [2042.4675, -2044.8962],
            [2045.0951, -11.5563965],
            [11.4021, -7.47876],
            [4.3172607, -2044.0339]
          ]
        ]
      },
      "bf2props": {
        "code": "combatarea_0_default",
        "class": "CombatArea",
        "team": "0",
        "vehicles": "4",
        "layer": "1",
        "inverted": "false",
        "max": [0.0, 0.0],
        "min": [0.0, 0.0]
      }
    }
  ]
}