{
  "team1":"chinsurgent",
  "team2":"gb",
  "team1tickets":"300",
  "team2tickets":"350",
  "mapsize":"2048",
  "viewdistance":"500",
  "combatareause":"true",
  "combatareadamage":"20.0",
  "combatareaallowoutside":"10.0",
  "routes": [
    [
      [
        "cpname_dragon_fly_coop16_militiaops"
      ],
      [
        "cpname_dragon_fly_coop16_exposedpipe"
      ],
      [
        "cpname_dragon_fly_coop16_westprojects",
        "cpname_dragon_fly_coop16_centralprojects"
      ],
      [
        "cpname_dragon_fly_coop16_statue",
        "cpname_dragon_fly_coop16_southprojects"
      ],
      [
        "cpname_dragon_fly_coop16_gbinsertion"
      ]
    ]
  ],
  "type": "FeatureCollection",
  "features": [
    {
      "type": "Feature",
      "geometry": {
        "type": "Point",
        "coordinates": [1136.947, -1331.956],
        "size": [33, 33],
        "radius": "25.0"
      },
      "properties": {
        "iconurl": "icons/flags_map/gb/minimap_cp.png",
        "iconrotate": "0",
        "popupContent": "Amazing information about Great Britain Insertion Point will be found here!"
      },
      "bf2props": {
        "name": "cpname_dragon_fly_coop16_gbinsertion",
        "class": "ControlPoint",
        "name_object": "Great Britain Insertion Point",
        "team": "2",
        "areavalue1": "99999.0",
        "areavalue2": "20.0",
        "cpid": "1",
        "sgid": "5",
        "uncap": "false",
        "ttgc": "90.0",
        "ttlc": "90.0"
      }
    },
    {
      "type": "Feature",
      "geometry": {
        "type": "Point",
        "coordinates": [1133.51, -1061.975],
        "size": [33, 33],
        "radius": "30.0"
      },
      "properties": {
        "iconurl": "icons/flags_map/neutral/minimap_cp.png",
        "iconrotate": "0",
        "popupContent": "Amazing information about Statue will be found here!"
      },
      "bf2props": {
        "name": "cpname_dragon_fly_coop16_statue",
        "class": "ControlPoint",
        "name_object": "Statue",
        "team": "0",
        "areavalue1": "20.0",
        "areavalue2": "20.0",
        "cpid": "2",
        "sgid": "4",
        "uncap": "false",
        "ttgc": "90.0",
        "ttlc": "90.0"
      }
    },
    {
      "type": "Feature",
      "geometry": {
        "type": "Point",
        "coordinates": [1079.503, -789.338],
        "size": [33, 33],
        "radius": "30.0"
      },
      "properties": {
        "iconurl": "icons/flags_map/chinsurgent/minimap_cp.png",
        "iconrotate": "0",
        "popupContent": "Amazing information about North Housing Project will be found here!"
      },
      "bf2props": {
        "name": "cpname_dragon_fly_coop16_westprojects",
        "class": "ControlPoint",
        "name_object": "North Housing Project",
        "team": "1",
        "areavalue1": "20.0",
        "areavalue2": "20.0",
        "cpid": "3",
        "sgid": "3",
        "uncap": "false",
        "ttgc": "90.0",
        "ttlc": "90.0"
      }
    },
    {
      "type": "Feature",
      "geometry": {
        "type": "Point",
        "coordinates": [1365.295, -662.376],
        "size": [33, 33],
        "radius": "45.0"
      },
      "properties": {
        "iconurl": "icons/flags_map/chinsurgent/minimap_cp.png",
        "iconrotate": "0",
        "popupContent": "Amazing information about Militia Controlled Sector will be found here!"
      },
      "bf2props": {
        "name": "cpname_dragon_fly_coop16_militiaops",
        "class": "ControlPoint",
        "name_object": "Militia Controlled Sector",
        "team": "1",
        "areavalue1": "20.0",
        "areavalue2": "99999.0",
        "cpid": "4",
        "sgid": "1",
        "uncap": "false",
        "ttgc": "90.0",
        "ttlc": "90.0"
      }
    },
    {
      "type": "Feature",
      "geometry": {
        "type": "Point",
        "coordinates": [1212.72, -713.16504],
        "size": [33, 33],
        "radius": "30.0"
      },
      "properties": {
        "iconurl": "icons/flags_map/chinsurgent/minimap_cp.png",
        "iconrotate": "0",
        "popupContent": "Amazing information about Exposed Pipe will be found here!"
      },
      "bf2props": {
        "name": "cpname_dragon_fly_coop16_exposedpipe",
        "class": "ControlPoint",
        "name_object": "Exposed Pipe",
        "team": "1",
        "areavalue1": "20.0",
        "areavalue2": "20.0",
        "cpid": "5",
        "sgid": "2",
        "uncap": "false",
        "ttgc": "90.0",
        "ttlc": "90.0"
      }
    },
    {
      "type": "Feature",
      "geometry": {
        "type": "Point",
        "coordinates": [1214.026, -874.87],
        "size": [33, 33],
        "radius": "30.0"
      },
      "properties": {
        "iconurl": "icons/flags_map/chinsurgent/minimap_cp.png",
        "iconrotate": "0",
        "popupContent": "Amazing information about Central Housing Project will be found here!"
      },
      "bf2props": {
        "name": "cpname_dragon_fly_coop16_centralprojects",
        "class": "ControlPoint",
        "name_object": "Central Housing Project",
        "team": "1",
        "areavalue1": "20.0",
        "areavalue2": "20.0",
        "cpid": "6",
        "sgid": "3",
        "uncap": "false",
        "ttgc": "90.0",
        "ttlc": "90.0"
      }
    },
    {
      "type": "Feature",
      "geometry": {
        "type": "Point",
        "coordinates": [1267.824, -1109.678],
        "size": [33, 33],
        "radius": "30.0"
      },
      "properties": {
        "iconurl": "icons/flags_map/neutral/minimap_cp.png",
        "iconrotate": "0",
        "popupContent": "Amazing information about South Housing Project will be found here!"
      },
      "bf2props": {
        "name": "cpname_dragon_fly_coop16_southprojects",
        "class": "ControlPoint",
        "name_object": "South Housing Project",
        "team": "0",
        "areavalue1": "20.0",
        "areavalue2": "20.0",
        "cpid": "7",
        "sgid": "4",
        "uncap": "false",
        "ttgc": "90.0",
        "ttlc": "90.0"
      }
    },
    {
      "type": "Feature",
      "geometry": {
        "type": "Polygon",
        "coordinates": [
          [
            [0,0],
            [0,-2048],
            [2048,-2048],
            [2048,0]
          ],[
            [1526.3585, -858.9297],
            [1526.3733, -547.86255],
            [905.9459, -536.51416],
            [897.2171, -1077.1465],
            [975.30615, -1233.0901],
            [1051.862, -1235.7858],
            [1052.9276, -1369.0162],
            [1182.7529, -1494.6671],
            [1315.0857, -1484.323],
            [1410.8424, -1308.6732],
            [1397.0796, -860.3512]
          ]
        ]
      },
      "bf2props": {
        "code": "combatarea_20_default",
        "class": "CombatArea",
        "team": "0",
        "vehicles": "4",
        "layer": "1",
        "inverted": "false",
        "max": [0.0, 0.0],
        "min": [0.0, 0.0]
      }
    }
  ]
}