{
  "team1":"taliban",
  "team2":"usa",
  "team1tickets":"850",
  "team2tickets":"850",
  "mapsize":"1024",
  "viewdistance":"800",
  "combatareause":"true",
  "combatareadamage":"20.0",
  "combatareaallowoutside":"10.0",
  "routes": [
    [
      [
        "cpname_korengal_aas128_talibanbase"
      ],
      [
        "cpname_korengal_aas128_compoundc3",
        "cpname_korengal_aas128_objectived6"
      ],
      [
        "cpname_korengal_aas128_market",
        "cpname_korengal_aas128_objectivef4",
        "cpname_korengal_aas128_restrepo"
      ],
      [
        "cpname_korengal_aas128_objectiveg7",
        "cpname_korengal_aas128_lowermarket"
      ],
      [
        "cpname_korengal_aas128_objectivei10",
        "cpname_korengal_aas128_objectivej9"
      ],
      [
        "cpname_korengal_aas128_usbase"
      ]
    ]
  ],
  "type": "FeatureCollection",
  "features": [
    {
      "type": "Feature",
      "geometry": {
        "type": "Point",
        "coordinates": [246.288, -460.971],
        "size": [16, 16]
      },
      "properties": {
        "iconurl": "icons/player_map/mini_squad.png",
        "iconrotate": "0",
        "popupContent": "Amazing information about Temporary spawnpoint will be found here!"
      },
      "bf2props": {
        "name": "cpname_korengal_aas128_talibanbase_rp",
        "class": "ObjectSpawner",
        "name_object": "Temporary spawnpoint",
        "team": "1",
        "obj1": "rallypoint_taliban_placeable",
        "obj2": "null",
        "maxspawn": "99999.0",
        "minspawn": "99999.0",
        "spawndelay": "false",
        "ttl": "1200.0",
        "cpid": "501"
      }
    },
    {
      "type": "Feature",
      "geometry": {
        "type": "Point",
        "coordinates": [485.338, -743.183],
        "size": [16, 16]
      },
      "properties": {
        "iconurl": "icons/player_map/mini_squad.png",
        "iconrotate": "0",
        "popupContent": "Amazing information about Temporary spawnpoint will be found here!"
      },
      "bf2props": {
        "name": "cpname_korengal_aas128_talibanbase_r",
        "class": "ObjectSpawner",
        "name_object": "Temporary spawnpoint",
        "team": "1",
        "obj1": "rallypoint_taliban_placeable",
        "obj2": "null",
        "maxspawn": "99999.0",
        "minspawn": "99999.0",
        "spawndelay": "false",
        "ttl": "1200.0",
        "cpid": "501"
      }
    },
    {
      "type": "Feature",
      "geometry": {
        "type": "Point",
        "coordinates": [604.419, -302.823],
        "size": [16, 16]
      },
      "properties": {
        "iconurl": "icons/player_map/mini_squad.png",
        "iconrotate": "0",
        "popupContent": "Amazing information about Temporary spawnpoint will be found here!"
      },
      "bf2props": {
        "name": "cpname_korengal_aas128_talibanbase_r_1",
        "class": "ObjectSpawner",
        "name_object": "Temporary spawnpoint",
        "team": "1",
        "obj1": "rallypoint_taliban_placeable",
        "obj2": "null",
        "maxspawn": "99999.0",
        "minspawn": "99999.0",
        "spawndelay": "false",
        "ttl": "1200.0",
        "cpid": "501"
      }
    },
    {
      "type": "Feature",
      "geometry": {
        "type": "Point",
        "coordinates": [480.46, -410.702],
        "size": [16, 16]
      },
      "properties": {
        "iconurl": "icons/player_map/mini_squad.png",
        "iconrotate": "0",
        "popupContent": "Amazing information about Temporary spawnpoint will be found here!"
      },
      "bf2props": {
        "name": "cpname_korengal_aas128_talibanbase_r_3",
        "class": "ObjectSpawner",
        "name_object": "Temporary spawnpoint",
        "team": "1",
        "obj1": "rallypoint_taliban_placeable",
        "obj2": "null",
        "maxspawn": "99999.0",
        "minspawn": "99999.0",
        "spawndelay": "false",
        "ttl": "1200.0",
        "cpid": "501"
      }
    },
    {
      "type": "Feature",
      "geometry": {
        "type": "Point",
        "coordinates": [429.862, -139.60599],
        "size": [16, 16]
      },
      "properties": {
        "iconurl": "icons/player_map/mini_squad.png",
        "iconrotate": "0",
        "popupContent": "Amazing information about Temporary spawnpoint will be found here!"
      },
      "bf2props": {
        "name": "cpname_korengal_aas128_talibanbase_r_5",
        "class": "ObjectSpawner",
        "name_object": "Temporary spawnpoint",
        "team": "1",
        "obj1": "rallypoint_taliban_placeable",
        "obj2": "null",
        "maxspawn": "99999.0",
        "minspawn": "99999.0",
        "spawndelay": "false",
        "ttl": "1200.0",
        "cpid": "501"
      }
    },
    {
      "type": "Feature",
      "geometry": {
        "type": "Point",
        "coordinates": [1556.338, -1528.123],
        "size": [16, 16]
      },
      "properties": {
        "iconurl": "icons/mini_map/airdef.png",
        "iconrotate": "0",
        "popupContent": "Amazing information about null will be found here!"
      },
      "bf2props": {
        "name": "cpname_korengal_aas128_usbase_art",
        "class": "ObjectSpawner",
        "name_object": "Artillery Barrage Call-In",
        "team": "2",
        "obj1": "null",
        "obj2": "artillery_team2",
        "maxspawn": "1800.0",
        "minspawn": "1800.0",
        "spawndelay": "true",
        "ttl": "0.0",
        "cpid": "511"
      }
    },
    {
      "type": "Feature",
      "geometry": {
        "type": "Point",
        "coordinates": [1549.788, -1528.4929],
        "size": [16, 16]
      },
      "properties": {
        "iconurl": "icons/mini_map/airdef.png",
        "iconrotate": "0",
        "popupContent": "Amazing information about null will be found here!"
      },
      "bf2props": {
        "name": "cpname_korengal_aas128_usbase_art_0",
        "class": "ObjectSpawner",
        "name_object": "Artillery Barrage Call-In",
        "team": "2",
        "obj1": "null",
        "obj2": "artillery_team2",
        "maxspawn": "1800.0",
        "minspawn": "1800.0",
        "spawndelay": "true",
        "ttl": "0.0",
        "cpid": "511"
      }
    },
    {
      "type": "Feature",
      "geometry": {
        "type": "Point",
        "coordinates": [1556.335, -1536.8201],
        "size": [16, 16]
      },
      "properties": {
        "iconurl": "icons/mini_map/airdef.png",
        "iconrotate": "0",
        "popupContent": "Amazing information about null will be found here!"
      },
      "bf2props": {
        "name": "cpname_korengal_aas128_usbase_art_1",
        "class": "ObjectSpawner",
        "name_object": "Artillery Barrage Call-In",
        "team": "2",
        "obj1": "null",
        "obj2": "artillery_team2",
        "maxspawn": "1800.0",
        "minspawn": "1800.0",
        "spawndelay": "true",
        "ttl": "0.0",
        "cpid": "511"
      }
    },
    {
      "type": "Feature",
      "geometry": {
        "type": "Point",
        "coordinates": [1550.377, -1536.133],
        "size": [16, 16]
      },
      "properties": {
        "iconurl": "icons/mini_map/airdef.png",
        "iconrotate": "0",
        "popupContent": "Amazing information about null will be found here!"
      },
      "bf2props": {
        "name": "cpname_korengal_aas128_usbase_art_2",
        "class": "ObjectSpawner",
        "name_object": "Artillery Barrage Call-In",
        "team": "2",
        "obj1": "null",
        "obj2": "artillery_team2",
        "maxspawn": "1800.0",
        "minspawn": "1800.0",
        "spawndelay": "true",
        "ttl": "0.0",
        "cpid": "511"
      }
    },
    {
      "type": "Feature",
      "geometry": {
        "type": "Point",
        "coordinates": [426.03, -551.575],
        "size": [16, 16]
      },
      "properties": {
        "iconurl": "icons/player_map/mini_squad.png",
        "iconrotate": "0",
        "popupContent": "Amazing information about Temporary spawnpoint will be found here!"
      },
      "bf2props": {
        "name": "cpname_korengal_aas128_talibanbase_r_7",
        "class": "ObjectSpawner",
        "name_object": "Temporary spawnpoint",
        "team": "1",
        "obj1": "rallypoint_taliban_placeable",
        "obj2": "null",
        "maxspawn": "99999.0",
        "minspawn": "99999.0",
        "spawndelay": "false",
        "ttl": "1200.0",
        "cpid": "501"
      }
    },
    {
      "type": "Feature",
      "geometry": {
        "type": "Point",
        "coordinates": [894.44104, -878.313],
        "size": [16, 16]
      },
      "properties": {
        "iconurl": "icons/mini_map/uavtrailer.png",
        "iconrotate": "0",
        "popupContent": "Amazing information about null will be found here!"
      },
      "bf2props": {
        "name": "korengal_us_acv",
        "class": "ObjectSpawner",
        "name_object": "UAV Terminal",
        "team": "2",
        "obj1": "null",
        "obj2": "us_acv_stryker",
        "maxspawn": "0.0",
        "minspawn": "0.0",
        "spawndelay": "false",
        "ttl": "0.0",
        "cpid": "-1"
      }
    },
    {
      "type": "Feature",
      "geometry": {
        "type": "Point",
        "coordinates": [921.13, -788.577],
        "size": [16, 16]
      },
      "properties": {
        "iconurl": "icons/vehicles_map/mini_smgsmall.png",
        "iconrotate": "35.0",
        "popupContent": "Amazing information about null will be found here!"
      },
      "bf2props": {
        "name": "cpname_korengal_insurgency64_usbase_mg2",
        "class": "ObjectSpawner",
        "name_object": "Stationary BIPOD",
        "team": "2",
        "obj1": "null",
        "obj2": "us_bipod",
        "maxspawn": "0.0",
        "minspawn": "0.0",
        "spawndelay": "false",
        "ttl": "0.0",
        "cpid": "-1"
      }
    },
    {
      "type": "Feature",
      "geometry": {
        "type": "Point",
        "coordinates": [917.63403, -788.48303],
        "size": [16, 16]
      },
      "properties": {
        "iconurl": "icons/vehicles_map/mini_smgsmall.png",
        "iconrotate": "-45.0",
        "popupContent": "Amazing information about null will be found here!"
      },
      "bf2props": {
        "name": "cpname_korengal_insurgency64_usbase_mg3",
        "class": "ObjectSpawner",
        "name_object": "Stationary BIPOD",
        "team": "2",
        "obj1": "null",
        "obj2": "us_bipod",
        "maxspawn": "0.0",
        "minspawn": "0.0",
        "spawndelay": "false",
        "ttl": "0.0",
        "cpid": "-1"
      }
    },
    {
      "type": "Feature",
      "geometry": {
        "type": "Point",
        "coordinates": [882.933, -760.369],
        "size": [16, 16]
      },
      "properties": {
        "iconurl": "icons/vehicles_map/mini_smgsmall.png",
        "iconrotate": "-50.0",
        "popupContent": "Amazing information about null will be found here!"
      },
      "bf2props": {
        "name": "cpname_korengal_insurgency64_usbase_mg5",
        "class": "ObjectSpawner",
        "name_object": "Stationary BIPOD",
        "team": "2",
        "obj1": "null",
        "obj2": "us_bipod",
        "maxspawn": "0.0",
        "minspawn": "0.0",
        "spawndelay": "false",
        "ttl": "0.0",
        "cpid": "-1"
      }
    },
    {
      "type": "Feature",
      "geometry": {
        "type": "Point",
        "coordinates": [865.648, -813.239],
        "size": [16, 16]
      },
      "properties": {
        "iconurl": "icons/vehicles_map/mini_trk_logistics.png",
        "iconrotate": "110.0",
        "popupContent": "Amazing information about null will be found here!"
      },
      "bf2props": {
        "name": "cpname_korengal_insurgency64_usbase_truck1",
        "class": "ObjectSpawner",
        "name_object": "M35 Logistics",
        "team": "2",
        "obj1": "null",
        "obj2": "us_trk_logistics",
        "maxspawn": "300.0",
        "minspawn": "300.0",
        "spawndelay": "false",
        "ttl": "99999.0",
        "cpid": "-1"
      }
    },
    {
      "type": "Feature",
      "geometry": {
        "type": "Point",
        "coordinates": [169.82501, -835.82996],
        "size": [16, 16]
      },
      "properties": {
        "iconurl": "icons/vehicles_map/firebase_mini_white.png",
        "iconrotate": "0",
        "popupContent": "Amazing information about Hideout will be found here!"
      },
      "bf2props": {
        "name": "korengal_hideout",
        "class": "ObjectSpawner",
        "name_object": "Hideout",
        "team": "1",
        "obj1": "deployable_commandpost_meins",
        "obj2": "null",
        "maxspawn": "0.0",
        "minspawn": "0.0",
        "spawndelay": "false",
        "ttl": "0.0",
        "cpid": "-1"
      }
    },
    {
      "type": "Feature",
      "geometry": {
        "type": "Point",
        "coordinates": [885.374, -761.63],
        "size": [16, 16]
      },
      "properties": {
        "iconurl": "icons/vehicles_map/mini_smgsmall.png",
        "iconrotate": "40.0",
        "popupContent": "Amazing information about null will be found here!"
      },
      "bf2props": {
        "name": "cpname_korengal_insurgency64_usbase_mg4",
        "class": "ObjectSpawner",
        "name_object": "Stationary BIPOD",
        "team": "2",
        "obj1": "null",
        "obj2": "us_bipod",
        "maxspawn": "0.0",
        "minspawn": "0.0",
        "spawndelay": "false",
        "ttl": "0.0",
        "cpid": "-1"
      }
    },
    {
      "type": "Feature",
      "geometry": {
        "type": "Point",
        "coordinates": [872.081, -797.41003],
        "size": [16, 16]
      },
      "properties": {
        "iconurl": "icons/vehicles_map/mini_jep_medium.png",
        "iconrotate": "126.0",
        "popupContent": "Amazing information about null will be found here!"
      },
      "bf2props": {
        "name": "cpname_korengal_insurgency64_usbase_humv1",
        "class": "ObjectSpawner",
        "name_object": "M1151 Up-Armored HMMWV CROWS",
        "team": "2",
        "obj1": "null",
        "obj2": "us_jep_hmmwv_uparmored_crows",
        "maxspawn": "600.0",
        "minspawn": "600.0",
        "spawndelay": "false",
        "ttl": "99999.0",
        "cpid": "-1"
      }
    },
    {
      "type": "Feature",
      "geometry": {
        "type": "Point",
        "coordinates": [895.589, -818.959],
        "size": [16, 16]
      },
      "properties": {
        "iconurl": "icons/mini_map/repairdepot.png",
        "iconrotate": "0",
        "popupContent": "Amazing information about null will be found here!"
      },
      "bf2props": {
        "name": "korengal_usdepot",
        "class": "ObjectSpawner",
        "name_object": "Vehicle Depot",
        "team": "2",
        "obj1": "null",
        "obj2": "vehicle_depot_us",
        "maxspawn": "0.0",
        "minspawn": "0.0",
        "spawndelay": "false",
        "ttl": "0.0",
        "cpid": "-1"
      }
    },
    {
      "type": "Feature",
      "geometry": {
        "type": "Point",
        "coordinates": [850.35, -816.70496],
        "size": [16, 16]
      },
      "properties": {
        "iconurl": "icons/vehicles_map/mini_smgsmall.png",
        "iconrotate": "-70.0",
        "popupContent": "Amazing information about null will be found here!"
      },
      "bf2props": {
        "name": "cpname_korengal_insurgency64_usbase_mg6",
        "class": "ObjectSpawner",
        "name_object": "Stationary BIPOD",
        "team": "2",
        "obj1": "null",
        "obj2": "us_bipod",
        "maxspawn": "0.0",
        "minspawn": "0.0",
        "spawndelay": "false",
        "ttl": "0.0",
        "cpid": "-1"
      }
    },
    {
      "type": "Feature",
      "geometry": {
        "type": "Point",
        "coordinates": [930.00696, -798.03503],
        "size": [16, 16]
      },
      "properties": {
        "iconurl": "icons/vehicles_map/mini_smgsmall.png",
        "iconrotate": "35.0",
        "popupContent": "Amazing information about null will be found here!"
      },
      "bf2props": {
        "name": "cpname_korengal_insurgency64_usbase_mg1",
        "class": "ObjectSpawner",
        "name_object": "Stationary BIPOD",
        "team": "2",
        "obj1": "null",
        "obj2": "us_bipod",
        "maxspawn": "0.0",
        "minspawn": "0.0",
        "spawndelay": "false",
        "ttl": "0.0",
        "cpid": "-1"
      }
    },
    {
      "type": "Feature",
      "geometry": {
        "type": "Point",
        "coordinates": [878.638, -792.51404],
        "size": [16, 16]
      },
      "properties": {
        "iconurl": "icons/vehicles_map/mini_jep_medium.png",
        "iconrotate": "126.0",
        "popupContent": "Amazing information about null will be found here!"
      },
      "bf2props": {
        "name": "cpname_korengal_insurgency64_usbase_humv3",
        "class": "ObjectSpawner",
        "name_object": "M1151 Up-Armored HMMWV",
        "team": "2",
        "obj1": "null",
        "obj2": "us_jep_hmmwv_uparmored",
        "maxspawn": "300.0",
        "minspawn": "300.0",
        "spawndelay": "false",
        "maxnr": "2",
        "ttl": "99999.0",
        "cpid": "-1"
      }
    },
    {
      "type": "Feature",
      "geometry": {
        "type": "Point",
        "coordinates": [167.254, -849.53796],
        "size": [16, 16]
      },
      "properties": {
        "iconurl": "icons/vehicles_map/mini_jep_support.png",
        "iconrotate": "-180.0",
        "popupContent": "Amazing information about Support Technical will be found here!"
      },
      "bf2props": {
        "name": "korengal_tal_ammocar",
        "class": "ObjectSpawner",
        "name_object": "Support Technical",
        "team": "1",
        "obj1": "civ_jep_support",
        "obj2": "null",
        "maxspawn": "300.0",
        "minspawn": "300.0",
        "spawndelay": "false",
        "maxnr": "2",
        "ttl": "99999.0",
        "cpid": "-1"
      }
    },
    {
      "type": "Feature",
      "geometry": {
        "type": "Point",
        "coordinates": [159.5, -861.0],
        "size": [16, 16]
      },
      "properties": {
        "iconurl": "icons/mini_map/repairdepot.png",
        "iconrotate": "0",
        "popupContent": "Amazing information about Vehicle Depot will be found here!"
      },
      "bf2props": {
        "name": "korengal_taldepot",
        "class": "ObjectSpawner",
        "name_object": "Vehicle Depot",
        "team": "1",
        "obj1": "vehicle_depot_tal",
        "obj2": "null",
        "maxspawn": "0.0",
        "minspawn": "0.0",
        "spawndelay": "false",
        "ttl": "0.0",
        "cpid": "-1"
      }
    },
    {
      "type": "Feature",
      "geometry": {
        "type": "Point",
        "coordinates": [867.94, -806.287],
        "size": [16, 16]
      },
      "properties": {
        "iconurl": "icons/vehicles_map/mini_trk_logistics.png",
        "iconrotate": "110.0",
        "popupContent": "Amazing information about null will be found here!"
      },
      "bf2props": {
        "name": "cpname_korengal_insurgency64_usbase_truck2",
        "class": "ObjectSpawner",
        "name_object": "M35 Logistics",
        "team": "2",
        "obj1": "null",
        "obj2": "us_trk_logistics",
        "maxspawn": "300.0",
        "minspawn": "300.0",
        "spawndelay": "false",
        "ttl": "99999.0",
        "cpid": "-1"
      }
    },
    {
      "type": "Feature",
      "geometry": {
        "type": "Point",
        "coordinates": [59.652008, -54.009003],
        "size": [16, 16]
      },
      "properties": {
        "iconurl": "icons/vehicles_map/mini_civ_car.png",
        "iconrotate": "90.0",
        "popupContent": "Amazing information about Civilian Car will be found here!"
      },
      "bf2props": {
        "name": "cpname_korengal_insurgency64_valley_car3",
        "class": "ObjectSpawner",
        "name_object": "Civilian Car",
        "team": "1",
        "obj1": "civ_jep_car",
        "obj2": "null",
        "maxspawn": "99999.0",
        "minspawn": "99999.0",
        "spawndelay": "false",
        "ttl": "99999.0",
        "cpid": "-1"
      }
    },
    {
      "type": "Feature",
      "geometry": {
        "type": "Point",
        "coordinates": [51.212006, -50.083008],
        "size": [16, 16]
      },
      "properties": {
        "iconurl": "icons/player_map/mini_squad.png",
        "iconrotate": "0",
        "popupContent": "Amazing information about Temporary spawnpoint will be found here!"
      },
      "bf2props": {
        "name": "cpname_korengal_insurgency64_valley_insrp",
        "class": "ObjectSpawner",
        "name_object": "Temporary spawnpoint",
        "team": "1",
        "obj1": "rallypoint_taliban_placeable",
        "obj2": "null",
        "maxspawn": "99999.0",
        "minspawn": "99999.0",
        "spawndelay": "false",
        "ttl": "99999.0",
        "cpid": "-1"
      }
    },
    {
      "type": "Feature",
      "geometry": {
        "type": "Point",
        "coordinates": [162.28601, -849.529],
        "size": [16, 16]
      },
      "properties": {
        "iconurl": "icons/vehicles_map/mini_jep_logistics.png",
        "iconrotate": "-180.0",
        "popupContent": "Amazing information about Logistics Technical will be found here!"
      },
      "bf2props": {
        "name": "korengal_logicar",
        "class": "ObjectSpawner",
        "name_object": "Logistics Technical",
        "team": "1",
        "obj1": "civ_jep_support_logistics",
        "obj2": "null",
        "maxspawn": "300.0",
        "minspawn": "300.0",
        "spawndelay": "false",
        "maxnr": "2",
        "ttl": "99999.0",
        "cpid": "-1"
      }
    },
    {
      "type": "Feature",
      "geometry": {
        "type": "Point",
        "coordinates": [138.841, -847.513],
        "size": [33, 33],
        "radius": "0.0"
      },
      "properties": {
        "iconurl": "icons/flags_map/taliban/minimap_cpbase.png",
        "iconrotate": "0",
        "popupContent": "Amazing information about Taliban Base will be found here!"
      },
      "bf2props": {
        "name": "cpname_korengal_aas128_talibanbase",
        "class": "ControlPoint",
        "name_object": "Taliban Base",
        "team": "1",
        "areavalue1": "0.0",
        "areavalue2": "0.0",
        "cpid": "501",
        "sgid": "10",
        "uncap": "true",
        "ttgc": "0.0",
        "ttlc": "0.0"
      }
    },
    {
      "type": "Feature",
      "geometry": {
        "type": "Point",
        "coordinates": [194.879, -192.69699],
        "size": [33, 33],
        "radius": "50.0"
      },
      "properties": {
        "iconurl": "icons/flags_map/taliban/minimap_cp.png",
        "iconrotate": "0",
        "popupContent": "Amazing information about Charlie Three 50m will be found here!"
      },
      "bf2props": {
        "name": "cpname_korengal_aas128_compoundc3",
        "class": "ControlPoint",
        "name_object": "Charlie Three 50m",
        "team": "1",
        "areavalue1": "0.0",
        "areavalue2": "1000.0",
        "cpid": "502",
        "sgid": "21",
        "uncap": "false",
        "ttgc": "180.0",
        "ttlc": "180.0"
      }
    },
    {
      "type": "Feature",
      "geometry": {
        "type": "Point",
        "coordinates": [246.302, -443.734],
        "size": [33, 33],
        "radius": "50.0"
      },
      "properties": {
        "iconurl": "icons/flags_map/taliban/minimap_cp.png",
        "iconrotate": "0",
        "popupContent": "Amazing information about Delta Six 50m will be found here!"
      },
      "bf2props": {
        "name": "cpname_korengal_aas128_objectived6",
        "class": "ControlPoint",
        "name_object": "Delta Six 50m",
        "team": "1",
        "areavalue1": "0.0",
        "areavalue2": "1000.0",
        "cpid": "503",
        "sgid": "21",
        "uncap": "false",
        "ttgc": "180.0",
        "ttlc": "180.0"
      }
    },
    {
      "type": "Feature",
      "geometry": {
        "type": "Point",
        "coordinates": [469.611, -397.55],
        "size": [33, 33],
        "radius": "50.0"
      },
      "properties": {
        "iconurl": "icons/flags_map/taliban/minimap_cp.png",
        "iconrotate": "0",
        "popupContent": "Amazing information about Upper Market 50m will be found here!"
      },
      "bf2props": {
        "name": "cpname_korengal_aas128_market",
        "class": "ControlPoint",
        "name_object": "Upper Market 50m",
        "team": "1",
        "areavalue1": "0.0",
        "areavalue2": "0.0",
        "cpid": "504",
        "sgid": "31",
        "uncap": "false",
        "ttgc": "180.0",
        "ttlc": "180.0"
      }
    },
    {
      "type": "Feature",
      "geometry": {
        "type": "Point",
        "coordinates": [470.021, -305.752],
        "size": [33, 33],
        "radius": "35.0"
      },
      "properties": {
        "iconurl": "icons/flags_map/taliban/minimap_cp.png",
        "iconrotate": "0",
        "popupContent": "Amazing information about Foxtrot Four 35m will be found here!"
      },
      "bf2props": {
        "name": "cpname_korengal_aas128_objectivef4",
        "class": "ControlPoint",
        "name_object": "Foxtrot Four 35m",
        "team": "1",
        "areavalue1": "0.0",
        "areavalue2": "0.0",
        "cpid": "505",
        "sgid": "31",
        "uncap": "false",
        "ttgc": "180.0",
        "ttlc": "180.0"
      }
    },
    {
      "type": "Feature",
      "geometry": {
        "type": "Point",
        "coordinates": [603.11597, -298.01898],
        "size": [33, 33],
        "radius": "50.0"
      },
      "properties": {
        "iconurl": "icons/flags_map/taliban/minimap_cp.png",
        "iconrotate": "0",
        "popupContent": "Amazing information about OP Restrepo 50m will be found here!"
      },
      "bf2props": {
        "name": "cpname_korengal_aas128_restrepo",
        "class": "ControlPoint",
        "name_object": "OP Restrepo 50m",
        "team": "1",
        "areavalue1": "0.0",
        "areavalue2": "0.0",
        "cpid": "506",
        "sgid": "31",
        "uncap": "false",
        "ttgc": "180.0",
        "ttlc": "180.0"
      }
    },
    {
      "type": "Feature",
      "geometry": {
        "type": "Point",
        "coordinates": [543.547, -558.331],
        "size": [33, 33],
        "radius": "50.0"
      },
      "properties": {
        "iconurl": "icons/flags_map/taliban/minimap_cp.png",
        "iconrotate": "0",
        "popupContent": "Amazing information about Golf Seven 50m will be found here!"
      },
      "bf2props": {
        "name": "cpname_korengal_aas128_objectiveg7",
        "class": "ControlPoint",
        "name_object": "Golf Seven 50m",
        "team": "1",
        "areavalue1": "0.0",
        "areavalue2": "0.0",
        "cpid": "507",
        "sgid": "41",
        "uncap": "false",
        "ttgc": "180.0",
        "ttlc": "180.0"
      }
    },
    {
      "type": "Feature",
      "geometry": {
        "type": "Point",
        "coordinates": [631.996, -505.136],
        "size": [33, 33],
        "radius": "40.0"
      },
      "properties": {
        "iconurl": "icons/flags_map/taliban/minimap_cp.png",
        "iconrotate": "0",
        "popupContent": "Amazing information about Lower Market 40m will be found here!"
      },
      "bf2props": {
        "name": "cpname_korengal_aas128_lowermarket",
        "class": "ControlPoint",
        "name_object": "Lower Market 40m",
        "team": "1",
        "areavalue1": "0.0",
        "areavalue2": "0.0",
        "cpid": "508",
        "sgid": "41",
        "uncap": "false",
        "ttgc": "180.0",
        "ttlc": "180.0"
      }
    },
    {
      "type": "Feature",
      "geometry": {
        "type": "Point",
        "coordinates": [675.27, -756.231],
        "size": [33, 33],
        "radius": "50.0"
      },
      "properties": {
        "iconurl": "icons/flags_map/neutral/minimap_cp.png",
        "iconrotate": "0",
        "popupContent": "Amazing information about India Ten 50m will be found here!"
      },
      "bf2props": {
        "name": "cpname_korengal_aas128_objectivei10",
        "class": "ControlPoint",
        "name_object": "India Ten 50m",
        "team": "0",
        "areavalue1": "100.0",
        "areavalue2": "0.0",
        "cpid": "509",
        "sgid": "51",
        "uncap": "false",
        "ttgc": "180.0",
        "ttlc": "180.0"
      }
    },
    {
      "type": "Feature",
      "geometry": {
        "type": "Point",
        "coordinates": [738.382, -647.874],
        "size": [33, 33],
        "radius": "50.0"
      },
      "properties": {
        "iconurl": "icons/flags_map/neutral/minimap_cp.png",
        "iconrotate": "0",
        "popupContent": "Amazing information about Juliet Nine 50m will be found here!"
      },
      "bf2props": {
        "name": "cpname_korengal_aas128_objectivej9",
        "class": "ControlPoint",
        "name_object": "Juliet Nine 50m",
        "team": "0",
        "areavalue1": "100.0",
        "areavalue2": "0.0",
        "cpid": "510",
        "sgid": "51",
        "uncap": "false",
        "ttgc": "180.0",
        "ttlc": "180.0"
      }
    },
    {
      "type": "Feature",
      "geometry": {
        "type": "Point",
        "coordinates": [896.624, -805.67896],
        "size": [33, 33],
        "radius": "0.0"
      },
      "properties": {
        "iconurl": "icons/flags_map/us/minimap_cpbase.png",
        "iconrotate": "0",
        "popupContent": "Amazing information about US Main Base will be found here!"
      },
      "bf2props": {
        "name": "cpname_korengal_aas128_usbase",
        "class": "ControlPoint",
        "name_object": "US Main Base",
        "team": "2",
        "areavalue1": "0.0",
        "areavalue2": "0.0",
        "cpid": "511",
        "sgid": "-999",
        "uncap": "true",
        "ttgc": "0.0",
        "ttlc": "0.0"
      }
    },
    {
      "type": "Feature",
      "geometry": {
        "type": "Polygon",
        "coordinates": [
          [
            [0,0],
            [0,-1024],
            [1024,-1024],
            [1024,0]
          ],[
            [994.92896, -973.2024],
            [1024.0, -1024.0],
            [994.92896, -973.2024],
            [997.555, -775.9374],
            [1012.8833, -703.84924],
            [1000.86224, -598.7174],
            [1016.54736, -479.31818],
            [1008.2943, -402.5539],
            [1017.7597, -369.99872],
            [1006.7412, -309.26398],
            [994.3996, -276.83313],
            [1001.1923, -239.00256],
            [1000.846, -156.0086],
            [991.9887, -75.568726],
            [968.1734, -32.946106],
            [917.8268, -30.564209],
            [862.9653, -12.992493],
            [784.8011, -12.049866],
            [715.8371, -9.380188],
            [645.31555, -10.048584],
            [611.1316, -18.338074],
            [571.1892, -17.998413],
            [531.4028, -14.121033],
            [494.64172, -38.8584],
            [458.1534, -44.87982],
            [417.76547, -40.09845],
            [349.54312, -38.71399],
            [280.98288, -30.589478],
            [224.39224, -25.047668],
            [185.37042, -36.9657],
            [68.470184, -24.881165],
            [26.153809, -27.3432],
            [0.0, 0.0],
            [26.153809, -27.3432],
            [23.635284, -84.78143],
            [35.425873, -153.85596],
            [30.97763, -189.2157],
            [16.595276, -257.01343],
            [29.23108, -296.2906],
            [29.228912, -376.7115],
            [27.876068, -543.7415],
            [26.579742, -607.6688],
            [25.710175, -666.8722],
            [26.64972, -732.15936],
            [26.389862, -785.2827],
            [20.353455, -816.65906],
            [18.864716, -839.3748],
            [23.915527, -888.7555],
            [28.567596, -906.632],
            [33.024933, -954.71124],
            [48.996094, -991.2947],
            [151.30997, -996.5155],
            [254.7822, -980.0303],
            [350.10184, -987.5609],
            [400.46735, -988.8653],
            [499.62405, -992.35706],
            [582.6366, -992.4883],
            [667.5427, -989.9761],
            [715.6039, -996.2818],
            [790.6891, -998.13184],
            [837.106, -958.7829],
            [884.6605, -966.2672],
            [988.2252, -974.6654]
          ]
        ]
      },
      "bf2props": {
        "code": "combatarea_9_combat_zones",
        "class": "CombatArea",
        "team": "0",
        "vehicles": "4",
        "layer": "10",
        "inverted": "false",
        "max": [0.0, 0.0],
        "min": [0.0, 0.0]
      }
    },
    {
      "type": "Feature",
      "geometry": {
        "type": "Polygon",
        "coordinates": [
          [
            [801.51324, -717.78015],
            [787.8471, -823.9777],
            [744.85425, -898.5768],
            [731.8742, -956.526],
            [807.11316, -986.00903],
            [836.84344, -958.47266],
            [994.12616, -972.49115],
            [996.5309, -775.7706],
            [996.2211, -733.6571],
            [957.96765, -682.4374],
            [926.1269, -666.875],
            [894.5511, -625.5919],
            [845.08746, -626.37537],
            [792.63336, -681.98096]
          ]
        ]
      },
      "bf2props": {
        "code": "combatarea_72_combat_zones",
        "class": "CombatArea",
        "team": "1",
        "vehicles": "4",
        "layer": "10",
        "inverted": "true",
        "max": [0.0, 0.0],
        "min": [0.0, 0.0]
      }
    },
    {
      "type": "Feature",
      "geometry": {
        "type": "Polygon",
        "coordinates": [
          [
            [260.92444, -884.9931],
            [286.7832, -826.84644],
            [249.74017, -792.27423],
            [175.99136, -752.37244],
            [24.020538, -787.2797],
            [29.657745, -900.8507],
            [52.596985, -981.3833],
            [145.2591, -991.67065],
            [219.3877, -983.628],
            [247.09775, -932.8463]
          ]
        ]
      },
      "bf2props": {
        "code": "combatarea_77_common_aas_and_ins",
        "class": "CombatArea",
        "team": "2",
        "vehicles": "4",
        "layer": "10",
        "inverted": "true",
        "max": [0.0, 0.0],
        "min": [0.0, 0.0]
      }
    }
  ]
}