{
  "team1":"taliban",
  "team2":"usa",
  "team1tickets":"2",
  "team2tickets":"500",
  "mapsize":"1024",
  "viewdistance":"800",
  "combatareause":"true",
  "combatareadamage":"20.0",
  "combatareaallowoutside":"10.0",
  "routes": [
    [
      [
        "cpname_korengal_skirmish16_talib_start"
      ],
      [
        "cpname_korengal_skirmish16_house_of_martyr"
      ],
      [
        "cpname_korengal_skirmish16_market"
      ],
      [
        "cpname_korengal_skirmish16_compound"
      ],
      [
        "cpname_korengal_skirmish16_crossroads"
      ],
      [
        "cpname_korengal_skirmish16_cottage"
      ],
      [
        "cpname_korengal_skirmish16_us_start"
      ]
    ]
  ],
  "type": "FeatureCollection",
  "features": [
    {
      "type": "Feature",
      "geometry": {
        "type": "Point",
        "coordinates": [744.464, -706.412],
        "size": [16, 16]
      },
      "properties": {
        "iconurl": "icons/mini_map/icon_supply.png",
        "iconrotate": "0",
        "popupContent": "Amazing information about Permanent supply crate will be found here!"
      },
      "bf2props": {
        "name": "cpname_korengal_skirmish16_cottage_crate",
        "class": "ObjectSpawner",
        "name_object": "Permanent supply crate | Permanent supply crate",
        "team": "0",
        "obj1": "fixed_supply_crate",
        "obj2": "fixed_supply_crate",
        "maxspawn": "0.0",
        "minspawn": "0.0",
        "spawndelay": "false",
        "ttl": "99999.0",
        "cpid": "105"
      }
    },
    {
      "type": "Feature",
      "geometry": {
        "type": "Point",
        "coordinates": [663.0, -588.5],
        "size": [16, 16]
      },
      "properties": {
        "iconurl": "icons/mini_map/icon_supply.png",
        "iconrotate": "0",
        "popupContent": "Amazing information about Permanent supply crate will be found here!"
      },
      "bf2props": {
        "name": "cpname_korengal_skirmish16_crossroads_crate",
        "class": "ObjectSpawner",
        "name_object": "Permanent supply crate | Permanent supply crate",
        "team": "0",
        "obj1": "fixed_supply_crate",
        "obj2": "fixed_supply_crate",
        "maxspawn": "0.0",
        "minspawn": "0.0",
        "spawndelay": "false",
        "ttl": "99999.0",
        "cpid": "104"
      }
    },
    {
      "type": "Feature",
      "geometry": {
        "type": "Point",
        "coordinates": [536.5, -541.0],
        "size": [16, 16]
      },
      "properties": {
        "iconurl": "icons/mini_map/icon_supply.png",
        "iconrotate": "0",
        "popupContent": "Amazing information about Permanent supply crate will be found here!"
      },
      "bf2props": {
        "name": "cpname_korengal_skirmish16_compound_crate",
        "class": "ObjectSpawner",
        "name_object": "Permanent supply crate | Permanent supply crate",
        "team": "0",
        "obj1": "fixed_supply_crate",
        "obj2": "fixed_supply_crate",
        "maxspawn": "0.0",
        "minspawn": "0.0",
        "spawndelay": "false",
        "ttl": "99999.0",
        "cpid": "103"
      }
    },
    {
      "type": "Feature",
      "geometry": {
        "type": "Point",
        "coordinates": [458.5, -421.5],
        "size": [16, 16]
      },
      "properties": {
        "iconurl": "icons/mini_map/icon_supply.png",
        "iconrotate": "0",
        "popupContent": "Amazing information about Permanent supply crate will be found here!"
      },
      "bf2props": {
        "name": "cpname_korengal_skirmish16_market_crate",
        "class": "ObjectSpawner",
        "name_object": "Permanent supply crate | Permanent supply crate",
        "team": "0",
        "obj1": "fixed_supply_crate",
        "obj2": "fixed_supply_crate",
        "maxspawn": "0.0",
        "minspawn": "0.0",
        "spawndelay": "false",
        "ttl": "99999.0",
        "cpid": "102"
      }
    },
    {
      "type": "Feature",
      "geometry": {
        "type": "Point",
        "coordinates": [229.34799, -372.075],
        "size": [16, 16]
      },
      "properties": {
        "iconurl": "icons/mini_map/icon_supply.png",
        "iconrotate": "0",
        "popupContent": "Amazing information about Permanent supply crate will be found here!"
      },
      "bf2props": {
        "name": "cpname_korengal_skirmish16_talib_start_crate",
        "class": "ObjectSpawner",
        "name_object": "Permanent supply crate | Permanent supply crate",
        "team": "1",
        "obj1": "fixed_supply_crate",
        "obj2": "fixed_supply_crate",
        "maxspawn": "0.0",
        "minspawn": "0.0",
        "spawndelay": "false",
        "ttl": "99999.0",
        "cpid": "100"
      }
    },
    {
      "type": "Feature",
      "geometry": {
        "type": "Point",
        "coordinates": [852.875, -756.48596],
        "size": [16, 16]
      },
      "properties": {
        "iconurl": "icons/mini_map/icon_supply.png",
        "iconrotate": "0",
        "popupContent": "Amazing information about Permanent supply crate will be found here!"
      },
      "bf2props": {
        "name": "cpname_korengal_skirmish16_us_start_crate",
        "class": "ObjectSpawner",
        "name_object": "Permanent supply crate | Permanent supply crate",
        "team": "2",
        "obj1": "fixed_supply_crate",
        "obj2": "fixed_supply_crate",
        "maxspawn": "0.0",
        "minspawn": "0.0",
        "spawndelay": "false",
        "ttl": "99999.0",
        "cpid": "106"
      }
    },
    {
      "type": "Feature",
      "geometry": {
        "type": "Point",
        "coordinates": [323.396, -391.956],
        "size": [16, 16]
      },
      "properties": {
        "iconurl": "icons/mini_map/icon_supply.png",
        "iconrotate": "0",
        "popupContent": "Amazing information about Permanent supply crate will be found here!"
      },
      "bf2props": {
        "name": "cpname_korengal_skirmish16_house_of_martyr_crate",
        "class": "ObjectSpawner",
        "name_object": "Permanent supply crate | Permanent supply crate",
        "team": "0",
        "obj1": "fixed_supply_crate",
        "obj2": "fixed_supply_crate",
        "maxspawn": "0.0",
        "minspawn": "0.0",
        "spawndelay": "false",
        "ttl": "99999.0",
        "cpid": "101"
      }
    },
    {
      "type": "Feature",
      "geometry": {
        "type": "Point",
        "coordinates": [331.55402, -388.248],
        "size": [33, 33],
        "radius": "25.0"
      },
      "properties": {
        "iconurl": "icons/flags_map/neutral/minimap_cp.png",
        "iconrotate": "0",
        "popupContent": "Amazing information about House of Martyr 25m will be found here!"
      },
      "bf2props": {
        "name": "cpname_korengal_skirmish16_house_of_martyr",
        "class": "ControlPoint",
        "name_object": "House of Martyr 25m",
        "team": "0",
        "areavalue1": "0.0",
        "areavalue2": "1000.0",
        "cpid": "101",
        "sgid": "2",
        "uncap": "false",
        "ttgc": "90.0",
        "ttlc": "90.0"
      }
    },
    {
      "type": "Feature",
      "geometry": {
        "type": "Point",
        "coordinates": [466.5, -405.0],
        "size": [33, 33],
        "radius": "30.0"
      },
      "properties": {
        "iconurl": "icons/flags_map/neutral/minimap_cp.png",
        "iconrotate": "0",
        "popupContent": "Amazing information about Market 30m will be found here!"
      },
      "bf2props": {
        "name": "cpname_korengal_skirmish16_market",
        "class": "ControlPoint",
        "name_object": "Market 30m",
        "team": "0",
        "areavalue1": "0.0",
        "areavalue2": "0.0",
        "cpid": "102",
        "sgid": "3",
        "uncap": "false",
        "ttgc": "90.0",
        "ttlc": "90.0"
      }
    },
    {
      "type": "Feature",
      "geometry": {
        "type": "Point",
        "coordinates": [549.0, -531.5],
        "size": [33, 33],
        "radius": "25.0"
      },
      "properties": {
        "iconurl": "icons/flags_map/neutral/minimap_cp.png",
        "iconrotate": "0",
        "popupContent": "Amazing information about Compound 25m will be found here!"
      },
      "bf2props": {
        "name": "cpname_korengal_skirmish16_compound",
        "class": "ControlPoint",
        "name_object": "Compound 25m",
        "team": "0",
        "areavalue1": "0.0",
        "areavalue2": "0.0",
        "cpid": "103",
        "sgid": "4",
        "uncap": "false",
        "ttgc": "90.0",
        "ttlc": "90.0"
      }
    },
    {
      "type": "Feature",
      "geometry": {
        "type": "Point",
        "coordinates": [671.5, -586.5],
        "size": [33, 33],
        "radius": "25.0"
      },
      "properties": {
        "iconurl": "icons/flags_map/neutral/minimap_cp.png",
        "iconrotate": "0",
        "popupContent": "Amazing information about Crossroads 25m will be found here!"
      },
      "bf2props": {
        "name": "cpname_korengal_skirmish16_crossroads",
        "class": "ControlPoint",
        "name_object": "Crossroads 25m",
        "team": "0",
        "areavalue1": "0.0",
        "areavalue2": "0.0",
        "cpid": "104",
        "sgid": "5",
        "uncap": "false",
        "ttgc": "90.0",
        "ttlc": "90.0"
      }
    },
    {
      "type": "Feature",
      "geometry": {
        "type": "Point",
        "coordinates": [760.164, -694.87],
        "size": [33, 33],
        "radius": "20.0"
      },
      "properties": {
        "iconurl": "icons/flags_map/neutral/minimap_cp.png",
        "iconrotate": "0",
        "popupContent": "Amazing information about Cottage 20m will be found here!"
      },
      "bf2props": {
        "name": "cpname_korengal_skirmish16_cottage",
        "class": "ControlPoint",
        "name_object": "Cottage 20m",
        "team": "0",
        "areavalue1": "1000.0",
        "areavalue2": "0.0",
        "cpid": "105",
        "sgid": "6",
        "uncap": "false",
        "ttgc": "90.0",
        "ttlc": "90.0"
      }
    },
    {
      "type": "Feature",
      "geometry": {
        "type": "Point",
        "coordinates": [860.10596, -760.808],
        "size": [33, 33],
        "radius": "0.0"
      },
      "properties": {
        "iconurl": "icons/flags_map/us/minimap_cpbase.png",
        "iconrotate": "0",
        "popupContent": "Amazing information about US Deployment will be found here!"
      },
      "bf2props": {
        "name": "cpname_korengal_skirmish16_us_start",
        "class": "ControlPoint",
        "name_object": "US Deployment",
        "team": "2",
        "areavalue1": "0.0",
        "areavalue2": "0.0",
        "cpid": "106",
        "sgid": "-999",
        "uncap": "true",
        "ttgc": "0.0",
        "ttlc": "0.0"
      }
    },
    {
      "type": "Feature",
      "geometry": {
        "type": "Point",
        "coordinates": [228.37701, -353.195],
        "size": [33, 33],
        "radius": "0.0"
      },
      "properties": {
        "iconurl": "icons/flags_map/taliban/minimap_cpbase.png",
        "iconrotate": "0",
        "popupContent": "Amazing information about Taliban Stronghold will be found here!"
      },
      "bf2props": {
        "name": "cpname_korengal_skirmish16_talib_start",
        "class": "ControlPoint",
        "name_object": "Taliban Stronghold",
        "team": "1",
        "areavalue1": "0.0",
        "areavalue2": "0.0",
        "cpid": "100",
        "sgid": "1",
        "uncap": "true",
        "ttgc": "0.0",
        "ttlc": "0.0"
      }
    },
    {
      "type": "Feature",
      "geometry": {
        "type": "Polygon",
        "coordinates": [
          [
            [0,0],
            [0,-1024],
            [1024,-1024],
            [1024,0]
          ],[
            [902.08154, -598.00244],
            [834.9679, -581.1516],
            [703.49335, -509.1297],
            [591.93286, -397.77673],
            [527.4246, -367.66284],
            [442.37814, -312.84827],
            [359.4699, -254.71985],
            [299.6685, -214.14484],
            [170.86221, -360.70294],
            [244.08197, -423.62653],
            [365.51114, -513.95557],
            [407.56046, -560.5276],
            [504.35373, -607.0333],
            [562.1498, -641.2971],
            [606.45953, -696.65845],
            [690.895, -757.3634],
            [775.72845, -838.0615],
            [857.3001, -805.3569],
            [960.04974, -700.7802]
          ]
        ]
      },
      "bf2props": {
        "code": "combatarea_30_sk16",
        "class": "CombatArea",
        "team": "0",
        "vehicles": "4",
        "layer": "9",
        "inverted": "false",
        "max": [0.0, 0.0],
        "min": [0.0, 0.0]
      }
    },
    {
      "type": "Feature",
      "geometry": {
        "type": "Polygon",
        "coordinates": [
          [
            [394.69794, -265.74048],
            [292.26166, -168.49176],
            [75.92923, -367.57007],
            [265.30072, -465.8827],
            [275.2068, -416.74982],
            [298.08188, -360.57483],
            [360.91083, -302.20154]
          ]
        ]
      },
      "bf2props": {
        "code": "combatarea_31_sk16",
        "class": "CombatArea",
        "team": "2",
        "vehicles": "4",
        "layer": "9",
        "inverted": "true",
        "max": [0.0, 0.0],
        "min": [0.0, 0.0]
      }
    },
    {
      "type": "Feature",
      "geometry": {
        "type": "Polygon",
        "coordinates": [
          [
            [975.1537, -683.52966],
            [917.40546, -594.33057],
            [840.3934, -677.856],
            [815.30786, -738.48303],
            [742.8842, -807.67],
            [818.0182, -893.0913],
            [956.39453, -733.67896]
          ]
        ]
      },
      "bf2props": {
        "code": "combatarea_32_sk16",
        "class": "CombatArea",
        "team": "1",
        "vehicles": "4",
        "layer": "9",
        "inverted": "true",
        "max": [0.0, 0.0],
        "min": [0.0, 0.0]
      }
    }
  ]
}