{
  "team1":"mec",
  "team2":"us",
  "team1tickets":"800",
  "team2tickets":"800",
  "mapsize":"2048",
  "viewdistance":"650",
  "combatareause":"true",
  "combatareadamage":"20.0",
  "combatareaallowoutside":"10.0",
  "routes": [
    [
      [
        "cpname_jabal_aas128_alburj"
      ],
      [
        "cpname_jabal_aas128_city"
      ],
      [
        "cpname_jabal_aas128_damcenter"
      ],
      [
        "cpname_jabal_aas128_westbeach",
        "cpname_jabal_aas128_bridge"
      ],
      [
        "cpname_jabal_aas128_eastbeach"
      ],
      [
        "cpname_jabal_aas128_uscarrier"
      ]
    ]
  ],
  "type": "FeatureCollection",
  "features": [
    {
      "type": "Feature",
      "geometry": {
        "type": "Point",
        "coordinates": [259.318, -1004.761],
        "size": [16, 16]
      },
      "properties": {
        "iconurl": "icons/vehicles_map/mini_smgsmall.png",
        "iconrotate": "0.0",
        "popupContent": "Amazing information about null will be found here!"
      },
      "bf2props": {
        "name": "64_westbeach_me_us_smg1",
        "class": "ObjectSpawner",
        "name_object": "Stationary BIPOD",
        "team": "2",
        "obj1": "null",
        "obj2": "us_bipod",
        "maxspawn": "99999.0",
        "minspawn": "99999.0",
        "spawndelay": "false",
        "ttl": "0.0",
        "cpid": "301"
      }
    },
    {
      "type": "Feature",
      "geometry": {
        "type": "Point",
        "coordinates": [203.617, -981.609],
        "size": [16, 16]
      },
      "properties": {
        "iconurl": "icons/vehicles_map/mini_smgsmall.png",
        "iconrotate": "135.0",
        "popupContent": "Amazing information about null will be found here!"
      },
      "bf2props": {
        "name": "64_westbeach_me_us_smg2",
        "class": "ObjectSpawner",
        "name_object": "Stationary BIPOD",
        "team": "2",
        "obj1": "null",
        "obj2": "us_bipod",
        "maxspawn": "99999.0",
        "minspawn": "99999.0",
        "spawndelay": "false",
        "ttl": "0.0",
        "cpid": "301"
      }
    },
    {
      "type": "Feature",
      "geometry": {
        "type": "Point",
        "coordinates": [1267.219, -1692.912],
        "size": [16, 16]
      },
      "properties": {
        "iconurl": "icons/vehicles_map/mini_stw_atgm.png",
        "iconrotate": "75.785",
        "popupContent": "Amazing information about null will be found here!"
      },
      "bf2props": {
        "name": "64_eastbeach_me_us_ats",
        "class": "ObjectSpawner",
        "name_object": "ats_tow",
        "team": "2",
        "obj1": "null",
        "obj2": "ats_tow",
        "maxspawn": "99999.0",
        "minspawn": "99999.0",
        "spawndelay": "false",
        "ttl": "0.0",
        "cpid": "302"
      }
    },
    {
      "type": "Feature",
      "geometry": {
        "type": "Point",
        "coordinates": [1281.922, -1672.728],
        "size": [16, 16]
      },
      "properties": {
        "iconurl": "icons/vehicles_map/mini_smgsmall.png",
        "iconrotate": "100.0",
        "popupContent": "Amazing information about null will be found here!"
      },
      "bf2props": {
        "name": "64_eastbeach_me_us_smg",
        "class": "ObjectSpawner",
        "name_object": "Stationary BIPOD",
        "team": "2",
        "obj1": "null",
        "obj2": "us_bipod",
        "maxspawn": "99999.0",
        "minspawn": "99999.0",
        "spawndelay": "false",
        "ttl": "0.0",
        "cpid": "302"
      }
    },
    {
      "type": "Feature",
      "geometry": {
        "type": "Point",
        "coordinates": [1131.176, -341.146],
        "size": [16, 16]
      },
      "properties": {
        "iconurl": "icons/vehicles_map/mini_trk_support.png",
        "iconrotate": "90.0",
        "popupContent": "Amazing information about Ural-4320 will be found here!"
      },
      "bf2props": {
        "name": "64_cp_al_burj_me_us_lightjeep1",
        "class": "ObjectSpawner",
        "name_object": "Ural-4320",
        "team": "1",
        "obj1": "mec_trk_support",
        "obj2": "null",
        "maxspawn": "99999.0",
        "minspawn": "99999.0",
        "spawndelay": "false",
        "ttl": "12000.0",
        "cpid": "303"
      }
    },
    {
      "type": "Feature",
      "geometry": {
        "type": "Point",
        "coordinates": [1153.838, -341.05798],
        "size": [16, 16]
      },
      "properties": {
        "iconurl": "icons/vehicles_map/mini_trk_support.png",
        "iconrotate": "90.0",
        "popupContent": "Amazing information about Ural-4320 will be found here!"
      },
      "bf2props": {
        "name": "64_cp_al_burj_me_us_lightjeep2",
        "class": "ObjectSpawner",
        "name_object": "Ural-4320",
        "team": "1",
        "obj1": "mec_trk_support",
        "obj2": "null",
        "maxspawn": "99999.0",
        "minspawn": "99999.0",
        "spawndelay": "false",
        "ttl": "12000.0",
        "cpid": "303"
      }
    },
    {
      "type": "Feature",
      "geometry": {
        "type": "Point",
        "coordinates": [1142.661, -341.002],
        "size": [16, 16]
      },
      "properties": {
        "iconurl": "icons/vehicles_map/mini_trk_support.png",
        "iconrotate": "90.0",
        "popupContent": "Amazing information about Ural-4320 will be found here!"
      },
      "bf2props": {
        "name": "64_cp_al_burj_me_us_heavyjeep",
        "class": "ObjectSpawner",
        "name_object": "Ural-4320",
        "team": "1",
        "obj1": "mec_trk_support",
        "obj2": "null",
        "maxspawn": "99999.0",
        "minspawn": "99999.0",
        "spawndelay": "false",
        "ttl": "12000.0",
        "cpid": "303"
      }
    },
    {
      "type": "Feature",
      "geometry": {
        "type": "Point",
        "coordinates": [1110.612, -276.136],
        "size": [16, 16]
      },
      "properties": {
        "iconurl": "icons/vehicles_map/mini_stw_aa_medium.png",
        "iconrotate": "-85.721",
        "popupContent": "Amazing information about zpu4 will be found here!"
      },
      "bf2props": {
        "name": "64_cp_al_burj_me_us_aas",
        "class": "ObjectSpawner",
        "name_object": "zpu4",
        "team": "1",
        "obj1": "zpu4",
        "obj2": "null",
        "maxspawn": "99999.0",
        "minspawn": "99999.0",
        "spawndelay": "false",
        "ttl": "0.0",
        "cpid": "303"
      }
    },
    {
      "type": "Feature",
      "geometry": {
        "type": "Point",
        "coordinates": [1111.72, -350.735],
        "size": [16, 16]
      },
      "properties": {
        "iconurl": "icons/vehicles_map/mini_smgsmall.png",
        "iconrotate": "-90.0",
        "popupContent": "Amazing information about Stationary BIPOD will be found here!"
      },
      "bf2props": {
        "name": "64_cp_al_burj_me_us_smg2",
        "class": "ObjectSpawner",
        "name_object": "Stationary BIPOD",
        "team": "1",
        "obj1": "mec_bipod",
        "obj2": "null",
        "maxspawn": "99999.0",
        "minspawn": "99999.0",
        "spawndelay": "false",
        "ttl": "0.0",
        "cpid": "303"
      }
    },
    {
      "type": "Feature",
      "geometry": {
        "type": "Point",
        "coordinates": [199.50702, -1951.432],
        "size": [16, 16]
      },
      "properties": {
        "iconurl": "icons/vehicles_map/mini_the_light.png",
        "iconrotate": "-6.135",
        "popupContent": "Amazing information about null will be found here!"
      },
      "bf2props": {
        "name": "64_us_carrier_me_us_transheli",
        "class": "ObjectSpawner",
        "name_object": "UH-1N Twin Huey",
        "team": "2",
        "obj1": "null",
        "obj2": "us_the_uh1n_m240d",
        "maxspawn": "300.0",
        "minspawn": "300.0",
        "spawndelay": "false",
        "ttl": "12000.0",
        "cpid": "305"
      }
    },
    {
      "type": "Feature",
      "geometry": {
        "type": "Point",
        "coordinates": [219.43402, -1949.242],
        "size": [16, 16]
      },
      "properties": {
        "iconurl": "icons/vehicles_map/mini_the_light.png",
        "iconrotate": "-10.067",
        "popupContent": "Amazing information about null will be found here!"
      },
      "bf2props": {
        "name": "64_us_carrier_me_us_transheli2",
        "class": "ObjectSpawner",
        "name_object": "UH-1N Twin Huey",
        "team": "2",
        "obj1": "null",
        "obj2": "us_the_uh1n_m240d",
        "maxspawn": "300.0",
        "minspawn": "300.0",
        "spawndelay": "false",
        "ttl": "12000.0",
        "cpid": "305"
      }
    },
    {
      "type": "Feature",
      "geometry": {
        "type": "Point",
        "coordinates": [1099.597, -340.34998],
        "size": [16, 16]
      },
      "properties": {
        "iconurl": "icons/vehicles_map/mini_stw_atgm.png",
        "iconrotate": "-91.572",
        "popupContent": "Amazing information about mec_ats_milan will be found here!"
      },
      "bf2props": {
        "name": "64_cp_al_burj_ats",
        "class": "ObjectSpawner",
        "name_object": "mec_ats_milan",
        "team": "1",
        "obj1": "mec_ats_milan",
        "obj2": "null",
        "maxspawn": "99999.0",
        "minspawn": "99999.0",
        "spawndelay": "false",
        "ttl": "0.0",
        "cpid": "303"
      }
    },
    {
      "type": "Feature",
      "geometry": {
        "type": "Point",
        "coordinates": [1166.801, -340.846],
        "size": [16, 16]
      },
      "properties": {
        "iconurl": "icons/vehicles_map/mini_trk_support.png",
        "iconrotate": "89.934",
        "popupContent": "Amazing information about Ural-4320 will be found here!"
      },
      "bf2props": {
        "name": "cpname_jl_64_alburj_me_usmc_heavyjeep_0",
        "class": "ObjectSpawner",
        "name_object": "Ural-4320",
        "team": "1",
        "obj1": "mec_trk_support",
        "obj2": "null",
        "maxspawn": "99999.0",
        "minspawn": "99999.0",
        "spawndelay": "false",
        "ttl": "12000.0",
        "cpid": "303"
      }
    },
    {
      "type": "Feature",
      "geometry": {
        "type": "Point",
        "coordinates": [1114.345, -345.25],
        "size": [16, 16]
      },
      "properties": {
        "iconurl": "icons/vehicles_map/mini_stw_atgm.png",
        "iconrotate": "98.431",
        "popupContent": "Amazing information about mec_ats_milan will be found here!"
      },
      "bf2props": {
        "name": "cpname_jl_64_alburj_me_usmc_ats",
        "class": "ObjectSpawner",
        "name_object": "mec_ats_milan",
        "team": "1",
        "obj1": "mec_ats_milan",
        "obj2": "null",
        "maxspawn": "99999.0",
        "minspawn": "99999.0",
        "spawndelay": "false",
        "ttl": "0.0",
        "cpid": "303"
      }
    },
    {
      "type": "Feature",
      "geometry": {
        "type": "Point",
        "coordinates": [1073.348, -270.95203],
        "size": [16, 16]
      },
      "properties": {
        "iconurl": "icons/vehicles_map/mini_apc_heavy.png",
        "iconrotate": "90.079",
        "popupContent": "Amazing information about BMP-3 will be found here!"
      },
      "bf2props": {
        "name": "cpname_jl_64_alburj_me_usmc_suportjeep",
        "class": "ObjectSpawner",
        "name_object": "BMP-3",
        "team": "1",
        "obj1": "mec_ifv_bmp3",
        "obj2": "null",
        "maxspawn": "900.0",
        "minspawn": "900.0",
        "spawndelay": "true",
        "ttl": "99999.0",
        "cpid": "303"
      }
    },
    {
      "type": "Feature",
      "geometry": {
        "type": "Point",
        "coordinates": [1204.117, -1692.918],
        "size": [16, 16]
      },
      "properties": {
        "iconurl": "icons/vehicles_map/mini_smgsmall.png",
        "iconrotate": "-60.405",
        "popupContent": "Amazing information about null will be found here!"
      },
      "bf2props": {
        "name": "cpname_jl_64_eastbeach_me_usmc_smg",
        "class": "ObjectSpawner",
        "name_object": "Stationary BIPOD",
        "team": "2",
        "obj1": "null",
        "obj2": "us_bipod",
        "maxspawn": "99999.0",
        "minspawn": "99999.0",
        "spawndelay": "false",
        "ttl": "0.0",
        "cpid": "302"
      }
    },
    {
      "type": "Feature",
      "geometry": {
        "type": "Point",
        "coordinates": [1113.481, -352.98102],
        "size": [16, 16]
      },
      "properties": {
        "iconurl": "icons/vehicles_map/mini_smgsmall.png",
        "iconrotate": "-175.023",
        "popupContent": "Amazing information about Stationary BIPOD will be found here!"
      },
      "bf2props": {
        "name": "cpname_jl_64_alburj_me_usmc_smg",
        "class": "ObjectSpawner",
        "name_object": "Stationary BIPOD",
        "team": "1",
        "obj1": "mec_bipod",
        "obj2": "null",
        "maxspawn": "99999.0",
        "minspawn": "99999.0",
        "spawndelay": "false",
        "ttl": "0.0",
        "cpid": "303"
      }
    },
    {
      "type": "Feature",
      "geometry": {
        "type": "Point",
        "coordinates": [1087.424, -284.607],
        "size": [16, 16]
      },
      "properties": {
        "iconurl": "icons/vehicles_map/mini_smgsmall.png",
        "iconrotate": "179.726",
        "popupContent": "Amazing information about Stationary BIPOD will be found here!"
      },
      "bf2props": {
        "name": "cpname_jl_64_alburj_me_usmc_smg_0",
        "class": "ObjectSpawner",
        "name_object": "Stationary BIPOD",
        "team": "1",
        "obj1": "mec_bipod",
        "obj2": "null",
        "maxspawn": "99999.0",
        "minspawn": "99999.0",
        "spawndelay": "false",
        "ttl": "0.0",
        "cpid": "303"
      }
    },
    {
      "type": "Feature",
      "geometry": {
        "type": "Point",
        "coordinates": [1087.402, -284.70203],
        "size": [16, 16]
      },
      "properties": {
        "iconurl": "icons/vehicles_map/mini_smgsmall.png",
        "iconrotate": "-178.005",
        "popupContent": "Amazing information about Stationary BIPOD will be found here!"
      },
      "bf2props": {
        "name": "cpname_jl_64_alburj_me_usmc_smg_1",
        "class": "ObjectSpawner",
        "name_object": "Stationary BIPOD",
        "team": "1",
        "obj1": "mec_bipod",
        "obj2": "null",
        "maxspawn": "99999.0",
        "minspawn": "99999.0",
        "spawndelay": "false",
        "ttl": "0.0",
        "cpid": "303"
      }
    },
    {
      "type": "Feature",
      "geometry": {
        "type": "Point",
        "coordinates": [-150.96704, -2229.268],
        "size": [16, 16]
      },
      "properties": {
        "iconurl": "icons/mini_map/airdef.png",
        "iconrotate": "0",
        "popupContent": "Amazing information about null will be found here!"
      },
      "bf2props": {
        "name": "jdam",
        "class": "ObjectSpawner",
        "name_object": "Artillery Barrage Call-In",
        "team": "2",
        "obj1": "null",
        "obj2": "artillery_team2",
        "maxspawn": "1800.0",
        "minspawn": "1800.0",
        "spawndelay": "true",
        "ttl": "0.0",
        "cpid": "305"
      }
    },
    {
      "type": "Feature",
      "geometry": {
        "type": "Point",
        "coordinates": [1140.438, -308.91302],
        "size": [16, 16]
      },
      "properties": {
        "iconurl": "icons/vehicles_map/mini_trk_logistics.png",
        "iconrotate": "-83.812",
        "popupContent": "Amazing information about Ural-4320 Logistics will be found here!"
      },
      "bf2props": {
        "name": "a",
        "class": "ObjectSpawner",
        "name_object": "Ural-4320 Logistics",
        "team": "1",
        "obj1": "mec_trk_logistics",
        "obj2": "null",
        "maxspawn": "300.0",
        "minspawn": "300.0",
        "spawndelay": "false",
        "ttl": "99999.0",
        "cpid": "303"
      }
    },
    {
      "type": "Feature",
      "geometry": {
        "type": "Point",
        "coordinates": [301.096, -1938.942],
        "size": [16, 16]
      },
      "properties": {
        "iconurl": "icons/vehicles_map/firebase_mini_white.png",
        "iconrotate": "0",
        "popupContent": "Amazing information about null will be found here!"
      },
      "bf2props": {
        "name": "cp",
        "class": "ObjectSpawner",
        "name_object": "Command Post",
        "team": "2",
        "obj1": "null",
        "obj2": "deployable_commandpost_us",
        "maxspawn": "0.0",
        "minspawn": "0.0",
        "spawndelay": "false",
        "ttl": "0.0",
        "cpid": "305"
      }
    },
    {
      "type": "Feature",
      "geometry": {
        "type": "Point",
        "coordinates": [1103.2, -268.989],
        "size": [16, 16]
      },
      "properties": {
        "iconurl": "icons/mini_map/uavtrailer.png",
        "iconrotate": "0",
        "popupContent": "Amazing information about UAV Terminal will be found here!"
      },
      "bf2props": {
        "name": "cp2",
        "class": "ObjectSpawner",
        "name_object": "UAV Terminal",
        "team": "1",
        "obj1": "mec_acv_btr60pu",
        "obj2": "null",
        "maxspawn": "0.0",
        "minspawn": "0.0",
        "spawndelay": "false",
        "ttl": "0.0",
        "cpid": "303"
      }
    },
    {
      "type": "Feature",
      "geometry": {
        "type": "Point",
        "coordinates": [2302.711, 333.43396],
        "size": [16, 16]
      },
      "properties": {
        "iconurl": "icons/mini_map/airdef.png",
        "iconrotate": "0",
        "popupContent": "Amazing information about Artillery Barrage Call-In will be found here!"
      },
      "bf2props": {
        "name": "arty",
        "class": "ObjectSpawner",
        "name_object": "Artillery Barrage Call-In",
        "team": "1",
        "obj1": "artillery_team1",
        "obj2": "null",
        "maxspawn": "1800.0",
        "minspawn": "1800.0",
        "spawndelay": "true",
        "ttl": "0.0",
        "cpid": "303"
      }
    },
    {
      "type": "Feature",
      "geometry": {
        "type": "Point",
        "coordinates": [1140.333, -303.79102],
        "size": [16, 16]
      },
      "properties": {
        "iconurl": "icons/vehicles_map/mini_trk_logistics.png",
        "iconrotate": "-83.812",
        "popupContent": "Amazing information about Ural-4320 Logistics will be found here!"
      },
      "bf2props": {
        "name": "jeep",
        "class": "ObjectSpawner",
        "name_object": "Ural-4320 Logistics",
        "team": "1",
        "obj1": "mec_trk_logistics",
        "obj2": "null",
        "maxspawn": "300.0",
        "minspawn": "300.0",
        "spawndelay": "false",
        "ttl": "99999.0",
        "cpid": "303"
      }
    },
    {
      "type": "Feature",
      "geometry": {
        "type": "Point",
        "coordinates": [241.50598, -1945.685],
        "size": [16, 16]
      },
      "properties": {
        "iconurl": "icons/vehicles_map/mini_the_light.png",
        "iconrotate": "-6.58",
        "popupContent": "Amazing information about null will be found here!"
      },
      "bf2props": {
        "name": "heli",
        "class": "ObjectSpawner",
        "name_object": "UH-1N Twin Huey",
        "team": "2",
        "obj1": "null",
        "obj2": "us_the_uh1n_m240d",
        "maxspawn": "300.0",
        "minspawn": "300.0",
        "spawndelay": "false",
        "ttl": "99999.0",
        "cpid": "305"
      }
    },
    {
      "type": "Feature",
      "geometry": {
        "type": "Point",
        "coordinates": [1247.822, -1659.0549],
        "size": [16, 16]
      },
      "properties": {
        "iconurl": "icons/vehicles_map/mini_trk_logistics.png",
        "iconrotate": "179.366",
        "popupContent": "Amazing information about null will be found here!"
      },
      "bf2props": {
        "name": "truck",
        "class": "ObjectSpawner",
        "name_object": "M35 Logistics",
        "team": "2",
        "obj1": "null",
        "obj2": "us_trk_logistics",
        "maxspawn": "300.0",
        "minspawn": "300.0",
        "spawndelay": "true",
        "ttl": "99999.0",
        "cpid": "302"
      }
    },
    {
      "type": "Feature",
      "geometry": {
        "type": "Point",
        "coordinates": [1254.743, -1656.525],
        "size": [16, 16]
      },
      "properties": {
        "iconurl": "icons/mini_map/repairdepot.png",
        "iconrotate": "0",
        "popupContent": "Amazing information about null will be found here!"
      },
      "bf2props": {
        "name": "cpname_jl_64_eastbeach_usmc_vehicledeport",
        "class": "ObjectSpawner",
        "name_object": "Vehicle Depot",
        "team": "2",
        "obj1": "null",
        "obj2": "vehicle_depot_us",
        "maxspawn": "0.0",
        "minspawn": "0.0",
        "spawndelay": "false",
        "ttl": "0.0",
        "cpid": "302"
      }
    },
    {
      "type": "Feature",
      "geometry": {
        "type": "Point",
        "coordinates": [1095.445, -307.312],
        "size": [16, 16]
      },
      "properties": {
        "iconurl": "icons/mini_map/repairdepot.png",
        "iconrotate": "0",
        "popupContent": "Amazing information about Vehicle Depot will be found here!"
      },
      "bf2props": {
        "name": "cpname_jl_64_alburj_mec_vehicledeport",
        "class": "ObjectSpawner",
        "name_object": "Vehicle Depot",
        "team": "1",
        "obj1": "vehicle_depot_mec",
        "obj2": "null",
        "maxspawn": "0.0",
        "minspawn": "0.0",
        "spawndelay": "false",
        "ttl": "0.0",
        "cpid": "303"
      }
    },
    {
      "type": "Feature",
      "geometry": {
        "type": "Point",
        "coordinates": [380.28802, -1927.719],
        "size": [16, 16]
      },
      "properties": {
        "iconurl": "icons/vehicles_map/mini_ahe_light.png",
        "iconrotate": "-6.135",
        "popupContent": "Amazing information about null will be found here!"
      },
      "bf2props": {
        "name": "atkheli",
        "class": "ObjectSpawner",
        "name_object": "UH-1N Twin Huey CAS",
        "team": "2",
        "obj1": "null",
        "obj2": "us_ahe_uh1nrockets",
        "maxspawn": "1200.0",
        "minspawn": "1200.0",
        "spawndelay": "true",
        "ttl": "99999.0",
        "cpid": "305"
      }
    },
    {
      "type": "Feature",
      "geometry": {
        "type": "Point",
        "coordinates": [402.12903, -1925.322],
        "size": [16, 16]
      },
      "properties": {
        "iconurl": "icons/vehicles_map/mini_ahe_light.png",
        "iconrotate": "-10.067",
        "popupContent": "Amazing information about null will be found here!"
      },
      "bf2props": {
        "name": "atkheli_0",
        "class": "ObjectSpawner",
        "name_object": "UH-1N Twin Huey CAS",
        "team": "2",
        "obj1": "null",
        "obj2": "us_ahe_uh1nrockets",
        "maxspawn": "1200.0",
        "minspawn": "1200.0",
        "spawndelay": "true",
        "ttl": "99999.0",
        "cpid": "305"
      }
    },
    {
      "type": "Feature",
      "geometry": {
        "type": "Point",
        "coordinates": [2298.3179, 332.83606],
        "size": [16, 16]
      },
      "properties": {
        "iconurl": "icons/mini_map/airdef.png",
        "iconrotate": "0",
        "popupContent": "Amazing information about Artillery Barrage Call-In will be found here!"
      },
      "bf2props": {
        "name": "arty_0",
        "class": "ObjectSpawner",
        "name_object": "Artillery Barrage Call-In",
        "team": "1",
        "obj1": "artillery_team1",
        "obj2": "null",
        "maxspawn": "1800.0",
        "minspawn": "1800.0",
        "spawndelay": "true",
        "ttl": "0.0",
        "cpid": "303"
      }
    },
    {
      "type": "Feature",
      "geometry": {
        "type": "Point",
        "coordinates": [2293.8599, 332.49402],
        "size": [16, 16]
      },
      "properties": {
        "iconurl": "icons/mini_map/airdef.png",
        "iconrotate": "0",
        "popupContent": "Amazing information about Artillery Barrage Call-In will be found here!"
      },
      "bf2props": {
        "name": "arty_1",
        "class": "ObjectSpawner",
        "name_object": "Artillery Barrage Call-In",
        "team": "1",
        "obj1": "artillery_team1",
        "obj2": "null",
        "maxspawn": "1800.0",
        "minspawn": "1800.0",
        "spawndelay": "true",
        "ttl": "0.0",
        "cpid": "303"
      }
    },
    {
      "type": "Feature",
      "geometry": {
        "type": "Point",
        "coordinates": [2289.054, 332.46704],
        "size": [16, 16]
      },
      "properties": {
        "iconurl": "icons/mini_map/airdef.png",
        "iconrotate": "0",
        "popupContent": "Amazing information about Artillery Barrage Call-In will be found here!"
      },
      "bf2props": {
        "name": "arty_2",
        "class": "ObjectSpawner",
        "name_object": "Artillery Barrage Call-In",
        "team": "1",
        "obj1": "artillery_team1",
        "obj2": "null",
        "maxspawn": "1800.0",
        "minspawn": "1800.0",
        "spawndelay": "true",
        "ttl": "0.0",
        "cpid": "303"
      }
    },
    {
      "type": "Feature",
      "geometry": {
        "type": "Point",
        "coordinates": [1119.019, -340.972],
        "size": [16, 16]
      },
      "properties": {
        "iconurl": "icons/vehicles_map/mini_apc_light.png",
        "iconrotate": "90.0",
        "popupContent": "Amazing information about MT-LB will be found here!"
      },
      "bf2props": {
        "name": "brdm",
        "class": "ObjectSpawner",
        "name_object": "MT-LB",
        "team": "1",
        "obj1": "mec_apc_mtlb",
        "obj2": "null",
        "maxspawn": "99999.0",
        "minspawn": "99999.0",
        "spawndelay": "false",
        "ttl": "99999.0",
        "cpid": "303"
      }
    },
    {
      "type": "Feature",
      "geometry": {
        "type": "Point",
        "coordinates": [1105.404, -342.78998],
        "size": [16, 16]
      },
      "properties": {
        "iconurl": "icons/vehicles_map/mini_apc_light.png",
        "iconrotate": "90.0",
        "popupContent": "Amazing information about MT-LB will be found here!"
      },
      "bf2props": {
        "name": "brdm_0",
        "class": "ObjectSpawner",
        "name_object": "MT-LB",
        "team": "1",
        "obj1": "mec_apc_mtlb",
        "obj2": "null",
        "maxspawn": "99999.0",
        "minspawn": "99999.0",
        "spawndelay": "false",
        "ttl": "99999.0",
        "cpid": "303"
      }
    },
    {
      "type": "Feature",
      "geometry": {
        "type": "Point",
        "coordinates": [267.87903, -1948.7319],
        "size": [16, 16]
      },
      "properties": {
        "iconurl": "icons/player_map/mini_squad.png",
        "iconrotate": "0",
        "popupContent": "Amazing information about null will be found here!"
      },
      "bf2props": {
        "name": "rpammo_1",
        "class": "ObjectSpawner",
        "name_object": "Permanent spawnpoint",
        "team": "2",
        "obj1": "null",
        "obj2": "rallypoint_us_placeable_noexpire",
        "maxspawn": "30.0",
        "minspawn": "0.0",
        "spawndelay": "false",
        "ttl": "0.0",
        "cpid": "305"
      }
    },
    {
      "type": "Feature",
      "geometry": {
        "type": "Point",
        "coordinates": [1073.154, -265.76703],
        "size": [16, 16]
      },
      "properties": {
        "iconurl": "icons/vehicles_map/mini_apc_light.png",
        "iconrotate": "93.578",
        "popupContent": "Amazing information about MT-LB 6M will be found here!"
      },
      "bf2props": {
        "name": "brdm_1",
        "class": "ObjectSpawner",
        "name_object": "MT-LB 6M",
        "team": "1",
        "obj1": "mec_apc_mtlb_hmg",
        "obj2": "null",
        "maxspawn": "600.0",
        "minspawn": "600.0",
        "spawndelay": "true",
        "ttl": "99999.0",
        "cpid": "303"
      }
    },
    {
      "type": "Feature",
      "geometry": {
        "type": "Point",
        "coordinates": [214.73901, -1932.412],
        "size": [16, 16]
      },
      "properties": {
        "iconurl": "icons/player_map/mini_squad.png",
        "iconrotate": "0",
        "popupContent": "Amazing information about null will be found here!"
      },
      "bf2props": {
        "name": "rpammo_4",
        "class": "ObjectSpawner",
        "name_object": "Permanent spawnpoint",
        "team": "2",
        "obj1": "null",
        "obj2": "rallypoint_us_placeable_noexpire",
        "maxspawn": "30.0",
        "minspawn": "0.0",
        "spawndelay": "false",
        "ttl": "0.0",
        "cpid": "305"
      }
    },
    {
      "type": "Feature",
      "geometry": {
        "type": "Point",
        "coordinates": [218.63702, -1952.929],
        "size": [16, 16]
      },
      "properties": {
        "iconurl": "icons/player_map/mini_squad.png",
        "iconrotate": "0",
        "popupContent": "Amazing information about null will be found here!"
      },
      "bf2props": {
        "name": "rpammo_6",
        "class": "ObjectSpawner",
        "name_object": "Permanent spawnpoint",
        "team": "2",
        "obj1": "null",
        "obj2": "rallypoint_us_placeable_noexpire",
        "maxspawn": "30.0",
        "minspawn": "0.0",
        "spawndelay": "false",
        "ttl": "0.0",
        "cpid": "305"
      }
    },
    {
      "type": "Feature",
      "geometry": {
        "type": "Point",
        "coordinates": [205.92297, -1937.853],
        "size": [16, 16]
      },
      "properties": {
        "iconurl": "icons/vehicles_map/mini_apc_medium_aavp7.png",
        "iconrotate": "-96.543",
        "popupContent": "Amazing information about null will be found here!"
      },
      "bf2props": {
        "name": "apc",
        "class": "ObjectSpawner",
        "name_object": "AAVP7A1 RAM/RS",
        "team": "2",
        "obj1": "null",
        "obj2": "us_apc_aavp7a1",
        "maxspawn": "600.0",
        "minspawn": "600.0",
        "spawndelay": "false",
        "ttl": "99999.0",
        "cpid": "305"
      }
    },
    {
      "type": "Feature",
      "geometry": {
        "type": "Point",
        "coordinates": [207.36102, -1949.49],
        "size": [16, 16]
      },
      "properties": {
        "iconurl": "icons/vehicles_map/mini_apc_medium_aavp7.png",
        "iconrotate": "-96.543",
        "popupContent": "Amazing information about null will be found here!"
      },
      "bf2props": {
        "name": "acp",
        "class": "ObjectSpawner",
        "name_object": "AAVP7A1 RAM/RS",
        "team": "2",
        "obj1": "null",
        "obj2": "us_apc_aavp7a1",
        "maxspawn": "600.0",
        "minspawn": "600.0",
        "spawndelay": "false",
        "ttl": "99999.0",
        "cpid": "305"
      }
    },
    {
      "type": "Feature",
      "geometry": {
        "type": "Point",
        "coordinates": [1071.766, -259.78003],
        "size": [16, 16]
      },
      "properties": {
        "iconurl": "icons/vehicles_map/mini_apc_medium.png",
        "iconrotate": "93.578",
        "popupContent": "Amazing information about BTR-60PB will be found here!"
      },
      "bf2props": {
        "name": "apc_0",
        "class": "ObjectSpawner",
        "name_object": "BTR-60PB",
        "team": "1",
        "obj1": "mec_apc_btr60",
        "obj2": "null",
        "maxspawn": "600.0",
        "minspawn": "600.0",
        "spawndelay": "true",
        "ttl": "99999.0",
        "cpid": "303"
      }
    },
    {
      "type": "Feature",
      "geometry": {
        "type": "Point",
        "coordinates": [1071.988, -254.79498],
        "size": [16, 16]
      },
      "properties": {
        "iconurl": "icons/vehicles_map/mini_apc_medium.png",
        "iconrotate": "93.578",
        "popupContent": "Amazing information about BTR-60PB will be found here!"
      },
      "bf2props": {
        "name": "apc_1",
        "class": "ObjectSpawner",
        "name_object": "BTR-60PB",
        "team": "1",
        "obj1": "mec_apc_btr60",
        "obj2": "null",
        "maxspawn": "600.0",
        "minspawn": "600.0",
        "spawndelay": "true",
        "ttl": "99999.0",
        "cpid": "303"
      }
    },
    {
      "type": "Feature",
      "geometry": {
        "type": "Point",
        "coordinates": [225.93402, -1941.438],
        "size": [16, 16]
      },
      "properties": {
        "iconurl": "icons/vehicles_map/mini_rec_medium.png",
        "iconrotate": "-96.543",
        "popupContent": "Amazing information about null will be found here!"
      },
      "bf2props": {
        "name": "lav",
        "class": "ObjectSpawner",
        "name_object": "LAV-25",
        "team": "2",
        "obj1": "null",
        "obj2": "us_apc_lav25",
        "maxspawn": "600.0",
        "minspawn": "600.0",
        "spawndelay": "false",
        "ttl": "99999.0",
        "cpid": "305"
      }
    },
    {
      "type": "Feature",
      "geometry": {
        "type": "Point",
        "coordinates": [226.97601, -1947.05],
        "size": [16, 16]
      },
      "properties": {
        "iconurl": "icons/vehicles_map/mini_shp_light.png",
        "iconrotate": "-81.357",
        "popupContent": "Amazing information about null will be found here!"
      },
      "bf2props": {
        "name": "lav_0",
        "class": "ObjectSpawner",
        "name_object": "RHIB",
        "team": "2",
        "obj1": "null",
        "obj2": "boat_rib",
        "maxspawn": "300.0",
        "minspawn": "300.0",
        "spawndelay": "false",
        "ttl": "300.0",
        "cpid": "305"
      }
    },
    {
      "type": "Feature",
      "geometry": {
        "type": "Point",
        "coordinates": [224.27301, -1936.348],
        "size": [16, 16]
      },
      "properties": {
        "iconurl": "icons/vehicles_map/mini_shp_light.png",
        "iconrotate": "-108.791",
        "popupContent": "Amazing information about null will be found here!"
      },
      "bf2props": {
        "name": "cpname_jabal_aas128_uscarrier_boat",
        "class": "ObjectSpawner",
        "name_object": "RHIB",
        "team": "2",
        "obj1": "null",
        "obj2": "boat_rib",
        "maxspawn": "300.0",
        "minspawn": "300.0",
        "spawndelay": "false",
        "ttl": "300.0",
        "cpid": "305"
      }
    },
    {
      "type": "Feature",
      "geometry": {
        "type": "Point",
        "coordinates": [1057.924, -224.38702],
        "size": [16, 16]
      },
      "properties": {
        "iconurl": "icons/vehicles_map/mini_the_medium.png",
        "iconrotate": "-180.0",
        "popupContent": "Amazing information about Mi-17 Hip-H will be found here!"
      },
      "bf2props": {
        "name": "cpname_jabal_aas128_alburj_mi8",
        "class": "ObjectSpawner",
        "name_object": "Mi-17 Hip-H",
        "team": "1",
        "obj1": "mec_the_mi17",
        "obj2": "null",
        "maxspawn": "300.0",
        "minspawn": "300.0",
        "spawndelay": "false",
        "ttl": "12000.0",
        "cpid": "303"
      }
    },
    {
      "type": "Feature",
      "geometry": {
        "type": "Point",
        "coordinates": [197.68597, -966.998],
        "size": [33, 33],
        "radius": "150.0"
      },
      "properties": {
        "iconurl": "icons/flags_map/neutral/minimap_cp.png",
        "iconrotate": "0",
        "popupContent": "Amazing information about West Beach 150m will be found here!"
      },
      "bf2props": {
        "name": "cpname_jabal_aas128_westbeach",
        "class": "ControlPoint",
        "name_object": "West Beach 150m",
        "team": "0",
        "areavalue1": "0.0",
        "areavalue2": "0.0",
        "cpid": "301",
        "sgid": "41",
        "uncap": "false",
        "ttgc": "180.0",
        "ttlc": "180.0"
      }
    },
    {
      "type": "Feature",
      "geometry": {
        "type": "Point",
        "coordinates": [1247.92, -1685.61],
        "size": [33, 33],
        "radius": "150.0"
      },
      "properties": {
        "iconurl": "icons/flags_map/neutral/minimap_cp.png",
        "iconrotate": "0",
        "popupContent": "Amazing information about East Beach 150m will be found here!"
      },
      "bf2props": {
        "name": "cpname_jabal_aas128_eastbeach",
        "class": "ControlPoint",
        "name_object": "East Beach 150m",
        "team": "0",
        "areavalue1": "1000.0",
        "areavalue2": "0.0",
        "cpid": "302",
        "sgid": "50",
        "uncap": "false",
        "ttgc": "180.0",
        "ttlc": "180.0"
      }
    },
    {
      "type": "Feature",
      "geometry": {
        "type": "Point",
        "coordinates": [1085.0, -307.0],
        "size": [33, 33],
        "radius": "0.0"
      },
      "properties": {
        "iconurl": "icons/flags_map/mec/minimap_cpbase.png",
        "iconrotate": "0",
        "popupContent": "Amazing information about MEC Operations Base will be found here!"
      },
      "bf2props": {
        "name": "cpname_jabal_aas128_alburj",
        "class": "ControlPoint",
        "name_object": "MEC Operations Base",
        "team": "1",
        "areavalue1": "0.0",
        "areavalue2": "0.0",
        "cpid": "303",
        "sgid": "10",
        "uncap": "true",
        "ttgc": "0.0",
        "ttlc": "0.0"
      }
    },
    {
      "type": "Feature",
      "geometry": {
        "type": "Point",
        "coordinates": [751.377, -971.97],
        "size": [33, 33],
        "radius": "150.0"
      },
      "properties": {
        "iconurl": "icons/flags_map/neutral/minimap_cp.png",
        "iconrotate": "0",
        "popupContent": "Amazing information about Dam 150m will be found here!"
      },
      "bf2props": {
        "name": "cpname_jabal_aas128_damcenter",
        "class": "ControlPoint",
        "name_object": "Dam 150m",
        "team": "0",
        "areavalue1": "0.0",
        "areavalue2": "0.0",
        "cpid": "304",
        "sgid": "30",
        "uncap": "false",
        "ttgc": "180.0",
        "ttlc": "180.0"
      }
    },
    {
      "type": "Feature",
      "geometry": {
        "type": "Point",
        "coordinates": [304.182, -1931.596],
        "size": [33, 33],
        "radius": "0.0"
      },
      "properties": {
        "iconurl": "icons/flags_map/us/minimap_cpbase.png",
        "iconrotate": "0",
        "popupContent": "Amazing information about USS Essex will be found here!"
      },
      "bf2props": {
        "name": "cpname_jabal_aas128_uscarrier",
        "class": "ControlPoint",
        "name_object": "USS Essex",
        "team": "2",
        "areavalue1": "0.0",
        "areavalue2": "0.0",
        "cpid": "305",
        "sgid": "60",
        "uncap": "true",
        "ttgc": "0.0",
        "ttlc": "0.0"
      }
    },
    {
      "type": "Feature",
      "geometry": {
        "type": "Point",
        "coordinates": [1485.62, -815.24097],
        "size": [33, 33],
        "radius": "150.0"
      },
      "properties": {
        "iconurl": "icons/flags_map/neutral/minimap_cp.png",
        "iconrotate": "0",
        "popupContent": "Amazing information about Jabal Al Burj 150m will be found here!"
      },
      "bf2props": {
        "name": "cpname_jabal_aas128_city",
        "class": "ControlPoint",
        "name_object": "Jabal Al Burj 150m",
        "team": "0",
        "areavalue1": "0.0",
        "areavalue2": "1000.0",
        "cpid": "307",
        "sgid": "20",
        "uncap": "false",
        "ttgc": "180.0",
        "ttlc": "180.0"
      }
    },
    {
      "type": "Feature",
      "geometry": {
        "type": "Point",
        "coordinates": [1234.942, -1157.045],
        "size": [33, 33],
        "radius": "150.0"
      },
      "properties": {
        "iconurl": "icons/flags_map/neutral/minimap_cp.png",
        "iconrotate": "0",
        "popupContent": "Amazing information about South Bridge 150m will be found here!"
      },
      "bf2props": {
        "name": "cpname_jabal_aas128_bridge",
        "class": "ControlPoint",
        "name_object": "South Bridge 150m",
        "team": "0",
        "areavalue1": "0.0",
        "areavalue2": "0.0",
        "cpid": "308",
        "sgid": "41",
        "uncap": "false",
        "ttgc": "180.0",
        "ttlc": "180.0"
      }
    },
    {
      "type": "Feature",
      "geometry": {
        "type": "Polygon",
        "coordinates": [
          [
            [0,0],
            [0,-2048],
            [2048,-2048],
            [2048,0]
          ],[
            [2.0, -2046.0],
            [2046.0, -2046.0],
            [2046.0, -2.0],
            [2.0, -2.0]
          ]
        ]
      },
      "bf2props": {
        "code": "combatarea_0_aas",
        "class": "CombatArea",
        "team": "0",
        "vehicles": "4",
        "layer": "2",
        "inverted": "false",
        "max": [0.0, 0.0],
        "min": [0.0, 0.0]
      }
    },
    {
      "type": "Feature",
      "geometry": {
        "type": "Polygon",
        "coordinates": [
          [
            [1029.3998, -420.26587],
            [1222.5929, -419.765],
            [1309.0883, -294.23816],
            [1303.8966, -0.7564697],
            [913.26624, -0.15490723],
            [945.42755, -338.50806]
          ]
        ]
      },
      "bf2props": {
        "code": "combatarea_14_aas16",
        "class": "CombatArea",
        "team": "2",
        "vehicles": "4",
        "layer": "2",
        "inverted": "true",
        "max": [0.0, 0.0],
        "min": [0.0, 0.0]
      }
    },
    {
      "type": "Feature",
      "geometry": {
        "type": "Polygon",
        "coordinates": [
          [
            [1240.084, -2046.0823],
            [1095.1091, -1729.2395],
            [1022.6713, -1461.4113],
            [909.92694, -1377.1814],
            [801.90826, -1321.8942],
            [752.5328, -1223.0713],
            [566.36334, -1236.3375],
            [435.71912, -1258.6672],
            [278.53894, -1156.0383],
            [20.298584, -1007.12976],
            [1.7557373, -1005.94604],
            [3.1455078, -2044.8408]
          ]
        ]
      },
      "bf2props": {
        "code": "combatarea_10_default",
        "class": "CombatArea",
        "team": "1",
        "vehicles": "4",
        "layer": "2",
        "inverted": "true",
        "max": [0.0, 0.0],
        "min": [0.0, 0.0]
      }
    }
  ]
}