{
  "team1":"mec",
  "team2":"us",
  "team1tickets":"500",
  "team2tickets":"500",
  "mapsize":"2048",
  "viewdistance":"650",
  "combatareause":"true",
  "combatareadamage":"20.0",
  "combatareaallowoutside":"10.0",
  "routes": [
    [
      [
        "cpname_jabal_skirmish16_suburbs"
      ],
      [
        "cpname_jabal_skirmish16_city"
      ],
      [
        "cpname_jabal_skirmish16_offices"
      ],
      [
        "cpname_jabal_skirmish16_factory"
      ]
    ]
  ],
  "type": "FeatureCollection",
  "features": [
    {
      "type": "Feature",
      "geometry": {
        "type": "Point",
        "coordinates": [1740.197, -857.907],
        "size": [16, 16]
      },
      "properties": {
        "iconurl": "icons/mini_map/icon_supply.png",
        "iconrotate": "0",
        "popupContent": "Amazing information about Permanent supply crate will be found here!"
      },
      "bf2props": {
        "name": "crate",
        "class": "ObjectSpawner",
        "name_object": "Permanent supply crate | Permanent supply crate",
        "team": "1",
        "obj1": "fixed_supply_crate",
        "obj2": "fixed_supply_crate",
        "maxspawn": "30.0",
        "minspawn": "60.0",
        "spawndelay": "false",
        "ttl": "0.0",
        "cpid": "206"
      }
    },
    {
      "type": "Feature",
      "geometry": {
        "type": "Point",
        "coordinates": [1567.752, -861.359],
        "size": [16, 16]
      },
      "properties": {
        "iconurl": "icons/mini_map/icon_supply.png",
        "iconrotate": "0",
        "popupContent": "Amazing information about Permanent supply crate will be found here!"
      },
      "bf2props": {
        "name": "crate_0",
        "class": "ObjectSpawner",
        "name_object": "Permanent supply crate | Permanent supply crate",
        "team": "0",
        "obj1": "fixed_supply_crate",
        "obj2": "fixed_supply_crate",
        "maxspawn": "30.0",
        "minspawn": "60.0",
        "spawndelay": "false",
        "ttl": "0.0",
        "cpid": "205"
      }
    },
    {
      "type": "Feature",
      "geometry": {
        "type": "Point",
        "coordinates": [1468.531, -824.589],
        "size": [16, 16]
      },
      "properties": {
        "iconurl": "icons/mini_map/icon_supply.png",
        "iconrotate": "0",
        "popupContent": "Amazing information about Permanent supply crate will be found here!"
      },
      "bf2props": {
        "name": "crate_1",
        "class": "ObjectSpawner",
        "name_object": "Permanent supply crate | Permanent supply crate",
        "team": "0",
        "obj1": "fixed_supply_crate",
        "obj2": "fixed_supply_crate",
        "maxspawn": "30.0",
        "minspawn": "60.0",
        "spawndelay": "false",
        "ttl": "0.0",
        "cpid": "207"
      }
    },
    {
      "type": "Feature",
      "geometry": {
        "type": "Point",
        "coordinates": [1241.505, -811.421],
        "size": [16, 16]
      },
      "properties": {
        "iconurl": "icons/mini_map/icon_supply.png",
        "iconrotate": "0",
        "popupContent": "Amazing information about Permanent supply crate will be found here!"
      },
      "bf2props": {
        "name": "crate_2",
        "class": "ObjectSpawner",
        "name_object": "Permanent supply crate | Permanent supply crate",
        "team": "2",
        "obj1": "fixed_supply_crate",
        "obj2": "fixed_supply_crate",
        "maxspawn": "0.0",
        "minspawn": "60.0",
        "spawndelay": "false",
        "ttl": "0.0",
        "cpid": "204"
      }
    },
    {
      "type": "Feature",
      "geometry": {
        "type": "Point",
        "coordinates": [1245.0, -783.0],
        "size": [16, 16]
      },
      "properties": {
        "iconurl": "icons/mini_map/uavtrailer.png",
        "iconrotate": "0",
        "popupContent": "Amazing information about null will be found here!"
      },
      "bf2props": {
        "name": "cpname_jabal_skirmish16_factory_copost",
        "class": "ObjectSpawner",
        "name_object": "UAV Terminal",
        "team": "2",
        "obj1": "null",
        "obj2": "us_acv_lavc2",
        "maxspawn": "0.0",
        "minspawn": "60.0",
        "spawndelay": "false",
        "ttl": "0.0",
        "cpid": "204"
      }
    },
    {
      "type": "Feature",
      "geometry": {
        "type": "Point",
        "coordinates": [1718.0, -835.0],
        "size": [16, 16]
      },
      "properties": {
        "iconurl": "icons/mini_map/uavtrailer.png",
        "iconrotate": "0",
        "popupContent": "Amazing information about UAV Terminal will be found here!"
      },
      "bf2props": {
        "name": "cpname_jabal_skirmish16_suburbs_acv",
        "class": "ObjectSpawner",
        "name_object": "UAV Terminal",
        "team": "1",
        "obj1": "mec_acv_btr60pu",
        "obj2": "null",
        "maxspawn": "0.0",
        "minspawn": "60.0",
        "spawndelay": "false",
        "ttl": "0.0",
        "cpid": "206"
      }
    },
    {
      "type": "Feature",
      "geometry": {
        "type": "Point",
        "coordinates": [1325.502, -796.658],
        "size": [33, 33],
        "radius": "30.0"
      },
      "properties": {
        "iconurl": "icons/flags_map/us/minimap_cp.png",
        "iconrotate": "0",
        "popupContent": "Amazing information about Factory 30m will be found here!"
      },
      "bf2props": {
        "name": "cpname_jabal_skirmish16_factory",
        "class": "ControlPoint",
        "name_object": "Factory 30m",
        "team": "2",
        "areavalue1": "1000.0",
        "areavalue2": "0.0",
        "cpid": "204",
        "sgid": "4",
        "uncap": "false",
        "ttgc": "60.0",
        "ttlc": "60.0"
      }
    },
    {
      "type": "Feature",
      "geometry": {
        "type": "Point",
        "coordinates": [1569.4509, -840.571],
        "size": [33, 33],
        "radius": "60.0"
      },
      "properties": {
        "iconurl": "icons/flags_map/neutral/minimap_cp.png",
        "iconrotate": "0",
        "popupContent": "Amazing information about City 60m will be found here!"
      },
      "bf2props": {
        "name": "cpname_jabal_skirmish16_city",
        "class": "ControlPoint",
        "name_object": "City 60m",
        "team": "0",
        "areavalue1": "0.0",
        "areavalue2": "0.0",
        "cpid": "205",
        "sgid": "2",
        "uncap": "false",
        "ttgc": "120.0",
        "ttlc": "120.0"
      }
    },
    {
      "type": "Feature",
      "geometry": {
        "type": "Point",
        "coordinates": [1694.261, -852.68604],
        "size": [33, 33],
        "radius": "30.0"
      },
      "properties": {
        "iconurl": "icons/flags_map/mec/minimap_cp.png",
        "iconrotate": "0",
        "popupContent": "Amazing information about Suburbs 30m will be found here!"
      },
      "bf2props": {
        "name": "cpname_jabal_skirmish16_suburbs",
        "class": "ControlPoint",
        "name_object": "Suburbs 30m",
        "team": "1",
        "areavalue1": "0.0",
        "areavalue2": "1000.0",
        "cpid": "206",
        "sgid": "1",
        "uncap": "false",
        "ttgc": "60.0",
        "ttlc": "60.0"
      }
    },
    {
      "type": "Feature",
      "geometry": {
        "type": "Point",
        "coordinates": [1450.636, -800.713],
        "size": [33, 33],
        "radius": "60.0"
      },
      "properties": {
        "iconurl": "icons/flags_map/neutral/minimap_cp.png",
        "iconrotate": "0",
        "popupContent": "Amazing information about Offices 60m will be found here!"
      },
      "bf2props": {
        "name": "cpname_jabal_skirmish16_offices",
        "class": "ControlPoint",
        "name_object": "Offices 60m",
        "team": "0",
        "areavalue1": "0.0",
        "areavalue2": "0.0",
        "cpid": "207",
        "sgid": "3",
        "uncap": "false",
        "ttgc": "120.0",
        "ttlc": "120.0"
      }
    },
    {
      "type": "Feature",
      "geometry": {
        "type": "Polygon",
        "coordinates": [
          [
            [0,0],
            [0,-2048],
            [2048,-2048],
            [2048,0]
          ],[
            [1417.4718, -1015.24316],
            [1457.1432, -1016.01306],
            [1489.8309, -1006.99866],
            [1541.4288, -989.03564],
            [1578.66, -979.3181],
            [1653.2644, -966.0687],
            [1708.5651, -956.07166],
            [1735.4878, -942.34094],
            [1750.5338, -926.46594],
            [1773.0155, -880.29297],
            [1782.6066, -832.88367],
            [1774.3726, -800.4053],
            [1762.3547, -758.53235],
            [1738.8634, -717.1748],
            [1707.2964, -695.989],
            [1643.9459, -678.52673],
            [1495.9137, -639.8462],
            [1379.9109, -631.8788],
            [1302.9703, -633.9863],
            [1249.1111, -655.4525],
            [1205.634, -698.60486],
            [1173.6766, -758.58435],
            [1163.2058, -830.40466],
            [1182.764, -893.5011],
            [1200.015, -916.69617],
            [1232.1212, -940.00476],
            [1354.6047, -1003.45496],
            [1414.9696, -1014.69226]
          ]
        ]
      },
      "bf2props": {
        "code": "combatarea_0_16_player",
        "class": "CombatArea",
        "team": "0",
        "vehicles": "4",
        "layer": "6",
        "inverted": "false",
        "max": [0.0, 0.0],
        "min": [0.0, 0.0]
      }
    },
    {
      "type": "Feature",
      "geometry": {
        "type": "Polygon",
        "coordinates": [
          [
            [1278.593, -835.9263],
            [1274.8021, -788.93933],
            [1236.2803, -787.8567],
            [1235.938, -825.5215]
          ]
        ]
      },
      "bf2props": {
        "code": "combatarea_28_cp_layer_64",
        "class": "CombatArea",
        "team": "1",
        "vehicles": "4",
        "layer": "6",
        "inverted": "true",
        "max": [0.0, 0.0],
        "min": [0.0, 0.0]
      }
    },
    {
      "type": "Feature",
      "geometry": {
        "type": "Polygon",
        "coordinates": [
          [
            [1728.7805, -878.17224],
            [1729.5056, -830.5563],
            [1763.8895, -828.66455],
            [1766.4406, -865.442]
          ]
        ]
      },
      "bf2props": {
        "code": "combatarea_32_cp_layer_64",
        "class": "CombatArea",
        "team": "2",
        "vehicles": "4",
        "layer": "6",
        "inverted": "true",
        "max": [0.0, 0.0],
        "min": [0.0, 0.0]
      }
    }
  ]
}