{
  "team1":"arf",
  "team2":"fr",
  "team1tickets":"720",
  "team2tickets":"600",
  "mapsize":"2048",
  "viewdistance":"650",
  "combatareause":"true",
  "combatareadamage":"20.0",
  "combatareaallowoutside":"10.0",
  "routes": [
  ],
  "type": "FeatureCollection",
  "features": [
    {
      "type": "Feature",
      "geometry": {
        "type": "Point",
        "coordinates": [1987.4971, -57.578003],
        "size": [16, 16]
      },
      "properties": {
        "iconurl": "icons/vehicles_map/mini_tank_medium.png",
        "iconrotate": "-90.0",
        "popupContent": "Amazing information about T-62 will be found here!"
      },
      "bf2props": {
        "name": "cpname_sahel_insurgency64_opformain_opfor_tnk",
        "class": "ObjectSpawner",
        "name_object": "T-62",
        "team": "1",
        "obj1": "mil_tnk_t62",
        "obj2": "null",
        "maxspawn": "1080.0",
        "minspawn": "1080.0",
        "spawndelay": "true",
        "ttl": "99999.0",
        "cpid": "1"
      }
    },
    {
      "type": "Feature",
      "geometry": {
        "type": "Point",
        "coordinates": [1986.36, -78.185974],
        "size": [16, 16]
      },
      "properties": {
        "iconurl": "icons/vehicles_map/mini_jep_light.png",
        "iconrotate": "-96.434",
        "popupContent": "Amazing information about DShKM Technical will be found here!"
      },
      "bf2props": {
        "name": "cpname_sahel_insurgency64_opformain_opfor_jep1",
        "class": "ObjectSpawner",
        "name_object": "DShKM Technical",
        "team": "1",
        "obj1": "civ_jep_technical2",
        "obj2": "null",
        "maxspawn": "300.0",
        "minspawn": "300.0",
        "spawndelay": "false",
        "ttl": "99999.0",
        "cpid": "1"
      }
    },
    {
      "type": "Feature",
      "geometry": {
        "type": "Point",
        "coordinates": [1987.5701, -81.679016],
        "size": [16, 16]
      },
      "properties": {
        "iconurl": "icons/vehicles_map/mini_jep_light.png",
        "iconrotate": "-96.434",
        "popupContent": "Amazing information about DShKM Technical will be found here!"
      },
      "bf2props": {
        "name": "cpname_sahel_insurgency64_opformain_opfor_jep2",
        "class": "ObjectSpawner",
        "name_object": "DShKM Technical",
        "team": "1",
        "obj1": "civ_jep_technical",
        "obj2": "null",
        "maxspawn": "300.0",
        "minspawn": "300.0",
        "spawndelay": "false",
        "ttl": "99999.0",
        "cpid": "1"
      }
    },
    {
      "type": "Feature",
      "geometry": {
        "type": "Point",
        "coordinates": [1908.677, -75.820984],
        "size": [16, 16]
      },
      "properties": {
        "iconurl": "icons/vehicles_map/mini_civ_car.png",
        "iconrotate": "84.104",
        "popupContent": "Amazing information about Zastava 900AK Van will be found here!"
      },
      "bf2props": {
        "name": "cpname_sahel_insurgency64_opformain_opfor_jep3",
        "class": "ObjectSpawner",
        "name_object": "Zastava 900AK Van",
        "team": "1",
        "obj1": "civ_jep_zastava900ak",
        "obj2": "null",
        "maxspawn": "300.0",
        "minspawn": "300.0",
        "spawndelay": "false",
        "ttl": "99999.0",
        "cpid": "1"
      }
    },
    {
      "type": "Feature",
      "geometry": {
        "type": "Point",
        "coordinates": [1909.38, -83.15802],
        "size": [16, 16]
      },
      "properties": {
        "iconurl": "icons/vehicles_map/mini_civ_car.png",
        "iconrotate": "84.104",
        "popupContent": "Amazing information about Zastava 900AK Van will be found here!"
      },
      "bf2props": {
        "name": "cpname_sahel_insurgency64_opformain_opfor_jep4",
        "class": "ObjectSpawner",
        "name_object": "Zastava 900AK Van",
        "team": "1",
        "obj1": "civ_jep_zastava900ak",
        "obj2": "null",
        "maxspawn": "300.0",
        "minspawn": "300.0",
        "spawndelay": "false",
        "ttl": "99999.0",
        "cpid": "1"
      }
    },
    {
      "type": "Feature",
      "geometry": {
        "type": "Point",
        "coordinates": [1985.511, -90.17102],
        "size": [16, 16]
      },
      "properties": {
        "iconurl": "icons/vehicles_map/mini_jep_logistics.png",
        "iconrotate": "-95.68",
        "popupContent": "Amazing information about Logistics Technical will be found here!"
      },
      "bf2props": {
        "name": "cpname_sahel_insurgency64_opformain_opfor_jep5",
        "class": "ObjectSpawner",
        "name_object": "Logistics Technical",
        "team": "1",
        "obj1": "civ_jep_support_logistics",
        "obj2": "null",
        "maxspawn": "300.0",
        "minspawn": "300.0",
        "spawndelay": "false",
        "ttl": "99999.0",
        "cpid": "1"
      }
    },
    {
      "type": "Feature",
      "geometry": {
        "type": "Point",
        "coordinates": [1985.9551, -93.82001],
        "size": [16, 16]
      },
      "properties": {
        "iconurl": "icons/vehicles_map/mini_jep_support.png",
        "iconrotate": "-95.68",
        "popupContent": "Amazing information about Support Technical will be found here!"
      },
      "bf2props": {
        "name": "cpname_sahel_insurgency64_opformain_opfor_jep6",
        "class": "ObjectSpawner",
        "name_object": "Support Technical",
        "team": "1",
        "obj1": "civ_jep_support_arf",
        "obj2": "null",
        "maxspawn": "300.0",
        "minspawn": "300.0",
        "spawndelay": "false",
        "ttl": "99999.0",
        "cpid": "1"
      }
    },
    {
      "type": "Feature",
      "geometry": {
        "type": "Point",
        "coordinates": [1908.322, -72.211],
        "size": [16, 16]
      },
      "properties": {
        "iconurl": "icons/vehicles_map/mini_jep_light.png",
        "iconrotate": "84.104",
        "popupContent": "Amazing information about M2HB Technical will be found here!"
      },
      "bf2props": {
        "name": "cpname_sahel_insurgency64_opformain_jep7",
        "class": "ObjectSpawner",
        "name_object": "M2HB Technical",
        "team": "1",
        "obj1": "civ_jep_technical_black",
        "obj2": "null",
        "maxspawn": "300.0",
        "minspawn": "300.0",
        "spawndelay": "false",
        "ttl": "99999.0",
        "cpid": "1"
      }
    },
    {
      "type": "Feature",
      "geometry": {
        "type": "Point",
        "coordinates": [1909.094, -79.612976],
        "size": [16, 16]
      },
      "properties": {
        "iconurl": "icons/vehicles_map/mini_jep_light.png",
        "iconrotate": "84.104",
        "popupContent": "Amazing information about M2HB Technical will be found here!"
      },
      "bf2props": {
        "name": "cpname_sahel_insurgency64_opformain_jep8",
        "class": "ObjectSpawner",
        "name_object": "M2HB Technical",
        "team": "1",
        "obj1": "civ_jep_technical_red",
        "obj2": "null",
        "maxspawn": "300.0",
        "minspawn": "300.0",
        "spawndelay": "false",
        "ttl": "99999.0",
        "cpid": "1"
      }
    },
    {
      "type": "Feature",
      "geometry": {
        "type": "Point",
        "coordinates": [1906.8201, -64.505005],
        "size": [16, 16]
      },
      "properties": {
        "iconurl": "icons/vehicles_map/mini_civ_atv.png",
        "iconrotate": "83.233",
        "popupContent": "Amazing information about All-Terrain Vehicle will be found here!"
      },
      "bf2props": {
        "name": "cpname_sahel_insurgency64_opformain_jep9",
        "class": "ObjectSpawner",
        "name_object": "All-Terrain Vehicle",
        "team": "1",
        "obj1": "civ_bik_atv",
        "obj2": "null",
        "maxspawn": "300.0",
        "minspawn": "300.0",
        "spawndelay": "false",
        "ttl": "99999.0",
        "cpid": "1"
      }
    },
    {
      "type": "Feature",
      "geometry": {
        "type": "Point",
        "coordinates": [1907.459, -68.46802],
        "size": [16, 16]
      },
      "properties": {
        "iconurl": "icons/vehicles_map/mini_civ_atv.png",
        "iconrotate": "83.233",
        "popupContent": "Amazing information about All-Terrain Vehicle will be found here!"
      },
      "bf2props": {
        "name": "cpname_sahel_insurgency64_opformain_jep10",
        "class": "ObjectSpawner",
        "name_object": "All-Terrain Vehicle",
        "team": "1",
        "obj1": "civ_bik_atv",
        "obj2": "null",
        "maxspawn": "300.0",
        "minspawn": "300.0",
        "spawndelay": "false",
        "ttl": "99999.0",
        "cpid": "1"
      }
    },
    {
      "type": "Feature",
      "geometry": {
        "type": "Point",
        "coordinates": [34.34497, -1970.251],
        "size": [16, 16]
      },
      "properties": {
        "iconurl": "icons/vehicles_map/mini_apc_medium.png",
        "iconrotate": "52.337",
        "popupContent": "Amazing information about null will be found here!"
      },
      "bf2props": {
        "name": "cpname_sahel_insurgency64_blueformain_trk1",
        "class": "ObjectSpawner",
        "name_object": "VBCI",
        "team": "2",
        "obj1": "null",
        "obj2": "fr_apc_vbci",
        "maxspawn": "600.0",
        "minspawn": "600.0",
        "spawndelay": "false",
        "ttl": "99999.0",
        "cpid": "2"
      }
    },
    {
      "type": "Feature",
      "geometry": {
        "type": "Point",
        "coordinates": [44.307007, -1982.479],
        "size": [16, 16]
      },
      "properties": {
        "iconurl": "icons/vehicles_map/mini_trk_support.png",
        "iconrotate": "78.329",
        "popupContent": "Amazing information about null will be found here!"
      },
      "bf2props": {
        "name": "cpname_sahel_insurgency64_blueformain_trk2",
        "class": "ObjectSpawner",
        "name_object": "GBC-180",
        "team": "2",
        "obj1": "null",
        "obj2": "fr_trk_support",
        "maxspawn": "300.0",
        "minspawn": "300.0",
        "spawndelay": "false",
        "ttl": "99999.0",
        "cpid": "2"
      }
    },
    {
      "type": "Feature",
      "geometry": {
        "type": "Point",
        "coordinates": [56.44397, -1981.8201],
        "size": [16, 16]
      },
      "properties": {
        "iconurl": "icons/vehicles_map/mini_trk_support.png",
        "iconrotate": "81.504",
        "popupContent": "Amazing information about null will be found here!"
      },
      "bf2props": {
        "name": "cpname_sahel_insurgency64_blueformain_trk3",
        "class": "ObjectSpawner",
        "name_object": "GBC-180",
        "team": "2",
        "obj1": "null",
        "obj2": "fr_trk_support",
        "maxspawn": "300.0",
        "minspawn": "300.0",
        "spawndelay": "false",
        "ttl": "99999.0",
        "cpid": "2"
      }
    },
    {
      "type": "Feature",
      "geometry": {
        "type": "Point",
        "coordinates": [67.78198, -1981.8201],
        "size": [16, 16]
      },
      "properties": {
        "iconurl": "icons/vehicles_map/mini_trk_support.png",
        "iconrotate": "84.303",
        "popupContent": "Amazing information about null will be found here!"
      },
      "bf2props": {
        "name": "cpname_sahel_insurgency64_blueformain_trk4",
        "class": "ObjectSpawner",
        "name_object": "GBC-180",
        "team": "2",
        "obj1": "null",
        "obj2": "fr_trk_support",
        "maxspawn": "300.0",
        "minspawn": "300.0",
        "spawndelay": "false",
        "ttl": "99999.0",
        "cpid": "2"
      }
    },
    {
      "type": "Feature",
      "geometry": {
        "type": "Point",
        "coordinates": [47.491028, -1940.124],
        "size": [16, 16]
      },
      "properties": {
        "iconurl": "icons/vehicles_map/mini_trk_logistics.png",
        "iconrotate": "157.605",
        "popupContent": "Amazing information about null will be found here!"
      },
      "bf2props": {
        "name": "cpname_sahel_insurgency64_blueformain_trk5",
        "class": "ObjectSpawner",
        "name_object": "GBC 180 Logistics",
        "team": "2",
        "obj1": "null",
        "obj2": "fr_trk_logistics",
        "maxspawn": "300.0",
        "minspawn": "300.0",
        "spawndelay": "false",
        "ttl": "99999.0",
        "cpid": "2"
      }
    },
    {
      "type": "Feature",
      "geometry": {
        "type": "Point",
        "coordinates": [42.78601, -1941.581],
        "size": [16, 16]
      },
      "properties": {
        "iconurl": "icons/vehicles_map/mini_trk_logistics.png",
        "iconrotate": "163.962",
        "popupContent": "Amazing information about null will be found here!"
      },
      "bf2props": {
        "name": "cpname_sahel_insurgency64_blueformain_trk6",
        "class": "ObjectSpawner",
        "name_object": "GBC 180 Logistics",
        "team": "2",
        "obj1": "null",
        "obj2": "fr_trk_logistics",
        "maxspawn": "300.0",
        "minspawn": "300.0",
        "spawndelay": "false",
        "ttl": "99999.0",
        "cpid": "2"
      }
    },
    {
      "type": "Feature",
      "geometry": {
        "type": "Point",
        "coordinates": [100.401, -1969.2529],
        "size": [16, 16]
      },
      "properties": {
        "iconurl": "icons/vehicles_map/mini_apc_light.png",
        "iconrotate": "113.5",
        "popupContent": "Amazing information about null will be found here!"
      },
      "bf2props": {
        "name": "cpname_sahel_insurgency64_blueformain_apc1",
        "class": "ObjectSpawner",
        "name_object": "VAB VTT",
        "team": "2",
        "obj1": "null",
        "obj2": "fr_apc_vab",
        "maxspawn": "300.0",
        "minspawn": "300.0",
        "spawndelay": "false",
        "ttl": "99999.0",
        "cpid": "2"
      }
    },
    {
      "type": "Feature",
      "geometry": {
        "type": "Point",
        "coordinates": [91.10303, -1969.168],
        "size": [16, 16]
      },
      "properties": {
        "iconurl": "icons/vehicles_map/mini_apc_light.png",
        "iconrotate": "113.5",
        "popupContent": "Amazing information about null will be found here!"
      },
      "bf2props": {
        "name": "cpname_sahel_insurgency64_blueformain_apc2",
        "class": "ObjectSpawner",
        "name_object": "VAB VTT",
        "team": "2",
        "obj1": "null",
        "obj2": "fr_apc_vab",
        "maxspawn": "300.0",
        "minspawn": "300.0",
        "spawndelay": "false",
        "ttl": "99999.0",
        "cpid": "2"
      }
    },
    {
      "type": "Feature",
      "geometry": {
        "type": "Point",
        "coordinates": [82.37598, -1968.9089],
        "size": [16, 16]
      },
      "properties": {
        "iconurl": "icons/vehicles_map/mini_apc_light.png",
        "iconrotate": "113.5",
        "popupContent": "Amazing information about null will be found here!"
      },
      "bf2props": {
        "name": "cpname_sahel_insurgency64_blueformain_apc3",
        "class": "ObjectSpawner",
        "name_object": "VAB VTT",
        "team": "2",
        "obj1": "null",
        "obj2": "fr_apc_vab",
        "maxspawn": "300.0",
        "minspawn": "300.0",
        "spawndelay": "false",
        "ttl": "99999.0",
        "cpid": "2"
      }
    },
    {
      "type": "Feature",
      "geometry": {
        "type": "Point",
        "coordinates": [73.36401, -1968.79],
        "size": [16, 16]
      },
      "properties": {
        "iconurl": "icons/vehicles_map/mini_apc_light.png",
        "iconrotate": "113.5",
        "popupContent": "Amazing information about null will be found here!"
      },
      "bf2props": {
        "name": "cpname_sahel_insurgency64_blueformain_apc4",
        "class": "ObjectSpawner",
        "name_object": "VAB VTT",
        "team": "2",
        "obj1": "null",
        "obj2": "fr_apc_vab",
        "maxspawn": "300.0",
        "minspawn": "300.0",
        "spawndelay": "false",
        "ttl": "99999.0",
        "cpid": "2"
      }
    },
    {
      "type": "Feature",
      "geometry": {
        "type": "Point",
        "coordinates": [1986.697, -73.801025],
        "size": [16, 16]
      },
      "properties": {
        "iconurl": "icons/vehicles_map/mini_adv_light.png",
        "iconrotate": "-96.434",
        "popupContent": "Amazing information about Ural-4320 ZU-23-2 will be found here!"
      },
      "bf2props": {
        "name": "cpname_sahel_insurgency64_opformain_aatrk",
        "class": "ObjectSpawner",
        "name_object": "Ural-4320 ZU-23-2",
        "team": "1",
        "obj1": "civ_aav_uralzu232",
        "obj2": "null",
        "maxspawn": "600.0",
        "minspawn": "600.0",
        "spawndelay": "false",
        "ttl": "99999.0",
        "cpid": "1"
      }
    },
    {
      "type": "Feature",
      "geometry": {
        "type": "Point",
        "coordinates": [33.077026, -1984.468],
        "size": [16, 16]
      },
      "properties": {
        "iconurl": "icons/vehicles_map/mini_trk_support.png",
        "iconrotate": "63.877",
        "popupContent": "Amazing information about null will be found here!"
      },
      "bf2props": {
        "name": "cpname_sahel_insurgency64_blueformain_rallytruck2",
        "class": "ObjectSpawner",
        "name_object": "GBC-180",
        "team": "2",
        "obj1": "null",
        "obj2": "fr_trk_support",
        "maxspawn": "300.0",
        "minspawn": "300.0",
        "spawndelay": "false",
        "ttl": "99999.0",
        "cpid": "2"
      }
    },
    {
      "type": "Feature",
      "geometry": {
        "type": "Point",
        "coordinates": [26.369019, -1977.47],
        "size": [16, 16]
      },
      "properties": {
        "iconurl": "icons/vehicles_map/mini_trk_support.png",
        "iconrotate": "64.702",
        "popupContent": "Amazing information about null will be found here!"
      },
      "bf2props": {
        "name": "cpname_sahel_insurgency64_blueformain_rallytruck3",
        "class": "ObjectSpawner",
        "name_object": "GBC-180",
        "team": "2",
        "obj1": "null",
        "obj2": "fr_trk_support",
        "maxspawn": "300.0",
        "minspawn": "300.0",
        "spawndelay": "false",
        "ttl": "99999.0",
        "cpid": "2"
      }
    },
    {
      "type": "Feature",
      "geometry": {
        "type": "Point",
        "coordinates": [1843.0859, -29.103027],
        "size": [16, 16]
      },
      "properties": {
        "iconurl": "icons/vehicles_map/mini_stw_aa_medium_rh202.png",
        "iconrotate": "-93.5",
        "popupContent": "Amazing information about null will be found here!"
      },
      "bf2props": {
        "name": "cpname_sahel_insurgency64_opformain_zpu1",
        "class": "ObjectSpawner",
        "name_object": "zu232",
        "team": "2",
        "obj1": "null",
        "obj2": "zu232",
        "maxspawn": "12000.0",
        "minspawn": "12000.0",
        "spawndelay": "false",
        "ttl": "99999.0",
        "cpid": "2"
      }
    },
    {
      "type": "Feature",
      "geometry": {
        "type": "Point",
        "coordinates": [1984.1699, -40.80902],
        "size": [16, 16]
      },
      "properties": {
        "iconurl": "icons/vehicles_map/mini_stw_aa_medium_rh202.png",
        "iconrotate": "-84.44",
        "popupContent": "Amazing information about null will be found here!"
      },
      "bf2props": {
        "name": "cpname_sahel_insurgency64_opformain_zpu2",
        "class": "ObjectSpawner",
        "name_object": "zu232",
        "team": "2",
        "obj1": "null",
        "obj2": "zu232",
        "maxspawn": "12000.0",
        "minspawn": "12000.0",
        "spawndelay": "false",
        "ttl": "99999.0",
        "cpid": "2"
      }
    },
    {
      "type": "Feature",
      "geometry": {
        "type": "Point",
        "coordinates": [1428.454, -1144.695],
        "size": [16, 16]
      },
      "properties": {
        "iconurl": "icons/vehicles_map/mini_civ_truck_semi.png",
        "iconrotate": "150.779",
        "popupContent": "Amazing information about Semi Trailer Truck will be found here!"
      },
      "bf2props": {
        "name": "cpname_sahel_insurgency64_blueformain_semi",
        "class": "ObjectSpawner",
        "name_object": "Semi Trailer Truck",
        "team": "1",
        "obj1": "civ_trk_semi",
        "obj2": "null",
        "maxspawn": "12000.0",
        "minspawn": "12000.0",
        "spawndelay": "false",
        "ttl": "99999.0",
        "cpid": "1"
      }
    },
    {
      "type": "Feature",
      "geometry": {
        "type": "Point",
        "coordinates": [1906.485, -60.458984],
        "size": [16, 16]
      },
      "properties": {
        "iconurl": "icons/vehicles_map/mini_civ_dirtbike.png",
        "iconrotate": "83.233",
        "popupContent": "Amazing information about Dirtbike will be found here!"
      },
      "bf2props": {
        "name": "cpname_sahel_insurgency64_opformain_bik1",
        "class": "ObjectSpawner",
        "name_object": "Dirtbike",
        "team": "1",
        "obj1": "civ_bik_dirtbike",
        "obj2": "null",
        "maxspawn": "300.0",
        "minspawn": "300.0",
        "spawndelay": "false",
        "ttl": "99999.0",
        "cpid": "1"
      }
    },
    {
      "type": "Feature",
      "geometry": {
        "type": "Point",
        "coordinates": [1906.3921, -57.461975],
        "size": [16, 16]
      },
      "properties": {
        "iconurl": "icons/vehicles_map/mini_civ_dirtbike.png",
        "iconrotate": "83.233",
        "popupContent": "Amazing information about Dirtbike will be found here!"
      },
      "bf2props": {
        "name": "cpname_sahel_insurgency64_opformain_bik2",
        "class": "ObjectSpawner",
        "name_object": "Dirtbike",
        "team": "1",
        "obj1": "civ_bik_dirtbike",
        "obj2": "null",
        "maxspawn": "300.0",
        "minspawn": "300.0",
        "spawndelay": "false",
        "ttl": "99999.0",
        "cpid": "1"
      }
    },
    {
      "type": "Feature",
      "geometry": {
        "type": "Point",
        "coordinates": [1939.5869, -71.718994],
        "size": [16, 16]
      },
      "properties": {
        "iconurl": "icons/mini_map/repairdepot.png",
        "iconrotate": "0",
        "popupContent": "Amazing information about Vehicle Depot will be found here!"
      },
      "bf2props": {
        "name": "cpname_sahel_insurgency64_opformain_repair",
        "class": "ObjectSpawner",
        "name_object": "Vehicle Depot",
        "team": "1",
        "obj1": "vehicle_depot_tal",
        "obj2": "null",
        "maxspawn": "10.0",
        "minspawn": "10.0",
        "spawndelay": "false",
        "ttl": "99999.0",
        "cpid": "1"
      }
    },
    {
      "type": "Feature",
      "geometry": {
        "type": "Point",
        "coordinates": [66.015015, -1936.327],
        "size": [16, 16]
      },
      "properties": {
        "iconurl": "icons/mini_map/repairdepot.png",
        "iconrotate": "0",
        "popupContent": "Amazing information about null will be found here!"
      },
      "bf2props": {
        "name": "cpname_sahel_insurgency64_blueformain_repair1",
        "class": "ObjectSpawner",
        "name_object": "Vehicle Depot",
        "team": "2",
        "obj1": "null",
        "obj2": "vehicle_depot_fr",
        "maxspawn": "10.0",
        "minspawn": "10.0",
        "spawndelay": "false",
        "ttl": "99999.0",
        "cpid": "2"
      }
    },
    {
      "type": "Feature",
      "geometry": {
        "type": "Point",
        "coordinates": [1909.468, -87.06201],
        "size": [16, 16]
      },
      "properties": {
        "iconurl": "icons/vehicles_map/mini_civ_car.png",
        "iconrotate": "84.104",
        "popupContent": "Amazing information about Civilian Car will be found here!"
      },
      "bf2props": {
        "name": "cpname_sahel_insurgency64_opformain_jep11",
        "class": "ObjectSpawner",
        "name_object": "Civilian Car",
        "team": "1",
        "obj1": "civ_jep_car_black",
        "obj2": "null",
        "maxspawn": "300.0",
        "minspawn": "300.0",
        "spawndelay": "false",
        "ttl": "99999.0",
        "cpid": "1"
      }
    },
    {
      "type": "Feature",
      "geometry": {
        "type": "Point",
        "coordinates": [1910.119, -90.627014],
        "size": [16, 16]
      },
      "properties": {
        "iconurl": "icons/vehicles_map/mini_civ_car.png",
        "iconrotate": "84.104",
        "popupContent": "Amazing information about Civilian Car will be found here!"
      },
      "bf2props": {
        "name": "cpname_sahel_insurgency64_opformain_jep12",
        "class": "ObjectSpawner",
        "name_object": "Civilian Car",
        "team": "1",
        "obj1": "civ_jep_car_black",
        "obj2": "null",
        "maxspawn": "300.0",
        "minspawn": "300.0",
        "spawndelay": "false",
        "ttl": "99999.0",
        "cpid": "1"
      }
    },
    {
      "type": "Feature",
      "geometry": {
        "type": "Point",
        "coordinates": [720.81104, -777.874],
        "size": [16, 16]
      },
      "properties": {
        "iconurl": "icons/vehicles_map/mini_civ_car.png",
        "iconrotate": "90.0",
        "popupContent": "Amazing information about Civilian Car will be found here!"
      },
      "bf2props": {
        "name": "cpname_sahel_insurgency64_opformain_car1",
        "class": "ObjectSpawner",
        "name_object": "Civilian Car",
        "team": "1",
        "obj1": "civ_jep_car_blue",
        "obj2": "null",
        "maxspawn": "12000.0",
        "minspawn": "12000.0",
        "spawndelay": "false",
        "ttl": "99999.0",
        "cpid": "1"
      }
    },
    {
      "type": "Feature",
      "geometry": {
        "type": "Point",
        "coordinates": [1746.0391, -901.62],
        "size": [16, 16]
      },
      "properties": {
        "iconurl": "icons/vehicles_map/mini_civ_car.png",
        "iconrotate": "90.0",
        "popupContent": "Amazing information about Civilian Car will be found here!"
      },
      "bf2props": {
        "name": "cpname_sahel_insurgency64_opformain_car2",
        "class": "ObjectSpawner",
        "name_object": "Civilian Car",
        "team": "1",
        "obj1": "civ_jep_car_blue",
        "obj2": "null",
        "maxspawn": "12000.0",
        "minspawn": "12000.0",
        "spawndelay": "false",
        "ttl": "99999.0",
        "cpid": "1"
      }
    },
    {
      "type": "Feature",
      "geometry": {
        "type": "Point",
        "coordinates": [1434.587, -1579.135],
        "size": [16, 16]
      },
      "properties": {
        "iconurl": "icons/vehicles_map/mini_civ_car.png",
        "iconrotate": "-56.088",
        "popupContent": "Amazing information about Civilian Car will be found here!"
      },
      "bf2props": {
        "name": "cpname_sahel_insurgency64_opformain_car3",
        "class": "ObjectSpawner",
        "name_object": "Civilian Car",
        "team": "1",
        "obj1": "civ_jep_car",
        "obj2": "null",
        "maxspawn": "12000.0",
        "minspawn": "12000.0",
        "spawndelay": "false",
        "ttl": "99999.0",
        "cpid": "1"
      }
    },
    {
      "type": "Feature",
      "geometry": {
        "type": "Point",
        "coordinates": [755.91296, -1260.871],
        "size": [16, 16]
      },
      "properties": {
        "iconurl": "icons/vehicles_map/mini_civ_car.png",
        "iconrotate": "90.0",
        "popupContent": "Amazing information about Civilian Car will be found here!"
      },
      "bf2props": {
        "name": "cpname_sahel_insurgency64_opformain_car4",
        "class": "ObjectSpawner",
        "name_object": "Civilian Car",
        "team": "1",
        "obj1": "civ_jep_car_white",
        "obj2": "null",
        "maxspawn": "12000.0",
        "minspawn": "12000.0",
        "spawndelay": "false",
        "ttl": "99999.0",
        "cpid": "1"
      }
    },
    {
      "type": "Feature",
      "geometry": {
        "type": "Point",
        "coordinates": [777.575, -685.254],
        "size": [16, 16]
      },
      "properties": {
        "iconurl": "icons/vehicles_map/mini_civ_car.png",
        "iconrotate": "90.0",
        "popupContent": "Amazing information about Civilian Car will be found here!"
      },
      "bf2props": {
        "name": "cpname_sahel_insurgency64_opformain_car5",
        "class": "ObjectSpawner",
        "name_object": "Civilian Car",
        "team": "1",
        "obj1": "civ_jep_car_blue",
        "obj2": "null",
        "maxspawn": "12000.0",
        "minspawn": "12000.0",
        "spawndelay": "false",
        "ttl": "99999.0",
        "cpid": "1"
      }
    },
    {
      "type": "Feature",
      "geometry": {
        "type": "Point",
        "coordinates": [309.69397, -828.905],
        "size": [16, 16]
      },
      "properties": {
        "iconurl": "icons/vehicles_map/mini_civ_car.png",
        "iconrotate": "126.083",
        "popupContent": "Amazing information about Civilian Car will be found here!"
      },
      "bf2props": {
        "name": "cpname_sahel_insurgency64_opformain_car6",
        "class": "ObjectSpawner",
        "name_object": "Civilian Car",
        "team": "1",
        "obj1": "civ_jep_car_blue",
        "obj2": "null",
        "maxspawn": "12000.0",
        "minspawn": "12000.0",
        "spawndelay": "false",
        "ttl": "99999.0",
        "cpid": "1"
      }
    },
    {
      "type": "Feature",
      "geometry": {
        "type": "Point",
        "coordinates": [1763.7839, -944.97],
        "size": [16, 16]
      },
      "properties": {
        "iconurl": "icons/vehicles_map/mini_civ_car.png",
        "iconrotate": "0.0",
        "popupContent": "Amazing information about Civilian Car will be found here!"
      },
      "bf2props": {
        "name": "cpname_sahel_insurgency64_opformain_car8",
        "class": "ObjectSpawner",
        "name_object": "Civilian Car",
        "team": "1",
        "obj1": "civ_jep_car",
        "obj2": "null",
        "maxspawn": "12000.0",
        "minspawn": "12000.0",
        "spawndelay": "false",
        "ttl": "99999.0",
        "cpid": "1"
      }
    },
    {
      "type": "Feature",
      "geometry": {
        "type": "Point",
        "coordinates": [1647.644, -874.787],
        "size": [16, 16]
      },
      "properties": {
        "iconurl": "icons/player_map/mini_squad.png",
        "iconrotate": "0",
        "popupContent": "Amazing information about Temporary spawnpoint will be found here!"
      },
      "bf2props": {
        "name": "cpname_sahel_insurgency64_opformain_rally1",
        "class": "ObjectSpawner",
        "name_object": "Temporary spawnpoint",
        "team": "1",
        "obj1": "rallypoint_arf_placeable",
        "obj2": "null",
        "maxspawn": "12000.0",
        "minspawn": "12000.0",
        "spawndelay": "false",
        "ttl": "600.0",
        "cpid": "1"
      }
    },
    {
      "type": "Feature",
      "geometry": {
        "type": "Point",
        "coordinates": [1390.571, -1021.259],
        "size": [16, 16]
      },
      "properties": {
        "iconurl": "icons/player_map/mini_squad.png",
        "iconrotate": "0",
        "popupContent": "Amazing information about Temporary spawnpoint will be found here!"
      },
      "bf2props": {
        "name": "cpname_sahel_insurgency64_opformain_rally2",
        "class": "ObjectSpawner",
        "name_object": "Temporary spawnpoint",
        "team": "1",
        "obj1": "rallypoint_arf_placeable",
        "obj2": "null",
        "maxspawn": "12000.0",
        "minspawn": "12000.0",
        "spawndelay": "false",
        "ttl": "600.0",
        "cpid": "1"
      }
    },
    {
      "type": "Feature",
      "geometry": {
        "type": "Point",
        "coordinates": [754.935, -616.328],
        "size": [16, 16]
      },
      "properties": {
        "iconurl": "icons/player_map/mini_squad.png",
        "iconrotate": "0",
        "popupContent": "Amazing information about Temporary spawnpoint will be found here!"
      },
      "bf2props": {
        "name": "cpname_sahel_insurgency64_opformain_rally3",
        "class": "ObjectSpawner",
        "name_object": "Temporary spawnpoint",
        "team": "1",
        "obj1": "rallypoint_arf_placeable",
        "obj2": "null",
        "maxspawn": "12000.0",
        "minspawn": "12000.0",
        "spawndelay": "false",
        "ttl": "600.0",
        "cpid": "1"
      }
    },
    {
      "type": "Feature",
      "geometry": {
        "type": "Point",
        "coordinates": [351.906, -689.001],
        "size": [16, 16]
      },
      "properties": {
        "iconurl": "icons/player_map/mini_squad.png",
        "iconrotate": "0",
        "popupContent": "Amazing information about Temporary spawnpoint will be found here!"
      },
      "bf2props": {
        "name": "cpname_sahel_insurgency64_opformain_rally4",
        "class": "ObjectSpawner",
        "name_object": "Temporary spawnpoint",
        "team": "1",
        "obj1": "rallypoint_arf_placeable",
        "obj2": "null",
        "maxspawn": "12000.0",
        "minspawn": "12000.0",
        "spawndelay": "false",
        "ttl": "600.0",
        "cpid": "1"
      }
    },
    {
      "type": "Feature",
      "geometry": {
        "type": "Point",
        "coordinates": [216.85199, -1226.224],
        "size": [16, 16]
      },
      "properties": {
        "iconurl": "icons/player_map/mini_squad.png",
        "iconrotate": "0",
        "popupContent": "Amazing information about Temporary spawnpoint will be found here!"
      },
      "bf2props": {
        "name": "cpname_sahel_insurgency64_opformain_rally5",
        "class": "ObjectSpawner",
        "name_object": "Temporary spawnpoint",
        "team": "1",
        "obj1": "rallypoint_arf_placeable",
        "obj2": "null",
        "maxspawn": "12000.0",
        "minspawn": "12000.0",
        "spawndelay": "false",
        "ttl": "600.0",
        "cpid": "1"
      }
    },
    {
      "type": "Feature",
      "geometry": {
        "type": "Point",
        "coordinates": [647.421, -1590.104],
        "size": [16, 16]
      },
      "properties": {
        "iconurl": "icons/player_map/mini_squad.png",
        "iconrotate": "0",
        "popupContent": "Amazing information about Temporary spawnpoint will be found here!"
      },
      "bf2props": {
        "name": "cpname_sahel_insurgency64_opformain_rally6",
        "class": "ObjectSpawner",
        "name_object": "Temporary spawnpoint",
        "team": "1",
        "obj1": "rallypoint_arf_placeable",
        "obj2": "null",
        "maxspawn": "12000.0",
        "minspawn": "12000.0",
        "spawndelay": "false",
        "ttl": "600.0",
        "cpid": "1"
      }
    },
    {
      "type": "Feature",
      "geometry": {
        "type": "Point",
        "coordinates": [1500.138, -1606.129],
        "size": [16, 16]
      },
      "properties": {
        "iconurl": "icons/player_map/mini_squad.png",
        "iconrotate": "0",
        "popupContent": "Amazing information about Temporary spawnpoint will be found here!"
      },
      "bf2props": {
        "name": "cpname_sahel_insurgency64_opformain_rally7",
        "class": "ObjectSpawner",
        "name_object": "Temporary spawnpoint",
        "team": "1",
        "obj1": "rallypoint_arf_placeable",
        "obj2": "null",
        "maxspawn": "12000.0",
        "minspawn": "12000.0",
        "spawndelay": "false",
        "ttl": "600.0",
        "cpid": "1"
      }
    },
    {
      "type": "Feature",
      "geometry": {
        "type": "Point",
        "coordinates": [804.261, -1258.335],
        "size": [16, 16]
      },
      "properties": {
        "iconurl": "icons/player_map/mini_squad.png",
        "iconrotate": "0",
        "popupContent": "Amazing information about Temporary spawnpoint will be found here!"
      },
      "bf2props": {
        "name": "cpname_sahel_insurgency64_opformain_rally8",
        "class": "ObjectSpawner",
        "name_object": "Temporary spawnpoint",
        "team": "1",
        "obj1": "rallypoint_arf_placeable",
        "obj2": "null",
        "maxspawn": "12000.0",
        "minspawn": "12000.0",
        "spawndelay": "false",
        "ttl": "600.0",
        "cpid": "1"
      }
    },
    {
      "type": "Feature",
      "geometry": {
        "type": "Point",
        "coordinates": [213.92902, -1965.4719],
        "size": [16, 16]
      },
      "properties": {
        "iconurl": "icons/vehicles_map/mini_the_medium.png",
        "iconrotate": "-45.0",
        "popupContent": "Amazing information about null will be found here!"
      },
      "bf2props": {
        "name": "cpname_sahel_insurgency64_blueformain_heli",
        "class": "ObjectSpawner",
        "name_object": "NH90 TTH",
        "team": "2",
        "obj1": "null",
        "obj2": "fr_the_nh90",
        "maxspawn": "600.0",
        "minspawn": "600.0",
        "spawndelay": "false",
        "ttl": "99999.0",
        "cpid": "2"
      }
    },
    {
      "type": "Feature",
      "geometry": {
        "type": "Point",
        "coordinates": [232.91699, -1959.939],
        "size": [16, 16]
      },
      "properties": {
        "iconurl": "icons/mini_map/uavtrailer.png",
        "iconrotate": "0",
        "popupContent": "Amazing information about null will be found here!"
      },
      "bf2props": {
        "name": "fr_acv",
        "class": "ObjectSpawner",
        "name_object": "UAV Terminal",
        "team": "2",
        "obj1": "null",
        "obj2": "fr_acv_vab",
        "maxspawn": "10.0",
        "minspawn": "10.0",
        "spawndelay": "false",
        "ttl": "99999.0",
        "cpid": "2"
      }
    },
    {
      "type": "Feature",
      "geometry": {
        "type": "Point",
        "coordinates": [1953.548, -72.41803],
        "size": [16, 16]
      },
      "properties": {
        "iconurl": "icons/mini_map/uavtrailer.png",
        "iconrotate": "0",
        "popupContent": "Amazing information about UAV Terminal will be found here!"
      },
      "bf2props": {
        "name": "arf_acv",
        "class": "ObjectSpawner",
        "name_object": "UAV Terminal",
        "team": "1",
        "obj1": "arf_acv_technical",
        "obj2": "null",
        "maxspawn": "10.0",
        "minspawn": "10.0",
        "spawndelay": "false",
        "ttl": "99999.0",
        "cpid": "1"
      }
    },
    {
      "type": "Feature",
      "geometry": {
        "type": "Point",
        "coordinates": [1987.5911, -63.0],
        "size": [16, 16]
      },
      "properties": {
        "iconurl": "icons/vehicles_map/mini_tank_medium.png",
        "iconrotate": "-90.0",
        "popupContent": "Amazing information about T-62 will be found here!"
      },
      "bf2props": {
        "name": "cpname_sahel_insurgency64_opformain_opfor_tnk2",
        "class": "ObjectSpawner",
        "name_object": "T-62",
        "team": "1",
        "obj1": "mil_tnk_t62",
        "obj2": "null",
        "maxspawn": "1080.0",
        "minspawn": "1080.0",
        "spawndelay": "true",
        "ttl": "99999.0",
        "cpid": "1"
      }
    },
    {
      "type": "Feature",
      "geometry": {
        "type": "Point",
        "coordinates": [214.60602, -1991.6421],
        "size": [16, 16]
      },
      "properties": {
        "iconurl": "icons/vehicles_map/mini_ahe_light.png",
        "iconrotate": "-45.0",
        "popupContent": "Amazing information about null will be found here!"
      },
      "bf2props": {
        "name": "cpname_sahel_insurgency64_blueformain_cas",
        "class": "ObjectSpawner",
        "name_object": "SA-342 Gazelle",
        "team": "2",
        "obj1": "null",
        "obj2": "fr_ahe_sa342",
        "maxspawn": "1200.0",
        "minspawn": "1200.0",
        "spawndelay": "true",
        "ttl": "99999.0",
        "cpid": "2"
      }
    },
    {
      "type": "Feature",
      "geometry": {
        "type": "Point",
        "coordinates": [1728.119, -118.093994],
        "size": [33, 33],
        "radius": "0.0"
      },
      "properties": {
        "iconurl": "icons/flags_map/neutral/minimap_cpbase.png",
        "iconrotate": "0",
        "popupContent": "Amazing information about ARF Main will be found here!"
      },
      "bf2props": {
        "name": "cpname_sahel_insurgency64_opformain",
        "class": "ControlPoint",
        "name_object": "ARF Main",
        "team": "1",
        "areavalue1": "0.0",
        "areavalue2": "0.0",
        "cpid": "1",
        "sgid": "1",
        "uncap": "true",
        "ttgc": "0.0",
        "ttlc": "0.0"
      }
    },
    {
      "type": "Feature",
      "geometry": {
        "type": "Point",
        "coordinates": [183.27899, -1866.446],
        "size": [33, 33],
        "radius": "0.0"
      },
      "properties": {
        "iconurl": "icons/flags_map/fr/minimap_cpbase.png",
        "iconrotate": "0",
        "popupContent": "Amazing information about FR Outpost will be found here!"
      },
      "bf2props": {
        "name": "cpname_sahel_insurgency64_blueformain",
        "class": "ControlPoint",
        "name_object": "FR Outpost",
        "team": "2",
        "areavalue1": "0.0",
        "areavalue2": "0.0",
        "cpid": "2",
        "sgid": "2",
        "uncap": "true",
        "ttgc": "0.0",
        "ttlc": "0.0"
      }
    },
    {
      "type": "Feature",
      "geometry": {
        "type": "Polygon",
        "coordinates": [
          [
            [0,0],
            [0,-2048],
            [2048,-2048],
            [2048,0]
          ],[
            [5.719055, -2017.1536],
            [31.159363, -2031.1923],
            [186.60693, -2042.8545],
            [2036.8375, -2033.4495],
            [2037.4685, -337.1488],
            [2040.6722, -59.912964],
            [2033.3258, -15.991333],
            [2020.9137, -5.6099854],
            [1911.1794, -7.6868896],
            [1792.3147, -7.026367],
            [1737.2115, -16.702026],
            [1704.5884, -7.9735107],
            [1581.3762, -8.742065],
            [1427.9274, -2.8189697],
            [1197.8983, -2.9368896],
            [16.173767, -17.592651]
          ]
        ]
      },
      "bf2props": {
        "code": "combatarea_14_default",
        "class": "CombatArea",
        "team": "0",
        "vehicles": "4",
        "layer": "1",
        "inverted": "false",
        "max": [0.0, 0.0],
        "min": [0.0, 0.0]
      }
    },
    {
      "type": "Feature",
      "geometry": {
        "type": "Polygon",
        "coordinates": [
          [
            [6.1777344, -2040.469],
            [187.63776, -2044.711],
            [665.23254, -2042.8947],
            [656.3283, -1970.742],
            [638.2135, -1897.6437],
            [666.1822, -1855.639],
            [640.8361, -1821.2177],
            [525.57635, -1746.1196],
            [450.39124, -1679.9131],
            [345.67786, -1641.2527],
            [225.44427, -1647.4207],
            [108.012695, -1606.7993],
            [8.003662, -1575.7538]
          ]
        ]
      },
      "bf2props": {
        "code": "combatarea_16_default",
        "class": "CombatArea",
        "team": "1",
        "vehicles": "4",
        "layer": "1",
        "inverted": "true",
        "max": [0.0, 0.0],
        "min": [0.0, 0.0]
      }
    },
    {
      "type": "Feature",
      "geometry": {
        "type": "Polygon",
        "coordinates": [
          [
            [2039.1862, -13.991089],
            [2021.3494, -3.7438965],
            [1695.4266, -5.262451],
            [1720.0571, -82.40198],
            [1775.1664, -383.31494],
            [1804.1887, -414.85632],
            [2041.4077, -421.2389]
          ]
        ]
      },
      "bf2props": {
        "code": "combatarea_29_default",
        "class": "CombatArea",
        "team": "2",
        "vehicles": "4",
        "layer": "1",
        "inverted": "true",
        "max": [0.0, 0.0],
        "min": [0.0, 0.0]
      }
    }
  ]
}