{
  "team1":"arf",
  "team2":"fr",
  "team1tickets":"600",
  "team2tickets":"600",
  "mapsize":"2048",
  "viewdistance":"650",
  "combatareause":"true",
  "combatareadamage":"20.0",
  "combatareaallowoutside":"10.0",
  "routes": [
    [
      [
        "cpname_sahel_skirmish32_arfmain"
      ],
      [
        "cpname_sahel_skirmish32_outpost_east",
        "cpname_sahel_skirmish32_outpost_west",
        "cpname_sahel_skirmish32_outpost_north"
      ],
      [
        "cpname_sahel_skirmish32_frmain"
      ]
    ]
  ],
  "type": "FeatureCollection",
  "features": [
    {
      "type": "Feature",
      "geometry": {
        "type": "Point",
        "coordinates": [1795.932, -598.487],
        "size": [16, 16]
      },
      "properties": {
        "iconurl": "icons/spotted_map/icon_objectivespotted.png",
        "iconrotate": "-85.4",
        "popupContent": "Amazing information about Weapon Cache will be found here!"
      },
      "bf2props": {
        "name": "cpname_sahel_skirmish32_arfmain_crate",
        "class": "ObjectSpawner",
        "name_object": "Weapon Cache",
        "team": "1",
        "obj1": "ammocache",
        "obj2": "null",
        "maxspawn": "10.0",
        "minspawn": "10.0",
        "spawndelay": "false",
        "ttl": "12000.0",
        "cpid": "1"
      }
    },
    {
      "type": "Feature",
      "geometry": {
        "type": "Point",
        "coordinates": [1244.797, -277.601],
        "size": [16, 16]
      },
      "properties": {
        "iconurl": "icons/spotted_map/icon_objectivespotted.png",
        "iconrotate": "0.0",
        "popupContent": "Amazing information about Weapon Cache will be found here!"
      },
      "bf2props": {
        "name": "cpname_sahel_skirmish32_outpost_north_crate",
        "class": "ObjectSpawner",
        "name_object": "Weapon Cache",
        "team": "1",
        "obj1": "ammocache",
        "obj2": "fixed_supply_crate_fr",
        "maxspawn": "1.0",
        "minspawn": "1.0",
        "spawndelay": "false",
        "ttl": "12000.0",
        "cpid": "4"
      }
    },
    {
      "type": "Feature",
      "geometry": {
        "type": "Point",
        "coordinates": [1235.7319, -375.628],
        "size": [16, 16]
      },
      "properties": {
        "iconurl": "icons/spotted_map/icon_objectivespotted.png",
        "iconrotate": "0.0",
        "popupContent": "Amazing information about Weapon Cache will be found here!"
      },
      "bf2props": {
        "name": "cpname_sahel_skirmish32_outpost_west_crate",
        "class": "ObjectSpawner",
        "name_object": "Weapon Cache",
        "team": "1",
        "obj1": "ammocache",
        "obj2": "fixed_supply_crate_fr",
        "maxspawn": "1.0",
        "minspawn": "1.0",
        "spawndelay": "false",
        "ttl": "12000.0",
        "cpid": "3"
      }
    },
    {
      "type": "Feature",
      "geometry": {
        "type": "Point",
        "coordinates": [1368.395, -355.174],
        "size": [16, 16]
      },
      "properties": {
        "iconurl": "icons/spotted_map/icon_objectivespotted.png",
        "iconrotate": "0.0",
        "popupContent": "Amazing information about Weapon Cache will be found here!"
      },
      "bf2props": {
        "name": "cpname_sahel_skirmish32_outpost_east_crate",
        "class": "ObjectSpawner",
        "name_object": "Weapon Cache",
        "team": "1",
        "obj1": "ammocache",
        "obj2": "fixed_supply_crate_fr",
        "maxspawn": "1.0",
        "minspawn": "1.0",
        "spawndelay": "false",
        "ttl": "12000.0",
        "cpid": "2"
      }
    },
    {
      "type": "Feature",
      "geometry": {
        "type": "Point",
        "coordinates": [1249.064, -262.328],
        "size": [16, 16]
      },
      "properties": {
        "iconurl": "icons/player_map/mini_squad.png",
        "iconrotate": "0",
        "popupContent": "Amazing information about null will be found here!"
      },
      "bf2props": {
        "name": "cpname_sahel_skirmish32_outpost_rally",
        "class": "ObjectSpawner",
        "name_object": "Temporary spawnpoint",
        "team": "2",
        "obj1": "null",
        "obj2": "rallypoint_fr_placeable",
        "maxspawn": "12000.0",
        "minspawn": "12000.0",
        "spawndelay": "false",
        "ttl": "600.0",
        "cpid": "4"
      }
    },
    {
      "type": "Feature",
      "geometry": {
        "type": "Point",
        "coordinates": [1794.286, -602.26404],
        "size": [16, 16]
      },
      "properties": {
        "iconurl": "icons/mini_map/uavtrailer.png",
        "iconrotate": "0",
        "popupContent": "Amazing information about UAV Terminal will be found here!"
      },
      "bf2props": {
        "name": "cpname_sahel_skirmish32_arfmain_veh1",
        "class": "ObjectSpawner",
        "name_object": "UAV Terminal",
        "team": "1",
        "obj1": "arf_acv_technical",
        "obj2": "null",
        "maxspawn": "10.0",
        "minspawn": "10.0",
        "spawndelay": "false",
        "ttl": "12000.0",
        "cpid": "1"
      }
    },
    {
      "type": "Feature",
      "geometry": {
        "type": "Point",
        "coordinates": [1789.894, -587.245],
        "size": [33, 33],
        "radius": "0.0"
      },
      "properties": {
        "iconurl": "icons/flags_map/neutral/minimap_cpbase.png",
        "iconrotate": "0",
        "popupContent": "Amazing information about ARF Main will be found here!"
      },
      "bf2props": {
        "name": "cpname_sahel_skirmish32_arfmain",
        "class": "ControlPoint",
        "name_object": "ARF Main",
        "team": "1",
        "areavalue1": "0.0",
        "areavalue2": "0.0",
        "cpid": "1",
        "sgid": "1",
        "uncap": "true",
        "ttgc": "0.0",
        "ttlc": "0.0"
      }
    },
    {
      "type": "Feature",
      "geometry": {
        "type": "Point",
        "coordinates": [1377.737, -342.893],
        "size": [33, 33],
        "radius": "55.0"
      },
      "properties": {
        "iconurl": "icons/flags_map/fr/minimap_cp.png",
        "iconrotate": "0",
        "popupContent": "Amazing information about Outpost East 55m will be found here!"
      },
      "bf2props": {
        "name": "cpname_sahel_skirmish32_outpost_east",
        "class": "ControlPoint",
        "name_object": "Outpost East 55m",
        "team": "2",
        "areavalue1": "40.0",
        "areavalue2": "0.0",
        "cpid": "2",
        "sgid": "2",
        "uncap": "false",
        "ttgc": "120.0",
        "ttlc": "120.0"
      }
    },
    {
      "type": "Feature",
      "geometry": {
        "type": "Point",
        "coordinates": [1239.422, -373.29797],
        "size": [33, 33],
        "radius": "70.0"
      },
      "properties": {
        "iconurl": "icons/flags_map/fr/minimap_cp.png",
        "iconrotate": "0",
        "popupContent": "Amazing information about Outpost West 70m will be found here!"
      },
      "bf2props": {
        "name": "cpname_sahel_skirmish32_outpost_west",
        "class": "ControlPoint",
        "name_object": "Outpost West 70m",
        "team": "2",
        "areavalue1": "40.0",
        "areavalue2": "0.0",
        "cpid": "3",
        "sgid": "2",
        "uncap": "false",
        "ttgc": "120.0",
        "ttlc": "120.0"
      }
    },
    {
      "type": "Feature",
      "geometry": {
        "type": "Point",
        "coordinates": [1286.361, -255.08502],
        "size": [33, 33],
        "radius": "55.0"
      },
      "properties": {
        "iconurl": "icons/flags_map/fr/minimap_cp.png",
        "iconrotate": "0",
        "popupContent": "Amazing information about Outpost North 55m will be found here!"
      },
      "bf2props": {
        "name": "cpname_sahel_skirmish32_outpost_north",
        "class": "ControlPoint",
        "name_object": "Outpost North 55m",
        "team": "2",
        "areavalue1": "40.0",
        "areavalue2": "0.0",
        "cpid": "4",
        "sgid": "2",
        "uncap": "false",
        "ttgc": "120.0",
        "ttlc": "120.0"
      }
    },
    {
      "type": "Feature",
      "geometry": {
        "type": "Point",
        "coordinates": [864.86597, -598.722],
        "size": [33, 33],
        "radius": "0.0"
      },
      "properties": {
        "iconurl": "icons/flags_map/fr/minimap_cpbase.png",
        "iconrotate": "0",
        "popupContent": "Amazing information about FR Outpost will be found here!"
      },
      "bf2props": {
        "name": "cpname_sahel_skirmish32_frmain",
        "class": "ControlPoint",
        "name_object": "FR Outpost",
        "team": "2",
        "areavalue1": "0.0",
        "areavalue2": "0.0",
        "cpid": "5",
        "sgid": "-999",
        "uncap": "true",
        "ttgc": "0.0",
        "ttlc": "0.0"
      }
    },
    {
      "type": "Feature",
      "geometry": {
        "type": "Polygon",
        "coordinates": [
          [
            [0,0],
            [0,-2048],
            [2048,-2048],
            [2048,0]
          ],[
            [1780.757, -189.00012],
            [1746.3086, -154.96045],
            [1664.2395, -131.14197],
            [1459.7526, -108.85376],
            [1156.4071, -115.672485],
            [1116.934, -239.60535],
            [891.697, -330.4911],
            [798.51886, -430.3142],
            [802.80273, -655.2937],
            [917.8463, -755.6891],
            [1063.3721, -849.2992],
            [1158.3013, -712.9852],
            [1226.1101, -632.9574],
            [1323.4865, -575.44775],
            [1367.5208, -578.2472],
            [1468.131, -671.4623],
            [1766.2823, -747.0845],
            [1841.097, -592.07556]
          ]
        ]
      },
      "bf2props": {
        "code": "combatarea_30_default",
        "class": "CombatArea",
        "team": "0",
        "vehicles": "4",
        "layer": "1",
        "inverted": "false",
        "max": [0.0, 0.0],
        "min": [0.0, 0.0]
      }
    },
    {
      "type": "Feature",
      "geometry": {
        "type": "Polygon",
        "coordinates": [
          [
            [1459.7694, -109.11243],
            [1450.6279, -177.20544],
            [1458.7119, -215.0686],
            [1434.9375, -282.48206],
            [1430.4114, -382.099],
            [1421.1812, -411.8175],
            [1401.153, -436.83105],
            [1367.018, -524.8823],
            [1323.2922, -577.64417],
            [1365.0037, -585.57007],
            [1465.8916, -674.8994],
            [1767.8182, -751.87256],
            [1844.598, -594.1941],
            [1783.0902, -187.12598],
            [1747.677, -151.33643],
            [1666.0955, -128.6897]
          ]
        ]
      },
      "bf2props": {
        "code": "combatarea_18_default",
        "class": "CombatArea",
        "team": "2",
        "vehicles": "4",
        "layer": "1",
        "inverted": "true",
        "max": [0.0, 0.0],
        "min": [0.0, 0.0]
      }
    },
    {
      "type": "Feature",
      "geometry": {
        "type": "Polygon",
        "coordinates": [
          [
            [1290.0089, -594.78186],
            [1260.416, -528.9774],
            [1213.0671, -467.02612],
            [1147.3866, -410.1848],
            [1135.7054, -299.77112],
            [1114.8575, -237.61499],
            [888.2536, -328.71997],
            [795.1166, -428.11084],
            [800.7463, -657.9641],
            [1064.1064, -852.29956]
          ]
        ]
      },
      "bf2props": {
        "code": "combatarea_34_default",
        "class": "CombatArea",
        "team": "1",
        "vehicles": "4",
        "layer": "1",
        "inverted": "true",
        "max": [0.0, 0.0],
        "min": [0.0, 0.0]
      }
    }
  ]
}