{
  "team1":"chinsurgent",
  "team2":"ru",
  "team1tickets":"500",
  "team2tickets":"500",
  "mapsize":"2048",
  "viewdistance":"500",
  "combatareause":"true",
  "combatareadamage":"20.0",
  "combatareaallowoutside":"30.0",
  "routes": [
    [
      [
        "cpname_iron_ridge_skirmish32_forest"
      ],
      [
        "cpname_iron_ridge_skirmish32_vasily",
        "cpname_iron_ridge_skirmish32_vasily_2"
      ],
      [
        "cpname_iron_ridge_skirmish32_leonid",
        "cpname_iron_ridge_skirmish32_leonid_2",
        "cpname_iron_ridge_skirmish32_leonid_3"
      ],
      [
        "cpname_iron_ridge_skirmish32_olga",
        "cpname_iron_ridge_skirmish32_olga_2",
        "cpname_iron_ridge_skirmish32_olga_3"
      ],
      [
        "cpname_iron_ridge_skirmish32_pavel",
        "cpname_iron_ridge_skirmish32_pavel_2"
      ],
      [
        "cpname_iron_ridge_skirmish32_road"
      ]
    ]
  ],
  "type": "FeatureCollection",
  "features": [
    {
      "type": "Feature",
      "geometry": {
        "type": "Point",
        "coordinates": [146.0, -705.0],
        "size": [16, 16]
      },
      "properties": {
        "iconurl": "icons/mini_map/icon_supply.png",
        "iconrotate": "0",
        "popupContent": "Amazing information about Permanent supply crate will be found here!"
      },
      "bf2props": {
        "name": "cpname_iron_ridge_skirmish32_forest_cr",
        "class": "ObjectSpawner",
        "name_object": "Permanent supply crate | Permanent supply crate",
        "team": "1",
        "obj1": "fixed_supply_crate",
        "obj2": "fixed_supply_crate",
        "maxspawn": "0.0",
        "minspawn": "0.0",
        "spawndelay": "false",
        "ttl": "0.0",
        "cpid": "1301"
      }
    },
    {
      "type": "Feature",
      "geometry": {
        "type": "Point",
        "coordinates": [138.0, -684.0],
        "size": [16, 16]
      },
      "properties": {
        "iconurl": "icons/mini_map/uavtrailer.png",
        "iconrotate": "0",
        "popupContent": "Amazing information about UAV Terminal will be found here!"
      },
      "bf2props": {
        "name": "cpname_iron_ridge_skirmish32_forest_acv",
        "class": "ObjectSpawner",
        "name_object": "UAV Terminal",
        "team": "1",
        "obj1": "mil_acv_technical",
        "obj2": "null",
        "maxspawn": "0.0",
        "minspawn": "0.0",
        "spawndelay": "false",
        "ttl": "0.0",
        "cpid": "1301"
      }
    },
    {
      "type": "Feature",
      "geometry": {
        "type": "Point",
        "coordinates": [259.917, -822.291],
        "size": [16, 16]
      },
      "properties": {
        "iconurl": "icons/mini_map/icon_supply.png",
        "iconrotate": "0",
        "popupContent": "Amazing information about Permanent supply crate will be found here!"
      },
      "bf2props": {
        "name": "cpname_iron_ridge_skirmish32_vasily_2_cr",
        "class": "ObjectSpawner",
        "name_object": "Permanent supply crate | Permanent supply crate",
        "team": "0",
        "obj1": "fixed_supply_crate",
        "obj2": "fixed_supply_crate",
        "maxspawn": "0.0",
        "minspawn": "0.0",
        "spawndelay": "false",
        "ttl": "0.0",
        "cpid": "1303"
      }
    },
    {
      "type": "Feature",
      "geometry": {
        "type": "Point",
        "coordinates": [200.34198, -853.437],
        "size": [16, 16]
      },
      "properties": {
        "iconurl": "icons/mini_map/icon_supply.png",
        "iconrotate": "0",
        "popupContent": "Amazing information about Permanent supply crate will be found here!"
      },
      "bf2props": {
        "name": "cpname_iron_ridge_skirmish32_vasily_cr",
        "class": "ObjectSpawner",
        "name_object": "Permanent supply crate | Permanent supply crate",
        "team": "0",
        "obj1": "fixed_supply_crate",
        "obj2": "fixed_supply_crate",
        "maxspawn": "0.0",
        "minspawn": "0.0",
        "spawndelay": "false",
        "ttl": "0.0",
        "cpid": "1302"
      }
    },
    {
      "type": "Feature",
      "geometry": {
        "type": "Point",
        "coordinates": [288.0, -956.0],
        "size": [16, 16]
      },
      "properties": {
        "iconurl": "icons/mini_map/icon_supply.png",
        "iconrotate": "0",
        "popupContent": "Amazing information about Permanent supply crate will be found here!"
      },
      "bf2props": {
        "name": "cpname_iron_ridge_skirmish32_leonid_2_cr",
        "class": "ObjectSpawner",
        "name_object": "Permanent supply crate | Permanent supply crate",
        "team": "0",
        "obj1": "fixed_supply_crate",
        "obj2": "fixed_supply_crate",
        "maxspawn": "0.0",
        "minspawn": "0.0",
        "spawndelay": "false",
        "ttl": "0.0",
        "cpid": "1305"
      }
    },
    {
      "type": "Feature",
      "geometry": {
        "type": "Point",
        "coordinates": [374.0, -945.0],
        "size": [16, 16]
      },
      "properties": {
        "iconurl": "icons/mini_map/icon_supply.png",
        "iconrotate": "0",
        "popupContent": "Amazing information about Permanent supply crate will be found here!"
      },
      "bf2props": {
        "name": "cpname_iron_ridge_skirmish32_leonid_3_cr",
        "class": "ObjectSpawner",
        "name_object": "Permanent supply crate | Permanent supply crate",
        "team": "0",
        "obj1": "fixed_supply_crate",
        "obj2": "fixed_supply_crate",
        "maxspawn": "0.0",
        "minspawn": "0.0",
        "spawndelay": "false",
        "ttl": "0.0",
        "cpid": "1306"
      }
    },
    {
      "type": "Feature",
      "geometry": {
        "type": "Point",
        "coordinates": [240.0, -1004.0],
        "size": [16, 16]
      },
      "properties": {
        "iconurl": "icons/mini_map/icon_supply.png",
        "iconrotate": "0",
        "popupContent": "Amazing information about Permanent supply crate will be found here!"
      },
      "bf2props": {
        "name": "cpname_iron_ridge_skirmish32_leonid_cr",
        "class": "ObjectSpawner",
        "name_object": "Permanent supply crate | Permanent supply crate",
        "team": "0",
        "obj1": "fixed_supply_crate",
        "obj2": "fixed_supply_crate",
        "maxspawn": "0.0",
        "minspawn": "0.0",
        "spawndelay": "false",
        "ttl": "0.0",
        "cpid": "1304"
      }
    },
    {
      "type": "Feature",
      "geometry": {
        "type": "Point",
        "coordinates": [268.0, -1133.0],
        "size": [16, 16]
      },
      "properties": {
        "iconurl": "icons/mini_map/icon_supply.png",
        "iconrotate": "0",
        "popupContent": "Amazing information about Permanent supply crate will be found here!"
      },
      "bf2props": {
        "name": "cpname_iron_ridge_skirmish32_olga_3_cr",
        "class": "ObjectSpawner",
        "name_object": "Permanent supply crate | Permanent supply crate",
        "team": "0",
        "obj1": "fixed_supply_crate",
        "obj2": "fixed_supply_crate",
        "maxspawn": "0.0",
        "minspawn": "0.0",
        "spawndelay": "false",
        "ttl": "0.0",
        "cpid": "1309"
      }
    },
    {
      "type": "Feature",
      "geometry": {
        "type": "Point",
        "coordinates": [364.0, -1071.0],
        "size": [16, 16]
      },
      "properties": {
        "iconurl": "icons/mini_map/icon_supply.png",
        "iconrotate": "0",
        "popupContent": "Amazing information about Permanent supply crate will be found here!"
      },
      "bf2props": {
        "name": "cpname_iron_ridge_skirmish32_olga_2_cr",
        "class": "ObjectSpawner",
        "name_object": "Permanent supply crate | Permanent supply crate",
        "team": "0",
        "obj1": "fixed_supply_crate",
        "obj2": "fixed_supply_crate",
        "maxspawn": "0.0",
        "minspawn": "0.0",
        "spawndelay": "false",
        "ttl": "0.0",
        "cpid": "1308"
      }
    },
    {
      "type": "Feature",
      "geometry": {
        "type": "Point",
        "coordinates": [404.0, -1055.0],
        "size": [16, 16]
      },
      "properties": {
        "iconurl": "icons/mini_map/icon_supply.png",
        "iconrotate": "0",
        "popupContent": "Amazing information about Permanent supply crate will be found here!"
      },
      "bf2props": {
        "name": "cpname_iron_ridge_skirmish32_olga_cr",
        "class": "ObjectSpawner",
        "name_object": "Permanent supply crate | Permanent supply crate",
        "team": "0",
        "obj1": "fixed_supply_crate",
        "obj2": "fixed_supply_crate",
        "maxspawn": "0.0",
        "minspawn": "0.0",
        "spawndelay": "false",
        "ttl": "0.0",
        "cpid": "1307"
      }
    },
    {
      "type": "Feature",
      "geometry": {
        "type": "Point",
        "coordinates": [436.0, -1147.0],
        "size": [16, 16]
      },
      "properties": {
        "iconurl": "icons/mini_map/icon_supply.png",
        "iconrotate": "0",
        "popupContent": "Amazing information about Permanent supply crate will be found here!"
      },
      "bf2props": {
        "name": "cpname_iron_ridge_skirmish32_pavel_2_cr",
        "class": "ObjectSpawner",
        "name_object": "Permanent supply crate | Permanent supply crate",
        "team": "0",
        "obj1": "fixed_supply_crate",
        "obj2": "fixed_supply_crate",
        "maxspawn": "0.0",
        "minspawn": "0.0",
        "spawndelay": "false",
        "ttl": "0.0",
        "cpid": "1311"
      }
    },
    {
      "type": "Feature",
      "geometry": {
        "type": "Point",
        "coordinates": [398.0, -1172.0],
        "size": [16, 16]
      },
      "properties": {
        "iconurl": "icons/mini_map/icon_supply.png",
        "iconrotate": "0",
        "popupContent": "Amazing information about Permanent supply crate will be found here!"
      },
      "bf2props": {
        "name": "cpname_iron_ridge_skirmish32_pavel_cr",
        "class": "ObjectSpawner",
        "name_object": "Permanent supply crate | Permanent supply crate",
        "team": "0",
        "obj1": "fixed_supply_crate",
        "obj2": "fixed_supply_crate",
        "maxspawn": "0.0",
        "minspawn": "0.0",
        "spawndelay": "false",
        "ttl": "0.0",
        "cpid": "1310"
      }
    },
    {
      "type": "Feature",
      "geometry": {
        "type": "Point",
        "coordinates": [469.0, -1297.0],
        "size": [16, 16]
      },
      "properties": {
        "iconurl": "icons/mini_map/icon_supply.png",
        "iconrotate": "0",
        "popupContent": "Amazing information about Permanent supply crate will be found here!"
      },
      "bf2props": {
        "name": "cpname_iron_ridge_skirmish32_road_cr",
        "class": "ObjectSpawner",
        "name_object": "Permanent supply crate | Permanent supply crate",
        "team": "2",
        "obj1": "fixed_supply_crate",
        "obj2": "fixed_supply_crate",
        "maxspawn": "0.0",
        "minspawn": "0.0",
        "spawndelay": "false",
        "ttl": "0.0",
        "cpid": "1312"
      }
    },
    {
      "type": "Feature",
      "geometry": {
        "type": "Point",
        "coordinates": [431.0, -1315.0],
        "size": [16, 16]
      },
      "properties": {
        "iconurl": "icons/mini_map/uavtrailer.png",
        "iconrotate": "0",
        "popupContent": "Amazing information about null will be found here!"
      },
      "bf2props": {
        "name": "cpname_iron_ridge_skirmish32_road_acv",
        "class": "ObjectSpawner",
        "name_object": "UAV Terminal",
        "team": "2",
        "obj1": "null",
        "obj2": "ru_acv_btr60pu",
        "maxspawn": "0.0",
        "minspawn": "0.0",
        "spawndelay": "false",
        "ttl": "0.0",
        "cpid": "1312"
      }
    },
    {
      "type": "Feature",
      "geometry": {
        "type": "Point",
        "coordinates": [176.0, -711.0],
        "size": [33, 33],
        "radius": "0.0"
      },
      "properties": {
        "iconurl": "icons/flags_map/chinsurgent/minimap_cpbase.png",
        "iconrotate": "0",
        "popupContent": "Amazing information about Forest will be found here!"
      },
      "bf2props": {
        "name": "cpname_iron_ridge_skirmish32_forest",
        "class": "ControlPoint",
        "name_object": "Forest",
        "team": "1",
        "areavalue1": "0.0",
        "areavalue2": "0.0",
        "cpid": "1301",
        "sgid": "1",
        "uncap": "true",
        "ttgc": "0.0",
        "ttlc": "0.0"
      }
    },
    {
      "type": "Feature",
      "geometry": {
        "type": "Point",
        "coordinates": [202.0, -854.0],
        "size": [33, 33],
        "radius": "40.0"
      },
      "properties": {
        "iconurl": "icons/flags_map/neutral/minimap_cp.png",
        "iconrotate": "0",
        "popupContent": "Amazing information about Vasily 40m will be found here!"
      },
      "bf2props": {
        "name": "cpname_iron_ridge_skirmish32_vasily",
        "class": "ControlPoint",
        "name_object": "Vasily 40m",
        "team": "0",
        "areavalue1": "0.0",
        "areavalue2": "1000.0",
        "cpid": "1302",
        "sgid": "21",
        "uncap": "false",
        "ttgc": "90.0",
        "ttlc": "90.0"
      }
    },
    {
      "type": "Feature",
      "geometry": {
        "type": "Point",
        "coordinates": [276.0, -820.0],
        "size": [33, 33],
        "radius": "40.0"
      },
      "properties": {
        "iconurl": "icons/flags_map/neutral/minimap_cp.png",
        "iconrotate": "0",
        "popupContent": "Amazing information about Vasily 40m will be found here!"
      },
      "bf2props": {
        "name": "cpname_iron_ridge_skirmish32_vasily_2",
        "class": "ControlPoint",
        "name_object": "Vasily 40m",
        "team": "0",
        "areavalue1": "0.0",
        "areavalue2": "1000.0",
        "cpid": "1303",
        "sgid": "21",
        "uncap": "false",
        "ttgc": "90.0",
        "ttlc": "90.0"
      }
    },
    {
      "type": "Feature",
      "geometry": {
        "type": "Point",
        "coordinates": [234.0, -994.0],
        "size": [33, 33],
        "radius": "25.0"
      },
      "properties": {
        "iconurl": "icons/flags_map/neutral/minimap_cp.png",
        "iconrotate": "0",
        "popupContent": "Amazing information about Leonid 25m will be found here!"
      },
      "bf2props": {
        "name": "cpname_iron_ridge_skirmish32_leonid",
        "class": "ControlPoint",
        "name_object": "Leonid 25m",
        "team": "0",
        "areavalue1": "0.0",
        "areavalue2": "0.0",
        "cpid": "1304",
        "sgid": "31",
        "uncap": "false",
        "ttgc": "90.0",
        "ttlc": "90.0"
      }
    },
    {
      "type": "Feature",
      "geometry": {
        "type": "Point",
        "coordinates": [305.0, -958.0],
        "size": [33, 33],
        "radius": "20.0"
      },
      "properties": {
        "iconurl": "icons/flags_map/neutral/minimap_cp.png",
        "iconrotate": "0",
        "popupContent": "Amazing information about Leonid 20m will be found here!"
      },
      "bf2props": {
        "name": "cpname_iron_ridge_skirmish32_leonid_2",
        "class": "ControlPoint",
        "name_object": "Leonid 20m",
        "team": "0",
        "areavalue1": "0.0",
        "areavalue2": "0.0",
        "cpid": "1305",
        "sgid": "31",
        "uncap": "false",
        "ttgc": "90.0",
        "ttlc": "90.0"
      }
    },
    {
      "type": "Feature",
      "geometry": {
        "type": "Point",
        "coordinates": [385.0, -926.0],
        "size": [33, 33],
        "radius": "30.0"
      },
      "properties": {
        "iconurl": "icons/flags_map/neutral/minimap_cp.png",
        "iconrotate": "0",
        "popupContent": "Amazing information about Leonid 30m will be found here!"
      },
      "bf2props": {
        "name": "cpname_iron_ridge_skirmish32_leonid_3",
        "class": "ControlPoint",
        "name_object": "Leonid 30m",
        "team": "0",
        "areavalue1": "0.0",
        "areavalue2": "0.0",
        "cpid": "1306",
        "sgid": "31",
        "uncap": "false",
        "ttgc": "90.0",
        "ttlc": "90.0"
      }
    },
    {
      "type": "Feature",
      "geometry": {
        "type": "Point",
        "coordinates": [414.0, -1028.0],
        "size": [33, 33],
        "radius": "35.0"
      },
      "properties": {
        "iconurl": "icons/flags_map/neutral/minimap_cp.png",
        "iconrotate": "0",
        "popupContent": "Amazing information about Olga 35m will be found here!"
      },
      "bf2props": {
        "name": "cpname_iron_ridge_skirmish32_olga",
        "class": "ControlPoint",
        "name_object": "Olga 35m",
        "team": "0",
        "areavalue1": "0.0",
        "areavalue2": "0.0",
        "cpid": "1307",
        "sgid": "41",
        "uncap": "false",
        "ttgc": "90.0",
        "ttlc": "90.0"
      }
    },
    {
      "type": "Feature",
      "geometry": {
        "type": "Point",
        "coordinates": [363.0, -1057.0],
        "size": [33, 33],
        "radius": "30.0"
      },
      "properties": {
        "iconurl": "icons/flags_map/neutral/minimap_cp.png",
        "iconrotate": "0",
        "popupContent": "Amazing information about Olga 30m will be found here!"
      },
      "bf2props": {
        "name": "cpname_iron_ridge_skirmish32_olga_2",
        "class": "ControlPoint",
        "name_object": "Olga 30m",
        "team": "0",
        "areavalue1": "0.0",
        "areavalue2": "0.0",
        "cpid": "1308",
        "sgid": "41",
        "uncap": "false",
        "ttgc": "90.0",
        "ttlc": "90.0"
      }
    },
    {
      "type": "Feature",
      "geometry": {
        "type": "Point",
        "coordinates": [277.0, -1112.0],
        "size": [33, 33],
        "radius": "45.0"
      },
      "properties": {
        "iconurl": "icons/flags_map/neutral/minimap_cp.png",
        "iconrotate": "0",
        "popupContent": "Amazing information about Olga 45m will be found here!"
      },
      "bf2props": {
        "name": "cpname_iron_ridge_skirmish32_olga_3",
        "class": "ControlPoint",
        "name_object": "Olga 45m",
        "team": "0",
        "areavalue1": "0.0",
        "areavalue2": "0.0",
        "cpid": "1309",
        "sgid": "41",
        "uncap": "false",
        "ttgc": "90.0",
        "ttlc": "90.0"
      }
    },
    {
      "type": "Feature",
      "geometry": {
        "type": "Point",
        "coordinates": [388.0, -1158.0],
        "size": [33, 33],
        "radius": "35.0"
      },
      "properties": {
        "iconurl": "icons/flags_map/neutral/minimap_cp.png",
        "iconrotate": "0",
        "popupContent": "Amazing information about Pavel 35m will be found here!"
      },
      "bf2props": {
        "name": "cpname_iron_ridge_skirmish32_pavel",
        "class": "ControlPoint",
        "name_object": "Pavel 35m",
        "team": "0",
        "areavalue1": "1000.0",
        "areavalue2": "0.0",
        "cpid": "1310",
        "sgid": "51",
        "uncap": "false",
        "ttgc": "90.0",
        "ttlc": "90.0"
      }
    },
    {
      "type": "Feature",
      "geometry": {
        "type": "Point",
        "coordinates": [448.0, -1126.0],
        "size": [33, 33],
        "radius": "35.0"
      },
      "properties": {
        "iconurl": "icons/flags_map/neutral/minimap_cp.png",
        "iconrotate": "0",
        "popupContent": "Amazing information about Pavel 35m will be found here!"
      },
      "bf2props": {
        "name": "cpname_iron_ridge_skirmish32_pavel_2",
        "class": "ControlPoint",
        "name_object": "Pavel 35m",
        "team": "0",
        "areavalue1": "1000.0",
        "areavalue2": "0.0",
        "cpid": "1311",
        "sgid": "51",
        "uncap": "false",
        "ttgc": "90.0",
        "ttlc": "90.0"
      }
    },
    {
      "type": "Feature",
      "geometry": {
        "type": "Point",
        "coordinates": [467.0, -1274.0],
        "size": [33, 33],
        "radius": "0.0"
      },
      "properties": {
        "iconurl": "icons/flags_map/ru/minimap_cpbase.png",
        "iconrotate": "0",
        "popupContent": "Amazing information about Road will be found here!"
      },
      "bf2props": {
        "name": "cpname_iron_ridge_skirmish32_road",
        "class": "ControlPoint",
        "name_object": "Road",
        "team": "2",
        "areavalue1": "0.0",
        "areavalue2": "0.0",
        "cpid": "1312",
        "sgid": "-999",
        "uncap": "true",
        "ttgc": "0.0",
        "ttlc": "0.0"
      }
    },
    {
      "type": "Feature",
      "geometry": {
        "type": "Polygon",
        "coordinates": [
          [
            [0,0],
            [0,-2048],
            [2048,-2048],
            [2048,0]
          ],[
            [566.2414, -1237.7921],
            [484.84735, -1074.3494],
            [500.91858, -1005.81287],
            [460.9972, -910.5565],
            [432.62018, -843.33386],
            [366.734, -746.85364],
            [190.92126, -612.9075],
            [100.395996, -647.20276],
            [137.38776, -834.0166],
            [166.29175, -971.7313],
            [201.10376, -1126.2549],
            [237.28375, -1208.3763],
            [312.73322, -1259.737],
            [388.04767, -1315.1924],
            [496.4585, -1347.7982]
          ]
        ]
      },
      "bf2props": {
        "code": "combatarea_0_skm32",
        "class": "CombatArea",
        "team": "0",
        "vehicles": "4",
        "layer": "14",
        "inverted": "false",
        "max": [0.0, 0.0],
        "min": [0.0, 0.0]
      }
    },
    {
      "type": "Feature",
      "geometry": {
        "type": "Polygon",
        "coordinates": [
          [
            [133.40234, -832.76465],
            [281.06445, -764.5016],
            [368.14417, -746.10767],
            [191.24573, -615.69446],
            [103.57117, -648.963]
          ]
        ]
      },
      "bf2props": {
        "code": "combatarea_15_skm32",
        "class": "CombatArea",
        "team": "2",
        "vehicles": "4",
        "layer": "14",
        "inverted": "true",
        "max": [0.0, 0.0],
        "min": [0.0, 0.0]
      }
    },
    {
      "type": "Feature",
      "geometry": {
        "type": "Polygon",
        "coordinates": [
          [
            [495.56055, -1345.4913],
            [564.40485, -1237.643],
            [516.6737, -1131.4475],
            [426.6764, -1183.0629],
            [295.96375, -1249.3967],
            [388.22485, -1313.7957]
          ]
        ]
      },
      "bf2props": {
        "code": "combatarea_20_skm32",
        "class": "CombatArea",
        "team": "1",
        "vehicles": "4",
        "layer": "14",
        "inverted": "true",
        "max": [0.0, 0.0],
        "min": [0.0, 0.0]
      }
    }
  ]
}