[
  "gpm_skirmish_16",
  "gpm_skirmish_32",
  "gpm_skirmish_64",
  "gpm_cq_16",
  "gpm_cq_32",
  "gpm_cq_64",
  "gpm_cq_128",
  "gpm_insurgency_16",
  "gpm_insurgency_64",
  "gpm_cnc_16",
  "gpm_cnc_32",
  "gpm_cnc_64",
  "gpm_coop_64"
]