{
  "team1":"ru",
  "team2":"gb",
  "team1tickets":"200",
  "team2tickets":"200",
  "mapsize":"4096",
  "viewdistance":"1500",
  "combatareause":"true",
  "combatareadamage":"20.0",
  "combatareaallowoutside":"30.0",
  "routes": [
    [
      [
        "cpname_operation_soul_rebel_vehicles64_montegobay",
        "cpname_operation_soul_rebel_vehicles64_cuba"
      ],
      [
        "cpname_operation_soul_rebel_vehicles64_cap_east",
        "cpname_operation_soul_rebel_vehicles64_cap_west"
      ],
      [
        "cpname_operation_soul_rebel_vehicles64_hmsillustrious",
        "cpname_operation_soul_rebel_vehicles64_kingston"
      ]
    ]
  ],
  "type": "FeatureCollection",
  "features": [
    {
      "type": "Feature",
      "geometry": {
        "type": "Point",
        "coordinates": [3630.033, -3696.177],
        "size": [16, 16]
      },
      "properties": {
        "iconurl": "icons/vehicles_map/mini_jet_attack_light.png",
        "iconrotate": "-166.89",
        "popupContent": "Amazing information about null will be found here!"
      },
      "bf2props": {
        "name": "cpname_operation_soul_rebel_vehicles64_hmsillustrious_gb_jet_attack_0",
        "class": "ObjectSpawner",
        "name_object": "Harrier GR.9 ASF",
        "team": "2",
        "obj1": "null",
        "obj2": "gb_jet_harrier_gr9_asf",
        "maxspawn": "30.0",
        "minspawn": "0.0",
        "spawndelay": "true",
        "maxnr": "8",
        "ttl": "300.0",
        "cpid": "501"
      }
    },
    {
      "type": "Feature",
      "geometry": {
        "type": "Point",
        "coordinates": [3472.755, -3771.3188],
        "size": [16, 16]
      },
      "properties": {
        "iconurl": "icons/vehicles_map/mini_jet_attack_light.png",
        "iconrotate": "129.381",
        "popupContent": "Amazing information about null will be found here!"
      },
      "bf2props": {
        "name": "cpname_operation_soul_rebel_vehicles64_hmsillustrious_gb_jet_attack_1",
        "class": "ObjectSpawner",
        "name_object": "Harrier GR.9",
        "team": "2",
        "obj1": "null",
        "obj2": "gb_jet_harrier",
        "maxspawn": "30.0",
        "minspawn": "0.0",
        "spawndelay": "true",
        "maxnr": "8",
        "ttl": "300.0",
        "cpid": "501"
      }
    },
    {
      "type": "Feature",
      "geometry": {
        "type": "Point",
        "coordinates": [3456.062, -3779.3198],
        "size": [16, 16]
      },
      "properties": {
        "iconurl": "icons/vehicles_map/mini_jet_attack_light.png",
        "iconrotate": "114.97",
        "popupContent": "Amazing information about null will be found here!"
      },
      "bf2props": {
        "name": "cpname_operation_soul_rebel_vehicles64_hmsillustrious_gb_jet_attack_2",
        "class": "ObjectSpawner",
        "name_object": "Harrier GR.9",
        "team": "2",
        "obj1": "null",
        "obj2": "gb_jet_harrier",
        "maxspawn": "30.0",
        "minspawn": "0.0",
        "spawndelay": "true",
        "maxnr": "8",
        "ttl": "300.0",
        "cpid": "501"
      }
    },
    {
      "type": "Feature",
      "geometry": {
        "type": "Point",
        "coordinates": [3416.921, -3795.415],
        "size": [16, 16]
      },
      "properties": {
        "iconurl": "icons/vehicles_map/mini_the_light.png",
        "iconrotate": "95.944",
        "popupContent": "Amazing information about null will be found here!"
      },
      "bf2props": {
        "name": "cpname_operation_soul_rebel_vehicles64_hmsillustrious_gb_heli_trans_light_1",
        "class": "ObjectSpawner",
        "name_object": "Lynx AH.7",
        "team": "2",
        "obj1": "null",
        "obj2": "gb_the_lynx_l7a2_alt",
        "maxspawn": "0.0",
        "minspawn": "60.0",
        "spawndelay": "false",
        "maxnr": "3",
        "ttl": "1200.0",
        "cpid": "501"
      }
    },
    {
      "type": "Feature",
      "geometry": {
        "type": "Point",
        "coordinates": [1976.345, -197.20605],
        "size": [16, 16]
      },
      "properties": {
        "iconurl": "icons/vehicles_map/mini_jet_strikefighter.png",
        "iconrotate": "0.0",
        "popupContent": "Amazing information about MiG-29S Fulcrum ASF will be found here!"
      },
      "bf2props": {
        "name": "cpname_operation_soul_rebel_vehicles64_cuba_ru_jet_fighter_0",
        "class": "ObjectSpawner",
        "name_object": "MiG-29S Fulcrum ASF",
        "team": "1",
        "obj1": "ru_jet_mig29_asf",
        "obj2": "null",
        "maxspawn": "30.0",
        "minspawn": "0.0",
        "spawndelay": "false",
        "maxnr": "8",
        "ttl": "300.0",
        "cpid": "506"
      }
    },
    {
      "type": "Feature",
      "geometry": {
        "type": "Point",
        "coordinates": [1940.796, -195.19604],
        "size": [16, 16]
      },
      "properties": {
        "iconurl": "icons/vehicles_map/mini_jet_strikefighter.png",
        "iconrotate": "0.0",
        "popupContent": "Amazing information about MiG-21MF Fishbed will be found here!"
      },
      "bf2props": {
        "name": "cpname_operation_soul_rebel_vehicles64_cuba_ru_jet_attack_0",
        "class": "ObjectSpawner",
        "name_object": "MiG-21MF Fishbed",
        "team": "1",
        "obj1": "ru_jet_mig21",
        "obj2": "null",
        "maxspawn": "30.0",
        "minspawn": "0.0",
        "spawndelay": "false",
        "maxnr": "8",
        "ttl": "300.0",
        "cpid": "506"
      }
    },
    {
      "type": "Feature",
      "geometry": {
        "type": "Point",
        "coordinates": [1905.977, -195.28198],
        "size": [16, 16]
      },
      "properties": {
        "iconurl": "icons/vehicles_map/mini_jet_strikefighter.png",
        "iconrotate": "0.0",
        "popupContent": "Amazing information about MiG-21MF Fishbed will be found here!"
      },
      "bf2props": {
        "name": "cpname_operation_soul_rebel_vehicles64_cuba_ru_jet_attack_1",
        "class": "ObjectSpawner",
        "name_object": "MiG-21MF Fishbed",
        "team": "1",
        "obj1": "ru_jet_mig21",
        "obj2": "null",
        "maxspawn": "30.0",
        "minspawn": "0.0",
        "spawndelay": "false",
        "maxnr": "8",
        "ttl": "300.0",
        "cpid": "506"
      }
    },
    {
      "type": "Feature",
      "geometry": {
        "type": "Point",
        "coordinates": [2141.726, -184.10498],
        "size": [16, 16]
      },
      "properties": {
        "iconurl": "icons/vehicles_map/mini_the_medium.png",
        "iconrotate": "177.098",
        "popupContent": "Amazing information about Mi-8MT Hip-C will be found here!"
      },
      "bf2props": {
        "name": "cpname_operation_soul_rebel_vehicles64_cuba_ru_heli_trans_med_2",
        "class": "ObjectSpawner",
        "name_object": "Mi-8MT Hip-C",
        "team": "1",
        "obj1": "ru_the_mi8",
        "obj2": "null",
        "maxspawn": "0.0",
        "minspawn": "60.0",
        "spawndelay": "false",
        "maxnr": "3",
        "ttl": "1200.0",
        "cpid": "506"
      }
    },
    {
      "type": "Feature",
      "geometry": {
        "type": "Point",
        "coordinates": [3528.0898, -3752.425],
        "size": [16, 16]
      },
      "properties": {
        "iconurl": "",
        "iconrotate": "-26.0",
        "popupContent": "Amazing information about null will be found here!"
      },
      "bf2props": {
        "name": "cpname_operation_soul_rebel_vehicles64_hmsillustrious_atc",
        "class": "ObjectSpawner",
        "name_object": "gb_carrier_illustrious",
        "team": "2",
        "obj1": "null",
        "obj2": "gb_carrier_illustrious",
        "maxspawn": "0.0",
        "minspawn": "0.0",
        "spawndelay": "false",
        "ttl": "0.0",
        "cpid": "501"
      }
    },
    {
      "type": "Feature",
      "geometry": {
        "type": "Point",
        "coordinates": [3615.022, -3700.266],
        "size": [16, 16]
      },
      "properties": {
        "iconurl": "icons/vehicles_map/mini_jet_attack_light.png",
        "iconrotate": "179.765",
        "popupContent": "Amazing information about null will be found here!"
      },
      "bf2props": {
        "name": "cpname_operation_soul_rebel_vehicles64_hmsillustrious_gb_jet_fighter",
        "class": "ObjectSpawner",
        "name_object": "Harrier GR.9 ASF",
        "team": "2",
        "obj1": "null",
        "obj2": "gb_jet_harrier_gr9_asf",
        "maxspawn": "30.0",
        "minspawn": "0.0",
        "spawndelay": "true",
        "maxnr": "8",
        "ttl": "300.0",
        "cpid": "501"
      }
    },
    {
      "type": "Feature",
      "geometry": {
        "type": "Point",
        "coordinates": [3600.263, -3707.1],
        "size": [16, 16]
      },
      "properties": {
        "iconurl": "icons/vehicles_map/mini_jet_attack_light.png",
        "iconrotate": "170.282",
        "popupContent": "Amazing information about null will be found here!"
      },
      "bf2props": {
        "name": "cpname_operation_soul_rebel_vehicles64_hmsillustrious_gb_jet_fighter_0",
        "class": "ObjectSpawner",
        "name_object": "Harrier GR.9 ASF",
        "team": "2",
        "obj1": "null",
        "obj2": "gb_jet_harrier_gr9_asf",
        "maxspawn": "30.0",
        "minspawn": "0.0",
        "spawndelay": "true",
        "maxnr": "8",
        "ttl": "300.0",
        "cpid": "501"
      }
    },
    {
      "type": "Feature",
      "geometry": {
        "type": "Point",
        "coordinates": [3586.766, -3713.124],
        "size": [16, 16]
      },
      "properties": {
        "iconurl": "icons/vehicles_map/mini_jet_attack_light.png",
        "iconrotate": "164.189",
        "popupContent": "Amazing information about null will be found here!"
      },
      "bf2props": {
        "name": "cpname_operation_soul_rebel_vehicles64_hmsillustrious_gb_jet_fighter_1",
        "class": "ObjectSpawner",
        "name_object": "Harrier GR.9 ASF",
        "team": "2",
        "obj1": "null",
        "obj2": "gb_jet_harrier_gr9_asf",
        "maxspawn": "30.0",
        "minspawn": "0.0",
        "spawndelay": "true",
        "maxnr": "8",
        "ttl": "300.0",
        "cpid": "501"
      }
    },
    {
      "type": "Feature",
      "geometry": {
        "type": "Point",
        "coordinates": [2026.126, -194.06702],
        "size": [16, 16]
      },
      "properties": {
        "iconurl": "icons/vehicles_map/mini_jet_strikefighter.png",
        "iconrotate": "0.0",
        "popupContent": "Amazing information about MiG-21MF Fishbed will be found here!"
      },
      "bf2props": {
        "name": "cpname_operation_soul_rebel_vehicles64_cuba_ru_jet_fighter",
        "class": "ObjectSpawner",
        "name_object": "MiG-21MF Fishbed",
        "team": "1",
        "obj1": "ru_jet_mig21",
        "obj2": "null",
        "maxspawn": "30.0",
        "minspawn": "0.0",
        "spawndelay": "false",
        "maxnr": "8",
        "ttl": "300.0",
        "cpid": "506"
      }
    },
    {
      "type": "Feature",
      "geometry": {
        "type": "Point",
        "coordinates": [2006.075, -194.89197],
        "size": [16, 16]
      },
      "properties": {
        "iconurl": "icons/vehicles_map/mini_jet_strikefighter.png",
        "iconrotate": "0.0",
        "popupContent": "Amazing information about MiG-29S Fulcrum ASF will be found here!"
      },
      "bf2props": {
        "name": "cpname_operation_soul_rebel_vehicles64_cuba_ru_jet_fighter_1",
        "class": "ObjectSpawner",
        "name_object": "MiG-29S Fulcrum ASF",
        "team": "1",
        "obj1": "ru_jet_mig29_asf",
        "obj2": "null",
        "maxspawn": "30.0",
        "minspawn": "0.0",
        "spawndelay": "false",
        "maxnr": "8",
        "ttl": "300.0",
        "cpid": "506"
      }
    },
    {
      "type": "Feature",
      "geometry": {
        "type": "Point",
        "coordinates": [2045.99, -194.69604],
        "size": [16, 16]
      },
      "properties": {
        "iconurl": "icons/vehicles_map/mini_jet_strikefighter.png",
        "iconrotate": "0.0",
        "popupContent": "Amazing information about MiG-29S Fulcrum ASF will be found here!"
      },
      "bf2props": {
        "name": "cpname_operation_soul_rebel_vehicles64_cuba_ru_jet_fighter_2",
        "class": "ObjectSpawner",
        "name_object": "MiG-29S Fulcrum ASF",
        "team": "1",
        "obj1": "ru_jet_mig29_asf",
        "obj2": "null",
        "maxspawn": "30.0",
        "minspawn": "0.0",
        "spawndelay": "false",
        "maxnr": "8",
        "ttl": "300.0",
        "cpid": "506"
      }
    },
    {
      "type": "Feature",
      "geometry": {
        "type": "Point",
        "coordinates": [2524.406, -2321.607],
        "size": [16, 16]
      },
      "properties": {
        "iconurl": "icons/mini_map/repairdepot.png",
        "iconrotate": "0",
        "popupContent": "Amazing information about null will be found here!"
      },
      "bf2props": {
        "name": "cpname_operation_soul_rebel_vehicles64_kingston_vehicle_depo",
        "class": "ObjectSpawner",
        "name_object": "Vehicle Depot",
        "team": "2",
        "obj1": "null",
        "obj2": "vehicle_depot_gb",
        "maxspawn": "0.0",
        "minspawn": "0.0",
        "spawndelay": "false",
        "ttl": "0.0",
        "cpid": "502"
      }
    },
    {
      "type": "Feature",
      "geometry": {
        "type": "Point",
        "coordinates": [2495.151, -2306.506],
        "size": [16, 16]
      },
      "properties": {
        "iconurl": "icons/vehicles_map/mini_adv_medium.png",
        "iconrotate": "90.144",
        "popupContent": "Amazing information about null will be found here!"
      },
      "bf2props": {
        "name": "cpname_operation_soul_rebel_vehicles64_kingston_gb_aav",
        "class": "ObjectSpawner",
        "name_object": "Stormer HVM",
        "team": "2",
        "obj1": "null",
        "obj2": "gb_aav_stormer",
        "maxspawn": "300.0",
        "minspawn": "300.0",
        "spawndelay": "false",
        "maxnr": "2",
        "ttl": "12000.0",
        "cpid": "502"
      }
    },
    {
      "type": "Feature",
      "geometry": {
        "type": "Point",
        "coordinates": [2519.587, -2316.278],
        "size": [16, 16]
      },
      "properties": {
        "iconurl": "icons/vehicles_map/mini_adv_medium.png",
        "iconrotate": "-126.212",
        "popupContent": "Amazing information about null will be found here!"
      },
      "bf2props": {
        "name": "cpname_operation_soul_rebel_vehicles64_kingston_gb_aav_0",
        "class": "ObjectSpawner",
        "name_object": "Stormer HVM",
        "team": "2",
        "obj1": "null",
        "obj2": "gb_aav_stormer",
        "maxspawn": "300.0",
        "minspawn": "300.0",
        "spawndelay": "false",
        "maxnr": "2",
        "ttl": "12000.0",
        "cpid": "502"
      }
    },
    {
      "type": "Feature",
      "geometry": {
        "type": "Point",
        "coordinates": [1478.235, -1872.196],
        "size": [16, 16]
      },
      "properties": {
        "iconurl": "icons/mini_map/repairdepot.png",
        "iconrotate": "0",
        "popupContent": "Amazing information about Vehicle Depot will be found here!"
      },
      "bf2props": {
        "name": "cpname_operation_soul_rebel_vehicles64_montegobay_vehicle_depo",
        "class": "ObjectSpawner",
        "name_object": "Vehicle Depot",
        "team": "1",
        "obj1": "vehicle_depot_ru",
        "obj2": "null",
        "maxspawn": "0.0",
        "minspawn": "0.0",
        "spawndelay": "false",
        "ttl": "0.0",
        "cpid": "505"
      }
    },
    {
      "type": "Feature",
      "geometry": {
        "type": "Point",
        "coordinates": [1529.629, -1841.138],
        "size": [16, 16]
      },
      "properties": {
        "iconurl": "icons/vehicles_map/mini_adv_medium.png",
        "iconrotate": "0.0",
        "popupContent": "Amazing information about 9K35 Gopher will be found here!"
      },
      "bf2props": {
        "name": "cpname_operation_soul_rebel_vehicles64_montegobay_ru_aav",
        "class": "ObjectSpawner",
        "name_object": "9K35 Gopher",
        "team": "1",
        "obj1": "ru_aav_gopher",
        "obj2": "null",
        "maxspawn": "180.0",
        "minspawn": "180.0",
        "spawndelay": "false",
        "maxnr": "3",
        "ttl": "12000.0",
        "cpid": "505"
      }
    },
    {
      "type": "Feature",
      "geometry": {
        "type": "Point",
        "coordinates": [1504.8679, -1858.576],
        "size": [16, 16]
      },
      "properties": {
        "iconurl": "icons/vehicles_map/mini_adv_heavy.png",
        "iconrotate": "-90.0",
        "popupContent": "Amazing information about 9K22 Tunguska will be found here!"
      },
      "bf2props": {
        "name": "cpname_operation_soul_rebel_vehicles64_montegobay_ru_aav2",
        "class": "ObjectSpawner",
        "name_object": "9K22 Tunguska",
        "team": "1",
        "obj1": "ru_aav_tunguska",
        "obj2": "null",
        "maxspawn": "420.0",
        "minspawn": "420.0",
        "spawndelay": "false",
        "ttl": "12000.0",
        "cpid": "505"
      }
    },
    {
      "type": "Feature",
      "geometry": {
        "type": "Point",
        "coordinates": [3529.85, -3736.767],
        "size": [33, 33],
        "radius": "0.0"
      },
      "properties": {
        "iconurl": "icons/flags_map/gb/minimap_cpbase.png",
        "iconrotate": "0",
        "popupContent": "Amazing information about HMS Illustrious will be found here!"
      },
      "bf2props": {
        "name": "cpname_operation_soul_rebel_vehicles64_hmsillustrious",
        "class": "ControlPoint",
        "name_object": "HMS Illustrious",
        "team": "2",
        "areavalue1": "0.0",
        "areavalue2": "0.0",
        "cpid": "501",
        "sgid": "30",
        "uncap": "true",
        "ttgc": "0.0",
        "ttlc": "0.0"
      }
    },
    {
      "type": "Feature",
      "geometry": {
        "type": "Point",
        "coordinates": [2542.664, -2325.596],
        "size": [33, 33],
        "radius": "0.0"
      },
      "properties": {
        "iconurl": "icons/flags_map/gb/minimap_cpbase.png",
        "iconrotate": "0",
        "popupContent": "Amazing information about Kingston will be found here!"
      },
      "bf2props": {
        "name": "cpname_operation_soul_rebel_vehicles64_kingston",
        "class": "ControlPoint",
        "name_object": "Kingston",
        "team": "2",
        "areavalue1": "0.0",
        "areavalue2": "0.0",
        "cpid": "502",
        "sgid": "30",
        "uncap": "true",
        "ttgc": "0.0",
        "ttlc": "0.0"
      }
    },
    {
      "type": "Feature",
      "geometry": {
        "type": "Point",
        "coordinates": [3072.0, -2048.0],
        "size": [33, 33],
        "radius": "1000.0"
      },
      "properties": {
        "iconurl": "icons/flags_map/neutral/minimap_cp.png",
        "iconrotate": "0",
        "popupContent": "Amazing information about Combat Air Patrol East 1km will be found here!"
      },
      "bf2props": {
        "name": "cpname_operation_soul_rebel_vehicles64_cap_east",
        "class": "ControlPoint",
        "name_object": "Combat Air Patrol East 1km",
        "team": "0",
        "areavalue1": "100.0",
        "areavalue2": "100.0",
        "cpid": "503",
        "sgid": "20",
        "uncap": "false",
        "ttgc": "60.0",
        "ttlc": "45.0"
      }
    },
    {
      "type": "Feature",
      "geometry": {
        "type": "Point",
        "coordinates": [1024.0, -2048.0],
        "size": [33, 33],
        "radius": "1000.0"
      },
      "properties": {
        "iconurl": "icons/flags_map/neutral/minimap_cp.png",
        "iconrotate": "0",
        "popupContent": "Amazing information about Combat Air Patrol West 1km will be found here!"
      },
      "bf2props": {
        "name": "cpname_operation_soul_rebel_vehicles64_cap_west",
        "class": "ControlPoint",
        "name_object": "Combat Air Patrol West 1km",
        "team": "0",
        "areavalue1": "100.0",
        "areavalue2": "100.0",
        "cpid": "504",
        "sgid": "20",
        "uncap": "false",
        "ttgc": "45.0",
        "ttlc": "60.0"
      }
    },
    {
      "type": "Feature",
      "geometry": {
        "type": "Point",
        "coordinates": [1509.374, -1864.6431],
        "size": [33, 33],
        "radius": "0.0"
      },
      "properties": {
        "iconurl": "icons/flags_map/ru/minimap_cpbase.png",
        "iconrotate": "0",
        "popupContent": "Amazing information about Montego Bay will be found here!"
      },
      "bf2props": {
        "name": "cpname_operation_soul_rebel_vehicles64_montegobay",
        "class": "ControlPoint",
        "name_object": "Montego Bay",
        "team": "1",
        "areavalue1": "0.0",
        "areavalue2": "0.0",
        "cpid": "505",
        "sgid": "10",
        "uncap": "true",
        "ttgc": "0.0",
        "ttlc": "0.0"
      }
    },
    {
      "type": "Feature",
      "geometry": {
        "type": "Point",
        "coordinates": [2110.301, -129.16199],
        "size": [33, 33],
        "radius": "0.0"
      },
      "properties": {
        "iconurl": "icons/flags_map/ru/minimap_cpbase.png",
        "iconrotate": "0",
        "popupContent": "Amazing information about Sierra Maestra Airport will be found here!"
      },
      "bf2props": {
        "name": "cpname_operation_soul_rebel_vehicles64_cuba",
        "class": "ControlPoint",
        "name_object": "Sierra Maestra Airport",
        "team": "1",
        "areavalue1": "0.0",
        "areavalue2": "0.0",
        "cpid": "506",
        "sgid": "10",
        "uncap": "true",
        "ttgc": "0.0",
        "ttlc": "0.0"
      }
    },
    {
      "type": "Feature",
      "geometry": {
        "type": "Polygon",
        "coordinates": [
          [
            [0,0],
            [0,-4096],
            [4096,-4096],
            [4096,0]
          ],[
            [4096.0, -4096.0],
            [4096.0, 0.0],
            [0.0, 0.0],
            [0.0, -4096.0]
          ]
        ]
      },
      "bf2props": {
        "code": "combatarea_0_vw64",
        "class": "CombatArea",
        "team": "0",
        "vehicles": "4",
        "layer": "6",
        "inverted": "false",
        "max": [0.0, 0.0],
        "min": [0.0, 0.0]
      }
    }
  ]
}