{
  "team1":"ru",
  "team2":"gb",
  "team1tickets":"500",
  "team2tickets":"500",
  "mapsize":"4096",
  "viewdistance":"1000",
  "combatareause":"true",
  "combatareadamage":"20.0",
  "combatareaallowoutside":"10.0",
  "routes": [
    [
      [
        "cpname_operation_soul_rebel_coop64_cuba"
      ],
      [
        "cpname_operation_soul_rebel_coop64_frome"
      ],
      [
        "cpname_operation_soul_rebel_coop64_montegobay"
      ],
      [
        "cpname_operation_soul_rebel_coop64_lacovia"
      ],
      [
        "cpname_operation_soul_rebel_coop64_alva"
      ],
      [
        "cpname_operation_soul_rebel_coop64_maypen"
      ],
      [
        "cpname_operation_soul_rebel_coop64_kingston"
      ],
      [
        "cpname_operation_soul_rebel_coop64_follybay"
      ],
      [
        "cpname_operation_soul_rebel_coop64_hmsillustrious"
      ]
    ]
  ],
  "type": "FeatureCollection",
  "features": [
    {
      "type": "Feature",
      "geometry": {
        "type": "Point",
        "coordinates": [3628.083, -3697.114],
        "size": [16, 16]
      },
      "properties": {
        "iconurl": "icons/vehicles_map/mini_jet_attack_light.png",
        "iconrotate": "-166.89",
        "popupContent": "Amazing information about null will be found here!"
      },
      "bf2props": {
        "name": "cpname_operation_soul_rebel_coop64_hmsillustrious_gb_jet_attack_0",
        "class": "ObjectSpawner",
        "name_object": "Harrier GR.9 ASF",
        "team": "2",
        "obj1": "null",
        "obj2": "gb_jet_harrier_gr9_asf",
        "maxspawn": "600.0",
        "minspawn": "600.0",
        "spawndelay": "true",
        "ttl": "300.0",
        "cpid": "201"
      }
    },
    {
      "type": "Feature",
      "geometry": {
        "type": "Point",
        "coordinates": [3611.5479, -3702.6401],
        "size": [16, 16]
      },
      "properties": {
        "iconurl": "icons/vehicles_map/mini_jet_attack_light.png",
        "iconrotate": "173.946",
        "popupContent": "Amazing information about null will be found here!"
      },
      "bf2props": {
        "name": "cpname_operation_soul_rebel_coop64_hmsillustrious_gb_jet_attack_1",
        "class": "ObjectSpawner",
        "name_object": "Harrier GR.9",
        "team": "2",
        "obj1": "null",
        "obj2": "gb_jet_harrier",
        "maxspawn": "600.0",
        "minspawn": "600.0",
        "spawndelay": "true",
        "ttl": "300.0",
        "cpid": "201"
      }
    },
    {
      "type": "Feature",
      "geometry": {
        "type": "Point",
        "coordinates": [3594.87, -3711.246],
        "size": [16, 16]
      },
      "properties": {
        "iconurl": "icons/vehicles_map/mini_jet_attack_light.png",
        "iconrotate": "164.425",
        "popupContent": "Amazing information about null will be found here!"
      },
      "bf2props": {
        "name": "cpname_operation_soul_rebel_coop64_hmsillustrious_gb_jet_attack_2",
        "class": "ObjectSpawner",
        "name_object": "Harrier GR.9",
        "team": "2",
        "obj1": "null",
        "obj2": "gb_jet_harrier",
        "maxspawn": "600.0",
        "minspawn": "600.0",
        "spawndelay": "true",
        "ttl": "300.0",
        "cpid": "201"
      }
    },
    {
      "type": "Feature",
      "geometry": {
        "type": "Point",
        "coordinates": [3413.4, -3797.0],
        "size": [16, 16]
      },
      "properties": {
        "iconurl": "icons/vehicles_map/mini_the_light.png",
        "iconrotate": "95.944",
        "popupContent": "Amazing information about null will be found here!"
      },
      "bf2props": {
        "name": "cpname_operation_soul_rebel_coop64_hmsillustrious_gb_heli_trans_light_1",
        "class": "ObjectSpawner",
        "name_object": "Lynx AH.7",
        "team": "2",
        "obj1": "null",
        "obj2": "gb_the_lynx_l7a2_alt",
        "maxspawn": "420.0",
        "minspawn": "420.0",
        "spawndelay": "false",
        "ttl": "1200.0",
        "cpid": "201"
      }
    },
    {
      "type": "Feature",
      "geometry": {
        "type": "Point",
        "coordinates": [3452.641, -3780.6592],
        "size": [16, 16]
      },
      "properties": {
        "iconurl": "icons/vehicles_map/mini_the_medium.png",
        "iconrotate": "127.588",
        "popupContent": "Amazing information about null will be found here!"
      },
      "bf2props": {
        "name": "cpname_operation_soul_rebel_coop64_hmsillustrious_gb_heli_trans_med_1",
        "class": "ObjectSpawner",
        "name_object": "Merlin HC3",
        "team": "2",
        "obj1": "null",
        "obj2": "gb_the_merlin",
        "maxspawn": "300.0",
        "minspawn": "300.0",
        "spawndelay": "false",
        "ttl": "1200.0",
        "cpid": "201"
      }
    },
    {
      "type": "Feature",
      "geometry": {
        "type": "Point",
        "coordinates": [3470.7769, -3770.525],
        "size": [16, 16]
      },
      "properties": {
        "iconurl": "icons/vehicles_map/mini_the_heavy_chinook.png",
        "iconrotate": "131.003",
        "popupContent": "Amazing information about null will be found here!"
      },
      "bf2props": {
        "name": "cpname_operation_soul_rebel_coop64_hmsillustrious_gb_heli_trans_heavy",
        "class": "ObjectSpawner",
        "name_object": "Chinook HC.4",
        "team": "2",
        "obj1": "null",
        "obj2": "gb_the_chinook",
        "maxspawn": "300.0",
        "minspawn": "300.0",
        "spawndelay": "false",
        "ttl": "1200.0",
        "cpid": "201"
      }
    },
    {
      "type": "Feature",
      "geometry": {
        "type": "Point",
        "coordinates": [3433.58, -3790.3198],
        "size": [16, 16]
      },
      "properties": {
        "iconurl": "icons/vehicles_map/mini_the_light.png",
        "iconrotate": "110.525",
        "popupContent": "Amazing information about null will be found here!"
      },
      "bf2props": {
        "name": "cpname_operation_soul_rebel_coop64_hmsillustrious_gb_heli_trans_light_0",
        "class": "ObjectSpawner",
        "name_object": "Lynx AH.7",
        "team": "2",
        "obj1": "null",
        "obj2": "gb_the_lynx_alt",
        "maxspawn": "420.0",
        "minspawn": "420.0",
        "spawndelay": "false",
        "ttl": "1200.0",
        "cpid": "201"
      }
    },
    {
      "type": "Feature",
      "geometry": {
        "type": "Point",
        "coordinates": [3574.934, -3707.1812],
        "size": [16, 16]
      },
      "properties": {
        "iconurl": "icons/vehicles_map/mini_shp_light.png",
        "iconrotate": "-118.179",
        "popupContent": "Amazing information about null will be found here!"
      },
      "bf2props": {
        "name": "cpname_operation_soul_rebel_coop64_hmsillustrious_gb_boat_0",
        "class": "ObjectSpawner",
        "name_object": "RHIB",
        "team": "2",
        "obj1": "null",
        "obj2": "boat_rib_gpmg_l7a2",
        "maxspawn": "180.0",
        "minspawn": "180.0",
        "spawndelay": "false",
        "maxnr": "3",
        "ttl": "300.0",
        "cpid": "201"
      }
    },
    {
      "type": "Feature",
      "geometry": {
        "type": "Point",
        "coordinates": [3629.469, -3725.324],
        "size": [16, 16]
      },
      "properties": {
        "iconurl": "icons/vehicles_map/mini_shp_light.png",
        "iconrotate": "-115.225",
        "popupContent": "Amazing information about null will be found here!"
      },
      "bf2props": {
        "name": "cpname_operation_soul_rebel_coop64_hmsillustrious_gb_boat_1",
        "class": "ObjectSpawner",
        "name_object": "RHIB",
        "team": "2",
        "obj1": "null",
        "obj2": "boat_rib_gpmg_l7a2",
        "maxspawn": "180.0",
        "minspawn": "180.0",
        "spawndelay": "false",
        "maxnr": "3",
        "ttl": "300.0",
        "cpid": "201"
      }
    },
    {
      "type": "Feature",
      "geometry": {
        "type": "Point",
        "coordinates": [3603.314, -3738.13],
        "size": [16, 16]
      },
      "properties": {
        "iconurl": "icons/vehicles_map/mini_shp_light.png",
        "iconrotate": "-115.85",
        "popupContent": "Amazing information about null will be found here!"
      },
      "bf2props": {
        "name": "cpname_operation_soul_rebel_coop64_hmsillustrious_gb_boat_2",
        "class": "ObjectSpawner",
        "name_object": "RHIB",
        "team": "2",
        "obj1": "null",
        "obj2": "boat_rib_gpmg_l7a2",
        "maxspawn": "180.0",
        "minspawn": "180.0",
        "spawndelay": "false",
        "maxnr": "3",
        "ttl": "300.0",
        "cpid": "201"
      }
    },
    {
      "type": "Feature",
      "geometry": {
        "type": "Point",
        "coordinates": [1976.345, -197.20605],
        "size": [16, 16]
      },
      "properties": {
        "iconurl": "icons/vehicles_map/mini_jet_strikefighter.png",
        "iconrotate": "0.0",
        "popupContent": "Amazing information about MiG-29S Fulcrum ASF will be found here!"
      },
      "bf2props": {
        "name": "cpname_operation_soul_rebel_coop64_cuba_ru_jet_fighter_0",
        "class": "ObjectSpawner",
        "name_object": "MiG-29S Fulcrum ASF",
        "team": "1",
        "obj1": "ru_jet_mig29_asf",
        "obj2": "null",
        "maxspawn": "600.0",
        "minspawn": "600.0",
        "spawndelay": "true",
        "ttl": "300.0",
        "cpid": "209"
      }
    },
    {
      "type": "Feature",
      "geometry": {
        "type": "Point",
        "coordinates": [1940.796, -195.19604],
        "size": [16, 16]
      },
      "properties": {
        "iconurl": "icons/vehicles_map/mini_jet_strikefighter.png",
        "iconrotate": "0.0",
        "popupContent": "Amazing information about MiG-21MF Fishbed will be found here!"
      },
      "bf2props": {
        "name": "cpname_operation_soul_rebel_coop64_cuba_ru_jet_attack_0",
        "class": "ObjectSpawner",
        "name_object": "MiG-21MF Fishbed",
        "team": "1",
        "obj1": "ru_jet_mig21",
        "obj2": "null",
        "maxspawn": "600.0",
        "minspawn": "600.0",
        "spawndelay": "true",
        "ttl": "300.0",
        "cpid": "209"
      }
    },
    {
      "type": "Feature",
      "geometry": {
        "type": "Point",
        "coordinates": [1905.977, -195.28198],
        "size": [16, 16]
      },
      "properties": {
        "iconurl": "icons/vehicles_map/mini_jet_strikefighter.png",
        "iconrotate": "0.0",
        "popupContent": "Amazing information about MiG-21MF Fishbed will be found here!"
      },
      "bf2props": {
        "name": "cpname_operation_soul_rebel_coop64_cuba_ru_jet_attack_1",
        "class": "ObjectSpawner",
        "name_object": "MiG-21MF Fishbed",
        "team": "1",
        "obj1": "ru_jet_mig21",
        "obj2": "null",
        "maxspawn": "600.0",
        "minspawn": "600.0",
        "spawndelay": "true",
        "ttl": "300.0",
        "cpid": "209"
      }
    },
    {
      "type": "Feature",
      "geometry": {
        "type": "Point",
        "coordinates": [2069.775, -184.61206],
        "size": [16, 16]
      },
      "properties": {
        "iconurl": "icons/vehicles_map/mini_the_medium.png",
        "iconrotate": "-172.144",
        "popupContent": "Amazing information about Mi-8MT Hip-C will be found here!"
      },
      "bf2props": {
        "name": "cpname_operation_soul_rebel_coop64_cuba_ru_heli_trans_med_0",
        "class": "ObjectSpawner",
        "name_object": "Mi-8MT Hip-C",
        "team": "1",
        "obj1": "ru_the_mi8",
        "obj2": "null",
        "maxspawn": "300.0",
        "minspawn": "300.0",
        "spawndelay": "false",
        "ttl": "1200.0",
        "cpid": "209"
      }
    },
    {
      "type": "Feature",
      "geometry": {
        "type": "Point",
        "coordinates": [2093.958, -185.73999],
        "size": [16, 16]
      },
      "properties": {
        "iconurl": "icons/vehicles_map/mini_the_medium.png",
        "iconrotate": "-175.773",
        "popupContent": "Amazing information about Mi-8MT Hip-C will be found here!"
      },
      "bf2props": {
        "name": "cpname_operation_soul_rebel_coop64_cuba_ru_heli_trans_med_1",
        "class": "ObjectSpawner",
        "name_object": "Mi-8MT Hip-C",
        "team": "1",
        "obj1": "ru_the_mi8",
        "obj2": "null",
        "maxspawn": "300.0",
        "minspawn": "300.0",
        "spawndelay": "false",
        "ttl": "1200.0",
        "cpid": "209"
      }
    },
    {
      "type": "Feature",
      "geometry": {
        "type": "Point",
        "coordinates": [2117.842, -184.82898],
        "size": [16, 16]
      },
      "properties": {
        "iconurl": "icons/vehicles_map/mini_the_medium.png",
        "iconrotate": "177.098",
        "popupContent": "Amazing information about Mi-8MT Hip-C will be found here!"
      },
      "bf2props": {
        "name": "cpname_operation_soul_rebel_coop64_cuba_ru_heli_trans_med_2",
        "class": "ObjectSpawner",
        "name_object": "Mi-8MT Hip-C",
        "team": "1",
        "obj1": "ru_the_mi8",
        "obj2": "null",
        "maxspawn": "300.0",
        "minspawn": "300.0",
        "spawndelay": "false",
        "ttl": "1200.0",
        "cpid": "209"
      }
    },
    {
      "type": "Feature",
      "geometry": {
        "type": "Point",
        "coordinates": [2141.856, -184.17004],
        "size": [16, 16]
      },
      "properties": {
        "iconurl": "icons/vehicles_map/mini_ahe_medium.png",
        "iconrotate": "-175.474",
        "popupContent": "Amazing information about Mi-24V Hind-E will be found here!"
      },
      "bf2props": {
        "name": "cpname_operation_soul_rebel_coop64_cuba_ru_heli_attack_light_0",
        "class": "ObjectSpawner",
        "name_object": "Mi-24V Hind-E",
        "team": "1",
        "obj1": "ru_ahe_mi24_light",
        "obj2": "null",
        "maxspawn": "600.0",
        "minspawn": "600.0",
        "spawndelay": "true",
        "ttl": "1200.0",
        "cpid": "209"
      }
    },
    {
      "type": "Feature",
      "geometry": {
        "type": "Point",
        "coordinates": [1761.08, -334.29102],
        "size": [16, 16]
      },
      "properties": {
        "iconurl": "icons/vehicles_map/mini_shp_light.png",
        "iconrotate": "-90.0",
        "popupContent": "Amazing information about RHIB will be found here!"
      },
      "bf2props": {
        "name": "cpname_operation_soul_rebel_coop64_cuba_ru_boat_0",
        "class": "ObjectSpawner",
        "name_object": "RHIB",
        "team": "1",
        "obj1": "boat_rib_gpmg_pkp",
        "obj2": "null",
        "maxspawn": "180.0",
        "minspawn": "180.0",
        "spawndelay": "false",
        "maxnr": "3",
        "ttl": "300.0",
        "cpid": "209"
      }
    },
    {
      "type": "Feature",
      "geometry": {
        "type": "Point",
        "coordinates": [1760.759, -344.943],
        "size": [16, 16]
      },
      "properties": {
        "iconurl": "icons/vehicles_map/mini_shp_light.png",
        "iconrotate": "-90.0",
        "popupContent": "Amazing information about RHIB will be found here!"
      },
      "bf2props": {
        "name": "cpname_operation_soul_rebel_coop64_cuba_ru_boat_1",
        "class": "ObjectSpawner",
        "name_object": "RHIB",
        "team": "1",
        "obj1": "boat_rib_gpmg_pkp",
        "obj2": "null",
        "maxspawn": "180.0",
        "minspawn": "180.0",
        "spawndelay": "false",
        "maxnr": "3",
        "ttl": "300.0",
        "cpid": "209"
      }
    },
    {
      "type": "Feature",
      "geometry": {
        "type": "Point",
        "coordinates": [1759.1741, -355.14404],
        "size": [16, 16]
      },
      "properties": {
        "iconurl": "icons/vehicles_map/mini_shp_light.png",
        "iconrotate": "-90.0",
        "popupContent": "Amazing information about RHIB will be found here!"
      },
      "bf2props": {
        "name": "cpname_operation_soul_rebel_coop64_cuba_ru_boat_2",
        "class": "ObjectSpawner",
        "name_object": "RHIB",
        "team": "1",
        "obj1": "boat_rib_gpmg_pkp",
        "obj2": "null",
        "maxspawn": "180.0",
        "minspawn": "180.0",
        "spawndelay": "false",
        "maxnr": "3",
        "ttl": "300.0",
        "cpid": "209"
      }
    },
    {
      "type": "Feature",
      "geometry": {
        "type": "Point",
        "coordinates": [3528.0898, -3752.425],
        "size": [16, 16]
      },
      "properties": {
        "iconurl": "",
        "iconrotate": "-26.0",
        "popupContent": "Amazing information about null will be found here!"
      },
      "bf2props": {
        "name": "cpname_operation_soul_rebel_coop64_hmsillustrious_atc",
        "class": "ObjectSpawner",
        "name_object": "gb_carrier_illustrious",
        "team": "2",
        "obj1": "null",
        "obj2": "gb_carrier_illustrious",
        "maxspawn": "0.0",
        "minspawn": "0.0",
        "spawndelay": "false",
        "ttl": "0.0",
        "cpid": "201"
      }
    },
    {
      "type": "Feature",
      "geometry": {
        "type": "Point",
        "coordinates": [2578.3179, -2388.294],
        "size": [16, 16]
      },
      "properties": {
        "iconurl": "icons/vehicles_map/mini_jep_light.png",
        "iconrotate": "-113.593",
        "popupContent": "Amazing information about null will be found here!"
      },
      "bf2props": {
        "name": "cpname_operation_soul_rebel_coop64_kingston_gb_jeep",
        "class": "ObjectSpawner",
        "name_object": "Land Rover",
        "team": "2",
        "obj1": "null",
        "obj2": "gb_jep_landrover",
        "maxspawn": "300.0",
        "minspawn": "300.0",
        "spawndelay": "false",
        "ttl": "12000.0",
        "cpid": "203"
      }
    },
    {
      "type": "Feature",
      "geometry": {
        "type": "Point",
        "coordinates": [2581.466, -2394.321],
        "size": [16, 16]
      },
      "properties": {
        "iconurl": "icons/vehicles_map/mini_jep_light.png",
        "iconrotate": "-54.988",
        "popupContent": "Amazing information about null will be found here!"
      },
      "bf2props": {
        "name": "cpname_operation_soul_rebel_coop64_kingston_gb_jeep_0",
        "class": "ObjectSpawner",
        "name_object": "Land Rover",
        "team": "2",
        "obj1": "null",
        "obj2": "gb_jep_landrover",
        "maxspawn": "300.0",
        "minspawn": "300.0",
        "spawndelay": "false",
        "ttl": "12000.0",
        "cpid": "203"
      }
    },
    {
      "type": "Feature",
      "geometry": {
        "type": "Point",
        "coordinates": [1503.4551, -1842.165],
        "size": [16, 16]
      },
      "properties": {
        "iconurl": "icons/vehicles_map/mini_rec_light.png",
        "iconrotate": "24.906",
        "popupContent": "Amazing information about BRDM-2 will be found here!"
      },
      "bf2props": {
        "name": "cpname_operation_soul_rebel_coop64_montegobay_ru_jeep",
        "class": "ObjectSpawner",
        "name_object": "BRDM-2",
        "team": "1",
        "obj1": "ru_jep_brdm2",
        "obj2": "null",
        "maxspawn": "300.0",
        "minspawn": "300.0",
        "spawndelay": "false",
        "ttl": "12000.0",
        "cpid": "207"
      }
    },
    {
      "type": "Feature",
      "geometry": {
        "type": "Point",
        "coordinates": [1491.994, -1856.28],
        "size": [16, 16]
      },
      "properties": {
        "iconurl": "icons/vehicles_map/mini_rec_light.png",
        "iconrotate": "-60.045",
        "popupContent": "Amazing information about BRDM-2 will be found here!"
      },
      "bf2props": {
        "name": "cpname_operation_soul_rebel_coop64_montegobay_ru_jeep_0",
        "class": "ObjectSpawner",
        "name_object": "BRDM-2",
        "team": "1",
        "obj1": "ru_jep_brdm2",
        "obj2": "null",
        "maxspawn": "300.0",
        "minspawn": "300.0",
        "spawndelay": "false",
        "ttl": "12000.0",
        "cpid": "207"
      }
    },
    {
      "type": "Feature",
      "geometry": {
        "type": "Point",
        "coordinates": [2560.142, -2370.227],
        "size": [16, 16]
      },
      "properties": {
        "iconurl": "icons/vehicles_map/mini_jep_support.png",
        "iconrotate": "-127.199",
        "popupContent": "Amazing information about null will be found here!"
      },
      "bf2props": {
        "name": "cpname_operation_soul_rebel_coop64_kingston_gb_jeep_support",
        "class": "ObjectSpawner",
        "name_object": "Land Rover Support",
        "team": "2",
        "obj1": "null",
        "obj2": "gb_jep_landrover_support",
        "maxspawn": "300.0",
        "minspawn": "300.0",
        "spawndelay": "false",
        "ttl": "12000.0",
        "cpid": "203"
      }
    },
    {
      "type": "Feature",
      "geometry": {
        "type": "Point",
        "coordinates": [2045.666, -183.93604],
        "size": [16, 16]
      },
      "properties": {
        "iconurl": "icons/vehicles_map/mini_the_medium.png",
        "iconrotate": "-176.711",
        "popupContent": "Amazing information about Mi-8MT Hip-C will be found here!"
      },
      "bf2props": {
        "name": "cpname_operation_soul_rebel_coop64_cuba_ru_heli_trans",
        "class": "ObjectSpawner",
        "name_object": "Mi-8MT Hip-C",
        "team": "1",
        "obj1": "ru_the_mi8",
        "obj2": "null",
        "maxspawn": "999999.0",
        "minspawn": "999999.0",
        "spawndelay": "false",
        "ttl": "1200.0",
        "cpid": "209"
      }
    },
    {
      "type": "Feature",
      "geometry": {
        "type": "Point",
        "coordinates": [2601.0269, -2387.222],
        "size": [16, 16]
      },
      "properties": {
        "iconurl": "icons/vehicles_map/mini_trk_logistics.png",
        "iconrotate": "-168.623",
        "popupContent": "Amazing information about null will be found here!"
      },
      "bf2props": {
        "name": "cpname_operation_soul_rebel_coop64_kingston_gb_truck_logistics",
        "class": "ObjectSpawner",
        "name_object": "MAN SV Logistics",
        "team": "2",
        "obj1": "null",
        "obj2": "gb_trk_logistics",
        "maxspawn": "300.0",
        "minspawn": "300.0",
        "spawndelay": "false",
        "maxnr": "4",
        "ttl": "12000.0",
        "cpid": "203"
      }
    },
    {
      "type": "Feature",
      "geometry": {
        "type": "Point",
        "coordinates": [2608.241, -2387.334],
        "size": [16, 16]
      },
      "properties": {
        "iconurl": "icons/mini_map/repairdepot.png",
        "iconrotate": "0",
        "popupContent": "Amazing information about null will be found here!"
      },
      "bf2props": {
        "name": "cpname_operation_soul_rebel_coop64_kingston_gb_vehicle_depot",
        "class": "ObjectSpawner",
        "name_object": "Vehicle Depot",
        "team": "2",
        "obj1": "null",
        "obj2": "vehicle_depot_gb",
        "maxspawn": "600.0",
        "minspawn": "600.0",
        "spawndelay": "false",
        "ttl": "0.0",
        "cpid": "203"
      }
    },
    {
      "type": "Feature",
      "geometry": {
        "type": "Point",
        "coordinates": [1485.135, -1860.347],
        "size": [16, 16]
      },
      "properties": {
        "iconurl": "icons/vehicles_map/mini_trk_logistics.png",
        "iconrotate": "-9.292",
        "popupContent": "Amazing information about Ural-4320 Logistics will be found here!"
      },
      "bf2props": {
        "name": "cpname_operation_soul_rebel_coop64_montegobay_ru_truck_logistics",
        "class": "ObjectSpawner",
        "name_object": "Ural-4320 Logistics",
        "team": "1",
        "obj1": "ru_trk_logistics",
        "obj2": "null",
        "maxspawn": "300.0",
        "minspawn": "300.0",
        "spawndelay": "false",
        "maxnr": "4",
        "ttl": "12000.0",
        "cpid": "207"
      }
    },
    {
      "type": "Feature",
      "geometry": {
        "type": "Point",
        "coordinates": [1478.235, -1872.196],
        "size": [16, 16]
      },
      "properties": {
        "iconurl": "icons/mini_map/repairdepot.png",
        "iconrotate": "0",
        "popupContent": "Amazing information about Vehicle Depot will be found here!"
      },
      "bf2props": {
        "name": "cpname_operation_soul_rebel_coop64_montegobay_ru_vehicle_depot",
        "class": "ObjectSpawner",
        "name_object": "Vehicle Depot",
        "team": "1",
        "obj1": "vehicle_depot_ru",
        "obj2": "null",
        "maxspawn": "600.0",
        "minspawn": "600.0",
        "spawndelay": "false",
        "ttl": "12000.0",
        "cpid": "207"
      }
    },
    {
      "type": "Feature",
      "geometry": {
        "type": "Point",
        "coordinates": [3529.85, -3736.767],
        "size": [33, 33],
        "radius": "0.0"
      },
      "properties": {
        "iconurl": "icons/flags_map/gb/minimap_cpbase.png",
        "iconrotate": "0",
        "popupContent": "Amazing information about HMS Illustrious will be found here!"
      },
      "bf2props": {
        "name": "cpname_operation_soul_rebel_coop64_hmsillustrious",
        "class": "ControlPoint",
        "name_object": "HMS Illustrious",
        "team": "2",
        "areavalue1": "0.0",
        "areavalue2": "0.0",
        "cpid": "201",
        "sgid": "90",
        "uncap": "true",
        "ttgc": "0.0",
        "ttlc": "0.0"
      }
    },
    {
      "type": "Feature",
      "geometry": {
        "type": "Point",
        "coordinates": [2976.519, -2364.795],
        "size": [33, 33],
        "radius": "50.0"
      },
      "properties": {
        "iconurl": "icons/flags_map/gb/minimap_cp.png",
        "iconrotate": "0",
        "popupContent": "Amazing information about Folly Bay 50m will be found here!"
      },
      "bf2props": {
        "name": "cpname_operation_soul_rebel_coop64_follybay",
        "class": "ControlPoint",
        "name_object": "Folly Bay 50m",
        "team": "2",
        "areavalue1": "1000.0",
        "areavalue2": "20.0",
        "cpid": "202",
        "sgid": "80",
        "uncap": "false",
        "ttgc": "210.0",
        "ttlc": "60.0"
      }
    },
    {
      "type": "Feature",
      "geometry": {
        "type": "Point",
        "coordinates": [2486.034, -2312.44],
        "size": [33, 33],
        "radius": "35.0"
      },
      "properties": {
        "iconurl": "icons/flags_map/gb/minimap_cp.png",
        "iconrotate": "0",
        "popupContent": "Amazing information about Kingston 35m will be found here!"
      },
      "bf2props": {
        "name": "cpname_operation_soul_rebel_coop64_kingston",
        "class": "ControlPoint",
        "name_object": "Kingston 35m",
        "team": "2",
        "areavalue1": "100.0",
        "areavalue2": "20.0",
        "cpid": "203",
        "sgid": "70",
        "uncap": "false",
        "ttgc": "180.0",
        "ttlc": "120.0"
      }
    },
    {
      "type": "Feature",
      "geometry": {
        "type": "Point",
        "coordinates": [2078.598, -2379.883],
        "size": [33, 33],
        "radius": "25.0"
      },
      "properties": {
        "iconurl": "icons/flags_map/neutral/minimap_cp.png",
        "iconrotate": "0",
        "popupContent": "Amazing information about May Pen 25m will be found here!"
      },
      "bf2props": {
        "name": "cpname_operation_soul_rebel_coop64_maypen",
        "class": "ControlPoint",
        "name_object": "May Pen 25m",
        "team": "0",
        "areavalue1": "20.0",
        "areavalue2": "20.0",
        "cpid": "204",
        "sgid": "60",
        "uncap": "false",
        "ttgc": "180.0",
        "ttlc": "180.0"
      }
    },
    {
      "type": "Feature",
      "geometry": {
        "type": "Point",
        "coordinates": [2042.421, -2050.021],
        "size": [33, 33],
        "radius": "50.0"
      },
      "properties": {
        "iconurl": "icons/flags_map/neutral/minimap_cp.png",
        "iconrotate": "0",
        "popupContent": "Amazing information about Alva 50m will be found here!"
      },
      "bf2props": {
        "name": "cpname_operation_soul_rebel_coop64_alva",
        "class": "ControlPoint",
        "name_object": "Alva 50m",
        "team": "0",
        "areavalue1": "20.0",
        "areavalue2": "20.0",
        "cpid": "205",
        "sgid": "50",
        "uncap": "false",
        "ttgc": "180.0",
        "ttlc": "180.0"
      }
    },
    {
      "type": "Feature",
      "geometry": {
        "type": "Point",
        "coordinates": [1635.079, -2236.195],
        "size": [33, 33],
        "radius": "50.0"
      },
      "properties": {
        "iconurl": "icons/flags_map/neutral/minimap_cp.png",
        "iconrotate": "0",
        "popupContent": "Amazing information about Lacovia 50m will be found here!"
      },
      "bf2props": {
        "name": "cpname_operation_soul_rebel_coop64_lacovia",
        "class": "ControlPoint",
        "name_object": "Lacovia 50m",
        "team": "0",
        "areavalue1": "20.0",
        "areavalue2": "20.0",
        "cpid": "206",
        "sgid": "40",
        "uncap": "false",
        "ttgc": "180.0",
        "ttlc": "180.0"
      }
    },
    {
      "type": "Feature",
      "geometry": {
        "type": "Point",
        "coordinates": [1539.185, -1862.125],
        "size": [33, 33],
        "radius": "35.0"
      },
      "properties": {
        "iconurl": "icons/flags_map/ru/minimap_cp.png",
        "iconrotate": "0",
        "popupContent": "Amazing information about Montego Bay 35m will be found here!"
      },
      "bf2props": {
        "name": "cpname_operation_soul_rebel_coop64_montegobay",
        "class": "ControlPoint",
        "name_object": "Montego Bay 35m",
        "team": "1",
        "areavalue1": "20.0",
        "areavalue2": "100.0",
        "cpid": "207",
        "sgid": "30",
        "uncap": "false",
        "ttgc": "120.0",
        "ttlc": "180.0"
      }
    },
    {
      "type": "Feature",
      "geometry": {
        "type": "Point",
        "coordinates": [1203.8049, -2067.794],
        "size": [33, 33],
        "radius": "35.0"
      },
      "properties": {
        "iconurl": "icons/flags_map/ru/minimap_cp.png",
        "iconrotate": "0",
        "popupContent": "Amazing information about Frome 35m will be found here!"
      },
      "bf2props": {
        "name": "cpname_operation_soul_rebel_coop64_frome",
        "class": "ControlPoint",
        "name_object": "Frome 35m",
        "team": "1",
        "areavalue1": "20.0",
        "areavalue2": "1000.0",
        "cpid": "208",
        "sgid": "20",
        "uncap": "false",
        "ttgc": "210.0",
        "ttlc": "60.0"
      }
    },
    {
      "type": "Feature",
      "geometry": {
        "type": "Point",
        "coordinates": [2110.301, -129.16199],
        "size": [33, 33],
        "radius": "0.0"
      },
      "properties": {
        "iconurl": "icons/flags_map/ru/minimap_cpbase.png",
        "iconrotate": "0",
        "popupContent": "Amazing information about Sierra Maestra Airport will be found here!"
      },
      "bf2props": {
        "name": "cpname_operation_soul_rebel_coop64_cuba",
        "class": "ControlPoint",
        "name_object": "Sierra Maestra Airport",
        "team": "1",
        "areavalue1": "0.0",
        "areavalue2": "0.0",
        "cpid": "209",
        "sgid": "10",
        "uncap": "true",
        "ttgc": "0.0",
        "ttlc": "0.0"
      }
    },
    {
      "type": "Feature",
      "geometry": {
        "type": "Polygon",
        "coordinates": [
          [
            [0,0],
            [0,-4096],
            [4096,-4096],
            [4096,0]
          ],[
            [4054.9717, -4057.9763],
            [4068.9404, -28.826416],
            [54.605347, -61.854492],
            [87.898926, -4021.5952],
            [4015.6912, -4067.6875]
          ]
        ]
      },
      "bf2props": {
        "code": "combatarea_0_coop64",
        "class": "CombatArea",
        "team": "0",
        "vehicles": "4",
        "layer": "3",
        "inverted": "false",
        "max": [0.0, 0.0],
        "min": [0.0, 0.0]
      }
    }
  ]
}