{
  "team1":"meinsurgent",
  "team2":"usa",
  "team1tickets":"5",
  "team2tickets":"500",
  "mapsize":"2048",
  "viewdistance":"500",
  "combatareause":"true",
  "combatareadamage":"20.0",
  "combatareaallowoutside":"10.0",
  "routes": [
  ],
  "type": "FeatureCollection",
  "features": [
    {
      "type": "Feature",
      "geometry": {
        "type": "Point",
        "coordinates": [948.0, -1268.0],
        "size": [16, 16]
      },
      "properties": {
        "iconurl": "icons/mini_map/repairdepot.png",
        "iconrotate": "0",
        "popupContent": "Amazing information about Vehicle Depot will be found here!"
      },
      "bf2props": {
        "name": "cpname_karbala_insurgency16_insmain_depot",
        "class": "ObjectSpawner",
        "name_object": "Vehicle Depot",
        "team": "1",
        "obj1": "vehicle_depot_tal",
        "obj2": "null",
        "maxspawn": "0.0",
        "minspawn": "0.0",
        "spawndelay": "false",
        "ttl": "0.0",
        "cpid": "301"
      }
    },
    {
      "type": "Feature",
      "geometry": {
        "type": "Point",
        "coordinates": [1033.0, -1280.0],
        "size": [16, 16]
      },
      "properties": {
        "iconurl": "icons/vehicles_map/firebase_mini_white.png",
        "iconrotate": "0",
        "popupContent": "Amazing information about Hideout will be found here!"
      },
      "bf2props": {
        "name": "cpname_karbala_insurgency16_insmain_acv",
        "class": "ObjectSpawner",
        "name_object": "Hideout",
        "team": "1",
        "obj1": "deployable_commandpost_meins",
        "obj2": "null",
        "maxspawn": "0.0",
        "minspawn": "0.0",
        "spawndelay": "false",
        "ttl": "0.0",
        "cpid": "301"
      }
    },
    {
      "type": "Feature",
      "geometry": {
        "type": "Point",
        "coordinates": [946.0, -1253.0],
        "size": [16, 16]
      },
      "properties": {
        "iconurl": "icons/vehicles_map/mini_jep_support.png",
        "iconrotate": "45.0",
        "popupContent": "Amazing information about Support Technical will be found here!"
      },
      "bf2props": {
        "name": "cpname_karbala_insurgency16_insmain_logi",
        "class": "ObjectSpawner",
        "name_object": "Support Technical",
        "team": "1",
        "obj1": "civ_jep_support",
        "obj2": "null",
        "maxspawn": "300.0",
        "minspawn": "300.0",
        "spawndelay": "false",
        "ttl": "99999.0",
        "cpid": "301"
      }
    },
    {
      "type": "Feature",
      "geometry": {
        "type": "Point",
        "coordinates": [946.0, -1248.0],
        "size": [16, 16]
      },
      "properties": {
        "iconurl": "icons/vehicles_map/mini_jep_support.png",
        "iconrotate": "45.0",
        "popupContent": "Amazing information about Support Technical will be found here!"
      },
      "bf2props": {
        "name": "cpname_karbala_insurgency16_insmain_logi2",
        "class": "ObjectSpawner",
        "name_object": "Support Technical",
        "team": "1",
        "obj1": "civ_jep_support",
        "obj2": "null",
        "maxspawn": "300.0",
        "minspawn": "300.0",
        "spawndelay": "false",
        "ttl": "99999.0",
        "cpid": "301"
      }
    },
    {
      "type": "Feature",
      "geometry": {
        "type": "Point",
        "coordinates": [1010.0, -1253.0],
        "size": [16, 16]
      },
      "properties": {
        "iconurl": "icons/vehicles_map/mini_jep_light.png",
        "iconrotate": "45.0",
        "popupContent": "Amazing information about DShKM Technical will be found here!"
      },
      "bf2props": {
        "name": "cpname_karbala_insurgency16_insmain_tech4",
        "class": "ObjectSpawner",
        "name_object": "DShKM Technical",
        "team": "1",
        "obj1": "civ_jep_technical",
        "obj2": "null",
        "maxspawn": "600.0",
        "minspawn": "600.0",
        "spawndelay": "false",
        "ttl": "99999.0",
        "cpid": "301"
      }
    },
    {
      "type": "Feature",
      "geometry": {
        "type": "Point",
        "coordinates": [1000.0, -1240.0],
        "size": [16, 16]
      },
      "properties": {
        "iconurl": "icons/vehicles_map/mini_civ_dirtbike.png",
        "iconrotate": "0.0",
        "popupContent": "Amazing information about Dirtbike will be found here!"
      },
      "bf2props": {
        "name": "cpname_karbala_insurgency16_insmain_db1",
        "class": "ObjectSpawner",
        "name_object": "Dirtbike",
        "team": "1",
        "obj1": "civ_bik_dirtbike",
        "obj2": "null",
        "maxspawn": "300.0",
        "minspawn": "300.0",
        "spawndelay": "false",
        "ttl": "99999.0",
        "cpid": "301"
      }
    },
    {
      "type": "Feature",
      "geometry": {
        "type": "Point",
        "coordinates": [997.0, -1240.0],
        "size": [16, 16]
      },
      "properties": {
        "iconurl": "icons/vehicles_map/mini_civ_dirtbike.png",
        "iconrotate": "0.0",
        "popupContent": "Amazing information about Dirtbike will be found here!"
      },
      "bf2props": {
        "name": "cpname_karbala_insurgency16_insmain_db2",
        "class": "ObjectSpawner",
        "name_object": "Dirtbike",
        "team": "1",
        "obj1": "civ_bik_dirtbike",
        "obj2": "null",
        "maxspawn": "300.0",
        "minspawn": "300.0",
        "spawndelay": "false",
        "ttl": "99999.0",
        "cpid": "301"
      }
    },
    {
      "type": "Feature",
      "geometry": {
        "type": "Point",
        "coordinates": [994.0, -1240.0],
        "size": [16, 16]
      },
      "properties": {
        "iconurl": "icons/vehicles_map/mini_civ_dirtbike.png",
        "iconrotate": "0.0",
        "popupContent": "Amazing information about Dirtbike will be found here!"
      },
      "bf2props": {
        "name": "cpname_karbala_insurgency16_insmain_db3",
        "class": "ObjectSpawner",
        "name_object": "Dirtbike",
        "team": "1",
        "obj1": "civ_bik_dirtbike",
        "obj2": "null",
        "maxspawn": "300.0",
        "minspawn": "300.0",
        "spawndelay": "false",
        "ttl": "99999.0",
        "cpid": "301"
      }
    },
    {
      "type": "Feature",
      "geometry": {
        "type": "Point",
        "coordinates": [986.0, -1240.0],
        "size": [16, 16]
      },
      "properties": {
        "iconurl": "icons/vehicles_map/mini_civ_dirtbike.png",
        "iconrotate": "0.0",
        "popupContent": "Amazing information about Dirtbike will be found here!"
      },
      "bf2props": {
        "name": "cpname_karbala_insurgency16_insmain_db4",
        "class": "ObjectSpawner",
        "name_object": "Dirtbike",
        "team": "1",
        "obj1": "civ_bik_dirtbike",
        "obj2": "null",
        "maxspawn": "300.0",
        "minspawn": "300.0",
        "spawndelay": "false",
        "ttl": "99999.0",
        "cpid": "301"
      }
    },
    {
      "type": "Feature",
      "geometry": {
        "type": "Point",
        "coordinates": [983.0, -1240.0],
        "size": [16, 16]
      },
      "properties": {
        "iconurl": "icons/vehicles_map/mini_civ_dirtbike.png",
        "iconrotate": "0.0",
        "popupContent": "Amazing information about Dirtbike will be found here!"
      },
      "bf2props": {
        "name": "cpname_karbala_insurgency16_insmain_db5",
        "class": "ObjectSpawner",
        "name_object": "Dirtbike",
        "team": "1",
        "obj1": "civ_bik_dirtbike",
        "obj2": "null",
        "maxspawn": "300.0",
        "minspawn": "300.0",
        "spawndelay": "false",
        "ttl": "99999.0",
        "cpid": "301"
      }
    },
    {
      "type": "Feature",
      "geometry": {
        "type": "Point",
        "coordinates": [980.0, -1240.0],
        "size": [16, 16]
      },
      "properties": {
        "iconurl": "icons/vehicles_map/mini_civ_dirtbike.png",
        "iconrotate": "0.0",
        "popupContent": "Amazing information about Dirtbike will be found here!"
      },
      "bf2props": {
        "name": "cpname_karbala_insurgency16_insmain_db6",
        "class": "ObjectSpawner",
        "name_object": "Dirtbike",
        "team": "1",
        "obj1": "civ_bik_dirtbike",
        "obj2": "null",
        "maxspawn": "300.0",
        "minspawn": "300.0",
        "spawndelay": "false",
        "ttl": "99999.0",
        "cpid": "301"
      }
    },
    {
      "type": "Feature",
      "geometry": {
        "type": "Point",
        "coordinates": [1034.0, -1263.0],
        "size": [16, 16]
      },
      "properties": {
        "iconurl": "icons/vehicles_map/mini_civ_car_bomb.png",
        "iconrotate": "-45.0",
        "popupContent": "Amazing information about Car Bomb will be found here!"
      },
      "bf2props": {
        "name": "cpname_karbala_insurgency16_insmain_bomber2",
        "class": "ObjectSpawner",
        "name_object": "Car Bomb",
        "team": "1",
        "obj1": "civ_jep_car_bomber_white",
        "obj2": "null",
        "maxspawn": "900.0",
        "minspawn": "900.0",
        "spawndelay": "true",
        "ttl": "99999.0",
        "cpid": "301"
      }
    },
    {
      "type": "Feature",
      "geometry": {
        "type": "Point",
        "coordinates": [973.0, -1266.0],
        "size": [16, 16]
      },
      "properties": {
        "iconurl": "icons/vehicles_map/mini_civ_car.png",
        "iconrotate": "-45.0",
        "popupContent": "Amazing information about Civilian Car will be found here!"
      },
      "bf2props": {
        "name": "cpname_karbala_insurgency16_insmain_trans1",
        "class": "ObjectSpawner",
        "name_object": "Civilian Car",
        "team": "1",
        "obj1": "civ_jep_car",
        "obj2": "null",
        "maxspawn": "300.0",
        "minspawn": "300.0",
        "spawndelay": "false",
        "ttl": "99999.0",
        "cpid": "301"
      }
    },
    {
      "type": "Feature",
      "geometry": {
        "type": "Point",
        "coordinates": [973.0, -1259.0],
        "size": [16, 16]
      },
      "properties": {
        "iconurl": "icons/vehicles_map/mini_civ_car.png",
        "iconrotate": "-45.0",
        "popupContent": "Amazing information about Zastava 900AK Van will be found here!"
      },
      "bf2props": {
        "name": "cpname_karbala_insurgency16_insmain_trans2",
        "class": "ObjectSpawner",
        "name_object": "Zastava 900AK Van",
        "team": "1",
        "obj1": "civ_jep_zastava900ak",
        "obj2": "null",
        "maxspawn": "300.0",
        "minspawn": "300.0",
        "spawndelay": "false",
        "ttl": "99999.0",
        "cpid": "301"
      }
    },
    {
      "type": "Feature",
      "geometry": {
        "type": "Point",
        "coordinates": [1866.0, -72.0],
        "size": [16, 16]
      },
      "properties": {
        "iconurl": "icons/mini_map/uavtrailer.png",
        "iconrotate": "0",
        "popupContent": "Amazing information about null will be found here!"
      },
      "bf2props": {
        "name": "cpname_karbala_insurgency16_usmain_acv",
        "class": "ObjectSpawner",
        "name_object": "UAV Terminal",
        "team": "2",
        "obj1": "null",
        "obj2": "us_acv_stryker",
        "maxspawn": "0.0",
        "minspawn": "0.0",
        "spawndelay": "false",
        "ttl": "0.0",
        "cpid": "302"
      }
    },
    {
      "type": "Feature",
      "geometry": {
        "type": "Point",
        "coordinates": [1868.0, -89.0],
        "size": [16, 16]
      },
      "properties": {
        "iconurl": "icons/mini_map/repairdepot.png",
        "iconrotate": "0",
        "popupContent": "Amazing information about null will be found here!"
      },
      "bf2props": {
        "name": "cpname_karbala_insurgency16_usmain_vehdepot",
        "class": "ObjectSpawner",
        "name_object": "Vehicle Depot",
        "team": "2",
        "obj1": "null",
        "obj2": "vehicle_depot_us",
        "maxspawn": "0.0",
        "minspawn": "0.0",
        "spawndelay": "false",
        "ttl": "0.0",
        "cpid": "302"
      }
    },
    {
      "type": "Feature",
      "geometry": {
        "type": "Point",
        "coordinates": [1808.0, -119.0],
        "size": [16, 16]
      },
      "properties": {
        "iconurl": "icons/vehicles_map/mini_the_heavy_chinook.png",
        "iconrotate": "180.0",
        "popupContent": "Amazing information about null will be found here!"
      },
      "bf2props": {
        "name": "cpname_karbala_insurgency16_usmain_transheli",
        "class": "ObjectSpawner",
        "name_object": "CH-47D Chinook",
        "team": "2",
        "obj1": "null",
        "obj2": "us_the_chinook",
        "maxspawn": "600.0",
        "minspawn": "600.0",
        "spawndelay": "true",
        "ttl": "99999.0",
        "cpid": "302"
      }
    },
    {
      "type": "Feature",
      "geometry": {
        "type": "Point",
        "coordinates": [1875.0, -145.0],
        "size": [16, 16]
      },
      "properties": {
        "iconurl": "icons/vehicles_map/mini_jep_medium.png",
        "iconrotate": "-90.0",
        "popupContent": "Amazing information about null will be found here!"
      },
      "bf2props": {
        "name": "cpname_karbala_insurgency16_usmain_stryker1",
        "class": "ObjectSpawner",
        "name_object": "M1151 Up-Armored HMMWV",
        "team": "2",
        "obj1": "null",
        "obj2": "us_jep_hmmwv_uparmored_alt",
        "maxspawn": "600.0",
        "minspawn": "600.0",
        "spawndelay": "false",
        "ttl": "99999.0",
        "cpid": "302"
      }
    },
    {
      "type": "Feature",
      "geometry": {
        "type": "Point",
        "coordinates": [1875.0, -155.0],
        "size": [16, 16]
      },
      "properties": {
        "iconurl": "icons/vehicles_map/mini_jep_medium.png",
        "iconrotate": "-90.0",
        "popupContent": "Amazing information about null will be found here!"
      },
      "bf2props": {
        "name": "cpname_karbala_insurgency16_usmain_stryker2",
        "class": "ObjectSpawner",
        "name_object": "M1151 Up-Armored HMMWV",
        "team": "2",
        "obj1": "null",
        "obj2": "us_jep_hmmwv_uparmored_alt",
        "maxspawn": "600.0",
        "minspawn": "600.0",
        "spawndelay": "false",
        "ttl": "99999.0",
        "cpid": "302"
      }
    },
    {
      "type": "Feature",
      "geometry": {
        "type": "Point",
        "coordinates": [1875.0, -150.0],
        "size": [16, 16]
      },
      "properties": {
        "iconurl": "icons/vehicles_map/mini_jep_medium.png",
        "iconrotate": "-90.0",
        "popupContent": "Amazing information about null will be found here!"
      },
      "bf2props": {
        "name": "cpname_karbala_insurgency16_usmain_crows",
        "class": "ObjectSpawner",
        "name_object": "M1025 HMMWV CROWS",
        "team": "2",
        "obj1": "null",
        "obj2": "us_jep_hmmwv_crows",
        "maxspawn": "99999.0",
        "minspawn": "99999.0",
        "spawndelay": "false",
        "ttl": "99999.0",
        "cpid": "302"
      }
    },
    {
      "type": "Feature",
      "geometry": {
        "type": "Point",
        "coordinates": [1874.0, -129.0],
        "size": [16, 16]
      },
      "properties": {
        "iconurl": "icons/vehicles_map/mini_jep_support.png",
        "iconrotate": "-90.0",
        "popupContent": "Amazing information about null will be found here!"
      },
      "bf2props": {
        "name": "cpname_karbala_insurgency16_usmain_hmmv1",
        "class": "ObjectSpawner",
        "name_object": "M1038A1 HMMWV",
        "team": "2",
        "obj1": "null",
        "obj2": "us_jep_hmmwv_support",
        "maxspawn": "300.0",
        "minspawn": "300.0",
        "spawndelay": "false",
        "ttl": "99999.0",
        "cpid": "302"
      }
    },
    {
      "type": "Feature",
      "geometry": {
        "type": "Point",
        "coordinates": [1874.0, -132.0],
        "size": [16, 16]
      },
      "properties": {
        "iconurl": "icons/vehicles_map/mini_jep_support.png",
        "iconrotate": "-90.0",
        "popupContent": "Amazing information about null will be found here!"
      },
      "bf2props": {
        "name": "cpname_karbala_insurgency16_usmain_hmmv2",
        "class": "ObjectSpawner",
        "name_object": "M1038A1 HMMWV",
        "team": "2",
        "obj1": "null",
        "obj2": "us_jep_hmmwv_support",
        "maxspawn": "300.0",
        "minspawn": "300.0",
        "spawndelay": "false",
        "ttl": "99999.0",
        "cpid": "302"
      }
    },
    {
      "type": "Feature",
      "geometry": {
        "type": "Point",
        "coordinates": [1874.0, -137.0],
        "size": [16, 16]
      },
      "properties": {
        "iconurl": "icons/vehicles_map/mini_jep_medium.png",
        "iconrotate": "-90.0",
        "popupContent": "Amazing information about null will be found here!"
      },
      "bf2props": {
        "name": "cpname_karbala_insurgency16_usmain_hmmv3",
        "class": "ObjectSpawner",
        "name_object": "M1151 Up-Armored HMMWV",
        "team": "2",
        "obj1": "null",
        "obj2": "us_jep_hmmwv_uparmored",
        "maxspawn": "600.0",
        "minspawn": "600.0",
        "spawndelay": "false",
        "ttl": "99999.0",
        "cpid": "302"
      }
    },
    {
      "type": "Feature",
      "geometry": {
        "type": "Point",
        "coordinates": [1874.0, -140.0],
        "size": [16, 16]
      },
      "properties": {
        "iconurl": "icons/vehicles_map/mini_jep_medium.png",
        "iconrotate": "-90.0",
        "popupContent": "Amazing information about null will be found here!"
      },
      "bf2props": {
        "name": "cpname_karbala_insurgency16_usmain_hmmv4",
        "class": "ObjectSpawner",
        "name_object": "M1151 Up-Armored HMMWV",
        "team": "2",
        "obj1": "null",
        "obj2": "us_jep_hmmwv_uparmored",
        "maxspawn": "600.0",
        "minspawn": "600.0",
        "spawndelay": "false",
        "ttl": "99999.0",
        "cpid": "302"
      }
    },
    {
      "type": "Feature",
      "geometry": {
        "type": "Point",
        "coordinates": [1875.0, -120.0],
        "size": [16, 16]
      },
      "properties": {
        "iconurl": "icons/vehicles_map/mini_trk_logistics.png",
        "iconrotate": "-90.0",
        "popupContent": "Amazing information about null will be found here!"
      },
      "bf2props": {
        "name": "cpname_karbala_insurgency16_usmain_logi",
        "class": "ObjectSpawner",
        "name_object": "M35 Logistics",
        "team": "2",
        "obj1": "null",
        "obj2": "us_trk_logistics",
        "maxspawn": "300.0",
        "minspawn": "300.0",
        "spawndelay": "false",
        "ttl": "99999.0",
        "cpid": "302"
      }
    },
    {
      "type": "Feature",
      "geometry": {
        "type": "Point",
        "coordinates": [1875.0, -123.0],
        "size": [16, 16]
      },
      "properties": {
        "iconurl": "icons/vehicles_map/mini_trk_logistics.png",
        "iconrotate": "-90.0",
        "popupContent": "Amazing information about null will be found here!"
      },
      "bf2props": {
        "name": "cpname_karbala_insurgency16_usmain_logi2",
        "class": "ObjectSpawner",
        "name_object": "M35 Logistics",
        "team": "2",
        "obj1": "null",
        "obj2": "us_trk_logistics",
        "maxspawn": "300.0",
        "minspawn": "300.0",
        "spawndelay": "false",
        "ttl": "99999.0",
        "cpid": "302"
      }
    },
    {
      "type": "Feature",
      "geometry": {
        "type": "Point",
        "coordinates": [1875.0, -113.0],
        "size": [16, 16]
      },
      "properties": {
        "iconurl": "icons/vehicles_map/mini_trk_support.png",
        "iconrotate": "-90.0",
        "popupContent": "Amazing information about null will be found here!"
      },
      "bf2props": {
        "name": "cpname_karbala_insurgency16_usmain_transtrk",
        "class": "ObjectSpawner",
        "name_object": "M35 2.5 Ton",
        "team": "2",
        "obj1": "null",
        "obj2": "us_trk_support",
        "maxspawn": "99999.0",
        "minspawn": "99999.0",
        "spawndelay": "false",
        "ttl": "99999.0",
        "cpid": "302"
      }
    },
    {
      "type": "Feature",
      "geometry": {
        "type": "Point",
        "coordinates": [1875.0, -116.0],
        "size": [16, 16]
      },
      "properties": {
        "iconurl": "icons/vehicles_map/mini_trk_support.png",
        "iconrotate": "-90.0",
        "popupContent": "Amazing information about null will be found here!"
      },
      "bf2props": {
        "name": "cpname_karbala_insurgency16_usmain_transtrk1",
        "class": "ObjectSpawner",
        "name_object": "M35 2.5 Ton",
        "team": "2",
        "obj1": "null",
        "obj2": "us_trk_support",
        "maxspawn": "99999.0",
        "minspawn": "99999.0",
        "spawndelay": "false",
        "ttl": "99999.0",
        "cpid": "302"
      }
    },
    {
      "type": "Feature",
      "geometry": {
        "type": "Point",
        "coordinates": [1712.0, 564.0],
        "size": [16, 16]
      },
      "properties": {
        "iconurl": "icons/mini_map/airdef.png",
        "iconrotate": "0",
        "popupContent": "Amazing information about null will be found here!"
      },
      "bf2props": {
        "name": "cpname_karbala_insurgency16_usmain_arty1",
        "class": "ObjectSpawner",
        "name_object": "Mortar Barrage Call-In",
        "team": "2",
        "obj1": "null",
        "obj2": "mortar_team2",
        "maxspawn": "900.0",
        "minspawn": "900.0",
        "spawndelay": "true",
        "ttl": "0.0",
        "cpid": "302"
      }
    },
    {
      "type": "Feature",
      "geometry": {
        "type": "Point",
        "coordinates": [1720.0, 564.0],
        "size": [16, 16]
      },
      "properties": {
        "iconurl": "icons/mini_map/airdef.png",
        "iconrotate": "0",
        "popupContent": "Amazing information about null will be found here!"
      },
      "bf2props": {
        "name": "cpname_karbala_insurgency16_usmain_arty2",
        "class": "ObjectSpawner",
        "name_object": "Mortar Barrage Call-In",
        "team": "2",
        "obj1": "null",
        "obj2": "mortar_team2",
        "maxspawn": "900.0",
        "minspawn": "900.0",
        "spawndelay": "true",
        "ttl": "0.0",
        "cpid": "302"
      }
    },
    {
      "type": "Feature",
      "geometry": {
        "type": "Point",
        "coordinates": [1712.0, 572.0],
        "size": [16, 16]
      },
      "properties": {
        "iconurl": "icons/mini_map/airdef.png",
        "iconrotate": "0",
        "popupContent": "Amazing information about null will be found here!"
      },
      "bf2props": {
        "name": "cpname_karbala_insurgency16_usmain_arty3",
        "class": "ObjectSpawner",
        "name_object": "Mortar Barrage Call-In",
        "team": "2",
        "obj1": "null",
        "obj2": "mortar_team2",
        "maxspawn": "900.0",
        "minspawn": "900.0",
        "spawndelay": "true",
        "ttl": "0.0",
        "cpid": "302"
      }
    },
    {
      "type": "Feature",
      "geometry": {
        "type": "Point",
        "coordinates": [1720.0, 572.0],
        "size": [16, 16]
      },
      "properties": {
        "iconurl": "icons/mini_map/airdef.png",
        "iconrotate": "0",
        "popupContent": "Amazing information about null will be found here!"
      },
      "bf2props": {
        "name": "cpname_karbala_insurgency16_usmain_arty4",
        "class": "ObjectSpawner",
        "name_object": "Mortar Barrage Call-In",
        "team": "2",
        "obj1": "null",
        "obj2": "mortar_team2",
        "maxspawn": "900.0",
        "minspawn": "900.0",
        "spawndelay": "true",
        "ttl": "0.0",
        "cpid": "302"
      }
    },
    {
      "type": "Feature",
      "geometry": {
        "type": "Point",
        "coordinates": [1564.0, -1146.0],
        "size": [16, 16]
      },
      "properties": {
        "iconurl": "icons/vehicles_map/mini_civ_car.png",
        "iconrotate": "175.066",
        "popupContent": "Amazing information about Civilian Car will be found here!"
      },
      "bf2props": {
        "name": "cpname_karbala_insurgency64_insmain_insurgent_bluecivspawner",
        "class": "ObjectSpawner",
        "name_object": "Civilian Car",
        "team": "1",
        "obj1": "civ_jep_car_white",
        "obj2": "null",
        "maxspawn": "99999.0",
        "minspawn": "99999.0",
        "spawndelay": "false",
        "ttl": "99999.0",
        "cpid": "-1"
      }
    },
    {
      "type": "Feature",
      "geometry": {
        "type": "Point",
        "coordinates": [1564.339, -1085.968],
        "size": [16, 16]
      },
      "properties": {
        "iconurl": "icons/vehicles_map/mini_civ_car.png",
        "iconrotate": "166.245",
        "popupContent": "Amazing information about Civilian Car will be found here!"
      },
      "bf2props": {
        "name": "cpname_karbala_insurgency64_insmain_insurgent_bluecivbomber",
        "class": "ObjectSpawner",
        "name_object": "Civilian Car",
        "team": "1",
        "obj1": "civ_jep_car",
        "obj2": "null",
        "maxspawn": "99999.0",
        "minspawn": "99999.0",
        "spawndelay": "false",
        "ttl": "99999.0",
        "cpid": "-1"
      }
    },
    {
      "type": "Feature",
      "geometry": {
        "type": "Point",
        "coordinates": [1212.0, -1306.0],
        "size": [16, 16]
      },
      "properties": {
        "iconurl": "icons/vehicles_map/mini_civ_car.png",
        "iconrotate": "76.814",
        "popupContent": "Amazing information about Civilian Car will be found here!"
      },
      "bf2props": {
        "name": "cpname_karbala_insurgency64_insmain_technical1",
        "class": "ObjectSpawner",
        "name_object": "Civilian Car",
        "team": "1",
        "obj1": "civ_jep_car_white",
        "obj2": "null",
        "maxspawn": "99999.0",
        "minspawn": "99999.0",
        "spawndelay": "false",
        "ttl": "99999.0",
        "cpid": "-1"
      }
    },
    {
      "type": "Feature",
      "geometry": {
        "type": "Point",
        "coordinates": [1197.353, -1023.407],
        "size": [16, 16]
      },
      "properties": {
        "iconurl": "icons/vehicles_map/mini_civ_car.png",
        "iconrotate": "175.157",
        "popupContent": "Amazing information about Civilian Car will be found here!"
      },
      "bf2props": {
        "name": "cpname_karbala_insurgency64_insmain_bluecivbomber1",
        "class": "ObjectSpawner",
        "name_object": "Civilian Car",
        "team": "1",
        "obj1": "civ_jep_car_white",
        "obj2": "null",
        "maxspawn": "99999.0",
        "minspawn": "99999.0",
        "spawndelay": "false",
        "ttl": "99999.0",
        "cpid": "-1"
      }
    },
    {
      "type": "Feature",
      "geometry": {
        "type": "Point",
        "coordinates": [1191.0, -1089.0],
        "size": [16, 16]
      },
      "properties": {
        "iconurl": "icons/vehicles_map/mini_civ_car.png",
        "iconrotate": "87.481",
        "popupContent": "Amazing information about Zastava 900AK Van will be found here!"
      },
      "bf2props": {
        "name": "cpname_karbala_insurgency64_insmain_dirtbike1",
        "class": "ObjectSpawner",
        "name_object": "Zastava 900AK Van",
        "team": "1",
        "obj1": "civ_jep_zastava900ak",
        "obj2": "null",
        "maxspawn": "300.0",
        "minspawn": "300.0",
        "spawndelay": "false",
        "maxnr": "2",
        "ttl": "99999.0",
        "cpid": "-1"
      }
    },
    {
      "type": "Feature",
      "geometry": {
        "type": "Point",
        "coordinates": [905.508, -856.856],
        "size": [16, 16]
      },
      "properties": {
        "iconurl": "icons/vehicles_map/mini_civ_car.png",
        "iconrotate": "-94.237",
        "popupContent": "Amazing information about Civilian Car will be found here!"
      },
      "bf2props": {
        "name": "cpname_karbala_insurgency64_insmain_insurgent_technical3",
        "class": "ObjectSpawner",
        "name_object": "Civilian Car",
        "team": "1",
        "obj1": "civ_jep_car_blue",
        "obj2": "null",
        "maxspawn": "99999.0",
        "minspawn": "99999.0",
        "spawndelay": "false",
        "ttl": "99999.0",
        "cpid": "-1"
      }
    },
    {
      "type": "Feature",
      "geometry": {
        "type": "Point",
        "coordinates": [774.948, -959.003],
        "size": [16, 16]
      },
      "properties": {
        "iconurl": "icons/vehicles_map/mini_civ_car.png",
        "iconrotate": "-127.489",
        "popupContent": "Amazing information about Civilian Car will be found here!"
      },
      "bf2props": {
        "name": "cpname_karbala_insurgency64_insmain_bluecivilian1",
        "class": "ObjectSpawner",
        "name_object": "Civilian Car",
        "team": "1",
        "obj1": "civ_jep_car_black",
        "obj2": "null",
        "maxspawn": "99999.0",
        "minspawn": "99999.0",
        "spawndelay": "false",
        "ttl": "99999.0",
        "cpid": "-1"
      }
    },
    {
      "type": "Feature",
      "geometry": {
        "type": "Point",
        "coordinates": [1630.958, -1239.129],
        "size": [16, 16]
      },
      "properties": {
        "iconurl": "icons/vehicles_map/mini_civ_car.png",
        "iconrotate": "-1.488",
        "popupContent": "Amazing information about Civilian Car will be found here!"
      },
      "bf2props": {
        "name": "car_0",
        "class": "ObjectSpawner",
        "name_object": "Civilian Car",
        "team": "1",
        "obj1": "civ_jep_car_black",
        "obj2": "null",
        "maxspawn": "99999.0",
        "minspawn": "99999.0",
        "spawndelay": "false",
        "ttl": "99999.0",
        "cpid": "-1"
      }
    },
    {
      "type": "Feature",
      "geometry": {
        "type": "Point",
        "coordinates": [1213.173, -1222.761],
        "size": [16, 16]
      },
      "properties": {
        "iconurl": "icons/vehicles_map/mini_civ_car.png",
        "iconrotate": "-3.785",
        "popupContent": "Amazing information about Civilian Car will be found here!"
      },
      "bf2props": {
        "name": "car_1",
        "class": "ObjectSpawner",
        "name_object": "Civilian Car",
        "team": "1",
        "obj1": "civ_jep_car_black",
        "obj2": "null",
        "maxspawn": "99999.0",
        "minspawn": "99999.0",
        "spawndelay": "false",
        "ttl": "99999.0",
        "cpid": "-1"
      }
    },
    {
      "type": "Feature",
      "geometry": {
        "type": "Point",
        "coordinates": [1564.0, -1146.0],
        "size": [16, 16]
      },
      "properties": {
        "iconurl": "icons/vehicles_map/mini_civ_car.png",
        "iconrotate": "175.066",
        "popupContent": "Amazing information about Civilian Car will be found here!"
      },
      "bf2props": {
        "name": "cpname_karbala_insurgency16_insmain_bluecivspawner",
        "class": "ObjectSpawner",
        "name_object": "Civilian Car",
        "team": "1",
        "obj1": "civ_jep_car_black",
        "obj2": "null",
        "maxspawn": "99999.0",
        "minspawn": "99999.0",
        "spawndelay": "false",
        "ttl": "99999.0",
        "cpid": "-1"
      }
    },
    {
      "type": "Feature",
      "geometry": {
        "type": "Point",
        "coordinates": [1564.339, -1085.968],
        "size": [16, 16]
      },
      "properties": {
        "iconurl": "icons/vehicles_map/mini_civ_car.png",
        "iconrotate": "166.245",
        "popupContent": "Amazing information about Civilian Car will be found here!"
      },
      "bf2props": {
        "name": "cpname_karbala_insurgency16_insmain_bluecivbomber",
        "class": "ObjectSpawner",
        "name_object": "Civilian Car",
        "team": "1",
        "obj1": "civ_jep_car_blue",
        "obj2": "null",
        "maxspawn": "99999.0",
        "minspawn": "99999.0",
        "spawndelay": "false",
        "ttl": "99999.0",
        "cpid": "-1"
      }
    },
    {
      "type": "Feature",
      "geometry": {
        "type": "Point",
        "coordinates": [350.693, -1296.8359],
        "size": [16, 16]
      },
      "properties": {
        "iconurl": "icons/vehicles_map/mini_civ_car.png",
        "iconrotate": "90.0",
        "popupContent": "Amazing information about Civilian Car will be found here!"
      },
      "bf2props": {
        "name": "cpname_karbala_insurgency64_insmain_ammo_88",
        "class": "ObjectSpawner",
        "name_object": "Civilian Car",
        "team": "1",
        "obj1": "civ_jep_car_blue",
        "obj2": "null",
        "maxspawn": "99999.0",
        "minspawn": "99999.0",
        "spawndelay": "false",
        "ttl": "99999.0",
        "cpid": "-1"
      }
    },
    {
      "type": "Feature",
      "geometry": {
        "type": "Point",
        "coordinates": [999.0, -1251.0],
        "size": [33, 33],
        "radius": "0.0"
      },
      "properties": {
        "iconurl": "icons/flags_map/meinsurgent/minimap_cpbase.png",
        "iconrotate": "0",
        "popupContent": "Amazing information about Mosque will be found here!"
      },
      "bf2props": {
        "name": "cpname_karbala_insurgency16_insmain",
        "class": "ControlPoint",
        "name_object": "Mosque",
        "team": "1",
        "areavalue1": "0.0",
        "areavalue2": "0.0",
        "cpid": "301",
        "sgid": "1",
        "uncap": "true",
        "ttgc": "0.0",
        "ttlc": "0.0"
      }
    },
    {
      "type": "Feature",
      "geometry": {
        "type": "Point",
        "coordinates": [1842.0, -149.0],
        "size": [33, 33],
        "radius": "0.0"
      },
      "properties": {
        "iconurl": "icons/flags_map/us/minimap_cpbase.png",
        "iconrotate": "0",
        "popupContent": "Amazing information about US Army Operations Base will be found here!"
      },
      "bf2props": {
        "name": "cpname_karbala_insurgency16_usmain",
        "class": "ControlPoint",
        "name_object": "US Army Operations Base",
        "team": "2",
        "areavalue1": "0.0",
        "areavalue2": "0.0",
        "cpid": "302",
        "sgid": "-999",
        "uncap": "true",
        "ttgc": "0.0",
        "ttlc": "0.0"
      }
    },
    {
      "type": "Feature",
      "geometry": {
        "type": "Polygon",
        "coordinates": [
          [
            [0,0],
            [0,-2048],
            [2048,-2048],
            [2048,0]
          ],[
            [2046.0, -2.0],
            [2046.0, -2046.0],
            [2.0, -2046.0],
            [2.0, -2.0]
          ]
        ]
      },
      "bf2props": {
        "code": "combatarea_0_ammocaches_city",
        "class": "CombatArea",
        "team": "0",
        "vehicles": "4",
        "layer": "5",
        "inverted": "false",
        "max": [0.0, 0.0],
        "min": [0.0, 0.0]
      }
    },
    {
      "type": "Feature",
      "geometry": {
        "type": "Polygon",
        "coordinates": [
          [
            [1059.9384, -1317.0935],
            [1060.1132, -1303.4669],
            [1054.2677, -1280.3236],
            [1057.9517, -1102.0775],
            [922.2999, -1100.2797],
            [921.7127, -1154.0391],
            [941.63776, -1179.5118],
            [941.51166, -1312.1768]
          ]
        ]
      },
      "bf2props": {
        "code": "combatarea_4_ammocaches_city",
        "class": "CombatArea",
        "team": "2",
        "vehicles": "4",
        "layer": "5",
        "inverted": "true",
        "max": [0.0, 0.0],
        "min": [0.0, 0.0]
      }
    },
    {
      "type": "Feature",
      "geometry": {
        "type": "Polygon",
        "coordinates": [
          [
            [2046.7927, -566.1532],
            [2046.5004, -1.144043],
            [1435.961, -0.79138184],
            [1462.2427, -356.1665],
            [1573.2058, -488.69812]
          ]
        ]
      },
      "bf2props": {
        "code": "combatarea_12_ammocaches_city",
        "class": "CombatArea",
        "team": "1",
        "vehicles": "4",
        "layer": "5",
        "inverted": "true",
        "max": [0.0, 0.0],
        "min": [0.0, 0.0]
      }
    }
  ]
}