{
  "team1":"chinsurgent",
  "team2":"ru",
  "team1tickets":"400",
  "team2tickets":"450",
  "mapsize":"2048",
  "viewdistance":"400",
  "combatareause":"true",
  "combatareadamage":"20.0",
  "combatareaallowoutside":"10.0",
  "routes": [
    [
      [
        "cpname_assault_on_grozny_coop64_milmain"
      ],
      [
        "cpname_assault_on_grozny_coop64_southcity"
      ],
      [
        "cpname_assault_on_grozny_coop64_hotel",
        "cpname_assault_on_grozny_coop64_apartments"
      ],
      [
        "cpname_assault_on_grozny_coop64_park",
        "cpname_assault_on_grozny_coop64_station"
      ],
      [
        "cpname_assault_on_grozny_coop64_cityentrance"
      ],
      [
        "cpname_assault_on_grozny_coop64_russiamain"
      ]
    ]
  ],
  "type": "FeatureCollection",
  "features": [
    {
      "type": "Feature",
      "geometry": {
        "type": "Point",
        "coordinates": [144.008, -130.09198],
        "size": [16, 16]
      },
      "properties": {
        "iconurl": "icons/vehicles_map/mini_ahe_medium.png",
        "iconrotate": "-90.0",
        "popupContent": "Amazing information about null will be found here!"
      },
      "bf2props": {
        "name": "cpname_assault_on_grozny_coop64_russiamain_hind",
        "class": "ObjectSpawner",
        "name_object": "Mi-24V Hind-E",
        "team": "2",
        "obj1": "null",
        "obj2": "ru_ahe_mi24_light",
        "maxspawn": "600.0",
        "minspawn": "600.0",
        "spawndelay": "false",
        "ttl": "1200.0",
        "cpid": "1"
      }
    },
    {
      "type": "Feature",
      "geometry": {
        "type": "Point",
        "coordinates": [63.723022, -133.19],
        "size": [16, 16]
      },
      "properties": {
        "iconurl": "icons/vehicles_map/mini_tank_heavy.png",
        "iconrotate": "90.0",
        "popupContent": "Amazing information about null will be found here!"
      },
      "bf2props": {
        "name": "cpname_assault_on_grozny_coop64_russiamain_tank",
        "class": "ObjectSpawner",
        "name_object": "T-90A",
        "team": "2",
        "obj1": "null",
        "obj2": "ru_tnk_t90_alt",
        "maxspawn": "600.0",
        "minspawn": "600.0",
        "spawndelay": "false",
        "ttl": "1200.0",
        "cpid": "1"
      }
    },
    {
      "type": "Feature",
      "geometry": {
        "type": "Point",
        "coordinates": [63.723022, -112.974976],
        "size": [16, 16]
      },
      "properties": {
        "iconurl": "icons/vehicles_map/mini_apc_heavy.png",
        "iconrotate": "90.0",
        "popupContent": "Amazing information about null will be found here!"
      },
      "bf2props": {
        "name": "cpname_assault_on_grozny_coop64_russiamain_bmp",
        "class": "ObjectSpawner",
        "name_object": "BMP-2",
        "team": "2",
        "obj1": "null",
        "obj2": "ru_ifv_bmp2_bf2",
        "maxspawn": "300.0",
        "minspawn": "300.0",
        "spawndelay": "false",
        "ttl": "1200.0",
        "cpid": "1"
      }
    },
    {
      "type": "Feature",
      "geometry": {
        "type": "Point",
        "coordinates": [63.723022, -128.11499],
        "size": [16, 16]
      },
      "properties": {
        "iconurl": "icons/vehicles_map/mini_apc_heavy.png",
        "iconrotate": "90.0",
        "popupContent": "Amazing information about null will be found here!"
      },
      "bf2props": {
        "name": "cpname_assault_on_grozny_coop64_russiamain_bmp_0",
        "class": "ObjectSpawner",
        "name_object": "BMP-3",
        "team": "2",
        "obj1": "null",
        "obj2": "ru_ifv_bmp3",
        "maxspawn": "300.0",
        "minspawn": "300.0",
        "spawndelay": "false",
        "ttl": "1200.0",
        "cpid": "1"
      }
    },
    {
      "type": "Feature",
      "geometry": {
        "type": "Point",
        "coordinates": [63.723022, -123.12598],
        "size": [16, 16]
      },
      "properties": {
        "iconurl": "icons/vehicles_map/mini_apc_heavy.png",
        "iconrotate": "90.0",
        "popupContent": "Amazing information about null will be found here!"
      },
      "bf2props": {
        "name": "cpname_assault_on_grozny_coop64_russiamain_bmp_1",
        "class": "ObjectSpawner",
        "name_object": "BMP-3",
        "team": "2",
        "obj1": "null",
        "obj2": "ru_ifv_bmp3",
        "maxspawn": "300.0",
        "minspawn": "300.0",
        "spawndelay": "false",
        "ttl": "1200.0",
        "cpid": "1"
      }
    },
    {
      "type": "Feature",
      "geometry": {
        "type": "Point",
        "coordinates": [63.723022, -118.09601],
        "size": [16, 16]
      },
      "properties": {
        "iconurl": "icons/vehicles_map/mini_apc_heavy.png",
        "iconrotate": "90.0",
        "popupContent": "Amazing information about null will be found here!"
      },
      "bf2props": {
        "name": "cpname_assault_on_grozny_coop64_russiamain_bmp_2",
        "class": "ObjectSpawner",
        "name_object": "BMP-2",
        "team": "2",
        "obj1": "null",
        "obj2": "ru_ifv_bmp2_bf2",
        "maxspawn": "300.0",
        "minspawn": "300.0",
        "spawndelay": "false",
        "ttl": "1200.0",
        "cpid": "1"
      }
    },
    {
      "type": "Feature",
      "geometry": {
        "type": "Point",
        "coordinates": [126.23102, -86.604004],
        "size": [16, 16]
      },
      "properties": {
        "iconurl": "icons/mini_map/repairdepot.png",
        "iconrotate": "0",
        "popupContent": "Amazing information about null will be found here!"
      },
      "bf2props": {
        "name": "cpname_assault_on_grozny_coop64_russiamain_depot",
        "class": "ObjectSpawner",
        "name_object": "Vehicle Depot",
        "team": "2",
        "obj1": "null",
        "obj2": "vehicle_depot_ru",
        "maxspawn": "300.0",
        "minspawn": "300.0",
        "spawndelay": "false",
        "ttl": "1200.0",
        "cpid": "1"
      }
    },
    {
      "type": "Feature",
      "geometry": {
        "type": "Point",
        "coordinates": [124.37097, -45.716003],
        "size": [16, 16]
      },
      "properties": {
        "iconurl": "icons/mini_map/uavtrailer.png",
        "iconrotate": "0",
        "popupContent": "Amazing information about null will be found here!"
      },
      "bf2props": {
        "name": "cpname_assault_on_grozny_coop64_russiamain_acv",
        "class": "ObjectSpawner",
        "name_object": "UAV Terminal",
        "team": "2",
        "obj1": "null",
        "obj2": "ru_acv_btr60pu",
        "maxspawn": "300.0",
        "minspawn": "300.0",
        "spawndelay": "false",
        "ttl": "1200.0",
        "cpid": "1"
      }
    },
    {
      "type": "Feature",
      "geometry": {
        "type": "Point",
        "coordinates": [123.801025, -128.17297],
        "size": [16, 16]
      },
      "properties": {
        "iconurl": "icons/vehicles_map/mini_trk_support.png",
        "iconrotate": "-90.0",
        "popupContent": "Amazing information about null will be found here!"
      },
      "bf2props": {
        "name": "cpname_assault_on_grozny_coop64_russiamain_truck",
        "class": "ObjectSpawner",
        "name_object": "Ural-4320",
        "team": "2",
        "obj1": "null",
        "obj2": "ru_trk_support",
        "maxspawn": "300.0",
        "minspawn": "300.0",
        "spawndelay": "false",
        "ttl": "1200.0",
        "cpid": "1"
      }
    },
    {
      "type": "Feature",
      "geometry": {
        "type": "Point",
        "coordinates": [123.801025, -137.59698],
        "size": [16, 16]
      },
      "properties": {
        "iconurl": "icons/vehicles_map/mini_trk_logistics.png",
        "iconrotate": "-90.0",
        "popupContent": "Amazing information about null will be found here!"
      },
      "bf2props": {
        "name": "cpname_assault_on_grozny_coop64_russiamain_truck_0",
        "class": "ObjectSpawner",
        "name_object": "Ural-4320 Logistics",
        "team": "2",
        "obj1": "null",
        "obj2": "ru_trk_logistics",
        "maxspawn": "300.0",
        "minspawn": "300.0",
        "spawndelay": "false",
        "ttl": "1200.0",
        "cpid": "1"
      }
    },
    {
      "type": "Feature",
      "geometry": {
        "type": "Point",
        "coordinates": [123.801025, -134.44897],
        "size": [16, 16]
      },
      "properties": {
        "iconurl": "icons/vehicles_map/mini_trk_logistics.png",
        "iconrotate": "-90.0",
        "popupContent": "Amazing information about null will be found here!"
      },
      "bf2props": {
        "name": "cpname_assault_on_grozny_coop64_russiamain_truck_1",
        "class": "ObjectSpawner",
        "name_object": "Ural-4320 Logistics",
        "team": "2",
        "obj1": "null",
        "obj2": "ru_trk_logistics",
        "maxspawn": "300.0",
        "minspawn": "300.0",
        "spawndelay": "false",
        "ttl": "1200.0",
        "cpid": "1"
      }
    },
    {
      "type": "Feature",
      "geometry": {
        "type": "Point",
        "coordinates": [123.801025, -131.28699],
        "size": [16, 16]
      },
      "properties": {
        "iconurl": "icons/vehicles_map/mini_trk_support.png",
        "iconrotate": "-90.0",
        "popupContent": "Amazing information about null will be found here!"
      },
      "bf2props": {
        "name": "cpname_assault_on_grozny_coop64_russiamain_truck_2",
        "class": "ObjectSpawner",
        "name_object": "Ural-4320",
        "team": "2",
        "obj1": "null",
        "obj2": "ru_trk_support",
        "maxspawn": "300.0",
        "minspawn": "300.0",
        "spawndelay": "false",
        "ttl": "1200.0",
        "cpid": "1"
      }
    },
    {
      "type": "Feature",
      "geometry": {
        "type": "Point",
        "coordinates": [1134.979, -889.073],
        "size": [16, 16]
      },
      "properties": {
        "iconurl": "icons/vehicles_map/mini_stw_atgm.png",
        "iconrotate": "-10.736",
        "popupContent": "Amazing information about ats_hj8_ndl will be found here!"
      },
      "bf2props": {
        "name": "cpname_assault_on_grozny_coop64_hotel_ats",
        "class": "ObjectSpawner",
        "name_object": "ats_hj8_ndl",
        "team": "1",
        "obj1": "ats_hj8_ndl",
        "obj2": "null",
        "maxspawn": "300.0",
        "minspawn": "300.0",
        "spawndelay": "false",
        "ttl": "1200.0",
        "cpid": "3"
      }
    },
    {
      "type": "Feature",
      "geometry": {
        "type": "Point",
        "coordinates": [878.331, -629.963],
        "size": [16, 16]
      },
      "properties": {
        "iconurl": "icons/vehicles_map/mini_stw_atgun.png",
        "iconrotate": "-90.0",
        "popupContent": "Amazing information about ZiS-3 Field Gun will be found here!"
      },
      "bf2props": {
        "name": "cpname_assault_on_grozny_coop64_park_zis",
        "class": "ObjectSpawner",
        "name_object": "ZiS-3 Field Gun",
        "team": "1",
        "obj1": "zis3",
        "obj2": "null",
        "maxspawn": "300.0",
        "minspawn": "300.0",
        "spawndelay": "false",
        "ttl": "1200.0",
        "cpid": "4"
      }
    },
    {
      "type": "Feature",
      "geometry": {
        "type": "Point",
        "coordinates": [766.586, -729.862],
        "size": [16, 16]
      },
      "properties": {
        "iconurl": "icons/vehicles_map/mini_stw_atgun.png",
        "iconrotate": "-40.0",
        "popupContent": "Amazing information about ZiS-3 Field Gun will be found here!"
      },
      "bf2props": {
        "name": "cpname_assault_on_grozny_coop64_park_siz",
        "class": "ObjectSpawner",
        "name_object": "ZiS-3 Field Gun",
        "team": "1",
        "obj1": "zis3",
        "obj2": "null",
        "maxspawn": "300.0",
        "minspawn": "300.0",
        "spawndelay": "false",
        "ttl": "1200.0",
        "cpid": "4"
      }
    },
    {
      "type": "Feature",
      "geometry": {
        "type": "Point",
        "coordinates": [822.343, -953.586],
        "size": [16, 16]
      },
      "properties": {
        "iconurl": "icons/vehicles_map/mini_stw_atgm.png",
        "iconrotate": "-87.779",
        "popupContent": "Amazing information about ats_hj8 will be found here!"
      },
      "bf2props": {
        "name": "cpname_assault_on_grozny_coop64_station_ats",
        "class": "ObjectSpawner",
        "name_object": "ats_hj8",
        "team": "1",
        "obj1": "ats_hj8",
        "obj2": "null",
        "maxspawn": "300.0",
        "minspawn": "300.0",
        "spawndelay": "false",
        "ttl": "1200.0",
        "cpid": "5"
      }
    },
    {
      "type": "Feature",
      "geometry": {
        "type": "Point",
        "coordinates": [1057.053, -1132.943],
        "size": [16, 16]
      },
      "properties": {
        "iconurl": "icons/vehicles_map/mini_stw_atgun.png",
        "iconrotate": "-40.0",
        "popupContent": "Amazing information about ZiS-3 Field Gun will be found here!"
      },
      "bf2props": {
        "name": "cpname_assault_on_grozny_coop64_apartments_zis",
        "class": "ObjectSpawner",
        "name_object": "ZiS-3 Field Gun",
        "team": "1",
        "obj1": "zis3",
        "obj2": "null",
        "maxspawn": "300.0",
        "minspawn": "300.0",
        "spawndelay": "false",
        "ttl": "1200.0",
        "cpid": "6"
      }
    },
    {
      "type": "Feature",
      "geometry": {
        "type": "Point",
        "coordinates": [1185.59, -978.314],
        "size": [16, 16]
      },
      "properties": {
        "iconurl": "icons/vehicles_map/mini_tank_medium.png",
        "iconrotate": "90.0",
        "popupContent": "Amazing information about T-62 will be found here!"
      },
      "bf2props": {
        "name": "cpname_assault_on_grozny_coop64_hotel_tank",
        "class": "ObjectSpawner",
        "name_object": "T-62",
        "team": "1",
        "obj1": "mil_tnk_t62",
        "obj2": "null",
        "maxspawn": "900.0",
        "minspawn": "900.0",
        "spawndelay": "false",
        "ttl": "1200.0",
        "cpid": "3"
      }
    },
    {
      "type": "Feature",
      "geometry": {
        "type": "Point",
        "coordinates": [1165.003, -1194.38],
        "size": [16, 16]
      },
      "properties": {
        "iconurl": "icons/vehicles_map/mini_tank_medium.png",
        "iconrotate": "-180.0",
        "popupContent": "Amazing information about T-62 will be found here!"
      },
      "bf2props": {
        "name": "cpname_assault_on_grozny_coop64_apartments_tank",
        "class": "ObjectSpawner",
        "name_object": "T-62",
        "team": "1",
        "obj1": "mil_tnk_t62",
        "obj2": "null",
        "maxspawn": "900.0",
        "minspawn": "900.0",
        "spawndelay": "false",
        "ttl": "1200.0",
        "cpid": "6"
      }
    },
    {
      "type": "Feature",
      "geometry": {
        "type": "Point",
        "coordinates": [1896.593, -1908.0181],
        "size": [16, 16]
      },
      "properties": {
        "iconurl": "icons/vehicles_map/mini_tank_medium.png",
        "iconrotate": "179.366",
        "popupContent": "Amazing information about T-62 will be found here!"
      },
      "bf2props": {
        "name": "cpname_assault_on_grozny_coop64_milmain_tank",
        "class": "ObjectSpawner",
        "name_object": "T-62",
        "team": "1",
        "obj1": "mil_tnk_t62",
        "obj2": "null",
        "maxspawn": "900.0",
        "minspawn": "900.0",
        "spawndelay": "false",
        "ttl": "1200.0",
        "cpid": "8"
      }
    },
    {
      "type": "Feature",
      "geometry": {
        "type": "Point",
        "coordinates": [1913.694, -1907.8301],
        "size": [16, 16]
      },
      "properties": {
        "iconurl": "icons/vehicles_map/mini_tank_medium.png",
        "iconrotate": "179.366",
        "popupContent": "Amazing information about T-62 will be found here!"
      },
      "bf2props": {
        "name": "cpname_assault_on_grozny_coop64_milmain_tank_0",
        "class": "ObjectSpawner",
        "name_object": "T-62",
        "team": "1",
        "obj1": "mil_tnk_t62_bf2",
        "obj2": "null",
        "maxspawn": "900.0",
        "minspawn": "900.0",
        "spawndelay": "false",
        "ttl": "1200.0",
        "cpid": "8"
      }
    },
    {
      "type": "Feature",
      "geometry": {
        "type": "Point",
        "coordinates": [1908.0449, -1907.8921],
        "size": [16, 16]
      },
      "properties": {
        "iconurl": "icons/vehicles_map/mini_tank_medium.png",
        "iconrotate": "179.366",
        "popupContent": "Amazing information about T-62 will be found here!"
      },
      "bf2props": {
        "name": "cpname_assault_on_grozny_coop64_milmain_tank_1",
        "class": "ObjectSpawner",
        "name_object": "T-62",
        "team": "1",
        "obj1": "mil_tnk_t62_bf2",
        "obj2": "null",
        "maxspawn": "900.0",
        "minspawn": "900.0",
        "spawndelay": "false",
        "ttl": "1200.0",
        "cpid": "8"
      }
    },
    {
      "type": "Feature",
      "geometry": {
        "type": "Point",
        "coordinates": [1902.1179, -1907.958],
        "size": [16, 16]
      },
      "properties": {
        "iconurl": "icons/vehicles_map/mini_tank_medium.png",
        "iconrotate": "179.366",
        "popupContent": "Amazing information about T-62 will be found here!"
      },
      "bf2props": {
        "name": "cpname_assault_on_grozny_coop64_milmain_tank_2",
        "class": "ObjectSpawner",
        "name_object": "T-62",
        "team": "1",
        "obj1": "mil_tnk_t62",
        "obj2": "null",
        "maxspawn": "900.0",
        "minspawn": "900.0",
        "spawndelay": "false",
        "ttl": "1200.0",
        "cpid": "8"
      }
    },
    {
      "type": "Feature",
      "geometry": {
        "type": "Point",
        "coordinates": [1918.635, -1926.209],
        "size": [16, 16]
      },
      "properties": {
        "iconurl": "icons/vehicles_map/mini_rec_atgm.png",
        "iconrotate": "-89.342",
        "popupContent": "Amazing information about 9P148 Spandrel will be found here!"
      },
      "bf2props": {
        "name": "cpname_assault_on_grozny_coop64_milmain_brdm",
        "class": "ObjectSpawner",
        "name_object": "9P148 Spandrel",
        "team": "1",
        "obj1": "mec_atm_spandrel_bf2",
        "obj2": "null",
        "maxspawn": "300.0",
        "minspawn": "300.0",
        "spawndelay": "false",
        "ttl": "1200.0",
        "cpid": "8"
      }
    },
    {
      "type": "Feature",
      "geometry": {
        "type": "Point",
        "coordinates": [1918.78, -1934.073],
        "size": [16, 16]
      },
      "properties": {
        "iconurl": "icons/vehicles_map/mini_apc_heavy.png",
        "iconrotate": "-89.342",
        "popupContent": "Amazing information about BMP-1 will be found here!"
      },
      "bf2props": {
        "name": "cpname_assault_on_grozny_coop64_milmain_brdm_0",
        "class": "ObjectSpawner",
        "name_object": "BMP-1",
        "team": "1",
        "obj1": "mil_ifv_bmp1",
        "obj2": "null",
        "maxspawn": "300.0",
        "minspawn": "300.0",
        "spawndelay": "false",
        "ttl": "1200.0",
        "cpid": "8"
      }
    },
    {
      "type": "Feature",
      "geometry": {
        "type": "Point",
        "coordinates": [1918.8259, -1930.099],
        "size": [16, 16]
      },
      "properties": {
        "iconurl": "icons/vehicles_map/mini_apc_heavy.png",
        "iconrotate": "-89.342",
        "popupContent": "Amazing information about BMP-1 will be found here!"
      },
      "bf2props": {
        "name": "cpname_assault_on_grozny_coop64_milmain_spandrel",
        "class": "ObjectSpawner",
        "name_object": "BMP-1",
        "team": "1",
        "obj1": "mil_ifv_bmp1",
        "obj2": "null",
        "maxspawn": "300.0",
        "minspawn": "300.0",
        "spawndelay": "false",
        "ttl": "1200.0",
        "cpid": "8"
      }
    },
    {
      "type": "Feature",
      "geometry": {
        "type": "Point",
        "coordinates": [1920.3931, -1915.1279],
        "size": [16, 16]
      },
      "properties": {
        "iconurl": "icons/vehicles_map/mini_trk_support.png",
        "iconrotate": "-89.342",
        "popupContent": "Amazing information about Ural-4320 will be found here!"
      },
      "bf2props": {
        "name": "cpname_assault_on_grozny_coop64_milmain_logi",
        "class": "ObjectSpawner",
        "name_object": "Ural-4320",
        "team": "1",
        "obj1": "mil_trk_support",
        "obj2": "null",
        "maxspawn": "300.0",
        "minspawn": "300.0",
        "spawndelay": "false",
        "ttl": "1200.0",
        "cpid": "8"
      }
    },
    {
      "type": "Feature",
      "geometry": {
        "type": "Point",
        "coordinates": [1920.314, -1922.002],
        "size": [16, 16]
      },
      "properties": {
        "iconurl": "icons/vehicles_map/mini_trk_logistics.png",
        "iconrotate": "-89.342",
        "popupContent": "Amazing information about Ural-4320 Logistics will be found here!"
      },
      "bf2props": {
        "name": "cpname_assault_on_grozny_coop64_milmain_logi_0",
        "class": "ObjectSpawner",
        "name_object": "Ural-4320 Logistics",
        "team": "1",
        "obj1": "mil_trk_logistics",
        "obj2": "null",
        "maxspawn": "300.0",
        "minspawn": "300.0",
        "spawndelay": "false",
        "ttl": "1200.0",
        "cpid": "8"
      }
    },
    {
      "type": "Feature",
      "geometry": {
        "type": "Point",
        "coordinates": [1920.353, -1918.572],
        "size": [16, 16]
      },
      "properties": {
        "iconurl": "icons/vehicles_map/mini_trk_logistics.png",
        "iconrotate": "-89.342",
        "popupContent": "Amazing information about Ural-4320 Logistics will be found here!"
      },
      "bf2props": {
        "name": "cpname_assault_on_grozny_coop64_milmain_support",
        "class": "ObjectSpawner",
        "name_object": "Ural-4320 Logistics",
        "team": "1",
        "obj1": "mil_trk_logistics",
        "obj2": "null",
        "maxspawn": "300.0",
        "minspawn": "300.0",
        "spawndelay": "false",
        "ttl": "1200.0",
        "cpid": "8"
      }
    },
    {
      "type": "Feature",
      "geometry": {
        "type": "Point",
        "coordinates": [1897.3091, -1942.933],
        "size": [16, 16]
      },
      "properties": {
        "iconurl": "icons/mini_map/repairdepot.png",
        "iconrotate": "0",
        "popupContent": "Amazing information about Vehicle Depot will be found here!"
      },
      "bf2props": {
        "name": "cpname_assault_on_grozny_coop64_milmain_depot",
        "class": "ObjectSpawner",
        "name_object": "Vehicle Depot",
        "team": "1",
        "obj1": "vehicle_depot_mil",
        "obj2": "null",
        "maxspawn": "300.0",
        "minspawn": "300.0",
        "spawndelay": "false",
        "ttl": "1200.0",
        "cpid": "8"
      }
    },
    {
      "type": "Feature",
      "geometry": {
        "type": "Point",
        "coordinates": [1910.853, -1944.422],
        "size": [16, 16]
      },
      "properties": {
        "iconurl": "icons/mini_map/uavtrailer.png",
        "iconrotate": "0",
        "popupContent": "Amazing information about UAV Terminal will be found here!"
      },
      "bf2props": {
        "name": "cpname_assault_on_grozny_coop64_milmain_acv",
        "class": "ObjectSpawner",
        "name_object": "UAV Terminal",
        "team": "1",
        "obj1": "mil_acv_technical",
        "obj2": "null",
        "maxspawn": "300.0",
        "minspawn": "300.0",
        "spawndelay": "false",
        "ttl": "1200.0",
        "cpid": "8"
      }
    },
    {
      "type": "Feature",
      "geometry": {
        "type": "Point",
        "coordinates": [388.399, -473.55298],
        "size": [16, 16]
      },
      "properties": {
        "iconurl": "icons/vehicles_map/mini_stw_mortar.png",
        "iconrotate": "90.0",
        "popupContent": "Amazing information about null will be found here!"
      },
      "bf2props": {
        "name": "cpname_assault_on_grozny_coop64_russiamain_mortar",
        "class": "ObjectSpawner",
        "name_object": "fixed_mortar",
        "team": "2",
        "obj1": "null",
        "obj2": "fixed_mortar",
        "maxspawn": "900.0",
        "minspawn": "900.0",
        "spawndelay": "false",
        "ttl": "1200.0",
        "cpid": "1"
      }
    },
    {
      "type": "Feature",
      "geometry": {
        "type": "Point",
        "coordinates": [388.091, -483.63202],
        "size": [16, 16]
      },
      "properties": {
        "iconurl": "icons/vehicles_map/mini_stw_mortar.png",
        "iconrotate": "90.0",
        "popupContent": "Amazing information about null will be found here!"
      },
      "bf2props": {
        "name": "cpname_assault_on_grozny_coop64_russiamain_mortar_0",
        "class": "ObjectSpawner",
        "name_object": "fixed_mortar",
        "team": "2",
        "obj1": "null",
        "obj2": "fixed_mortar",
        "maxspawn": "900.0",
        "minspawn": "900.0",
        "spawndelay": "false",
        "ttl": "1200.0",
        "cpid": "1"
      }
    },
    {
      "type": "Feature",
      "geometry": {
        "type": "Point",
        "coordinates": [1071.651, -683.423],
        "size": [16, 16]
      },
      "properties": {
        "iconurl": "icons/vehicles_map/mini_stw_mortar.png",
        "iconrotate": "-90.0",
        "popupContent": "Amazing information about fixed_mortar_ins will be found here!"
      },
      "bf2props": {
        "name": "cpname_assault_on_grozny_coop64_park_mortar",
        "class": "ObjectSpawner",
        "name_object": "fixed_mortar_ins",
        "team": "1",
        "obj1": "fixed_mortar_ins",
        "obj2": "null",
        "maxspawn": "900.0",
        "minspawn": "900.0",
        "spawndelay": "false",
        "ttl": "1200.0",
        "cpid": "4"
      }
    },
    {
      "type": "Feature",
      "geometry": {
        "type": "Point",
        "coordinates": [908.939, -1187.342],
        "size": [16, 16]
      },
      "properties": {
        "iconurl": "icons/vehicles_map/mini_stw_mortar.png",
        "iconrotate": "-90.0",
        "popupContent": "Amazing information about fixed_mortar_ins will be found here!"
      },
      "bf2props": {
        "name": "cpname_assault_on_grozny_coop64_apartments_mortar",
        "class": "ObjectSpawner",
        "name_object": "fixed_mortar_ins",
        "team": "1",
        "obj1": "fixed_mortar_ins",
        "obj2": "null",
        "maxspawn": "900.0",
        "minspawn": "900.0",
        "spawndelay": "false",
        "ttl": "1200.0",
        "cpid": "6"
      }
    },
    {
      "type": "Feature",
      "geometry": {
        "type": "Point",
        "coordinates": [1263.657, -1082.407],
        "size": [16, 16]
      },
      "properties": {
        "iconurl": "icons/vehicles_map/mini_stw_mortar.png",
        "iconrotate": "-90.0",
        "popupContent": "Amazing information about fixed_mortar_ins will be found here!"
      },
      "bf2props": {
        "name": "cpname_assault_on_grozny_coop64_southcity_mortar",
        "class": "ObjectSpawner",
        "name_object": "fixed_mortar_ins",
        "team": "1",
        "obj1": "fixed_mortar_ins",
        "obj2": "null",
        "maxspawn": "900.0",
        "minspawn": "900.0",
        "spawndelay": "false",
        "ttl": "1200.0",
        "cpid": "7"
      }
    },
    {
      "type": "Feature",
      "geometry": {
        "type": "Point",
        "coordinates": [1282.585, -784.895],
        "size": [16, 16]
      },
      "properties": {
        "iconurl": "icons/vehicles_map/mini_stw_mortar.png",
        "iconrotate": "-90.0",
        "popupContent": "Amazing information about fixed_mortar_ins will be found here!"
      },
      "bf2props": {
        "name": "cpname_assault_on_grozny_coop64_hotel_mortar",
        "class": "ObjectSpawner",
        "name_object": "fixed_mortar_ins",
        "team": "1",
        "obj1": "fixed_mortar_ins",
        "obj2": "null",
        "maxspawn": "900.0",
        "minspawn": "900.0",
        "spawndelay": "false",
        "ttl": "1200.0",
        "cpid": "3"
      }
    },
    {
      "type": "Feature",
      "geometry": {
        "type": "Point",
        "coordinates": [110.11902, -118.547],
        "size": [33, 33],
        "radius": "3.0"
      },
      "properties": {
        "iconurl": "icons/flags_map/ru/minimap_cpbase.png",
        "iconrotate": "0",
        "popupContent": "Amazing information about Russian FOB will be found here!"
      },
      "bf2props": {
        "name": "cpname_assault_on_grozny_coop64_russiamain",
        "class": "ControlPoint",
        "name_object": "Russian FOB",
        "team": "2",
        "areavalue1": "0.0",
        "areavalue2": "0.0",
        "cpid": "1",
        "sgid": "6",
        "uncap": "true",
        "ttgc": "120.0",
        "ttlc": "120.0"
      }
    },
    {
      "type": "Feature",
      "geometry": {
        "type": "Point",
        "coordinates": [625.075, -558.98804],
        "size": [33, 33],
        "radius": "75.0"
      },
      "properties": {
        "iconurl": "icons/flags_map/chinsurgent/minimap_cp.png",
        "iconrotate": "0",
        "popupContent": "Amazing information about City Entrance 75m will be found here!"
      },
      "bf2props": {
        "name": "cpname_assault_on_grozny_coop64_cityentrance",
        "class": "ControlPoint",
        "name_object": "City Entrance 75m",
        "team": "1",
        "areavalue1": "0.0",
        "areavalue2": "0.0",
        "cpid": "2",
        "sgid": "5",
        "uncap": "false",
        "ttgc": "120.0",
        "ttlc": "120.0"
      }
    },
    {
      "type": "Feature",
      "geometry": {
        "type": "Point",
        "coordinates": [1166.878, -886.37],
        "size": [33, 33],
        "radius": "50.0"
      },
      "properties": {
        "iconurl": "icons/flags_map/chinsurgent/minimap_cp.png",
        "iconrotate": "0",
        "popupContent": "Amazing information about Hotel 50m will be found here!"
      },
      "bf2props": {
        "name": "cpname_assault_on_grozny_coop64_hotel",
        "class": "ControlPoint",
        "name_object": "Hotel 50m",
        "team": "1",
        "areavalue1": "0.0",
        "areavalue2": "0.0",
        "cpid": "3",
        "sgid": "3",
        "uncap": "false",
        "ttgc": "120.0",
        "ttlc": "120.0"
      }
    },
    {
      "type": "Feature",
      "geometry": {
        "type": "Point",
        "coordinates": [897.865, -599.70496],
        "size": [33, 33],
        "radius": "70.0"
      },
      "properties": {
        "iconurl": "icons/flags_map/chinsurgent/minimap_cp.png",
        "iconrotate": "0",
        "popupContent": "Amazing information about Park 70m will be found here!"
      },
      "bf2props": {
        "name": "cpname_assault_on_grozny_coop64_park",
        "class": "ControlPoint",
        "name_object": "Park 70m",
        "team": "1",
        "areavalue1": "0.0",
        "areavalue2": "0.0",
        "cpid": "4",
        "sgid": "4",
        "uncap": "false",
        "ttgc": "120.0",
        "ttlc": "120.0"
      }
    },
    {
      "type": "Feature",
      "geometry": {
        "type": "Point",
        "coordinates": [825.464, -966.722],
        "size": [33, 33],
        "radius": "50.0"
      },
      "properties": {
        "iconurl": "icons/flags_map/chinsurgent/minimap_cp.png",
        "iconrotate": "0",
        "popupContent": "Amazing information about Train Station 50m will be found here!"
      },
      "bf2props": {
        "name": "cpname_assault_on_grozny_coop64_station",
        "class": "ControlPoint",
        "name_object": "Train Station 50m",
        "team": "1",
        "areavalue1": "0.0",
        "areavalue2": "0.0",
        "cpid": "5",
        "sgid": "4",
        "uncap": "false",
        "ttgc": "120.0",
        "ttlc": "120.0"
      }
    },
    {
      "type": "Feature",
      "geometry": {
        "type": "Point",
        "coordinates": [1051.58, -1103.14],
        "size": [33, 33],
        "radius": "50.0"
      },
      "properties": {
        "iconurl": "icons/flags_map/chinsurgent/minimap_cp.png",
        "iconrotate": "0",
        "popupContent": "Amazing information about Apartments 50m will be found here!"
      },
      "bf2props": {
        "name": "cpname_assault_on_grozny_coop64_apartments",
        "class": "ControlPoint",
        "name_object": "Apartments 50m",
        "team": "1",
        "areavalue1": "0.0",
        "areavalue2": "0.0",
        "cpid": "6",
        "sgid": "3",
        "uncap": "false",
        "ttgc": "120.0",
        "ttlc": "120.0"
      }
    },
    {
      "type": "Feature",
      "geometry": {
        "type": "Point",
        "coordinates": [1358.566, -1132.15],
        "size": [33, 33],
        "radius": "50.0"
      },
      "properties": {
        "iconurl": "icons/flags_map/chinsurgent/minimap_cp.png",
        "iconrotate": "0",
        "popupContent": "Amazing information about South Grozny 50m will be found here!"
      },
      "bf2props": {
        "name": "cpname_assault_on_grozny_coop64_southcity",
        "class": "ControlPoint",
        "name_object": "South Grozny 50m",
        "team": "1",
        "areavalue1": "0.0",
        "areavalue2": "0.0",
        "cpid": "7",
        "sgid": "2",
        "uncap": "false",
        "ttgc": "120.0",
        "ttlc": "120.0"
      }
    },
    {
      "type": "Feature",
      "geometry": {
        "type": "Point",
        "coordinates": [1912.0591, -1914.5281],
        "size": [33, 33],
        "radius": "3.0"
      },
      "properties": {
        "iconurl": "icons/flags_map/chinsurgent/minimap_cp.png",
        "iconrotate": "0",
        "popupContent": "Amazing information about Militia Staging Area will be found here!"
      },
      "bf2props": {
        "name": "cpname_assault_on_grozny_coop64_milmain",
        "class": "ControlPoint",
        "name_object": "Militia Staging Area",
        "team": "1",
        "areavalue1": "0.0",
        "areavalue2": "0.0",
        "cpid": "8",
        "sgid": "1",
        "uncap": "false",
        "ttgc": "120.0",
        "ttlc": "120.0"
      }
    },
    {
      "type": "Feature",
      "geometry": {
        "type": "Polygon",
        "coordinates": [
          [
            [0,0],
            [0,-2048],
            [2048,-2048],
            [2048,0]
          ],[
            [0.8215332, -0.8679199],
            [0.9178467, -2046.531],
            [2045.1587, -2046.7549],
            [2047.4539, -1.4177246]
          ]
        ]
      },
      "bf2props": {
        "code": "combatarea_0_default",
        "class": "CombatArea",
        "team": "0",
        "vehicles": "4",
        "layer": "1",
        "inverted": "false",
        "max": [0.0, 0.0],
        "min": [0.0, 0.0]
      }
    },
    {
      "type": "Feature",
      "geometry": {
        "type": "Polygon",
        "coordinates": [
          [
            [0.8890991, -0.9038086],
            [-0.2010498, -815.396],
            [260.8031, -788.52795],
            [364.27936, -396.43457],
            [495.1621, 0.31933594]
          ]
        ]
      },
      "bf2props": {
        "code": "combatarea_4_default",
        "class": "CombatArea",
        "team": "1",
        "vehicles": "4",
        "layer": "1",
        "inverted": "true",
        "max": [0.0, 0.0],
        "min": [0.0, 0.0]
      }
    },
    {
      "type": "Feature",
      "geometry": {
        "type": "Polygon",
        "coordinates": [
          [
            [2045.7313, -2046.2356],
            [2047.3069, -1189.906],
            [1721.3461, -1210.2755],
            [1496.812, -1435.6194],
            [1404.633, -1739.2507],
            [1344.8627, -2044.7222],
            [2048.0, -2047.1016]
          ]
        ]
      },
      "bf2props": {
        "code": "combatarea_9_default",
        "class": "CombatArea",
        "team": "2",
        "vehicles": "4",
        "layer": "1",
        "inverted": "true",
        "max": [0.0, 0.0],
        "min": [0.0, 0.0]
      }
    }
  ]
}