{
  "team1":"chinsurgent",
  "team2":"ru",
  "team1tickets":"1100",
  "team2tickets":"1100",
  "mapsize":"2048",
  "viewdistance":"400",
  "combatareause":"true",
  "combatareadamage":"20.0",
  "combatareaallowoutside":"10.0",
  "routes": [
    [
      [
        "cpname_assault_on_grozny_aas128_chechenmain"
      ],
      [
        "cpname_assault_on_grozny_aas128_khankala",
        "cpname_assault_on_grozny_aas128_waterplant"
      ],
      [
        "cpname_assault_on_grozny_aas128_minutka_square"
      ],
      [
        "cpname_assault_on_grozny_aas128_presidential_palace"
      ],
      [
        "cpname_assault_on_grozny_aas128_airport",
        "cpname_assault_on_grozny_aas128_outskirts"
      ],
      [
        "cpname_assault_on_grozny_aas128_russianmain"
      ]
    ],
    [
      [
        "cpname_assault_on_grozny_aas128_chechenmain"
      ],
      [
        "cpname_assault_on_grozny_aas128_last"
      ],
      [
        "cpname_assault_on_grozny_aas128_hill"
      ],
      [
        "cpname_assault_on_grozny_aas128_industry",
        "cpname_assault_on_grozny_aas128_lumberdepot",
        "cpname_assault_on_grozny_aas128_industry2"
      ],
      [
        "cpname_assault_on_grozny_aas128_alkhan_kala",
        "cpname_assault_on_grozny_aas128_oildepot"
      ],
      [
        "cpname_assault_on_grozny_aas128_hillnorth"
      ],
      [
        "cpname_assault_on_grozny_aas128_first"
      ],
      [
        "cpname_assault_on_grozny_aas128_russianmain"
      ]
    ],
    [
      [
        "cpname_assault_on_grozny_aas128_chechenmain"
      ],
      [
        "cpname_assault_on_grozny_aas128_checkpoint4"
      ],
      [
        "cpname_assault_on_grozny_aas128_trenches"
      ],
      [
        "cpname_assault_on_grozny_aas128_checkpoint3"
      ],
      [
        "cpname_assault_on_grozny_aas128_checkpoint2b"
      ],
      [
        "cpname_assault_on_grozny_aas128_checkpoint1",
        "cpname_assault_on_grozny_aas128_checkpoint"
      ],
      [
        "cpname_assault_on_grozny_aas128_russianmain"
      ]
    ],
    [
      [
        "cpname_assault_on_grozny_aas128_chechenmain"
      ],
      [
        "cpname_assault_on_grozny_aas128_alpha"
      ],
      [
        "cpname_assault_on_grozny_aas128_bravo1",
        "cpname_assault_on_grozny_aas128_bravo2"
      ],
      [
        "cpname_assault_on_grozny_aas128_charlie1",
        "cpname_assault_on_grozny_aas128_charlie2",
        "cpname_assault_on_grozny_aas128_charlie3"
      ],
      [
        "cpname_assault_on_grozny_aas128_delta1",
        "cpname_assault_on_grozny_aas128_delta2",
        "cpname_assault_on_grozny_aas128_delta3"
      ],
      [
        "cpname_assault_on_grozny_aas128_echo1",
        "cpname_assault_on_grozny_aas128_echo2"
      ],
      [
        "cpname_assault_on_grozny_aas128_foxtrot"
      ],
      [
        "cpname_assault_on_grozny_aas128_russianmain"
      ]
    ]
  ],
  "type": "FeatureCollection",
  "features": [
    {
      "type": "Feature",
      "geometry": {
        "type": "Point",
        "coordinates": [73.11499, -111.39801],
        "size": [16, 16]
      },
      "properties": {
        "iconurl": "icons/vehicles_map/mini_apc_heavy.png",
        "iconrotate": "180.0",
        "popupContent": "Amazing information about null will be found here!"
      },
      "bf2props": {
        "name": "cpname_assault_on_grozny_aas128_russianmain_bmp2",
        "class": "ObjectSpawner",
        "name_object": "BMP-2",
        "team": "2",
        "obj1": "null",
        "obj2": "ru_ifv_bmp2",
        "maxspawn": "900.0",
        "minspawn": "900.0",
        "spawndelay": "false",
        "ttl": "99999.0",
        "cpid": "1"
      }
    },
    {
      "type": "Feature",
      "geometry": {
        "type": "Point",
        "coordinates": [51.53302, -126.90198],
        "size": [16, 16]
      },
      "properties": {
        "iconurl": "icons/mini_map/repairdepot.png",
        "iconrotate": "0",
        "popupContent": "Amazing information about null will be found here!"
      },
      "bf2props": {
        "name": "cpname_assault_on_grozny_aas128_russianmain_depot",
        "class": "ObjectSpawner",
        "name_object": "Vehicle Depot",
        "team": "2",
        "obj1": "null",
        "obj2": "vehicle_depot_ru",
        "maxspawn": "5.0",
        "minspawn": "5.0",
        "spawndelay": "false",
        "ttl": "0.0",
        "cpid": "1"
      }
    },
    {
      "type": "Feature",
      "geometry": {
        "type": "Point",
        "coordinates": [79.03302, -111.60101],
        "size": [16, 16]
      },
      "properties": {
        "iconurl": "icons/vehicles_map/mini_apc_medium.png",
        "iconrotate": "180.0",
        "popupContent": "Amazing information about null will be found here!"
      },
      "bf2props": {
        "name": "cpname_assault_on_grozny_aas128_russianmain_apc1",
        "class": "ObjectSpawner",
        "name_object": "BTR-80",
        "team": "2",
        "obj1": "null",
        "obj2": "ru_apc_btr80",
        "maxspawn": "600.0",
        "minspawn": "600.0",
        "spawndelay": "false",
        "ttl": "99999.0",
        "cpid": "1"
      }
    },
    {
      "type": "Feature",
      "geometry": {
        "type": "Point",
        "coordinates": [1890.207, -1942.9509],
        "size": [16, 16]
      },
      "properties": {
        "iconurl": "icons/vehicles_map/mini_apc_heavy.png",
        "iconrotate": "0.0",
        "popupContent": "Amazing information about BMP-1 will be found here!"
      },
      "bf2props": {
        "name": "cpname_assault_on_grozny_aas128_chechenmain_ifv",
        "class": "ObjectSpawner",
        "name_object": "BMP-1",
        "team": "1",
        "obj1": "mil_ifv_bmp1",
        "obj2": "null",
        "maxspawn": "1200.0",
        "minspawn": "1200.0",
        "spawndelay": "false",
        "ttl": "99999.0",
        "cpid": "109"
      }
    },
    {
      "type": "Feature",
      "geometry": {
        "type": "Point",
        "coordinates": [1904.041, -1944.425],
        "size": [16, 16]
      },
      "properties": {
        "iconurl": "icons/vehicles_map/mini_jep_atgm.png",
        "iconrotate": "0.0",
        "popupContent": "Amazing information about SPG-9 Technical will be found here!"
      },
      "bf2props": {
        "name": "cpname_assault_on_grozny_aas128_chechenmain_atmtechie",
        "class": "ObjectSpawner",
        "name_object": "SPG-9 Technical",
        "team": "1",
        "obj1": "civ_atm_technical_militia",
        "obj2": "null",
        "maxspawn": "300.0",
        "minspawn": "300.0",
        "spawndelay": "false",
        "ttl": "99999.0",
        "cpid": "109"
      }
    },
    {
      "type": "Feature",
      "geometry": {
        "type": "Point",
        "coordinates": [1924.186, -1924.058],
        "size": [16, 16]
      },
      "properties": {
        "iconurl": "icons/vehicles_map/mini_trk_logistics.png",
        "iconrotate": "-90.0",
        "popupContent": "Amazing information about Ural-4320 Logistics will be found here!"
      },
      "bf2props": {
        "name": "cpname_assault_on_grozny_aas128_chechenmain_logi2",
        "class": "ObjectSpawner",
        "name_object": "Ural-4320 Logistics",
        "team": "1",
        "obj1": "mil_trk_logistics",
        "obj2": "null",
        "maxspawn": "300.0",
        "minspawn": "300.0",
        "spawndelay": "false",
        "ttl": "99999.0",
        "cpid": "109"
      }
    },
    {
      "type": "Feature",
      "geometry": {
        "type": "Point",
        "coordinates": [910.385, -920.338],
        "size": [16, 16]
      },
      "properties": {
        "iconurl": "icons/player_map/mini_squad.png",
        "iconrotate": "0",
        "popupContent": "Amazing information about Temporary spawnpoint will be found here!"
      },
      "bf2props": {
        "name": "cpname_assault_on_grozny_aas128_presidential_palace_1",
        "class": "ObjectSpawner",
        "name_object": "Temporary spawnpoint",
        "team": "1",
        "obj1": "rallypoint_chinsurgent_placeable",
        "obj2": "null",
        "maxspawn": "99999.0",
        "minspawn": "99999.0",
        "spawndelay": "false",
        "ttl": "1200.0",
        "cpid": "103"
      }
    },
    {
      "type": "Feature",
      "geometry": {
        "type": "Point",
        "coordinates": [66.71802, -111.643005],
        "size": [16, 16]
      },
      "properties": {
        "iconurl": "icons/vehicles_map/mini_tank_heavy.png",
        "iconrotate": "180.0",
        "popupContent": "Amazing information about null will be found here!"
      },
      "bf2props": {
        "name": "cpname_assault_on_grozny_aas128_russianmain_heavy2",
        "class": "ObjectSpawner",
        "name_object": "T-72B1",
        "team": "2",
        "obj1": "null",
        "obj2": "ru_tnk_t72b",
        "maxspawn": "1200.0",
        "minspawn": "1200.0",
        "spawndelay": "false",
        "ttl": "99999.0",
        "cpid": "1"
      }
    },
    {
      "type": "Feature",
      "geometry": {
        "type": "Point",
        "coordinates": [91.070984, -111.41998],
        "size": [16, 16]
      },
      "properties": {
        "iconurl": "icons/vehicles_map/mini_apc_light.png",
        "iconrotate": "180.0",
        "popupContent": "Amazing information about null will be found here!"
      },
      "bf2props": {
        "name": "cpname_assault_on_grozny_aas128_russianmain_apc3",
        "class": "ObjectSpawner",
        "name_object": "MT-LB",
        "team": "2",
        "obj1": "null",
        "obj2": "ru_apc_mtlb",
        "maxspawn": "600.0",
        "minspawn": "600.0",
        "spawndelay": "false",
        "ttl": "99999.0",
        "cpid": "1"
      }
    },
    {
      "type": "Feature",
      "geometry": {
        "type": "Point",
        "coordinates": [96.98602, -111.53198],
        "size": [16, 16]
      },
      "properties": {
        "iconurl": "icons/vehicles_map/mini_apc_light.png",
        "iconrotate": "180.0",
        "popupContent": "Amazing information about null will be found here!"
      },
      "bf2props": {
        "name": "cpname_assault_on_grozny_aas128_russianmain_apc4",
        "class": "ObjectSpawner",
        "name_object": "MT-LB",
        "team": "2",
        "obj1": "null",
        "obj2": "ru_apc_mtlb",
        "maxspawn": "600.0",
        "minspawn": "600.0",
        "spawndelay": "false",
        "ttl": "99999.0",
        "cpid": "1"
      }
    },
    {
      "type": "Feature",
      "geometry": {
        "type": "Point",
        "coordinates": [126.56897, -133.97699],
        "size": [16, 16]
      },
      "properties": {
        "iconurl": "icons/vehicles_map/mini_trk_support.png",
        "iconrotate": "-90.0",
        "popupContent": "Amazing information about null will be found here!"
      },
      "bf2props": {
        "name": "cpname_assault_on_grozny_aas128_russianmain_support2",
        "class": "ObjectSpawner",
        "name_object": "Ural-4320",
        "team": "2",
        "obj1": "null",
        "obj2": "ru_trk_support",
        "maxspawn": "300.0",
        "minspawn": "300.0",
        "spawndelay": "false",
        "ttl": "99999.0",
        "cpid": "1"
      }
    },
    {
      "type": "Feature",
      "geometry": {
        "type": "Point",
        "coordinates": [126.58502, -138.97699],
        "size": [16, 16]
      },
      "properties": {
        "iconurl": "icons/vehicles_map/mini_trk_support.png",
        "iconrotate": "-90.0",
        "popupContent": "Amazing information about null will be found here!"
      },
      "bf2props": {
        "name": "cpname_assault_on_grozny_aas128_russianmain_support1",
        "class": "ObjectSpawner",
        "name_object": "Ural-4320",
        "team": "2",
        "obj1": "null",
        "obj2": "ru_trk_support",
        "maxspawn": "300.0",
        "minspawn": "300.0",
        "spawndelay": "false",
        "ttl": "99999.0",
        "cpid": "1"
      }
    },
    {
      "type": "Feature",
      "geometry": {
        "type": "Point",
        "coordinates": [84.810974, -111.820984],
        "size": [16, 16]
      },
      "properties": {
        "iconurl": "icons/vehicles_map/mini_apc_medium.png",
        "iconrotate": "180.0",
        "popupContent": "Amazing information about null will be found here!"
      },
      "bf2props": {
        "name": "cpname_assault_on_grozny_aas128_russianmain_apc2",
        "class": "ObjectSpawner",
        "name_object": "BTR-80",
        "team": "2",
        "obj1": "null",
        "obj2": "ru_apc_btr80",
        "maxspawn": "600.0",
        "minspawn": "600.0",
        "spawndelay": "false",
        "ttl": "99999.0",
        "cpid": "1"
      }
    },
    {
      "type": "Feature",
      "geometry": {
        "type": "Point",
        "coordinates": [126.52899, -128.93402],
        "size": [16, 16]
      },
      "properties": {
        "iconurl": "icons/vehicles_map/mini_trk_logistics.png",
        "iconrotate": "-90.0",
        "popupContent": "Amazing information about null will be found here!"
      },
      "bf2props": {
        "name": "cpname_assault_on_grozny_aas128_russianmain_logi2",
        "class": "ObjectSpawner",
        "name_object": "Ural-4320 Logistics",
        "team": "2",
        "obj1": "null",
        "obj2": "ru_trk_logistics",
        "maxspawn": "300.0",
        "minspawn": "300.0",
        "spawndelay": "false",
        "ttl": "99999.0",
        "cpid": "1"
      }
    },
    {
      "type": "Feature",
      "geometry": {
        "type": "Point",
        "coordinates": [126.52002, -123.867004],
        "size": [16, 16]
      },
      "properties": {
        "iconurl": "icons/vehicles_map/mini_trk_logistics.png",
        "iconrotate": "-90.0",
        "popupContent": "Amazing information about null will be found here!"
      },
      "bf2props": {
        "name": "cpname_assault_on_grozny_aas128_russianmain_logi1",
        "class": "ObjectSpawner",
        "name_object": "Ural-4320 Logistics",
        "team": "2",
        "obj1": "null",
        "obj2": "ru_trk_logistics",
        "maxspawn": "300.0",
        "minspawn": "300.0",
        "spawndelay": "false",
        "ttl": "99999.0",
        "cpid": "1"
      }
    },
    {
      "type": "Feature",
      "geometry": {
        "type": "Point",
        "coordinates": [1924.182, -1929.696],
        "size": [16, 16]
      },
      "properties": {
        "iconurl": "icons/vehicles_map/mini_trk_logistics.png",
        "iconrotate": "-90.0",
        "popupContent": "Amazing information about Ural-4320 Logistics will be found here!"
      },
      "bf2props": {
        "name": "cpname_assault_on_grozny_aas128_chechenmain_logi1",
        "class": "ObjectSpawner",
        "name_object": "Ural-4320 Logistics",
        "team": "1",
        "obj1": "mil_trk_logistics",
        "obj2": "null",
        "maxspawn": "300.0",
        "minspawn": "300.0",
        "spawndelay": "false",
        "ttl": "99999.0",
        "cpid": "109"
      }
    },
    {
      "type": "Feature",
      "geometry": {
        "type": "Point",
        "coordinates": [1912.6421, -1943.609],
        "size": [16, 16]
      },
      "properties": {
        "iconurl": "icons/mini_map/repairdepot.png",
        "iconrotate": "0",
        "popupContent": "Amazing information about Vehicle Depot will be found here!"
      },
      "bf2props": {
        "name": "cpname_assault_on_grozny_aas128_chechenmain_depot",
        "class": "ObjectSpawner",
        "name_object": "Vehicle Depot",
        "team": "1",
        "obj1": "vehicle_depot_mil",
        "obj2": "null",
        "maxspawn": "5.0",
        "minspawn": "5.0",
        "spawndelay": "false",
        "ttl": "0.0",
        "cpid": "109"
      }
    },
    {
      "type": "Feature",
      "geometry": {
        "type": "Point",
        "coordinates": [1924.151, -1918.263],
        "size": [16, 16]
      },
      "properties": {
        "iconurl": "icons/vehicles_map/mini_trk_support.png",
        "iconrotate": "-90.0",
        "popupContent": "Amazing information about Ural-4320 will be found here!"
      },
      "bf2props": {
        "name": "cpname_assault_on_grozny_aas128_chechenmain_support1",
        "class": "ObjectSpawner",
        "name_object": "Ural-4320",
        "team": "1",
        "obj1": "mil_trk_support",
        "obj2": "null",
        "maxspawn": "300.0",
        "minspawn": "300.0",
        "spawndelay": "false",
        "ttl": "99999.0",
        "cpid": "109"
      }
    },
    {
      "type": "Feature",
      "geometry": {
        "type": "Point",
        "coordinates": [1897.772, -1943.7991],
        "size": [16, 16]
      },
      "properties": {
        "iconurl": "icons/vehicles_map/mini_adv_light.png",
        "iconrotate": "0.0",
        "popupContent": "Amazing information about Ural-4320 ZU-23-2 will be found here!"
      },
      "bf2props": {
        "name": "cpname_assault_on_grozny_aas128_chechenmain_aav",
        "class": "ObjectSpawner",
        "name_object": "Ural-4320 ZU-23-2",
        "team": "1",
        "obj1": "civ_aav_uralzu232",
        "obj2": "null",
        "maxspawn": "600.0",
        "minspawn": "600.0",
        "spawndelay": "false",
        "ttl": "99999.0",
        "cpid": "109"
      }
    },
    {
      "type": "Feature",
      "geometry": {
        "type": "Point",
        "coordinates": [1902.065, -1906.479],
        "size": [16, 16]
      },
      "properties": {
        "iconurl": "icons/vehicles_map/mini_civ_car.png",
        "iconrotate": "-145.0",
        "popupContent": "Amazing information about Civilian Car will be found here!"
      },
      "bf2props": {
        "name": "cpname_assault_on_grozny_aas128_chechenmain_car4",
        "class": "ObjectSpawner",
        "name_object": "Civilian Car",
        "team": "1",
        "obj1": "civ_jep_car",
        "obj2": "null",
        "maxspawn": "300.0",
        "minspawn": "300.0",
        "spawndelay": "false",
        "ttl": "99999.0",
        "cpid": "109"
      }
    },
    {
      "type": "Feature",
      "geometry": {
        "type": "Point",
        "coordinates": [1924.033, -1912.9509],
        "size": [16, 16]
      },
      "properties": {
        "iconurl": "icons/vehicles_map/mini_trk_support.png",
        "iconrotate": "-90.0",
        "popupContent": "Amazing information about Ural-4320 will be found here!"
      },
      "bf2props": {
        "name": "cpname_assault_on_grozny_aas128_chechenmain_support2",
        "class": "ObjectSpawner",
        "name_object": "Ural-4320",
        "team": "1",
        "obj1": "mil_trk_support",
        "obj2": "null",
        "maxspawn": "300.0",
        "minspawn": "300.0",
        "spawndelay": "false",
        "ttl": "99999.0",
        "cpid": "109"
      }
    },
    {
      "type": "Feature",
      "geometry": {
        "type": "Point",
        "coordinates": [1881.22, -1910.62],
        "size": [16, 16]
      },
      "properties": {
        "iconurl": "icons/vehicles_map/mini_tank_medium.png",
        "iconrotate": "-90.764",
        "popupContent": "Amazing information about T-62 will be found here!"
      },
      "bf2props": {
        "name": "cpname_assault_on_grozny_aas128_chechenmain_techie1",
        "class": "ObjectSpawner",
        "name_object": "T-62",
        "team": "1",
        "obj1": "mil_tnk_t62",
        "obj2": "null",
        "maxspawn": "1200.0",
        "minspawn": "1200.0",
        "spawndelay": "false",
        "ttl": "99999.0",
        "cpid": "109"
      }
    },
    {
      "type": "Feature",
      "geometry": {
        "type": "Point",
        "coordinates": [1906.05, -1906.542],
        "size": [16, 16]
      },
      "properties": {
        "iconurl": "icons/vehicles_map/mini_civ_car.png",
        "iconrotate": "-145.0",
        "popupContent": "Amazing information about Civilian Car will be found here!"
      },
      "bf2props": {
        "name": "cpname_assault_on_grozny_aas128_chechenmain_car3",
        "class": "ObjectSpawner",
        "name_object": "Civilian Car",
        "team": "1",
        "obj1": "civ_jep_car_white",
        "obj2": "null",
        "maxspawn": "300.0",
        "minspawn": "300.0",
        "spawndelay": "false",
        "ttl": "99999.0",
        "cpid": "109"
      }
    },
    {
      "type": "Feature",
      "geometry": {
        "type": "Point",
        "coordinates": [1892.99, -1901.88],
        "size": [16, 16]
      },
      "properties": {
        "iconurl": "icons/vehicles_map/mini_civ_car.png",
        "iconrotate": "-180.0",
        "popupContent": "Amazing information about Zastava 900AK Van will be found here!"
      },
      "bf2props": {
        "name": "cpname_assault_on_grozny_aas128_chechenmain_zastava1",
        "class": "ObjectSpawner",
        "name_object": "Zastava 900AK Van",
        "team": "1",
        "obj1": "civ_jep_zastava900ak_militia",
        "obj2": "null",
        "maxspawn": "300.0",
        "minspawn": "300.0",
        "spawndelay": "false",
        "ttl": "99999.0",
        "cpid": "109"
      }
    },
    {
      "type": "Feature",
      "geometry": {
        "type": "Point",
        "coordinates": [1903.5171, -1888.634],
        "size": [16, 16]
      },
      "properties": {
        "iconurl": "icons/mini_map/uavtrailer.png",
        "iconrotate": "0",
        "popupContent": "Amazing information about UAV Terminal will be found here!"
      },
      "bf2props": {
        "name": "cpname_assault_on_grozny_aas128_chechenmain_command",
        "class": "ObjectSpawner",
        "name_object": "UAV Terminal",
        "team": "1",
        "obj1": "mil_acv_technical",
        "obj2": "null",
        "maxspawn": "5.0",
        "minspawn": "5.0",
        "spawndelay": "false",
        "ttl": "0.0",
        "cpid": "109"
      }
    },
    {
      "type": "Feature",
      "geometry": {
        "type": "Point",
        "coordinates": [1910.1631, -1906.5759],
        "size": [16, 16]
      },
      "properties": {
        "iconurl": "icons/vehicles_map/mini_civ_car.png",
        "iconrotate": "-145.0",
        "popupContent": "Amazing information about Civilian Car will be found here!"
      },
      "bf2props": {
        "name": "cpname_assault_on_grozny_aas128_chechenmain_car2",
        "class": "ObjectSpawner",
        "name_object": "Civilian Car",
        "team": "1",
        "obj1": "civ_jep_car_black",
        "obj2": "null",
        "maxspawn": "300.0",
        "minspawn": "300.0",
        "spawndelay": "false",
        "ttl": "99999.0",
        "cpid": "109"
      }
    },
    {
      "type": "Feature",
      "geometry": {
        "type": "Point",
        "coordinates": [1913.967, -1906.9929],
        "size": [16, 16]
      },
      "properties": {
        "iconurl": "icons/vehicles_map/mini_jep_atgm.png",
        "iconrotate": "-145.0",
        "popupContent": "Amazing information about SPG-9 Technical will be found here!"
      },
      "bf2props": {
        "name": "cpname_assault_on_grozny_aas128_chechenmain_car1",
        "class": "ObjectSpawner",
        "name_object": "SPG-9 Technical",
        "team": "1",
        "obj1": "civ_atm_technical_militia",
        "obj2": "null",
        "maxspawn": "300.0",
        "minspawn": "300.0",
        "spawndelay": "false",
        "ttl": "99999.0",
        "cpid": "109"
      }
    },
    {
      "type": "Feature",
      "geometry": {
        "type": "Point",
        "coordinates": [59.586975, -111.76703],
        "size": [16, 16]
      },
      "properties": {
        "iconurl": "icons/vehicles_map/mini_trk_support.png",
        "iconrotate": "-180.0",
        "popupContent": "Amazing information about null will be found here!"
      },
      "bf2props": {
        "name": "cpname_assault_on_grozny_aas128_russianmain_heavy3",
        "class": "ObjectSpawner",
        "name_object": "Ural-4320",
        "team": "2",
        "obj1": "null",
        "obj2": "ru_trk_support",
        "maxspawn": "300.0",
        "minspawn": "300.0",
        "spawndelay": "false",
        "ttl": "99999.0",
        "cpid": "1"
      }
    },
    {
      "type": "Feature",
      "geometry": {
        "type": "Point",
        "coordinates": [125.435974, -85.01599],
        "size": [16, 16]
      },
      "properties": {
        "iconurl": "icons/mini_map/uavtrailer.png",
        "iconrotate": "0",
        "popupContent": "Amazing information about null will be found here!"
      },
      "bf2props": {
        "name": "cpname_assault_on_grozny_aas128_russianmain_command",
        "class": "ObjectSpawner",
        "name_object": "UAV Terminal",
        "team": "2",
        "obj1": "null",
        "obj2": "ru_acv_btr60pu",
        "maxspawn": "5.0",
        "minspawn": "5.0",
        "spawndelay": "false",
        "ttl": "0.0",
        "cpid": "1"
      }
    },
    {
      "type": "Feature",
      "geometry": {
        "type": "Point",
        "coordinates": [59.43701, 119.11304],
        "size": [16, 16]
      },
      "properties": {
        "iconurl": "icons/mini_map/airdef.png",
        "iconrotate": "0",
        "popupContent": "Amazing information about null will be found here!"
      },
      "bf2props": {
        "name": "cpname_assault_on_grozny_aas128_russianmain_artillery2",
        "class": "ObjectSpawner",
        "name_object": "Artillery Barrage Call-In",
        "team": "2",
        "obj1": "null",
        "obj2": "artillery_team2",
        "maxspawn": "1800.0",
        "minspawn": "1800.0",
        "spawndelay": "true",
        "ttl": "0.0",
        "cpid": "1"
      }
    },
    {
      "type": "Feature",
      "geometry": {
        "type": "Point",
        "coordinates": [56.124023, 112.61804],
        "size": [16, 16]
      },
      "properties": {
        "iconurl": "icons/mini_map/airdef.png",
        "iconrotate": "0",
        "popupContent": "Amazing information about null will be found here!"
      },
      "bf2props": {
        "name": "cpname_assault_on_grozny_aas128_russianmain_artillery3",
        "class": "ObjectSpawner",
        "name_object": "Artillery Barrage Call-In",
        "team": "2",
        "obj1": "null",
        "obj2": "artillery_team2",
        "maxspawn": "1800.0",
        "minspawn": "1800.0",
        "spawndelay": "true",
        "ttl": "0.0",
        "cpid": "1"
      }
    },
    {
      "type": "Feature",
      "geometry": {
        "type": "Point",
        "coordinates": [69.854004, 111.61096],
        "size": [16, 16]
      },
      "properties": {
        "iconurl": "icons/mini_map/airdef.png",
        "iconrotate": "0",
        "popupContent": "Amazing information about null will be found here!"
      },
      "bf2props": {
        "name": "cpname_assault_on_grozny_aas128_russianmain_artillery1",
        "class": "ObjectSpawner",
        "name_object": "Artillery Barrage Call-In",
        "team": "2",
        "obj1": "null",
        "obj2": "artillery_team2",
        "maxspawn": "1800.0",
        "minspawn": "1800.0",
        "spawndelay": "true",
        "ttl": "0.0",
        "cpid": "1"
      }
    },
    {
      "type": "Feature",
      "geometry": {
        "type": "Point",
        "coordinates": [972.995, -843.347],
        "size": [16, 16]
      },
      "properties": {
        "iconurl": "icons/vehicles_map/mini_stw_atgun.png",
        "iconrotate": "-54.47",
        "popupContent": "Amazing information about ZiS-3 Field Gun will be found here!"
      },
      "bf2props": {
        "name": "cpname_assault_on_grozny_aas128_chechenmain_gun",
        "class": "ObjectSpawner",
        "name_object": "ZiS-3 Field Gun",
        "team": "1",
        "obj1": "zis3",
        "obj2": "null",
        "maxspawn": "999999.0",
        "minspawn": "999999.0",
        "spawndelay": "false",
        "ttl": "12000.0",
        "cpid": "109"
      }
    },
    {
      "type": "Feature",
      "geometry": {
        "type": "Point",
        "coordinates": [126.64099, -110.79498],
        "size": [16, 16]
      },
      "properties": {
        "iconurl": "icons/vehicles_map/mini_trk_support.png",
        "iconrotate": "-90.0",
        "popupContent": "Amazing information about null will be found here!"
      },
      "bf2props": {
        "name": "cpname_assault_on_grozny_aas128_russianmain_support3",
        "class": "ObjectSpawner",
        "name_object": "Ural-4320",
        "team": "2",
        "obj1": "null",
        "obj2": "ru_trk_support",
        "maxspawn": "300.0",
        "minspawn": "300.0",
        "spawndelay": "false",
        "ttl": "99999.0",
        "cpid": "1"
      }
    },
    {
      "type": "Feature",
      "geometry": {
        "type": "Point",
        "coordinates": [1896.244, -1901.897],
        "size": [16, 16]
      },
      "properties": {
        "iconurl": "icons/vehicles_map/mini_civ_car.png",
        "iconrotate": "-180.0",
        "popupContent": "Amazing information about Zastava 900AK Van will be found here!"
      },
      "bf2props": {
        "name": "cpname_assault_on_grozny_aas128_chechenmain_zastava2",
        "class": "ObjectSpawner",
        "name_object": "Zastava 900AK Van",
        "team": "1",
        "obj1": "civ_jep_zastava900ak_militia",
        "obj2": "null",
        "maxspawn": "300.0",
        "minspawn": "300.0",
        "spawndelay": "false",
        "ttl": "99999.0",
        "cpid": "109"
      }
    },
    {
      "type": "Feature",
      "geometry": {
        "type": "Point",
        "coordinates": [1049.162, -198.547],
        "size": [33, 33],
        "radius": "120.0"
      },
      "properties": {
        "iconurl": "icons/flags_map/ru/minimap_cp.png",
        "iconrotate": "0",
        "popupContent": "Amazing information about Airport 120m will be found here!"
      },
      "bf2props": {
        "name": "cpname_assault_on_grozny_aas128_airport",
        "class": "ControlPoint",
        "name_object": "Airport 120m",
        "team": "2",
        "areavalue1": "100.0",
        "areavalue2": "0.0",
        "cpid": "101",
        "sgid": "511",
        "uncap": "false",
        "ttgc": "180.0",
        "ttlc": "150.0"
      }
    },
    {
      "type": "Feature",
      "geometry": {
        "type": "Point",
        "coordinates": [914.407, -844.96204],
        "size": [33, 33],
        "radius": "70.0"
      },
      "properties": {
        "iconurl": "icons/flags_map/chinsurgent/minimap_cp.png",
        "iconrotate": "0",
        "popupContent": "Amazing information about Presidential Palace 70m will be found here!"
      },
      "bf2props": {
        "name": "cpname_assault_on_grozny_aas128_presidential_palace",
        "class": "ControlPoint",
        "name_object": "Presidential Palace 70m",
        "team": "1",
        "areavalue1": "0.0",
        "areavalue2": "0.0",
        "cpid": "103",
        "sgid": "401",
        "uncap": "false",
        "ttgc": "180.0",
        "ttlc": "180.0"
      }
    },
    {
      "type": "Feature",
      "geometry": {
        "type": "Point",
        "coordinates": [1162.22, -1097.577],
        "size": [33, 33],
        "radius": "80.0"
      },
      "properties": {
        "iconurl": "icons/flags_map/chinsurgent/minimap_cp.png",
        "iconrotate": "0",
        "popupContent": "Amazing information about Minutka Square 80m will be found here!"
      },
      "bf2props": {
        "name": "cpname_assault_on_grozny_aas128_minutka_square",
        "class": "ControlPoint",
        "name_object": "Minutka Square 80m",
        "team": "1",
        "areavalue1": "0.0",
        "areavalue2": "0.0",
        "cpid": "104",
        "sgid": "301",
        "uncap": "false",
        "ttgc": "180.0",
        "ttlc": "180.0"
      }
    },
    {
      "type": "Feature",
      "geometry": {
        "type": "Point",
        "coordinates": [713.763, -1249.349],
        "size": [33, 33],
        "radius": "70.0"
      },
      "properties": {
        "iconurl": "icons/flags_map/neutral/minimap_cp.png",
        "iconrotate": "0",
        "popupContent": "Amazing information about Industrial Area 70m will be found here!"
      },
      "bf2props": {
        "name": "cpname_assault_on_grozny_aas128_industry",
        "class": "ControlPoint",
        "name_object": "Industrial Area 70m",
        "team": "0",
        "areavalue1": "0.0",
        "areavalue2": "0.0",
        "cpid": "106",
        "sgid": "412",
        "uncap": "false",
        "ttgc": "180.0",
        "ttlc": "180.0"
      }
    },
    {
      "type": "Feature",
      "geometry": {
        "type": "Point",
        "coordinates": [1743.974, -992.546],
        "size": [33, 33],
        "radius": "200.0"
      },
      "properties": {
        "iconurl": "icons/flags_map/chinsurgent/minimap_cp.png",
        "iconrotate": "0",
        "popupContent": "Amazing information about Khankala 200m will be found here!"
      },
      "bf2props": {
        "name": "cpname_assault_on_grozny_aas128_khankala",
        "class": "ControlPoint",
        "name_object": "Khankala 200m",
        "team": "1",
        "areavalue1": "0.0",
        "areavalue2": "100.0",
        "cpid": "107",
        "sgid": "211",
        "uncap": "false",
        "ttgc": "150.0",
        "ttlc": "180.0"
      }
    },
    {
      "type": "Feature",
      "geometry": {
        "type": "Point",
        "coordinates": [1168.024, -1591.349],
        "size": [33, 33],
        "radius": "120.0"
      },
      "properties": {
        "iconurl": "icons/flags_map/chinsurgent/minimap_cp.png",
        "iconrotate": "0",
        "popupContent": "Amazing information about Hill 120m will be found here!"
      },
      "bf2props": {
        "name": "cpname_assault_on_grozny_aas128_waterplant",
        "class": "ControlPoint",
        "name_object": "Hill 120m",
        "team": "1",
        "areavalue1": "0.0",
        "areavalue2": "100.0",
        "cpid": "108",
        "sgid": "211",
        "uncap": "false",
        "ttgc": "150.0",
        "ttlc": "180.0"
      }
    },
    {
      "type": "Feature",
      "geometry": {
        "type": "Point",
        "coordinates": [1916.36, -1912.323],
        "size": [33, 33],
        "radius": "5.0"
      },
      "properties": {
        "iconurl": "icons/flags_map/chinsurgent/minimap_cpbase.png",
        "iconrotate": "0",
        "popupContent": "Amazing information about Chechen Main will be found here!"
      },
      "bf2props": {
        "name": "cpname_assault_on_grozny_aas128_chechenmain",
        "class": "ControlPoint",
        "name_object": "Chechen Main",
        "team": "1",
        "areavalue1": "0.0",
        "areavalue2": "0.0",
        "cpid": "109",
        "sgid": "1",
        "uncap": "true",
        "ttgc": "0.0",
        "ttlc": "0.0"
      }
    },
    {
      "type": "Feature",
      "geometry": {
        "type": "Point",
        "coordinates": [572.055, -477.849],
        "size": [33, 33],
        "radius": "80.0"
      },
      "properties": {
        "iconurl": "icons/flags_map/ru/minimap_cp.png",
        "iconrotate": "0",
        "popupContent": "Amazing information about Outskirts 80m will be found here!"
      },
      "bf2props": {
        "name": "cpname_assault_on_grozny_aas128_outskirts",
        "class": "ControlPoint",
        "name_object": "Outskirts 80m",
        "team": "2",
        "areavalue1": "100.0",
        "areavalue2": "0.0",
        "cpid": "110",
        "sgid": "511",
        "uncap": "false",
        "ttgc": "180.0",
        "ttlc": "130.0"
      }
    },
    {
      "type": "Feature",
      "geometry": {
        "type": "Point",
        "coordinates": [187.20801, -1194.714],
        "size": [33, 33],
        "radius": "80.0"
      },
      "properties": {
        "iconurl": "icons/flags_map/neutral/minimap_cp.png",
        "iconrotate": "0",
        "popupContent": "Amazing information about Alkhan Kala 80m will be found here!"
      },
      "bf2props": {
        "name": "cpname_assault_on_grozny_aas128_alkhan_kala",
        "class": "ControlPoint",
        "name_object": "Alkhan Kala 80m",
        "team": "0",
        "areavalue1": "0.0",
        "areavalue2": "0.0",
        "cpid": "111",
        "sgid": "512",
        "uncap": "false",
        "ttgc": "180.0",
        "ttlc": "180.0"
      }
    },
    {
      "type": "Feature",
      "geometry": {
        "type": "Point",
        "coordinates": [1164.049, -1582.6389],
        "size": [33, 33],
        "radius": "90.0"
      },
      "properties": {
        "iconurl": "icons/flags_map/chinsurgent/minimap_cp.png",
        "iconrotate": "0",
        "popupContent": "Amazing information about Hill 90m will be found here!"
      },
      "bf2props": {
        "name": "cpname_assault_on_grozny_aas128_hill",
        "class": "ControlPoint",
        "name_object": "Hill 90m",
        "team": "1",
        "areavalue1": "0.0",
        "areavalue2": "100.0",
        "cpid": "113",
        "sgid": "302",
        "uncap": "false",
        "ttgc": "150.0",
        "ttlc": "180.0"
      }
    },
    {
      "type": "Feature",
      "geometry": {
        "type": "Point",
        "coordinates": [625.7, -606.721],
        "size": [33, 33],
        "radius": "85.0"
      },
      "properties": {
        "iconurl": "icons/flags_map/ru/minimap_cp.png",
        "iconrotate": "0",
        "popupContent": "Amazing information about Checkpoint 85m will be found here!"
      },
      "bf2props": {
        "name": "cpname_assault_on_grozny_aas128_checkpoint1",
        "class": "ControlPoint",
        "name_object": "Checkpoint 85m",
        "team": "2",
        "areavalue1": "100.0",
        "areavalue2": "0.0",
        "cpid": "102",
        "sgid": "613",
        "uncap": "false",
        "ttgc": "180.0",
        "ttlc": "150.0"
      }
    },
    {
      "type": "Feature",
      "geometry": {
        "type": "Point",
        "coordinates": [1364.605, -1307.7471],
        "size": [33, 33],
        "radius": "80.0"
      },
      "properties": {
        "iconurl": "icons/flags_map/chinsurgent/minimap_cp.png",
        "iconrotate": "0",
        "popupContent": "Amazing information about South City 80m will be found here!"
      },
      "bf2props": {
        "name": "cpname_assault_on_grozny_aas128_checkpoint4",
        "class": "ControlPoint",
        "name_object": "South City 80m",
        "team": "1",
        "areavalue1": "0.0",
        "areavalue2": "100.0",
        "cpid": "115",
        "sgid": "203",
        "uncap": "false",
        "ttgc": "150.0",
        "ttlc": "180.0"
      }
    },
    {
      "type": "Feature",
      "geometry": {
        "type": "Point",
        "coordinates": [660.307, -752.703],
        "size": [33, 33],
        "radius": "85.0"
      },
      "properties": {
        "iconurl": "icons/flags_map/ru/minimap_cp.png",
        "iconrotate": "0",
        "popupContent": "Amazing information about Checkpoint 85m will be found here!"
      },
      "bf2props": {
        "name": "cpname_assault_on_grozny_aas128_checkpoint",
        "class": "ControlPoint",
        "name_object": "Checkpoint 85m",
        "team": "2",
        "areavalue1": "100.0",
        "areavalue2": "0.0",
        "cpid": "116",
        "sgid": "613",
        "uncap": "false",
        "ttgc": "180.0",
        "ttlc": "150.0"
      }
    },
    {
      "type": "Feature",
      "geometry": {
        "type": "Point",
        "coordinates": [117.21997, -111.97803],
        "size": [33, 33],
        "radius": "5.0"
      },
      "properties": {
        "iconurl": "icons/flags_map/ru/minimap_cpbase.png",
        "iconrotate": "0",
        "popupContent": "Amazing information about Russian Main will be found here!"
      },
      "bf2props": {
        "name": "cpname_assault_on_grozny_aas128_russianmain",
        "class": "ControlPoint",
        "name_object": "Russian Main",
        "team": "2",
        "areavalue1": "0.0",
        "areavalue2": "0.0",
        "cpid": "1",
        "sgid": "-999",
        "uncap": "true",
        "ttgc": "0.0",
        "ttlc": "0.0"
      }
    },
    {
      "type": "Feature",
      "geometry": {
        "type": "Point",
        "coordinates": [1368.8049, -1305.213],
        "size": [33, 33],
        "radius": "90.0"
      },
      "properties": {
        "iconurl": "icons/flags_map/chinsurgent/minimap_cp.png",
        "iconrotate": "0",
        "popupContent": "Amazing information about Alpha 90m will be found here!"
      },
      "bf2props": {
        "name": "cpname_assault_on_grozny_aas128_alpha",
        "class": "ControlPoint",
        "name_object": "Alpha 90m",
        "team": "1",
        "areavalue1": "0.0",
        "areavalue2": "100.0",
        "cpid": "903",
        "sgid": "214",
        "uncap": "false",
        "ttgc": "150.0",
        "ttlc": "180.0"
      }
    },
    {
      "type": "Feature",
      "geometry": {
        "type": "Point",
        "coordinates": [1152.231, -1254.962],
        "size": [33, 33],
        "radius": "90.0"
      },
      "properties": {
        "iconurl": "icons/flags_map/chinsurgent/minimap_cp.png",
        "iconrotate": "0",
        "popupContent": "Amazing information about Bravo 90m will be found here!"
      },
      "bf2props": {
        "name": "cpname_assault_on_grozny_aas128_bravo1",
        "class": "ControlPoint",
        "name_object": "Bravo 90m",
        "team": "1",
        "areavalue1": "0.0",
        "areavalue2": "0.0",
        "cpid": "904",
        "sgid": "314",
        "uncap": "false",
        "ttgc": "180.0",
        "ttlc": "180.0"
      }
    },
    {
      "type": "Feature",
      "geometry": {
        "type": "Point",
        "coordinates": [1321.884, -1093.9661],
        "size": [33, 33],
        "radius": "90.0"
      },
      "properties": {
        "iconurl": "icons/flags_map/chinsurgent/minimap_cp.png",
        "iconrotate": "0",
        "popupContent": "Amazing information about Bravo 90m will be found here!"
      },
      "bf2props": {
        "name": "cpname_assault_on_grozny_aas128_bravo2",
        "class": "ControlPoint",
        "name_object": "Bravo 90m",
        "team": "1",
        "areavalue1": "0.0",
        "areavalue2": "0.0",
        "cpid": "905",
        "sgid": "314",
        "uncap": "false",
        "ttgc": "180.0",
        "ttlc": "180.0"
      }
    },
    {
      "type": "Feature",
      "geometry": {
        "type": "Point",
        "coordinates": [920.342, -1178.885],
        "size": [33, 33],
        "radius": "90.0"
      },
      "properties": {
        "iconurl": "icons/flags_map/neutral/minimap_cp.png",
        "iconrotate": "0",
        "popupContent": "Amazing information about Charlie 90m will be found here!"
      },
      "bf2props": {
        "name": "cpname_assault_on_grozny_aas128_charlie1",
        "class": "ControlPoint",
        "name_object": "Charlie 90m",
        "team": "0",
        "areavalue1": "0.0",
        "areavalue2": "0.0",
        "cpid": "906",
        "sgid": "414",
        "uncap": "false",
        "ttgc": "180.0",
        "ttlc": "180.0"
      }
    },
    {
      "type": "Feature",
      "geometry": {
        "type": "Point",
        "coordinates": [1077.528, -957.011],
        "size": [33, 33],
        "radius": "90.0"
      },
      "properties": {
        "iconurl": "icons/flags_map/neutral/minimap_cp.png",
        "iconrotate": "0",
        "popupContent": "Amazing information about Charlie 90m will be found here!"
      },
      "bf2props": {
        "name": "cpname_assault_on_grozny_aas128_charlie2",
        "class": "ControlPoint",
        "name_object": "Charlie 90m",
        "team": "0",
        "areavalue1": "0.0",
        "areavalue2": "0.0",
        "cpid": "907",
        "sgid": "414",
        "uncap": "false",
        "ttgc": "180.0",
        "ttlc": "180.0"
      }
    },
    {
      "type": "Feature",
      "geometry": {
        "type": "Point",
        "coordinates": [1294.663, -825.809],
        "size": [33, 33],
        "radius": "90.0"
      },
      "properties": {
        "iconurl": "icons/flags_map/neutral/minimap_cp.png",
        "iconrotate": "0",
        "popupContent": "Amazing information about Charlie 90m will be found here!"
      },
      "bf2props": {
        "name": "cpname_assault_on_grozny_aas128_charlie3",
        "class": "ControlPoint",
        "name_object": "Charlie 90m",
        "team": "0",
        "areavalue1": "0.0",
        "areavalue2": "0.0",
        "cpid": "908",
        "sgid": "414",
        "uncap": "false",
        "ttgc": "180.0",
        "ttlc": "180.0"
      }
    },
    {
      "type": "Feature",
      "geometry": {
        "type": "Point",
        "coordinates": [805.971, -961.52],
        "size": [33, 33],
        "radius": "90.0"
      },
      "properties": {
        "iconurl": "icons/flags_map/neutral/minimap_cp.png",
        "iconrotate": "0",
        "popupContent": "Amazing information about Delta 90m will be found here!"
      },
      "bf2props": {
        "name": "cpname_assault_on_grozny_aas128_delta1",
        "class": "ControlPoint",
        "name_object": "Delta 90m",
        "team": "0",
        "areavalue1": "0.0",
        "areavalue2": "0.0",
        "cpid": "909",
        "sgid": "514",
        "uncap": "false",
        "ttgc": "180.0",
        "ttlc": "180.0"
      }
    },
    {
      "type": "Feature",
      "geometry": {
        "type": "Point",
        "coordinates": [931.628, -754.026],
        "size": [33, 33],
        "radius": "90.0"
      },
      "properties": {
        "iconurl": "icons/flags_map/neutral/minimap_cp.png",
        "iconrotate": "0",
        "popupContent": "Amazing information about Delta 90m will be found here!"
      },
      "bf2props": {
        "name": "cpname_assault_on_grozny_aas128_delta2",
        "class": "ControlPoint",
        "name_object": "Delta 90m",
        "team": "0",
        "areavalue1": "0.0",
        "areavalue2": "0.0",
        "cpid": "910",
        "sgid": "514",
        "uncap": "false",
        "ttgc": "180.0",
        "ttlc": "180.0"
      }
    },
    {
      "type": "Feature",
      "geometry": {
        "type": "Point",
        "coordinates": [1226.267, -548.98804],
        "size": [33, 33],
        "radius": "80.0"
      },
      "properties": {
        "iconurl": "icons/flags_map/neutral/minimap_cp.png",
        "iconrotate": "0",
        "popupContent": "Amazing information about Delta 80m will be found here!"
      },
      "bf2props": {
        "name": "cpname_assault_on_grozny_aas128_delta3",
        "class": "ControlPoint",
        "name_object": "Delta 80m",
        "team": "0",
        "areavalue1": "0.0",
        "areavalue2": "0.0",
        "cpid": "911",
        "sgid": "514",
        "uncap": "false",
        "ttgc": "180.0",
        "ttlc": "180.0"
      }
    },
    {
      "type": "Feature",
      "geometry": {
        "type": "Point",
        "coordinates": [676.669, -750.187],
        "size": [33, 33],
        "radius": "90.0"
      },
      "properties": {
        "iconurl": "icons/flags_map/ru/minimap_cp.png",
        "iconrotate": "0",
        "popupContent": "Amazing information about Echo 90m will be found here!"
      },
      "bf2props": {
        "name": "cpname_assault_on_grozny_aas128_echo1",
        "class": "ControlPoint",
        "name_object": "Echo 90m",
        "team": "2",
        "areavalue1": "0.0",
        "areavalue2": "0.0",
        "cpid": "912",
        "sgid": "614",
        "uncap": "false",
        "ttgc": "180.0",
        "ttlc": "180.0"
      }
    },
    {
      "type": "Feature",
      "geometry": {
        "type": "Point",
        "coordinates": [837.183, -560.594],
        "size": [33, 33],
        "radius": "90.0"
      },
      "properties": {
        "iconurl": "icons/flags_map/ru/minimap_cp.png",
        "iconrotate": "0",
        "popupContent": "Amazing information about Echo 90m will be found here!"
      },
      "bf2props": {
        "name": "cpname_assault_on_grozny_aas128_echo2",
        "class": "ControlPoint",
        "name_object": "Echo 90m",
        "team": "2",
        "areavalue1": "0.0",
        "areavalue2": "0.0",
        "cpid": "913",
        "sgid": "614",
        "uncap": "false",
        "ttgc": "180.0",
        "ttlc": "180.0"
      }
    },
    {
      "type": "Feature",
      "geometry": {
        "type": "Point",
        "coordinates": [615.13, -527.76196],
        "size": [33, 33],
        "radius": "90.0"
      },
      "properties": {
        "iconurl": "icons/flags_map/ru/minimap_cp.png",
        "iconrotate": "0",
        "popupContent": "Amazing information about Foxtrot 90m will be found here!"
      },
      "bf2props": {
        "name": "cpname_assault_on_grozny_aas128_foxtrot",
        "class": "ControlPoint",
        "name_object": "Foxtrot 90m",
        "team": "2",
        "areavalue1": "100.0",
        "areavalue2": "0.0",
        "cpid": "914",
        "sgid": "714",
        "uncap": "false",
        "ttgc": "180.0",
        "ttlc": "150.0"
      }
    },
    {
      "type": "Feature",
      "geometry": {
        "type": "Point",
        "coordinates": [1729.494, -464.89],
        "size": [33, 33],
        "radius": "70.0"
      },
      "properties": {
        "iconurl": "icons/flags_map/neutral/minimap_cp.png",
        "iconrotate": "0",
        "popupContent": "Amazing information about Forest 70m will be found here!"
      },
      "bf2props": {
        "name": "cpname_assault_on_grozny_aas128_checkpoint3",
        "class": "ControlPoint",
        "name_object": "Forest 70m",
        "team": "0",
        "areavalue1": "0.0",
        "areavalue2": "0.0",
        "cpid": "114",
        "sgid": "413",
        "uncap": "false",
        "ttgc": "180.0",
        "ttlc": "180.0"
      }
    },
    {
      "type": "Feature",
      "geometry": {
        "type": "Point",
        "coordinates": [1049.088, -186.80902],
        "size": [33, 33],
        "radius": "100.0"
      },
      "properties": {
        "iconurl": "icons/flags_map/ru/minimap_cp.png",
        "iconrotate": "0",
        "popupContent": "Amazing information about Airport 100m will be found here!"
      },
      "bf2props": {
        "name": "cpname_assault_on_grozny_aas128_checkpoint2b",
        "class": "ControlPoint",
        "name_object": "Airport 100m",
        "team": "2",
        "areavalue1": "0.0",
        "areavalue2": "0.0",
        "cpid": "117",
        "sgid": "503",
        "uncap": "false",
        "ttgc": "180.0",
        "ttlc": "180.0"
      }
    },
    {
      "type": "Feature",
      "geometry": {
        "type": "Point",
        "coordinates": [1640.707, -1018.944],
        "size": [33, 33],
        "radius": "90.0"
      },
      "properties": {
        "iconurl": "icons/flags_map/chinsurgent/minimap_cp.png",
        "iconrotate": "0",
        "popupContent": "Amazing information about Eastern Outpost 90m will be found here!"
      },
      "bf2props": {
        "name": "cpname_assault_on_grozny_aas128_trenches",
        "class": "ControlPoint",
        "name_object": "Eastern Outpost 90m",
        "team": "1",
        "areavalue1": "0.0",
        "areavalue2": "0.0",
        "cpid": "118",
        "sgid": "303",
        "uncap": "false",
        "ttgc": "180.0",
        "ttlc": "180.0"
      }
    },
    {
      "type": "Feature",
      "geometry": {
        "type": "Point",
        "coordinates": [335.83502, -768.599],
        "size": [33, 33],
        "radius": "80.0"
      },
      "properties": {
        "iconurl": "icons/flags_map/ru/minimap_cp.png",
        "iconrotate": "0",
        "popupContent": "Amazing information about Northern Hill 80m will be found here!"
      },
      "bf2props": {
        "name": "cpname_assault_on_grozny_aas128_hillnorth",
        "class": "ControlPoint",
        "name_object": "Northern Hill 80m",
        "team": "2",
        "areavalue1": "100.0",
        "areavalue2": "0.0",
        "cpid": "119",
        "sgid": "602",
        "uncap": "false",
        "ttgc": "180.0",
        "ttlc": "150.0"
      }
    },
    {
      "type": "Feature",
      "geometry": {
        "type": "Point",
        "coordinates": [584.701, -1087.281],
        "size": [33, 33],
        "radius": "70.0"
      },
      "properties": {
        "iconurl": "icons/flags_map/neutral/minimap_cp.png",
        "iconrotate": "0",
        "popupContent": "Amazing information about Oil Depot 70m will be found here!"
      },
      "bf2props": {
        "name": "cpname_assault_on_grozny_aas128_oildepot",
        "class": "ControlPoint",
        "name_object": "Oil Depot 70m",
        "team": "0",
        "areavalue1": "0.0",
        "areavalue2": "0.0",
        "cpid": "120",
        "sgid": "512",
        "uncap": "false",
        "ttgc": "180.0",
        "ttlc": "180.0"
      }
    },
    {
      "type": "Feature",
      "geometry": {
        "type": "Point",
        "coordinates": [439.135, -1655.296],
        "size": [33, 33],
        "radius": "70.0"
      },
      "properties": {
        "iconurl": "icons/flags_map/neutral/minimap_cp.png",
        "iconrotate": "0",
        "popupContent": "Amazing information about Lumber Depot 70m will be found here!"
      },
      "bf2props": {
        "name": "cpname_assault_on_grozny_aas128_lumberdepot",
        "class": "ControlPoint",
        "name_object": "Lumber Depot 70m",
        "team": "0",
        "areavalue1": "0.0",
        "areavalue2": "0.0",
        "cpid": "121",
        "sgid": "412",
        "uncap": "false",
        "ttgc": "180.0",
        "ttlc": "180.0"
      }
    },
    {
      "type": "Feature",
      "geometry": {
        "type": "Point",
        "coordinates": [652.673, -1445.925],
        "size": [33, 33],
        "radius": "80.0"
      },
      "properties": {
        "iconurl": "icons/flags_map/neutral/minimap_cp.png",
        "iconrotate": "0",
        "popupContent": "Amazing information about Destroyed Factory 80m will be found here!"
      },
      "bf2props": {
        "name": "cpname_assault_on_grozny_aas128_industry2",
        "class": "ControlPoint",
        "name_object": "Destroyed Factory 80m",
        "team": "0",
        "areavalue1": "0.0",
        "areavalue2": "0.0",
        "cpid": "112",
        "sgid": "412",
        "uncap": "false",
        "ttgc": "180.0",
        "ttlc": "180.0"
      }
    },
    {
      "type": "Feature",
      "geometry": {
        "type": "Point",
        "coordinates": [619.026, -621.151],
        "size": [33, 33],
        "radius": "60.0"
      },
      "properties": {
        "iconurl": "icons/flags_map/ru/minimap_cp.png",
        "iconrotate": "0",
        "popupContent": "Amazing information about North City 60m will be found here!"
      },
      "bf2props": {
        "name": "cpname_assault_on_grozny_aas128_first",
        "class": "ControlPoint",
        "name_object": "North City 60m",
        "team": "2",
        "areavalue1": "100.0",
        "areavalue2": "0.0",
        "cpid": "105",
        "sgid": "702",
        "uncap": "false",
        "ttgc": "180.0",
        "ttlc": "150.0"
      }
    },
    {
      "type": "Feature",
      "geometry": {
        "type": "Point",
        "coordinates": [1278.51, -1227.556],
        "size": [33, 33],
        "radius": "70.0"
      },
      "properties": {
        "iconurl": "icons/flags_map/chinsurgent/minimap_cp.png",
        "iconrotate": "0",
        "popupContent": "Amazing information about South City 70m will be found here!"
      },
      "bf2props": {
        "name": "cpname_assault_on_grozny_aas128_last",
        "class": "ControlPoint",
        "name_object": "South City 70m",
        "team": "1",
        "areavalue1": "0.0",
        "areavalue2": "100.0",
        "cpid": "122",
        "sgid": "202",
        "uncap": "false",
        "ttgc": "150.0",
        "ttlc": "180.0"
      }
    },
    {
      "type": "Feature",
      "geometry": {
        "type": "Polygon",
        "coordinates": [
          [
            [0,0],
            [0,-2048],
            [2048,-2048],
            [2048,0]
          ],[
            [0.604126, -2.4364014],
            [1.534729, -2046.9868],
            [2042.7716, -2046.0073],
            [2045.2085, -4.088867]
          ]
        ]
      },
      "bf2props": {
        "code": "combatarea_0_aas_128",
        "class": "CombatArea",
        "team": "0",
        "vehicles": "4",
        "layer": "8",
        "inverted": "false",
        "max": [0.0, 0.0],
        "min": [0.0, 0.0]
      }
    },
    {
      "type": "Feature",
      "geometry": {
        "type": "Polygon",
        "coordinates": [
          [
            [0.5617676, -1.0323486],
            [603.31647, -1.017456],
            [617.4625, -243.79053],
            [445.08057, -548.0973],
            [1.3740234, -635.557]
          ]
        ]
      },
      "bf2props": {
        "code": "combatarea_8_aas_128",
        "class": "CombatArea",
        "team": "1",
        "vehicles": "4",
        "layer": "8",
        "inverted": "true",
        "max": [0.0, 0.0],
        "min": [0.0, 0.0]
      }
    },
    {
      "type": "Feature",
      "geometry": {
        "type": "Polygon",
        "coordinates": [
          [
            [2043.9337, -2046.1077],
            [1601.9761, -2046.6467],
            [1541.5255, -1558.426],
            [1659.1229, -1410.1715],
            [2048.0, -1415.7911]
          ]
        ]
      },
      "bf2props": {
        "code": "combatarea_9_aas_128",
        "class": "CombatArea",
        "team": "2",
        "vehicles": "4",
        "layer": "8",
        "inverted": "true",
        "max": [0.0, 0.0],
        "min": [0.0, 0.0]
      }
    }
  ]
}