{
  "team1":"chinsurgent",
  "team2":"ru",
  "team1tickets":"400",
  "team2tickets":"400",
  "mapsize":"2048",
  "viewdistance":"400",
  "combatareause":"true",
  "combatareadamage":"20.0",
  "combatareaallowoutside":"10.0",
  "routes": [
    [
      [
        "cpname_assault_on_grozny_aas16_milmain"
      ],
      [
        "cpname_assault_on_grozny_aas16_alpha"
      ],
      [
        "cpname_assault_on_grozny_aas16_bravo1",
        "cpname_assault_on_grozny_aas16_bravo2"
      ],
      [
        "cpname_assault_on_grozny_aas16_charlie1",
        "cpname_assault_on_grozny_aas16_charlie2",
        "cpname_assault_on_grozny_aas16_charlie3"
      ],
      [
        "cpname_assault_on_grozny_aas16_delta1",
        "cpname_assault_on_grozny_aas16_delta2",
        "cpname_assault_on_grozny_aas16_delta3"
      ],
      [
        "cpname_assault_on_grozny_aas16_echo1",
        "cpname_assault_on_grozny_aas16_echo2"
      ],
      [
        "cpname_assault_on_grozny_aas16_rumain",
        "cpname_assault_on_grozny_aas16_foxtrot"
      ]
    ],
    [
      [
        "cpname_assault_on_grozny_aas16_milmain"
      ],
      [
        "cpname_assault_on_grozny_aas16_alt1"
      ],
      [
        "cpname_assault_on_grozny_aas16_alt2"
      ],
      [
        "cpname_assault_on_grozny_aas16_alt3"
      ],
      [
        "cpname_assault_on_grozny_aas16_alt4"
      ],
      [
        "cpname_assault_on_grozny_aas16_alt5"
      ],
      [
        "cpname_assault_on_grozny_aas16_rumain",
        "cpname_assault_on_grozny_aas16_foxtrot"
      ]
    ]
  ],
  "type": "FeatureCollection",
  "features": [
    {
      "type": "Feature",
      "geometry": {
        "type": "Point",
        "coordinates": [63.788025, -112.086975],
        "size": [16, 16]
      },
      "properties": {
        "iconurl": "icons/vehicles_map/mini_trk_logistics.png",
        "iconrotate": "-180.0",
        "popupContent": "Amazing information about null will be found here!"
      },
      "bf2props": {
        "name": "cpname_assault_on_grozny_aas16_rumain_logi1",
        "class": "ObjectSpawner",
        "name_object": "Ural-4320 Logistics",
        "team": "2",
        "obj1": "null",
        "obj2": "ru_trk_logistics",
        "maxspawn": "300.0",
        "minspawn": "300.0",
        "spawndelay": "false",
        "ttl": "99999.0",
        "cpid": "901"
      }
    },
    {
      "type": "Feature",
      "geometry": {
        "type": "Point",
        "coordinates": [70.46301, -111.916016],
        "size": [16, 16]
      },
      "properties": {
        "iconurl": "icons/vehicles_map/mini_trk_logistics.png",
        "iconrotate": "-180.0",
        "popupContent": "Amazing information about null will be found here!"
      },
      "bf2props": {
        "name": "cpname_assault_on_grozny_aas16_rumain_logi2",
        "class": "ObjectSpawner",
        "name_object": "Ural-4320 Logistics",
        "team": "2",
        "obj1": "null",
        "obj2": "ru_trk_logistics",
        "maxspawn": "300.0",
        "minspawn": "300.0",
        "spawndelay": "false",
        "ttl": "99999.0",
        "cpid": "901"
      }
    },
    {
      "type": "Feature",
      "geometry": {
        "type": "Point",
        "coordinates": [76.77197, -111.39899],
        "size": [16, 16]
      },
      "properties": {
        "iconurl": "icons/vehicles_map/mini_trk_support.png",
        "iconrotate": "-180.0",
        "popupContent": "Amazing information about null will be found here!"
      },
      "bf2props": {
        "name": "cpname_assault_on_grozny_aas16_rumain_support1",
        "class": "ObjectSpawner",
        "name_object": "Ural-4320",
        "team": "2",
        "obj1": "null",
        "obj2": "ru_trk_support",
        "maxspawn": "300.0",
        "minspawn": "300.0",
        "spawndelay": "false",
        "ttl": "99999.0",
        "cpid": "901"
      }
    },
    {
      "type": "Feature",
      "geometry": {
        "type": "Point",
        "coordinates": [83.44702, -111.22699],
        "size": [16, 16]
      },
      "properties": {
        "iconurl": "icons/vehicles_map/mini_trk_support.png",
        "iconrotate": "-180.0",
        "popupContent": "Amazing information about null will be found here!"
      },
      "bf2props": {
        "name": "cpname_assault_on_grozny_aas16_rumain_support2",
        "class": "ObjectSpawner",
        "name_object": "Ural-4320",
        "team": "2",
        "obj1": "null",
        "obj2": "ru_trk_support",
        "maxspawn": "300.0",
        "minspawn": "300.0",
        "spawndelay": "false",
        "ttl": "99999.0",
        "cpid": "901"
      }
    },
    {
      "type": "Feature",
      "geometry": {
        "type": "Point",
        "coordinates": [90.00098, -110.877014],
        "size": [16, 16]
      },
      "properties": {
        "iconurl": "icons/vehicles_map/mini_trk_support.png",
        "iconrotate": "-180.0",
        "popupContent": "Amazing information about null will be found here!"
      },
      "bf2props": {
        "name": "cpname_assault_on_grozny_aas16_rumain_support3",
        "class": "ObjectSpawner",
        "name_object": "Ural-4320",
        "team": "2",
        "obj1": "null",
        "obj2": "ru_trk_support",
        "maxspawn": "300.0",
        "minspawn": "300.0",
        "spawndelay": "false",
        "ttl": "99999.0",
        "cpid": "901"
      }
    },
    {
      "type": "Feature",
      "geometry": {
        "type": "Point",
        "coordinates": [96.676025, -110.70599],
        "size": [16, 16]
      },
      "properties": {
        "iconurl": "icons/vehicles_map/mini_trk_support.png",
        "iconrotate": "-180.0",
        "popupContent": "Amazing information about null will be found here!"
      },
      "bf2props": {
        "name": "cpname_assault_on_grozny_aas16_rumain_support4",
        "class": "ObjectSpawner",
        "name_object": "Ural-4320",
        "team": "2",
        "obj1": "null",
        "obj2": "ru_trk_support",
        "maxspawn": "300.0",
        "minspawn": "300.0",
        "spawndelay": "false",
        "ttl": "99999.0",
        "cpid": "901"
      }
    },
    {
      "type": "Feature",
      "geometry": {
        "type": "Point",
        "coordinates": [127.23999, -86.189026],
        "size": [16, 16]
      },
      "properties": {
        "iconurl": "icons/mini_map/uavtrailer.png",
        "iconrotate": "0",
        "popupContent": "Amazing information about null will be found here!"
      },
      "bf2props": {
        "name": "cpname_assault_on_grozny_aas16_rumain_command",
        "class": "ObjectSpawner",
        "name_object": "UAV Terminal",
        "team": "2",
        "obj1": "null",
        "obj2": "ru_acv_btr60pu",
        "maxspawn": "0.0",
        "minspawn": "60.0",
        "spawndelay": "false",
        "ttl": "99999.0",
        "cpid": "901"
      }
    },
    {
      "type": "Feature",
      "geometry": {
        "type": "Point",
        "coordinates": [51.67401, -126.10101],
        "size": [16, 16]
      },
      "properties": {
        "iconurl": "icons/mini_map/repairdepot.png",
        "iconrotate": "0",
        "popupContent": "Amazing information about null will be found here!"
      },
      "bf2props": {
        "name": "cpname_assault_on_grozny_aas16_rumain_depot",
        "class": "ObjectSpawner",
        "name_object": "Vehicle Depot",
        "team": "2",
        "obj1": "null",
        "obj2": "vehicle_depot_ru",
        "maxspawn": "0.0",
        "minspawn": "60.0",
        "spawndelay": "false",
        "ttl": "99999.0",
        "cpid": "901"
      }
    },
    {
      "type": "Feature",
      "geometry": {
        "type": "Point",
        "coordinates": [124.60602, -128.28699],
        "size": [16, 16]
      },
      "properties": {
        "iconurl": "icons/vehicles_map/mini_apc_light.png",
        "iconrotate": "-90.0",
        "popupContent": "Amazing information about null will be found here!"
      },
      "bf2props": {
        "name": "cpname_assault_on_grozny_aas16_rumain_apc1",
        "class": "ObjectSpawner",
        "name_object": "MT-LBM",
        "team": "2",
        "obj1": "null",
        "obj2": "ru_apc_mtlb_hmg",
        "maxspawn": "900.0",
        "minspawn": "900.0",
        "spawndelay": "false",
        "ttl": "99999.0",
        "cpid": "901"
      }
    },
    {
      "type": "Feature",
      "geometry": {
        "type": "Point",
        "coordinates": [124.77698, -134.96198],
        "size": [16, 16]
      },
      "properties": {
        "iconurl": "icons/vehicles_map/mini_apc_light.png",
        "iconrotate": "-90.0",
        "popupContent": "Amazing information about null will be found here!"
      },
      "bf2props": {
        "name": "cpname_assault_on_grozny_aas16_rumain_apc2",
        "class": "ObjectSpawner",
        "name_object": "MT-LBM",
        "team": "2",
        "obj1": "null",
        "obj2": "ru_apc_mtlb_hmg",
        "maxspawn": "900.0",
        "minspawn": "900.0",
        "spawndelay": "false",
        "ttl": "99999.0",
        "cpid": "901"
      }
    },
    {
      "type": "Feature",
      "geometry": {
        "type": "Point",
        "coordinates": [1923.8569, -1918.239],
        "size": [16, 16]
      },
      "properties": {
        "iconurl": "icons/vehicles_map/mini_trk_logistics.png",
        "iconrotate": "-90.0",
        "popupContent": "Amazing information about Ural-4320 Logistics will be found here!"
      },
      "bf2props": {
        "name": "cpname_assault_on_grozny_aas16_milmain_logi1",
        "class": "ObjectSpawner",
        "name_object": "Ural-4320 Logistics | aa_m167",
        "team": "1",
        "obj1": "mil_trk_logistics",
        "obj2": "aa_m167",
        "maxspawn": "300.0",
        "minspawn": "300.0",
        "spawndelay": "false",
        "ttl": "99999.0",
        "cpid": "902"
      }
    },
    {
      "type": "Feature",
      "geometry": {
        "type": "Point",
        "coordinates": [1923.8301, -1924.5171],
        "size": [16, 16]
      },
      "properties": {
        "iconurl": "icons/vehicles_map/mini_trk_logistics.png",
        "iconrotate": "-90.0",
        "popupContent": "Amazing information about Ural-4320 Logistics will be found here!"
      },
      "bf2props": {
        "name": "cpname_assault_on_grozny_aas16_milmain_logi2",
        "class": "ObjectSpawner",
        "name_object": "Ural-4320 Logistics | aa_m167",
        "team": "1",
        "obj1": "mil_trk_logistics",
        "obj2": "aa_m167",
        "maxspawn": "300.0",
        "minspawn": "300.0",
        "spawndelay": "false",
        "ttl": "99999.0",
        "cpid": "902"
      }
    },
    {
      "type": "Feature",
      "geometry": {
        "type": "Point",
        "coordinates": [1900.6221, -1907.78],
        "size": [16, 16]
      },
      "properties": {
        "iconurl": "icons/vehicles_map/mini_trk_support.png",
        "iconrotate": "-154.92",
        "popupContent": "Amazing information about Ural-4320 will be found here!"
      },
      "bf2props": {
        "name": "cpname_assault_on_grozny_aas16_milmain_support1",
        "class": "ObjectSpawner",
        "name_object": "Ural-4320 | aa_m167",
        "team": "1",
        "obj1": "mil_trk_support",
        "obj2": "aa_m167",
        "maxspawn": "300.0",
        "minspawn": "300.0",
        "spawndelay": "false",
        "ttl": "99999.0",
        "cpid": "902"
      }
    },
    {
      "type": "Feature",
      "geometry": {
        "type": "Point",
        "coordinates": [1905.9299, -1908.0],
        "size": [16, 16]
      },
      "properties": {
        "iconurl": "icons/vehicles_map/mini_trk_support.png",
        "iconrotate": "-154.92",
        "popupContent": "Amazing information about Ural-4320 will be found here!"
      },
      "bf2props": {
        "name": "cpname_assault_on_grozny_aas16_milmain_support2",
        "class": "ObjectSpawner",
        "name_object": "Ural-4320 | aa_m167",
        "team": "1",
        "obj1": "mil_trk_support",
        "obj2": "aa_m167",
        "maxspawn": "300.0",
        "minspawn": "300.0",
        "spawndelay": "false",
        "ttl": "99999.0",
        "cpid": "902"
      }
    },
    {
      "type": "Feature",
      "geometry": {
        "type": "Point",
        "coordinates": [1911.173, -1908.162],
        "size": [16, 16]
      },
      "properties": {
        "iconurl": "icons/vehicles_map/mini_trk_support.png",
        "iconrotate": "-154.92",
        "popupContent": "Amazing information about Ural-4320 will be found here!"
      },
      "bf2props": {
        "name": "cpname_assault_on_grozny_aas16_milmain_support3",
        "class": "ObjectSpawner",
        "name_object": "Ural-4320 | aa_m167",
        "team": "1",
        "obj1": "mil_trk_support",
        "obj2": "aa_m167",
        "maxspawn": "300.0",
        "minspawn": "300.0",
        "spawndelay": "false",
        "ttl": "99999.0",
        "cpid": "902"
      }
    },
    {
      "type": "Feature",
      "geometry": {
        "type": "Point",
        "coordinates": [1916.561, -1908.1699],
        "size": [16, 16]
      },
      "properties": {
        "iconurl": "icons/vehicles_map/mini_trk_support.png",
        "iconrotate": "-154.92",
        "popupContent": "Amazing information about Ural-4320 will be found here!"
      },
      "bf2props": {
        "name": "cpname_assault_on_grozny_aas16_milmain_support4",
        "class": "ObjectSpawner",
        "name_object": "Ural-4320 | aa_m167",
        "team": "1",
        "obj1": "mil_trk_support",
        "obj2": "aa_m167",
        "maxspawn": "300.0",
        "minspawn": "300.0",
        "spawndelay": "false",
        "ttl": "99999.0",
        "cpid": "902"
      }
    },
    {
      "type": "Feature",
      "geometry": {
        "type": "Point",
        "coordinates": [1900.052, -1943.969],
        "size": [16, 16]
      },
      "properties": {
        "iconurl": "icons/vehicles_map/mini_jep_light.png",
        "iconrotate": "0.0",
        "popupContent": "Amazing information about DShKM Technical will be found here!"
      },
      "bf2props": {
        "name": "cpname_assault_on_grozny_aas16_milmain_apc1",
        "class": "ObjectSpawner",
        "name_object": "DShKM Technical",
        "team": "1",
        "obj1": "civ_jep_technical_militia",
        "obj2": "null",
        "maxspawn": "300.0",
        "minspawn": "300.0",
        "spawndelay": "false",
        "ttl": "99999.0",
        "cpid": "902"
      }
    },
    {
      "type": "Feature",
      "geometry": {
        "type": "Point",
        "coordinates": [1894.093, -1943.959],
        "size": [16, 16]
      },
      "properties": {
        "iconurl": "icons/vehicles_map/mini_rec_light.png",
        "iconrotate": "0.0",
        "popupContent": "Amazing information about BRDM-2 will be found here!"
      },
      "bf2props": {
        "name": "cpname_assault_on_grozny_aas16_milmain_apc2",
        "class": "ObjectSpawner",
        "name_object": "BRDM-2",
        "team": "1",
        "obj1": "mec_jep_brdm2",
        "obj2": "null",
        "maxspawn": "600.0",
        "minspawn": "600.0",
        "spawndelay": "false",
        "ttl": "99999.0",
        "cpid": "902"
      }
    },
    {
      "type": "Feature",
      "geometry": {
        "type": "Point",
        "coordinates": [1903.2529, -1887.6079],
        "size": [16, 16]
      },
      "properties": {
        "iconurl": "icons/mini_map/uavtrailer.png",
        "iconrotate": "0",
        "popupContent": "Amazing information about UAV Terminal will be found here!"
      },
      "bf2props": {
        "name": "cpname_assault_on_grozny_aas16_milmain_command",
        "class": "ObjectSpawner",
        "name_object": "UAV Terminal | aa_m167",
        "team": "1",
        "obj1": "mil_acv_technical",
        "obj2": "aa_m167",
        "maxspawn": "0.0",
        "minspawn": "0.0",
        "spawndelay": "false",
        "ttl": "99999.0",
        "cpid": "902"
      }
    },
    {
      "type": "Feature",
      "geometry": {
        "type": "Point",
        "coordinates": [1910.318, -1943.842],
        "size": [16, 16]
      },
      "properties": {
        "iconurl": "icons/mini_map/repairdepot.png",
        "iconrotate": "0",
        "popupContent": "Amazing information about Vehicle Depot will be found here!"
      },
      "bf2props": {
        "name": "cpname_assault_on_grozny_aas16_milmain_depot",
        "class": "ObjectSpawner",
        "name_object": "Vehicle Depot | aa_m167",
        "team": "1",
        "obj1": "vehicle_depot_mil",
        "obj2": "aa_m167",
        "maxspawn": "0.0",
        "minspawn": "0.0",
        "spawndelay": "false",
        "ttl": "99999.0",
        "cpid": "902"
      }
    },
    {
      "type": "Feature",
      "geometry": {
        "type": "Point",
        "coordinates": [1899.958, -1902.127],
        "size": [16, 16]
      },
      "properties": {
        "iconurl": "icons/vehicles_map/mini_stw_aa_medium.png",
        "iconrotate": "90.0",
        "popupContent": "Amazing information about null will be found here!"
      },
      "bf2props": {
        "name": "cpname_assault_on_grozny_aas16_milmain_crate1",
        "class": "ObjectSpawner",
        "name_object": "aa_m167",
        "team": "2",
        "obj1": "fixed_supply_crate_mil",
        "obj2": "aa_m167",
        "maxspawn": "0.0",
        "minspawn": "0.0",
        "spawndelay": "false",
        "ttl": "99999.0",
        "cpid": "902"
      }
    },
    {
      "type": "Feature",
      "geometry": {
        "type": "Point",
        "coordinates": [1927.194, -1912.678],
        "size": [16, 16]
      },
      "properties": {
        "iconurl": "icons/vehicles_map/mini_stw_aa_medium.png",
        "iconrotate": "90.0",
        "popupContent": "Amazing information about null will be found here!"
      },
      "bf2props": {
        "name": "cpname_assault_on_grozny_aas16_milmain_crate2",
        "class": "ObjectSpawner",
        "name_object": "aa_m167",
        "team": "2",
        "obj1": "fixed_supply_crate_mil",
        "obj2": "aa_m167",
        "maxspawn": "0.0",
        "minspawn": "0.0",
        "spawndelay": "false",
        "ttl": "99999.0",
        "cpid": "902"
      }
    },
    {
      "type": "Feature",
      "geometry": {
        "type": "Point",
        "coordinates": [1368.1431, -1317.121],
        "size": [16, 16]
      },
      "properties": {
        "iconurl": "icons/player_map/mini_squad.png",
        "iconrotate": "0",
        "popupContent": "Amazing information about Temporary spawnpoint will be found here!"
      },
      "bf2props": {
        "name": "cpname_assault_on_grozny_aas16_milmain_rally",
        "class": "ObjectSpawner",
        "name_object": "Temporary spawnpoint",
        "team": "1",
        "obj1": "rallypoint_chinsurgent_placeable",
        "obj2": "null",
        "maxspawn": "99999.0",
        "minspawn": "99999.0",
        "spawndelay": "false",
        "ttl": "1200.0",
        "cpid": "902"
      }
    },
    {
      "type": "Feature",
      "geometry": {
        "type": "Point",
        "coordinates": [603.18, -614.917],
        "size": [16, 16]
      },
      "properties": {
        "iconurl": "icons/player_map/mini_squad.png",
        "iconrotate": "0",
        "popupContent": "Amazing information about null will be found here!"
      },
      "bf2props": {
        "name": "cpname_assault_on_grozny_aas16_rumain_rally",
        "class": "ObjectSpawner",
        "name_object": "Temporary spawnpoint",
        "team": "2",
        "obj1": "null",
        "obj2": "rallypoint_ru_placeable",
        "maxspawn": "99999.0",
        "minspawn": "99999.0",
        "spawndelay": "false",
        "ttl": "1200.0",
        "cpid": "901"
      }
    },
    {
      "type": "Feature",
      "geometry": {
        "type": "Point",
        "coordinates": [122.04199, -74.50702],
        "size": [33, 33],
        "radius": "0.0"
      },
      "properties": {
        "iconurl": "icons/flags_map/ru/minimap_cpbase.png",
        "iconrotate": "0",
        "popupContent": "Amazing information about Russian Main will be found here!"
      },
      "bf2props": {
        "name": "cpname_assault_on_grozny_aas16_rumain",
        "class": "ControlPoint",
        "name_object": "Russian Main",
        "team": "2",
        "areavalue1": "0.0",
        "areavalue2": "0.0",
        "cpid": "901",
        "sgid": "-999",
        "uncap": "true",
        "ttgc": "0.0",
        "ttlc": "0.0"
      }
    },
    {
      "type": "Feature",
      "geometry": {
        "type": "Point",
        "coordinates": [1898.325, -1889.235],
        "size": [33, 33],
        "radius": "0.0"
      },
      "properties": {
        "iconurl": "icons/flags_map/chinsurgent/minimap_cpbase.png",
        "iconrotate": "0",
        "popupContent": "Amazing information about Chechen Main will be found here!"
      },
      "bf2props": {
        "name": "cpname_assault_on_grozny_aas16_milmain",
        "class": "ControlPoint",
        "name_object": "Chechen Main",
        "team": "1",
        "areavalue1": "0.0",
        "areavalue2": "0.0",
        "cpid": "902",
        "sgid": "1",
        "uncap": "true",
        "ttgc": "0.0",
        "ttlc": "0.0"
      }
    },
    {
      "type": "Feature",
      "geometry": {
        "type": "Point",
        "coordinates": [1368.8049, -1305.213],
        "size": [33, 33],
        "radius": "90.0"
      },
      "properties": {
        "iconurl": "icons/flags_map/chinsurgent/minimap_cp.png",
        "iconrotate": "0",
        "popupContent": "Amazing information about Alpha 90m will be found here!"
      },
      "bf2props": {
        "name": "cpname_assault_on_grozny_aas16_alpha",
        "class": "ControlPoint",
        "name_object": "Alpha 90m",
        "team": "1",
        "areavalue1": "0.0",
        "areavalue2": "100.0",
        "cpid": "903",
        "sgid": "201",
        "uncap": "false",
        "ttgc": "150.0",
        "ttlc": "180.0"
      }
    },
    {
      "type": "Feature",
      "geometry": {
        "type": "Point",
        "coordinates": [1152.231, -1254.962],
        "size": [33, 33],
        "radius": "90.0"
      },
      "properties": {
        "iconurl": "icons/flags_map/chinsurgent/minimap_cp.png",
        "iconrotate": "0",
        "popupContent": "Amazing information about Bravo 90m will be found here!"
      },
      "bf2props": {
        "name": "cpname_assault_on_grozny_aas16_bravo1",
        "class": "ControlPoint",
        "name_object": "Bravo 90m",
        "team": "1",
        "areavalue1": "0.0",
        "areavalue2": "0.0",
        "cpid": "904",
        "sgid": "311",
        "uncap": "false",
        "ttgc": "180.0",
        "ttlc": "180.0"
      }
    },
    {
      "type": "Feature",
      "geometry": {
        "type": "Point",
        "coordinates": [1321.884, -1093.9661],
        "size": [33, 33],
        "radius": "90.0"
      },
      "properties": {
        "iconurl": "icons/flags_map/chinsurgent/minimap_cp.png",
        "iconrotate": "0",
        "popupContent": "Amazing information about Bravo 90m will be found here!"
      },
      "bf2props": {
        "name": "cpname_assault_on_grozny_aas16_bravo2",
        "class": "ControlPoint",
        "name_object": "Bravo 90m",
        "team": "1",
        "areavalue1": "0.0",
        "areavalue2": "0.0",
        "cpid": "905",
        "sgid": "311",
        "uncap": "false",
        "ttgc": "180.0",
        "ttlc": "180.0"
      }
    },
    {
      "type": "Feature",
      "geometry": {
        "type": "Point",
        "coordinates": [920.342, -1178.885],
        "size": [33, 33],
        "radius": "90.0"
      },
      "properties": {
        "iconurl": "icons/flags_map/neutral/minimap_cp.png",
        "iconrotate": "0",
        "popupContent": "Amazing information about Charlie 90m will be found here!"
      },
      "bf2props": {
        "name": "cpname_assault_on_grozny_aas16_charlie1",
        "class": "ControlPoint",
        "name_object": "Charlie 90m",
        "team": "0",
        "areavalue1": "0.0",
        "areavalue2": "0.0",
        "cpid": "906",
        "sgid": "411",
        "uncap": "false",
        "ttgc": "180.0",
        "ttlc": "180.0"
      }
    },
    {
      "type": "Feature",
      "geometry": {
        "type": "Point",
        "coordinates": [1077.528, -957.011],
        "size": [33, 33],
        "radius": "90.0"
      },
      "properties": {
        "iconurl": "icons/flags_map/neutral/minimap_cp.png",
        "iconrotate": "0",
        "popupContent": "Amazing information about Charlie 90m will be found here!"
      },
      "bf2props": {
        "name": "cpname_assault_on_grozny_aas16_charlie2",
        "class": "ControlPoint",
        "name_object": "Charlie 90m",
        "team": "0",
        "areavalue1": "0.0",
        "areavalue2": "0.0",
        "cpid": "907",
        "sgid": "411",
        "uncap": "false",
        "ttgc": "180.0",
        "ttlc": "180.0"
      }
    },
    {
      "type": "Feature",
      "geometry": {
        "type": "Point",
        "coordinates": [1294.663, -825.809],
        "size": [33, 33],
        "radius": "90.0"
      },
      "properties": {
        "iconurl": "icons/flags_map/neutral/minimap_cp.png",
        "iconrotate": "0",
        "popupContent": "Amazing information about Charlie 90m will be found here!"
      },
      "bf2props": {
        "name": "cpname_assault_on_grozny_aas16_charlie3",
        "class": "ControlPoint",
        "name_object": "Charlie 90m",
        "team": "0",
        "areavalue1": "0.0",
        "areavalue2": "0.0",
        "cpid": "908",
        "sgid": "411",
        "uncap": "false",
        "ttgc": "180.0",
        "ttlc": "180.0"
      }
    },
    {
      "type": "Feature",
      "geometry": {
        "type": "Point",
        "coordinates": [805.971, -961.52],
        "size": [33, 33],
        "radius": "90.0"
      },
      "properties": {
        "iconurl": "icons/flags_map/neutral/minimap_cp.png",
        "iconrotate": "0",
        "popupContent": "Amazing information about Delta 90m will be found here!"
      },
      "bf2props": {
        "name": "cpname_assault_on_grozny_aas16_delta1",
        "class": "ControlPoint",
        "name_object": "Delta 90m",
        "team": "0",
        "areavalue1": "0.0",
        "areavalue2": "0.0",
        "cpid": "909",
        "sgid": "511",
        "uncap": "false",
        "ttgc": "180.0",
        "ttlc": "180.0"
      }
    },
    {
      "type": "Feature",
      "geometry": {
        "type": "Point",
        "coordinates": [931.628, -754.026],
        "size": [33, 33],
        "radius": "90.0"
      },
      "properties": {
        "iconurl": "icons/flags_map/neutral/minimap_cp.png",
        "iconrotate": "0",
        "popupContent": "Amazing information about Delta 90m will be found here!"
      },
      "bf2props": {
        "name": "cpname_assault_on_grozny_aas16_delta2",
        "class": "ControlPoint",
        "name_object": "Delta 90m",
        "team": "0",
        "areavalue1": "0.0",
        "areavalue2": "0.0",
        "cpid": "910",
        "sgid": "511",
        "uncap": "false",
        "ttgc": "180.0",
        "ttlc": "180.0"
      }
    },
    {
      "type": "Feature",
      "geometry": {
        "type": "Point",
        "coordinates": [1226.267, -548.98804],
        "size": [33, 33],
        "radius": "80.0"
      },
      "properties": {
        "iconurl": "icons/flags_map/neutral/minimap_cp.png",
        "iconrotate": "0",
        "popupContent": "Amazing information about Delta 80m will be found here!"
      },
      "bf2props": {
        "name": "cpname_assault_on_grozny_aas16_delta3",
        "class": "ControlPoint",
        "name_object": "Delta 80m",
        "team": "0",
        "areavalue1": "0.0",
        "areavalue2": "0.0",
        "cpid": "911",
        "sgid": "511",
        "uncap": "false",
        "ttgc": "180.0",
        "ttlc": "180.0"
      }
    },
    {
      "type": "Feature",
      "geometry": {
        "type": "Point",
        "coordinates": [676.669, -750.187],
        "size": [33, 33],
        "radius": "90.0"
      },
      "properties": {
        "iconurl": "icons/flags_map/ru/minimap_cp.png",
        "iconrotate": "0",
        "popupContent": "Amazing information about Echo 90m will be found here!"
      },
      "bf2props": {
        "name": "cpname_assault_on_grozny_aas16_echo1",
        "class": "ControlPoint",
        "name_object": "Echo 90m",
        "team": "2",
        "areavalue1": "0.0",
        "areavalue2": "0.0",
        "cpid": "912",
        "sgid": "611",
        "uncap": "false",
        "ttgc": "180.0",
        "ttlc": "180.0"
      }
    },
    {
      "type": "Feature",
      "geometry": {
        "type": "Point",
        "coordinates": [837.183, -560.594],
        "size": [33, 33],
        "radius": "90.0"
      },
      "properties": {
        "iconurl": "icons/flags_map/ru/minimap_cp.png",
        "iconrotate": "0",
        "popupContent": "Amazing information about Echo 90m will be found here!"
      },
      "bf2props": {
        "name": "cpname_assault_on_grozny_aas16_echo2",
        "class": "ControlPoint",
        "name_object": "Echo 90m",
        "team": "2",
        "areavalue1": "0.0",
        "areavalue2": "0.0",
        "cpid": "913",
        "sgid": "611",
        "uncap": "false",
        "ttgc": "180.0",
        "ttlc": "180.0"
      }
    },
    {
      "type": "Feature",
      "geometry": {
        "type": "Point",
        "coordinates": [615.13, -527.76196],
        "size": [33, 33],
        "radius": "90.0"
      },
      "properties": {
        "iconurl": "icons/flags_map/ru/minimap_cp.png",
        "iconrotate": "0",
        "popupContent": "Amazing information about Foxtrot 90m will be found here!"
      },
      "bf2props": {
        "name": "cpname_assault_on_grozny_aas16_foxtrot",
        "class": "ControlPoint",
        "name_object": "Foxtrot 90m",
        "team": "2",
        "areavalue1": "100.0",
        "areavalue2": "0.0",
        "cpid": "914",
        "sgid": "-999",
        "uncap": "false",
        "ttgc": "180.0",
        "ttlc": "150.0"
      }
    },
    {
      "type": "Feature",
      "geometry": {
        "type": "Point",
        "coordinates": [1369.788, -1307.254],
        "size": [33, 33],
        "radius": "90.0"
      },
      "properties": {
        "iconurl": "icons/flags_map/chinsurgent/minimap_cp.png",
        "iconrotate": "0",
        "popupContent": "Amazing information about Suburbs South 90m will be found here!"
      },
      "bf2props": {
        "name": "cpname_assault_on_grozny_aas16_alt1",
        "class": "ControlPoint",
        "name_object": "Suburbs South 90m",
        "team": "1",
        "areavalue1": "0.0",
        "areavalue2": "100.0",
        "cpid": "915",
        "sgid": "212",
        "uncap": "false",
        "ttgc": "150.0",
        "ttlc": "180.0"
      }
    },
    {
      "type": "Feature",
      "geometry": {
        "type": "Point",
        "coordinates": [1743.4719, -1004.615],
        "size": [33, 33],
        "radius": "200.0"
      },
      "properties": {
        "iconurl": "icons/flags_map/neutral/minimap_cp.png",
        "iconrotate": "0",
        "popupContent": "Amazing information about Checkpoint East 200m will be found here!"
      },
      "bf2props": {
        "name": "cpname_assault_on_grozny_aas16_alt2",
        "class": "ControlPoint",
        "name_object": "Checkpoint East 200m",
        "team": "0",
        "areavalue1": "0.0",
        "areavalue2": "0.0",
        "cpid": "916",
        "sgid": "312",
        "uncap": "false",
        "ttgc": "180.0",
        "ttlc": "180.0"
      }
    },
    {
      "type": "Feature",
      "geometry": {
        "type": "Point",
        "coordinates": [1706.2, -503.539],
        "size": [33, 33],
        "radius": "100.0"
      },
      "properties": {
        "iconurl": "icons/flags_map/neutral/minimap_cp.png",
        "iconrotate": "0",
        "popupContent": "Amazing information about Forest 100m will be found here!"
      },
      "bf2props": {
        "name": "cpname_assault_on_grozny_aas16_alt3",
        "class": "ControlPoint",
        "name_object": "Forest 100m",
        "team": "0",
        "areavalue1": "0.0",
        "areavalue2": "0.0",
        "cpid": "917",
        "sgid": "412",
        "uncap": "false",
        "ttgc": "180.0",
        "ttlc": "180.0"
      }
    },
    {
      "type": "Feature",
      "geometry": {
        "type": "Point",
        "coordinates": [1053.661, -247.40002],
        "size": [33, 33],
        "radius": "180.0"
      },
      "properties": {
        "iconurl": "icons/flags_map/neutral/minimap_cp.png",
        "iconrotate": "0",
        "popupContent": "Amazing information about Airport 180m will be found here!"
      },
      "bf2props": {
        "name": "cpname_assault_on_grozny_aas16_alt4",
        "class": "ControlPoint",
        "name_object": "Airport 180m",
        "team": "0",
        "areavalue1": "0.0",
        "areavalue2": "0.0",
        "cpid": "918",
        "sgid": "512",
        "uncap": "false",
        "ttgc": "180.0",
        "ttlc": "180.0"
      }
    },
    {
      "type": "Feature",
      "geometry": {
        "type": "Point",
        "coordinates": [615.291, -528.951],
        "size": [33, 33],
        "radius": "90.0"
      },
      "properties": {
        "iconurl": "icons/flags_map/ru/minimap_cp.png",
        "iconrotate": "0",
        "popupContent": "Amazing information about Suburbs North  90m will be found here!"
      },
      "bf2props": {
        "name": "cpname_assault_on_grozny_aas16_alt5",
        "class": "ControlPoint",
        "name_object": "Suburbs North  90m",
        "team": "2",
        "areavalue1": "100.0",
        "areavalue2": "0.0",
        "cpid": "919",
        "sgid": "612",
        "uncap": "false",
        "ttgc": "180.0",
        "ttlc": "150.0"
      }
    },
    {
      "type": "Feature",
      "geometry": {
        "type": "Polygon",
        "coordinates": [
          [
            [2048.0, -2046.1323],
            [1276.4127, -2046.0421],
            [1424.3645, -1607.0671],
            [1582.6385, -1471.9584],
            [1796.0605, -1400.2247],
            [2048.0, -1388.0975]
          ]
        ]
      },
      "bf2props": {
        "code": "combatarea_0_aas_16",
        "class": "CombatArea",
        "team": "2",
        "vehicles": "4",
        "layer": "10",
        "inverted": "true",
        "max": [0.0, 0.0],
        "min": [0.0, 0.0]
      }
    },
    {
      "type": "Feature",
      "geometry": {
        "type": "Polygon",
        "coordinates": [
          [
            [0.70007324, -1.1535645],
            [1.0668335, -703.843],
            [318.2204, -735.4481],
            [442.00745, -547.6162],
            [614.8393, -238.96204],
            [604.07623, -0.08911133]
          ]
        ]
      },
      "bf2props": {
        "code": "combatarea_6_aas_16",
        "class": "CombatArea",
        "team": "1",
        "vehicles": "4",
        "layer": "10",
        "inverted": "true",
        "max": [0.0, 0.0],
        "min": [0.0, 0.0]
      }
    },
    {
      "type": "Feature",
      "geometry": {
        "type": "Polygon",
        "coordinates": [
          [
            [0,0],
            [0,-2048],
            [2048,-2048],
            [2048,0]
          ],[
            [2045.4889, -2044.8505],
            [1.0875854, -2047.062],
            [0.4777832, -0.7706299],
            [2047.2233, -0.44970703]
          ]
        ]
      },
      "bf2props": {
        "code": "combatarea_12_aas_16",
        "class": "CombatArea",
        "team": "0",
        "vehicles": "4",
        "layer": "10",
        "inverted": "false",
        "max": [0.0, 0.0],
        "min": [0.0, 0.0]
      }
    }
  ]
}