{
  "team1":"idf",
  "team2":"ru",
  "team1tickets":"550",
  "team2tickets":"550",
  "mapsize":"2048",
  "viewdistance":"700",
  "combatareause":"true",
  "combatareadamage":"20.0",
  "combatareaallowoutside":"10.0",
  "routes": [
    [
      [
        "cpname_beirut_skirmish16_idfmain2"
      ],
      [
        "cpname_beirut_skirmish16_idfmain"
      ],
      [
        "cpname_beirut_skirmish16_cp2"
      ],
      [
        "cpname_beirut_skirmish16_cp1"
      ],
      [
        "cpname_beirut_skirmish16_rumain"
      ],
      [
        "cpname_beirut_skirmish16_rumain2"
      ]
    ],
    [
      [
        "cpname_beirut_skirmish16_idfmain2"
      ],
      [
        "cpname_beirut_skirmish16_2cp1"
      ],
      [
        "cpname_beirut_skirmish16_2cp2"
      ],
      [
        "cpname_beirut_skirmish16_2cp3"
      ],
      [
        "cpname_beirut_skirmish16_rumain2"
      ]
    ]
  ],
  "type": "FeatureCollection",
  "features": [
    {
      "type": "Feature",
      "geometry": {
        "type": "Point",
        "coordinates": [1388.925, -1020.12],
        "size": [16, 16]
      },
      "properties": {
        "iconurl": "icons/mini_map/icon_supply.png",
        "iconrotate": "0",
        "popupContent": "Amazing information about Permanent supply crate will be found here!"
      },
      "bf2props": {
        "name": "cpname_beirut_skirmish16_cp1_suppycrate",
        "class": "ObjectSpawner",
        "name_object": "Permanent supply crate | Permanent supply crate",
        "team": "0",
        "obj1": "fixed_supply_crate",
        "obj2": "fixed_supply_crate",
        "maxspawn": "0.0",
        "minspawn": "0.0",
        "spawndelay": "false",
        "ttl": "0.0",
        "cpid": "602"
      }
    },
    {
      "type": "Feature",
      "geometry": {
        "type": "Point",
        "coordinates": [1442.09, -1219.521],
        "size": [16, 16]
      },
      "properties": {
        "iconurl": "icons/mini_map/icon_supply.png",
        "iconrotate": "0",
        "popupContent": "Amazing information about Permanent supply crate will be found here!"
      },
      "bf2props": {
        "name": "cpname_beirut_skirmish16_cp2_suppycrate",
        "class": "ObjectSpawner",
        "name_object": "Permanent supply crate | Permanent supply crate",
        "team": "0",
        "obj1": "fixed_supply_crate",
        "obj2": "fixed_supply_crate",
        "maxspawn": "0.0",
        "minspawn": "0.0",
        "spawndelay": "false",
        "ttl": "0.0",
        "cpid": "603"
      }
    },
    {
      "type": "Feature",
      "geometry": {
        "type": "Point",
        "coordinates": [1693.78, -1326.231],
        "size": [16, 16]
      },
      "properties": {
        "iconurl": "icons/mini_map/icon_supply.png",
        "iconrotate": "0",
        "popupContent": "Amazing information about Permanent supply crate will be found here!"
      },
      "bf2props": {
        "name": "cpname_beirut_skirmish16_idfmain_fixedrp",
        "class": "ObjectSpawner",
        "name_object": "Permanent supply crate",
        "team": "1",
        "obj1": "fixed_supply_crate",
        "obj2": "null",
        "maxspawn": "0.0",
        "minspawn": "0.0",
        "spawndelay": "false",
        "ttl": "0.0",
        "cpid": "606"
      }
    },
    {
      "type": "Feature",
      "geometry": {
        "type": "Point",
        "coordinates": [1154.6431, -928.93],
        "size": [16, 16]
      },
      "properties": {
        "iconurl": "icons/mini_map/icon_supply.png",
        "iconrotate": "0",
        "popupContent": "Amazing information about null will be found here!"
      },
      "bf2props": {
        "name": "cpname_beirut_skirmish16_rumain2_crate2",
        "class": "ObjectSpawner",
        "name_object": "Permanent supply crate",
        "team": "2",
        "obj1": "null",
        "obj2": "fixed_supply_crate",
        "maxspawn": "0.0",
        "minspawn": "0.0",
        "spawndelay": "false",
        "ttl": "0.0",
        "cpid": "605"
      }
    },
    {
      "type": "Feature",
      "geometry": {
        "type": "Point",
        "coordinates": [1513.684, -1266.229],
        "size": [16, 16]
      },
      "properties": {
        "iconurl": "icons/mini_map/icon_supply.png",
        "iconrotate": "0",
        "popupContent": "Amazing information about Permanent supply crate will be found here!"
      },
      "bf2props": {
        "name": "cpname_beirut_skirmish16_2cp1_suppycrate",
        "class": "ObjectSpawner",
        "name_object": "Permanent supply crate | Permanent supply crate",
        "team": "0",
        "obj1": "fixed_supply_crate",
        "obj2": "fixed_supply_crate",
        "maxspawn": "0.0",
        "minspawn": "0.0",
        "spawndelay": "false",
        "ttl": "0.0",
        "cpid": "607"
      }
    },
    {
      "type": "Feature",
      "geometry": {
        "type": "Point",
        "coordinates": [1407.01, -1097.955],
        "size": [16, 16]
      },
      "properties": {
        "iconurl": "icons/mini_map/icon_supply.png",
        "iconrotate": "0",
        "popupContent": "Amazing information about Permanent supply crate will be found here!"
      },
      "bf2props": {
        "name": "cpname_beirut_skirmish16_2cp2_suppycrate",
        "class": "ObjectSpawner",
        "name_object": "Permanent supply crate | Permanent supply crate",
        "team": "0",
        "obj1": "fixed_supply_crate",
        "obj2": "fixed_supply_crate",
        "maxspawn": "0.0",
        "minspawn": "0.0",
        "spawndelay": "false",
        "ttl": "0.0",
        "cpid": "608"
      }
    },
    {
      "type": "Feature",
      "geometry": {
        "type": "Point",
        "coordinates": [1243.398, -1112.922],
        "size": [16, 16]
      },
      "properties": {
        "iconurl": "icons/mini_map/icon_supply.png",
        "iconrotate": "0",
        "popupContent": "Amazing information about Permanent supply crate will be found here!"
      },
      "bf2props": {
        "name": "cpname_beirut_skirmish16_2cp3_suppycrate",
        "class": "ObjectSpawner",
        "name_object": "Permanent supply crate | Permanent supply crate",
        "team": "0",
        "obj1": "fixed_supply_crate",
        "obj2": "fixed_supply_crate",
        "maxspawn": "0.0",
        "minspawn": "0.0",
        "spawndelay": "false",
        "ttl": "0.0",
        "cpid": "609"
      }
    },
    {
      "type": "Feature",
      "geometry": {
        "type": "Point",
        "coordinates": [1198.991, -1085.429],
        "size": [33, 33],
        "radius": "70.0"
      },
      "properties": {
        "iconurl": "icons/flags_map/neutral/minimap_cp.png",
        "iconrotate": "0",
        "popupContent": "Amazing information about West City 70m will be found here!"
      },
      "bf2props": {
        "name": "cpname_beirut_skirmish16_rumain",
        "class": "ControlPoint",
        "name_object": "West City 70m",
        "team": "0",
        "areavalue1": "1000.0",
        "areavalue2": "0.0",
        "cpid": "601",
        "sgid": "501",
        "uncap": "false",
        "ttgc": "120.0",
        "ttlc": "120.0"
      }
    },
    {
      "type": "Feature",
      "geometry": {
        "type": "Point",
        "coordinates": [1427.139, -1006.341],
        "size": [33, 33],
        "radius": "70.0"
      },
      "properties": {
        "iconurl": "icons/flags_map/neutral/minimap_cp.png",
        "iconrotate": "0",
        "popupContent": "Amazing information about North City 70m will be found here!"
      },
      "bf2props": {
        "name": "cpname_beirut_skirmish16_cp1",
        "class": "ControlPoint",
        "name_object": "North City 70m",
        "team": "0",
        "areavalue1": "0.0",
        "areavalue2": "0.0",
        "cpid": "602",
        "sgid": "401",
        "uncap": "false",
        "ttgc": "120.0",
        "ttlc": "120.0"
      }
    },
    {
      "type": "Feature",
      "geometry": {
        "type": "Point",
        "coordinates": [1468.408, -1195.045],
        "size": [33, 33],
        "radius": "70.0"
      },
      "properties": {
        "iconurl": "icons/flags_map/neutral/minimap_cp.png",
        "iconrotate": "0",
        "popupContent": "Amazing information about East City 70m will be found here!"
      },
      "bf2props": {
        "name": "cpname_beirut_skirmish16_cp2",
        "class": "ControlPoint",
        "name_object": "East City 70m",
        "team": "0",
        "areavalue1": "0.0",
        "areavalue2": "0.0",
        "cpid": "603",
        "sgid": "301",
        "uncap": "false",
        "ttgc": "120.0",
        "ttlc": "120.0"
      }
    },
    {
      "type": "Feature",
      "geometry": {
        "type": "Point",
        "coordinates": [1597.89, -1298.085],
        "size": [33, 33],
        "radius": "70.0"
      },
      "properties": {
        "iconurl": "icons/flags_map/neutral/minimap_cp.png",
        "iconrotate": "0",
        "popupContent": "Amazing information about Gas Station 70m will be found here!"
      },
      "bf2props": {
        "name": "cpname_beirut_skirmish16_idfmain",
        "class": "ControlPoint",
        "name_object": "Gas Station 70m",
        "team": "0",
        "areavalue1": "0.0",
        "areavalue2": "1000.0",
        "cpid": "604",
        "sgid": "201",
        "uncap": "false",
        "ttgc": "120.0",
        "ttlc": "120.0"
      }
    },
    {
      "type": "Feature",
      "geometry": {
        "type": "Point",
        "coordinates": [1161.24, -919.954],
        "size": [33, 33],
        "radius": "0.0"
      },
      "properties": {
        "iconurl": "icons/flags_map/ru/minimap_cpbase.png",
        "iconrotate": "0",
        "popupContent": "Amazing information about Russian FOB will be found here!"
      },
      "bf2props": {
        "name": "cpname_beirut_skirmish16_rumain2",
        "class": "ControlPoint",
        "name_object": "Russian FOB",
        "team": "2",
        "areavalue1": "0.0",
        "areavalue2": "0.0",
        "cpid": "605",
        "sgid": "-999",
        "uncap": "true",
        "ttgc": "0.0",
        "ttlc": "0.0"
      }
    },
    {
      "type": "Feature",
      "geometry": {
        "type": "Point",
        "coordinates": [1763.971, -1345.578],
        "size": [33, 33],
        "radius": "0.0"
      },
      "properties": {
        "iconurl": "icons/flags_map/idf/minimap_cpbase.png",
        "iconrotate": "0",
        "popupContent": "Amazing information about IDF Deployment Area will be found here!"
      },
      "bf2props": {
        "name": "cpname_beirut_skirmish16_idfmain2",
        "class": "ControlPoint",
        "name_object": "IDF Deployment Area",
        "team": "1",
        "areavalue1": "0.0",
        "areavalue2": "0.0",
        "cpid": "606",
        "sgid": "1",
        "uncap": "true",
        "ttgc": "120.0",
        "ttlc": "120.0"
      }
    },
    {
      "type": "Feature",
      "geometry": {
        "type": "Point",
        "coordinates": [1532.4761, -1244.301],
        "size": [33, 33],
        "radius": "75.0"
      },
      "properties": {
        "iconurl": "icons/flags_map/neutral/minimap_cp.png",
        "iconrotate": "0",
        "popupContent": "Amazing information about East Apartments 75m will be found here!"
      },
      "bf2props": {
        "name": "cpname_beirut_skirmish16_2cp1",
        "class": "ControlPoint",
        "name_object": "East Apartments 75m",
        "team": "0",
        "areavalue1": "0.0",
        "areavalue2": "500.0",
        "cpid": "607",
        "sgid": "202",
        "uncap": "false",
        "ttgc": "120.0",
        "ttlc": "120.0"
      }
    },
    {
      "type": "Feature",
      "geometry": {
        "type": "Point",
        "coordinates": [1454.491, -1063.531],
        "size": [33, 33],
        "radius": "100.0"
      },
      "properties": {
        "iconurl": "icons/flags_map/neutral/minimap_cp.png",
        "iconrotate": "0",
        "popupContent": "Amazing information about City Center 100m will be found here!"
      },
      "bf2props": {
        "name": "cpname_beirut_skirmish16_2cp2",
        "class": "ControlPoint",
        "name_object": "City Center 100m",
        "team": "0",
        "areavalue1": "0.0",
        "areavalue2": "0.0",
        "cpid": "608",
        "sgid": "302",
        "uncap": "false",
        "ttgc": "120.0",
        "ttlc": "120.0"
      }
    },
    {
      "type": "Feature",
      "geometry": {
        "type": "Point",
        "coordinates": [1255.658, -1065.277],
        "size": [33, 33],
        "radius": "75.0"
      },
      "properties": {
        "iconurl": "icons/flags_map/neutral/minimap_cp.png",
        "iconrotate": "0",
        "popupContent": "Amazing information about West Apartments 75m will be found here!"
      },
      "bf2props": {
        "name": "cpname_beirut_skirmish16_2cp3",
        "class": "ControlPoint",
        "name_object": "West Apartments 75m",
        "team": "0",
        "areavalue1": "500.0",
        "areavalue2": "0.0",
        "cpid": "609",
        "sgid": "402",
        "uncap": "false",
        "ttgc": "120.0",
        "ttlc": "120.0"
      }
    },
    {
      "type": "Feature",
      "geometry": {
        "type": "Polygon",
        "coordinates": [
          [
            [1704.0863, -1286.3635],
            [1651.5327, -1400.1406],
            [1815.0743, -1465.4875],
            [1946.3116, -1196.5593],
            [1751.3802, -1104.1912]
          ]
        ]
      },
      "bf2props": {
        "code": "combatarea_8_default",
        "class": "CombatArea",
        "team": "2",
        "vehicles": "4",
        "layer": "6",
        "inverted": "true",
        "max": [0.0, 0.0],
        "min": [0.0, 0.0]
      }
    },
    {
      "type": "Feature",
      "geometry": {
        "type": "Polygon",
        "coordinates": [
          [
            [0,0],
            [0,-2048],
            [2048,-2048],
            [2048,0]
          ],[
            [1815.034, -1468.595],
            [1648.1656, -1403.9377],
            [1027.4744, -1104.3015],
            [1078.2911, -1034.6399],
            [1102.806, -857.57556],
            [1304.9348, -854.4551],
            [1385.1436, -771.5858],
            [1495.1085, -825.8202],
            [1513.6216, -940.56433],
            [1550.6873, -956.59265],
            [1621.7031, -1004.1371],
            [1618.8063, -1054.2913],
            [1684.8597, -1091.0734],
            [1750.509, -1101.7179],
            [1950.3802, -1194.4277]
          ]
        ]
      },
      "bf2props": {
        "code": "combatarea_9_default",
        "class": "CombatArea",
        "team": "0",
        "vehicles": "4",
        "layer": "6",
        "inverted": "false",
        "max": [0.0, 0.0],
        "min": [0.0, 0.0]
      }
    },
    {
      "type": "Feature",
      "geometry": {
        "type": "Polygon",
        "coordinates": [
          [
            [1214.9532, -854.26294],
            [1093.8027, -858.7208],
            [1087.497, -985.2075],
            [1154.5958, -1005.3872],
            [1169.644, -962.3441],
            [1216.4116, -960.06433]
          ]
        ]
      },
      "bf2props": {
        "code": "combatarea_20_aas32",
        "class": "CombatArea",
        "team": "1",
        "vehicles": "4",
        "layer": "6",
        "inverted": "true",
        "max": [0.0, 0.0],
        "min": [0.0, 0.0]
      }
    }
  ]
}