{
  "team1":"idf",
  "team2":"ru",
  "team1tickets":"550",
  "team2tickets":"550",
  "mapsize":"2048",
  "viewdistance":"700",
  "combatareause":"true",
  "combatareadamage":"20.0",
  "combatareaallowoutside":"10.0",
  "routes": [
    [
      [
        "cpname_beirut_aas16_idfmain"
      ],
      [
        "cpname_beirut_aas16_1oldtown"
      ],
      [
        "cpname_beirut_aas16_1westernapartments",
        "cpname_beirut_aas16_1southernapartments"
      ],
      [
        "cpname_beirut_aas16_industrialrailwaystation",
        "cpname_beirut_aas16_blackmarket"
      ],
      [
        "cpname_beirut_aas16_easternapartments"
      ],
      [
        "cpname_beirut_aas16_factory"
      ],
      [
        "cpname_beirut_aas16_russianship"
      ]
    ],
    [
      [
        "cpname_beirut_aas16_idfmain"
      ],
      [
        "cpname_beirut_aas16_oldtown"
      ],
      [
        "cpname_beirut_aas16_westernapartments",
        "cpname_beirut_aas16_southernapartments"
      ],
      [
        "cpname_beirut_aas16_citycentre2",
        "cpname_beirut_aas16_citycentre3",
        "cpname_beirut_aas16_bridge"
      ],
      [
        "cpname_beirut_aas16_coastsettlement_0"
      ],
      [
        "cpname_beirut_aas16_docks"
      ],
      [
        "cpname_beirut_aas16_russianship"
      ]
    ],
    [
      [
        "cpname_beirut_aas16_idfmain"
      ],
      [
        "cpname_beirut_aas16_3oldtown"
      ],
      [
        "cpname_beirut_aas16_3westernapartments",
        "cpname_beirut_aas16_3southernapartments"
      ],
      [
        "cpname_beirut_aas16_citycentre",
        "cpname_beirut_aas16_3citycentre_0"
      ],
      [
        "cpname_beirut_aas16_3harbor"
      ],
      [
        "cpname_beirut_aas16_3factory"
      ],
      [
        "cpname_beirut_aas16_russianship"
      ]
    ]
  ],
  "type": "FeatureCollection",
  "features": [
    {
      "type": "Feature",
      "geometry": {
        "type": "Point",
        "coordinates": [108.17102, -653.525],
        "size": [16, 16]
      },
      "properties": {
        "iconurl": "icons/mini_map/repairdepot.png",
        "iconrotate": "0",
        "popupContent": "Amazing information about null will be found here!"
      },
      "bf2props": {
        "name": "cpname_beirut_aas16_docks_repairstation",
        "class": "ObjectSpawner",
        "name_object": "Vehicle Depot",
        "team": "2",
        "obj1": "null",
        "obj2": "vehicle_depot_ru",
        "maxspawn": "0.0",
        "minspawn": "0.0",
        "spawndelay": "false",
        "ttl": "0.0",
        "cpid": "210"
      }
    },
    {
      "type": "Feature",
      "geometry": {
        "type": "Point",
        "coordinates": [123.752014, -657.879],
        "size": [16, 16]
      },
      "properties": {
        "iconurl": "icons/vehicles_map/mini_trk_logistics.png",
        "iconrotate": "180.0",
        "popupContent": "Amazing information about null will be found here!"
      },
      "bf2props": {
        "name": "cpname_beirut_aas16_docks_supplytruck",
        "class": "ObjectSpawner",
        "name_object": "Ural-4320 Logistics",
        "team": "2",
        "obj1": "null",
        "obj2": "ru_trk_logistics",
        "maxspawn": "300.0",
        "minspawn": "300.0",
        "spawndelay": "false",
        "ttl": "99999.0",
        "cpid": "210"
      }
    },
    {
      "type": "Feature",
      "geometry": {
        "type": "Point",
        "coordinates": [1868.79, -48.39099],
        "size": [16, 16]
      },
      "properties": {
        "iconurl": "icons/vehicles_map/mini_the_medium.png",
        "iconrotate": "-162.876",
        "popupContent": "Amazing information about null will be found here!"
      },
      "bf2props": {
        "name": "cpname_beirut_aas16_russianship_mi172",
        "class": "ObjectSpawner",
        "name_object": "Mi-8MT Hip-C",
        "team": "2",
        "obj1": "null",
        "obj2": "ru_the_mi8",
        "maxspawn": "99999.0",
        "minspawn": "99999.0",
        "spawndelay": "false",
        "ttl": "99999.0",
        "cpid": "211"
      }
    },
    {
      "type": "Feature",
      "geometry": {
        "type": "Point",
        "coordinates": [1830.021, -47.986023],
        "size": [16, 16]
      },
      "properties": {
        "iconurl": "icons/vehicles_map/mini_the_medium.png",
        "iconrotate": "-162.876",
        "popupContent": "Amazing information about null will be found here!"
      },
      "bf2props": {
        "name": "cpname_beirut_aas16_russianship_mi174",
        "class": "ObjectSpawner",
        "name_object": "Mi-8MT Hip-C",
        "team": "2",
        "obj1": "null",
        "obj2": "ru_the_mi8",
        "maxspawn": "300.0",
        "minspawn": "300.0",
        "spawndelay": "false",
        "maxnr": "2",
        "ttl": "99999.0",
        "cpid": "211"
      }
    },
    {
      "type": "Feature",
      "geometry": {
        "type": "Point",
        "coordinates": [1793.843, -47.77301],
        "size": [16, 16]
      },
      "properties": {
        "iconurl": "icons/vehicles_map/mini_the_medium.png",
        "iconrotate": "-162.876",
        "popupContent": "Amazing information about null will be found here!"
      },
      "bf2props": {
        "name": "cpname_beirut_aas16_russianship_mi176",
        "class": "ObjectSpawner",
        "name_object": "Mi-8MT Hip-C",
        "team": "2",
        "obj1": "null",
        "obj2": "ru_the_mi8",
        "maxspawn": "300.0",
        "minspawn": "300.0",
        "spawndelay": "false",
        "maxnr": "2",
        "ttl": "99999.0",
        "cpid": "211"
      }
    },
    {
      "type": "Feature",
      "geometry": {
        "type": "Point",
        "coordinates": [1898.6699, -69.21503],
        "size": [16, 16]
      },
      "properties": {
        "iconurl": "icons/vehicles_map/mini_jep_support.png",
        "iconrotate": "-179.765",
        "popupContent": "Amazing information about null will be found here!"
      },
      "bf2props": {
        "name": "cpname_beirut_aas16_russianship_brdm21",
        "class": "ObjectSpawner",
        "name_object": "BRDM-2 Support",
        "team": "2",
        "obj1": "null",
        "obj2": "ru_jep_brdm2_support",
        "maxspawn": "300.0",
        "minspawn": "300.0",
        "spawndelay": "false",
        "ttl": "99999.0",
        "cpid": "211"
      }
    },
    {
      "type": "Feature",
      "geometry": {
        "type": "Point",
        "coordinates": [1891.026, -69.041016],
        "size": [16, 16]
      },
      "properties": {
        "iconurl": "icons/vehicles_map/mini_jep_support.png",
        "iconrotate": "176.135",
        "popupContent": "Amazing information about null will be found here!"
      },
      "bf2props": {
        "name": "cpname_beirut_aas16_russianship_brdm22",
        "class": "ObjectSpawner",
        "name_object": "BRDM-2 Support",
        "team": "2",
        "obj1": "null",
        "obj2": "ru_jep_brdm2_support",
        "maxspawn": "300.0",
        "minspawn": "300.0",
        "spawndelay": "false",
        "ttl": "99999.0",
        "cpid": "211"
      }
    },
    {
      "type": "Feature",
      "geometry": {
        "type": "Point",
        "coordinates": [1930.9829, -67.63599],
        "size": [16, 16]
      },
      "properties": {
        "iconurl": "icons/vehicles_map/mini_shp_light.png",
        "iconrotate": "176.022",
        "popupContent": "Amazing information about null will be found here!"
      },
      "bf2props": {
        "name": "cpname_beirut_aas16_russianship_brdm2spandrel",
        "class": "ObjectSpawner",
        "name_object": "RHIB",
        "team": "2",
        "obj1": "null",
        "obj2": "boat_rib_gpmg_pkp",
        "maxspawn": "300.0",
        "minspawn": "300.0",
        "spawndelay": "false",
        "ttl": "99999.0",
        "cpid": "211"
      }
    },
    {
      "type": "Feature",
      "geometry": {
        "type": "Point",
        "coordinates": [141.742, -1954.52],
        "size": [16, 16]
      },
      "properties": {
        "iconurl": "icons/vehicles_map/mini_trk_logistics.png",
        "iconrotate": "-90.0",
        "popupContent": "Amazing information about M35 Logistics will be found here!"
      },
      "bf2props": {
        "name": "cpname_beirut_aas16_constructionsite_logistictruck1",
        "class": "ObjectSpawner",
        "name_object": "M35 Logistics",
        "team": "1",
        "obj1": "idf_trk_logistics",
        "obj2": "null",
        "maxspawn": "300.0",
        "minspawn": "300.0",
        "spawndelay": "false",
        "ttl": "99999.0",
        "cpid": "224"
      }
    },
    {
      "type": "Feature",
      "geometry": {
        "type": "Point",
        "coordinates": [131.11499, -1954.775],
        "size": [16, 16]
      },
      "properties": {
        "iconurl": "icons/vehicles_map/mini_apc_logistics.png",
        "iconrotate": "-91.366",
        "popupContent": "Amazing information about M113 Logistics will be found here!"
      },
      "bf2props": {
        "name": "cpname_beirut_aas16_constructionsite_logistictruck2",
        "class": "ObjectSpawner",
        "name_object": "M113 Logistics",
        "team": "1",
        "obj1": "idf_apc_m113_logistics",
        "obj2": "null",
        "maxspawn": "600.0",
        "minspawn": "600.0",
        "spawndelay": "false",
        "ttl": "99999.0",
        "cpid": "224"
      }
    },
    {
      "type": "Feature",
      "geometry": {
        "type": "Point",
        "coordinates": [99.776, -2009.9341],
        "size": [16, 16]
      },
      "properties": {
        "iconurl": "icons/vehicles_map/mini_jep_support.png",
        "iconrotate": "0.0",
        "popupContent": "Amazing information about HMMWV SIYUR will be found here!"
      },
      "bf2props": {
        "name": "cpname_beirut_aas16_constructionsite_transporttruck1",
        "class": "ObjectSpawner",
        "name_object": "HMMWV SIYUR",
        "team": "1",
        "obj1": "idf_jep_hmmwvopen",
        "obj2": "null",
        "maxspawn": "300.0",
        "minspawn": "300.0",
        "spawndelay": "false",
        "ttl": "99999.0",
        "cpid": "224"
      }
    },
    {
      "type": "Feature",
      "geometry": {
        "type": "Point",
        "coordinates": [104.59003, -2010.0239],
        "size": [16, 16]
      },
      "properties": {
        "iconurl": "icons/vehicles_map/mini_jep_support.png",
        "iconrotate": "0.0",
        "popupContent": "Amazing information about HMMWV SIYUR will be found here!"
      },
      "bf2props": {
        "name": "cpname_beirut_aas16_constructionsite_transportruck2",
        "class": "ObjectSpawner",
        "name_object": "HMMWV SIYUR",
        "team": "1",
        "obj1": "idf_jep_hmmwvopen",
        "obj2": "null",
        "maxspawn": "300.0",
        "minspawn": "300.0",
        "spawndelay": "false",
        "ttl": "99999.0",
        "cpid": "224"
      }
    },
    {
      "type": "Feature",
      "geometry": {
        "type": "Point",
        "coordinates": [135.23102, -1970.265],
        "size": [16, 16]
      },
      "properties": {
        "iconurl": "icons/vehicles_map/mini_jep_support.png",
        "iconrotate": "-90.0",
        "popupContent": "Amazing information about HMMWV SIYUR will be found here!"
      },
      "bf2props": {
        "name": "cpname_beirut_aas16_constructionsite_zeev",
        "class": "ObjectSpawner",
        "name_object": "HMMWV SIYUR",
        "team": "1",
        "obj1": "idf_jep_hmmwvopen",
        "obj2": "null",
        "maxspawn": "300.0",
        "minspawn": "300.0",
        "spawndelay": "false",
        "ttl": "99999.0",
        "cpid": "224"
      }
    },
    {
      "type": "Feature",
      "geometry": {
        "type": "Point",
        "coordinates": [72.520996, -2010.224],
        "size": [16, 16]
      },
      "properties": {
        "iconurl": "icons/vehicles_map/mini_trk_support.png",
        "iconrotate": "0.0",
        "popupContent": "Amazing information about M35 2.5 Ton will be found here!"
      },
      "bf2props": {
        "name": "cpname_beirut_aas16_constructionsite_transportruck3",
        "class": "ObjectSpawner",
        "name_object": "M35 2.5 Ton",
        "team": "1",
        "obj1": "idf_trk_support",
        "obj2": "null",
        "maxspawn": "300.0",
        "minspawn": "300.0",
        "spawndelay": "false",
        "ttl": "99999.0",
        "cpid": "224"
      }
    },
    {
      "type": "Feature",
      "geometry": {
        "type": "Point",
        "coordinates": [70.91803, -1986.8411],
        "size": [16, 16]
      },
      "properties": {
        "iconurl": "icons/vehicles_map/mini_trk_support.png",
        "iconrotate": "90.0",
        "popupContent": "Amazing information about M35 2.5 Ton will be found here!"
      },
      "bf2props": {
        "name": "cpname_beirut_aas16_constructionsite_transporttruck4",
        "class": "ObjectSpawner",
        "name_object": "M35 2.5 Ton",
        "team": "1",
        "obj1": "idf_trk_support",
        "obj2": "null",
        "maxspawn": "300.0",
        "minspawn": "300.0",
        "spawndelay": "false",
        "ttl": "99999.0",
        "cpid": "224"
      }
    },
    {
      "type": "Feature",
      "geometry": {
        "type": "Point",
        "coordinates": [73.953, -1952.835],
        "size": [16, 16]
      },
      "properties": {
        "iconurl": "icons/mini_map/uavtrailer.png",
        "iconrotate": "0",
        "popupContent": "Amazing information about UAV Terminal will be found here!"
      },
      "bf2props": {
        "name": "cpname_beirut_aas16_constructionsite_commandpost",
        "class": "ObjectSpawner",
        "name_object": "UAV Terminal",
        "team": "1",
        "obj1": "idf_acv_m557",
        "obj2": "null",
        "maxspawn": "0.0",
        "minspawn": "0.0",
        "spawndelay": "false",
        "ttl": "0.0",
        "cpid": "224"
      }
    },
    {
      "type": "Feature",
      "geometry": {
        "type": "Point",
        "coordinates": [74.099, -1962.801],
        "size": [16, 16]
      },
      "properties": {
        "iconurl": "icons/mini_map/repairdepot.png",
        "iconrotate": "0",
        "popupContent": "Amazing information about Vehicle Depot will be found here!"
      },
      "bf2props": {
        "name": "cpname_beirut_aas16_constructionsite_vehicledeport",
        "class": "ObjectSpawner",
        "name_object": "Vehicle Depot",
        "team": "1",
        "obj1": "vehicle_depot_idf",
        "obj2": "null",
        "maxspawn": "0.0",
        "minspawn": "0.0",
        "spawndelay": "false",
        "ttl": "0.0",
        "cpid": "224"
      }
    },
    {
      "type": "Feature",
      "geometry": {
        "type": "Point",
        "coordinates": [1753.0801, -45.856995],
        "size": [16, 16]
      },
      "properties": {
        "iconurl": "icons/vehicles_map/firebase_mini_white.png",
        "iconrotate": "0",
        "popupContent": "Amazing information about null will be found here!"
      },
      "bf2props": {
        "name": "cpname_beirut_aas16_russianship_commandpost",
        "class": "ObjectSpawner",
        "name_object": "Command Post",
        "team": "2",
        "obj1": "null",
        "obj2": "deployable_commandpost_ru",
        "maxspawn": "0.0",
        "minspawn": "0.0",
        "spawndelay": "false",
        "ttl": "0.0",
        "cpid": "211"
      }
    },
    {
      "type": "Feature",
      "geometry": {
        "type": "Point",
        "coordinates": [-1196.824, -92.252014],
        "size": [16, 16]
      },
      "properties": {
        "iconurl": "icons/mini_map/airdef.png",
        "iconrotate": "0",
        "popupContent": "Amazing information about null will be found here!"
      },
      "bf2props": {
        "name": "cpname_beirut_aas16_russianship_artillery",
        "class": "ObjectSpawner",
        "name_object": "Artillery Barrage Call-In",
        "team": "2",
        "obj1": "null",
        "obj2": "artillery_team2",
        "maxspawn": "1800.0",
        "minspawn": "1800.0",
        "spawndelay": "true",
        "ttl": "0.0",
        "cpid": "211"
      }
    },
    {
      "type": "Feature",
      "geometry": {
        "type": "Point",
        "coordinates": [-177.26501, -2331.416],
        "size": [16, 16]
      },
      "properties": {
        "iconurl": "icons/mini_map/airdef.png",
        "iconrotate": "0",
        "popupContent": "Amazing information about Artillery Barrage Call-In will be found here!"
      },
      "bf2props": {
        "name": "cpname_beirut_aas16_constructionsite_artillery",
        "class": "ObjectSpawner",
        "name_object": "Artillery Barrage Call-In",
        "team": "1",
        "obj1": "artillery_team1",
        "obj2": "null",
        "maxspawn": "1800.0",
        "minspawn": "1800.0",
        "spawndelay": "true",
        "ttl": "0.0",
        "cpid": "224"
      }
    },
    {
      "type": "Feature",
      "geometry": {
        "type": "Point",
        "coordinates": [153.534, -1954.4819],
        "size": [16, 16]
      },
      "properties": {
        "iconurl": "icons/vehicles_map/mini_trk_logistics.png",
        "iconrotate": "-90.0",
        "popupContent": "Amazing information about M35 Logistics will be found here!"
      },
      "bf2props": {
        "name": "cpname_beirut_aas16_constructionsite_logistictruck3",
        "class": "ObjectSpawner",
        "name_object": "M35 Logistics",
        "team": "1",
        "obj1": "idf_trk_logistics",
        "obj2": "null",
        "maxspawn": "300.0",
        "minspawn": "300.0",
        "spawndelay": "false",
        "ttl": "99999.0",
        "cpid": "224"
      }
    },
    {
      "type": "Feature",
      "geometry": {
        "type": "Point",
        "coordinates": [1914.681, -68.56897],
        "size": [16, 16]
      },
      "properties": {
        "iconurl": "icons/vehicles_map/mini_jep_support.png",
        "iconrotate": "-177.848",
        "popupContent": "Amazing information about null will be found here!"
      },
      "bf2props": {
        "name": "cpname_beirut_aas16_russianship_boat1",
        "class": "ObjectSpawner",
        "name_object": "BRDM-2 Support",
        "team": "2",
        "obj1": "null",
        "obj2": "ru_jep_brdm2_support",
        "maxspawn": "300.0",
        "minspawn": "300.0",
        "spawndelay": "false",
        "ttl": "99999.0",
        "cpid": "211"
      }
    },
    {
      "type": "Feature",
      "geometry": {
        "type": "Point",
        "coordinates": [1907.027, -68.81],
        "size": [16, 16]
      },
      "properties": {
        "iconurl": "icons/vehicles_map/mini_jep_support.png",
        "iconrotate": "-176.868",
        "popupContent": "Amazing information about null will be found here!"
      },
      "bf2props": {
        "name": "cpname_beirut_aas16_russianship_boat2",
        "class": "ObjectSpawner",
        "name_object": "BRDM-2 Support",
        "team": "2",
        "obj1": "null",
        "obj2": "ru_jep_brdm2_support",
        "maxspawn": "300.0",
        "minspawn": "300.0",
        "spawndelay": "false",
        "ttl": "99999.0",
        "cpid": "211"
      }
    },
    {
      "type": "Feature",
      "geometry": {
        "type": "Point",
        "coordinates": [117.94299, -658.06],
        "size": [16, 16]
      },
      "properties": {
        "iconurl": "icons/vehicles_map/mini_trk_logistics.png",
        "iconrotate": "180.0",
        "popupContent": "Amazing information about null will be found here!"
      },
      "bf2props": {
        "name": "cpname_beirut_aas16_docks_supplytruck3",
        "class": "ObjectSpawner",
        "name_object": "Ural-4320 Logistics",
        "team": "2",
        "obj1": "null",
        "obj2": "ru_trk_logistics",
        "maxspawn": "300.0",
        "minspawn": "300.0",
        "spawndelay": "false",
        "ttl": "99999.0",
        "cpid": "210"
      }
    },
    {
      "type": "Feature",
      "geometry": {
        "type": "Point",
        "coordinates": [-1188.876, -92.18701],
        "size": [16, 16]
      },
      "properties": {
        "iconurl": "icons/mini_map/airdef.png",
        "iconrotate": "0",
        "popupContent": "Amazing information about null will be found here!"
      },
      "bf2props": {
        "name": "cpname_beirut_aas16_russianship_artillery2",
        "class": "ObjectSpawner",
        "name_object": "Artillery Barrage Call-In",
        "team": "2",
        "obj1": "null",
        "obj2": "artillery_team2",
        "maxspawn": "1800.0",
        "minspawn": "1800.0",
        "spawndelay": "true",
        "ttl": "0.0",
        "cpid": "211"
      }
    },
    {
      "type": "Feature",
      "geometry": {
        "type": "Point",
        "coordinates": [-1204.583, -92.49597],
        "size": [16, 16]
      },
      "properties": {
        "iconurl": "icons/mini_map/airdef.png",
        "iconrotate": "0",
        "popupContent": "Amazing information about null will be found here!"
      },
      "bf2props": {
        "name": "cpname_beirut_aas16_russianship_artillery3",
        "class": "ObjectSpawner",
        "name_object": "Artillery Barrage Call-In",
        "team": "2",
        "obj1": "null",
        "obj2": "artillery_team2",
        "maxspawn": "1800.0",
        "minspawn": "1800.0",
        "spawndelay": "true",
        "ttl": "0.0",
        "cpid": "211"
      }
    },
    {
      "type": "Feature",
      "geometry": {
        "type": "Point",
        "coordinates": [-1179.499, -92.59198],
        "size": [16, 16]
      },
      "properties": {
        "iconurl": "icons/mini_map/airdef.png",
        "iconrotate": "0",
        "popupContent": "Amazing information about null will be found here!"
      },
      "bf2props": {
        "name": "cpname_beirut_aas16_russianship_artillery4",
        "class": "ObjectSpawner",
        "name_object": "Artillery Barrage Call-In",
        "team": "2",
        "obj1": "null",
        "obj2": "artillery_team2",
        "maxspawn": "1800.0",
        "minspawn": "1800.0",
        "spawndelay": "true",
        "ttl": "0.0",
        "cpid": "211"
      }
    },
    {
      "type": "Feature",
      "geometry": {
        "type": "Point",
        "coordinates": [-164.719, -2332.03],
        "size": [16, 16]
      },
      "properties": {
        "iconurl": "icons/mini_map/airdef.png",
        "iconrotate": "0",
        "popupContent": "Amazing information about Artillery Barrage Call-In will be found here!"
      },
      "bf2props": {
        "name": "cpname_beirut_aas16_constructionsite_artillery3",
        "class": "ObjectSpawner",
        "name_object": "Artillery Barrage Call-In",
        "team": "1",
        "obj1": "artillery_team1",
        "obj2": "null",
        "maxspawn": "1800.0",
        "minspawn": "1800.0",
        "spawndelay": "true",
        "ttl": "0.0",
        "cpid": "224"
      }
    },
    {
      "type": "Feature",
      "geometry": {
        "type": "Point",
        "coordinates": [-171.06494, -2331.891],
        "size": [16, 16]
      },
      "properties": {
        "iconurl": "icons/mini_map/airdef.png",
        "iconrotate": "0",
        "popupContent": "Amazing information about Artillery Barrage Call-In will be found here!"
      },
      "bf2props": {
        "name": "cpname_beirut_aas16_constructionsite_artillery2",
        "class": "ObjectSpawner",
        "name_object": "Artillery Barrage Call-In",
        "team": "1",
        "obj1": "artillery_team1",
        "obj2": "null",
        "maxspawn": "1800.0",
        "minspawn": "1800.0",
        "spawndelay": "true",
        "ttl": "0.0",
        "cpid": "224"
      }
    },
    {
      "type": "Feature",
      "geometry": {
        "type": "Point",
        "coordinates": [-157.65002, -2331.895],
        "size": [16, 16]
      },
      "properties": {
        "iconurl": "icons/mini_map/airdef.png",
        "iconrotate": "0",
        "popupContent": "Amazing information about Artillery Barrage Call-In will be found here!"
      },
      "bf2props": {
        "name": "cpname_beirut_aas16_constructionsite_artillery4",
        "class": "ObjectSpawner",
        "name_object": "Artillery Barrage Call-In",
        "team": "1",
        "obj1": "artillery_team1",
        "obj2": "null",
        "maxspawn": "1800.0",
        "minspawn": "1800.0",
        "spawndelay": "true",
        "ttl": "0.0",
        "cpid": "224"
      }
    },
    {
      "type": "Feature",
      "geometry": {
        "type": "Point",
        "coordinates": [1989.7161, -1332.075],
        "size": [16, 16]
      },
      "properties": {
        "iconurl": "icons/mini_map/repairdepot.png",
        "iconrotate": "0",
        "popupContent": "Amazing information about null will be found here!"
      },
      "bf2props": {
        "name": "cpname_beirut_aas16_factory_repairdepot",
        "class": "ObjectSpawner",
        "name_object": "Vehicle Depot",
        "team": "2",
        "obj1": "null",
        "obj2": "vehicle_depot_ru",
        "maxspawn": "0.0",
        "minspawn": "0.0",
        "spawndelay": "false",
        "ttl": "0.0",
        "cpid": "203"
      }
    },
    {
      "type": "Feature",
      "geometry": {
        "type": "Point",
        "coordinates": [1956.02, -1297.377],
        "size": [16, 16]
      },
      "properties": {
        "iconurl": "icons/vehicles_map/mini_trk_logistics.png",
        "iconrotate": "133.0",
        "popupContent": "Amazing information about null will be found here!"
      },
      "bf2props": {
        "name": "cpname_beirut_aas16_factory_supplytruck",
        "class": "ObjectSpawner",
        "name_object": "Ural-4320 Logistics",
        "team": "2",
        "obj1": "null",
        "obj2": "ru_trk_logistics",
        "maxspawn": "300.0",
        "minspawn": "300.0",
        "spawndelay": "false",
        "maxnr": "2",
        "ttl": "99999.0",
        "cpid": "203"
      }
    },
    {
      "type": "Feature",
      "geometry": {
        "type": "Point",
        "coordinates": [84.788025, -2008.219],
        "size": [16, 16]
      },
      "properties": {
        "iconurl": "icons/vehicles_map/mini_jep_support.png",
        "iconrotate": "0.0",
        "popupContent": "Amazing information about HMMWV SIYUR will be found here!"
      },
      "bf2props": {
        "name": "cpname_beirut_aas16_constructionsite_apc",
        "class": "ObjectSpawner",
        "name_object": "HMMWV SIYUR",
        "team": "1",
        "obj1": "idf_jep_hmmwvopen",
        "obj2": "null",
        "maxspawn": "300.0",
        "minspawn": "300.0",
        "spawndelay": "false",
        "ttl": "99999.0",
        "cpid": "224"
      }
    },
    {
      "type": "Feature",
      "geometry": {
        "type": "Point",
        "coordinates": [77.32501, -2008.401],
        "size": [16, 16]
      },
      "properties": {
        "iconurl": "icons/vehicles_map/mini_jep_support.png",
        "iconrotate": "0.0",
        "popupContent": "Amazing information about HMMWV SIYUR will be found here!"
      },
      "bf2props": {
        "name": "cpname_beirut_aas16_constructionsite_apc2",
        "class": "ObjectSpawner",
        "name_object": "HMMWV SIYUR",
        "team": "1",
        "obj1": "idf_jep_hmmwvopen",
        "obj2": "null",
        "maxspawn": "300.0",
        "minspawn": "300.0",
        "spawndelay": "false",
        "ttl": "99999.0",
        "cpid": "224"
      }
    },
    {
      "type": "Feature",
      "geometry": {
        "type": "Point",
        "coordinates": [89.33801, -2008.085],
        "size": [16, 16]
      },
      "properties": {
        "iconurl": "icons/vehicles_map/mini_jep_support.png",
        "iconrotate": "0.755",
        "popupContent": "Amazing information about HMMWV SIYUR will be found here!"
      },
      "bf2props": {
        "name": "cpname_beirut_aas16_constructionsite_apc3",
        "class": "ObjectSpawner",
        "name_object": "HMMWV SIYUR",
        "team": "1",
        "obj1": "idf_jep_hmmwvopen",
        "obj2": "null",
        "maxspawn": "300.0",
        "minspawn": "300.0",
        "spawndelay": "false",
        "ttl": "99999.0",
        "cpid": "224"
      }
    },
    {
      "type": "Feature",
      "geometry": {
        "type": "Point",
        "coordinates": [1884.8049, -69.64697],
        "size": [16, 16]
      },
      "properties": {
        "iconurl": "icons/vehicles_map/mini_jep_support.png",
        "iconrotate": "176.344",
        "popupContent": "Amazing information about null will be found here!"
      },
      "bf2props": {
        "name": "cpname_beirut_aas16_russianship_btr1",
        "class": "ObjectSpawner",
        "name_object": "BRDM-2 Support",
        "team": "2",
        "obj1": "null",
        "obj2": "ru_jep_brdm2_support",
        "maxspawn": "300.0",
        "minspawn": "300.0",
        "spawndelay": "false",
        "ttl": "99999.0",
        "cpid": "211"
      }
    },
    {
      "type": "Feature",
      "geometry": {
        "type": "Point",
        "coordinates": [146.802, -1970.737],
        "size": [16, 16]
      },
      "properties": {
        "iconurl": "icons/vehicles_map/mini_jep_support.png",
        "iconrotate": "-90.0",
        "popupContent": "Amazing information about HMMWV SIYUR will be found here!"
      },
      "bf2props": {
        "name": "cpname_beirut_aas16_southernapartments_idftank",
        "class": "ObjectSpawner",
        "name_object": "HMMWV SIYUR",
        "team": "1",
        "obj1": "idf_jep_hmmwvopen",
        "obj2": "null",
        "maxspawn": "300.0",
        "minspawn": "300.0",
        "spawndelay": "false",
        "ttl": "99999.0",
        "cpid": "224"
      }
    },
    {
      "type": "Feature",
      "geometry": {
        "type": "Point",
        "coordinates": [1937.323, -67.11102],
        "size": [16, 16]
      },
      "properties": {
        "iconurl": "icons/vehicles_map/mini_shp_light.png",
        "iconrotate": "180.0",
        "popupContent": "Amazing information about null will be found here!"
      },
      "bf2props": {
        "name": "cpname_beirut_aas16_russianship_rib",
        "class": "ObjectSpawner",
        "name_object": "RHIB",
        "team": "2",
        "obj1": "null",
        "obj2": "boat_rib_gpmg_pkp",
        "maxspawn": "300.0",
        "minspawn": "300.0",
        "spawndelay": "false",
        "ttl": "99999.0",
        "cpid": "211"
      }
    },
    {
      "type": "Feature",
      "geometry": {
        "type": "Point",
        "coordinates": [1990.0281, -1332.283],
        "size": [16, 16]
      },
      "properties": {
        "iconurl": "icons/mini_map/repairdepot.png",
        "iconrotate": "0",
        "popupContent": "Amazing information about null will be found here!"
      },
      "bf2props": {
        "name": "cpname_beirut_aas16_3factory_repairdepot",
        "class": "ObjectSpawner",
        "name_object": "Vehicle Depot",
        "team": "2",
        "obj1": "null",
        "obj2": "vehicle_depot_ru",
        "maxspawn": "0.0",
        "minspawn": "0.0",
        "spawndelay": "false",
        "ttl": "0.0",
        "cpid": "218"
      }
    },
    {
      "type": "Feature",
      "geometry": {
        "type": "Point",
        "coordinates": [1955.036, -1302.115],
        "size": [16, 16]
      },
      "properties": {
        "iconurl": "icons/vehicles_map/mini_trk_logistics.png",
        "iconrotate": "133.0",
        "popupContent": "Amazing information about null will be found here!"
      },
      "bf2props": {
        "name": "cpname_beirut_aas16_3factory_supplytruck",
        "class": "ObjectSpawner",
        "name_object": "Ural-4320 Logistics",
        "team": "2",
        "obj1": "null",
        "obj2": "ru_trk_logistics",
        "maxspawn": "300.0",
        "minspawn": "300.0",
        "spawndelay": "false",
        "maxnr": "2",
        "ttl": "99999.0",
        "cpid": "218"
      }
    },
    {
      "type": "Feature",
      "geometry": {
        "type": "Point",
        "coordinates": [1947.526, -1242.12],
        "size": [16, 16]
      },
      "properties": {
        "iconurl": "icons/vehicles_map/mini_trk_support.png",
        "iconrotate": "161.07",
        "popupContent": "Amazing information about null will be found here!"
      },
      "bf2props": {
        "name": "cpname_beirut_aas16_factory_trans",
        "class": "ObjectSpawner",
        "name_object": "Ural-4320",
        "team": "2",
        "obj1": "null",
        "obj2": "ru_trk_support",
        "maxspawn": "300.0",
        "minspawn": "300.0",
        "spawndelay": "false",
        "ttl": "99999.0",
        "cpid": "203"
      }
    },
    {
      "type": "Feature",
      "geometry": {
        "type": "Point",
        "coordinates": [1938.855, -1239.104],
        "size": [16, 16]
      },
      "properties": {
        "iconurl": "icons/vehicles_map/mini_trk_support.png",
        "iconrotate": "161.07",
        "popupContent": "Amazing information about null will be found here!"
      },
      "bf2props": {
        "name": "cpname_beirut_aas16_factory_trans2",
        "class": "ObjectSpawner",
        "name_object": "Ural-4320",
        "team": "2",
        "obj1": "null",
        "obj2": "ru_trk_support",
        "maxspawn": "300.0",
        "minspawn": "300.0",
        "spawndelay": "false",
        "ttl": "99999.0",
        "cpid": "203"
      }
    },
    {
      "type": "Feature",
      "geometry": {
        "type": "Point",
        "coordinates": [1940.7329, -1261.81],
        "size": [16, 16]
      },
      "properties": {
        "iconurl": "icons/vehicles_map/mini_trk_support.png",
        "iconrotate": "161.07",
        "popupContent": "Amazing information about null will be found here!"
      },
      "bf2props": {
        "name": "cpname_beirut_aas16_factory_trans3",
        "class": "ObjectSpawner",
        "name_object": "Ural-4320",
        "team": "2",
        "obj1": "null",
        "obj2": "ru_trk_support",
        "maxspawn": "300.0",
        "minspawn": "300.0",
        "spawndelay": "false",
        "ttl": "99999.0",
        "cpid": "203"
      }
    },
    {
      "type": "Feature",
      "geometry": {
        "type": "Point",
        "coordinates": [1951.548, -1243.944],
        "size": [16, 16]
      },
      "properties": {
        "iconurl": "icons/vehicles_map/mini_trk_support.png",
        "iconrotate": "161.07",
        "popupContent": "Amazing information about null will be found here!"
      },
      "bf2props": {
        "name": "cpname_beirut_aas16_factory_trans4",
        "class": "ObjectSpawner",
        "name_object": "Ural-4320",
        "team": "2",
        "obj1": "null",
        "obj2": "ru_trk_support",
        "maxspawn": "300.0",
        "minspawn": "300.0",
        "spawndelay": "false",
        "ttl": "99999.0",
        "cpid": "218"
      }
    },
    {
      "type": "Feature",
      "geometry": {
        "type": "Point",
        "coordinates": [1943.1599, -1240.542],
        "size": [16, 16]
      },
      "properties": {
        "iconurl": "icons/vehicles_map/mini_trk_support.png",
        "iconrotate": "161.07",
        "popupContent": "Amazing information about null will be found here!"
      },
      "bf2props": {
        "name": "cpname_beirut_aas16_factory_trans5",
        "class": "ObjectSpawner",
        "name_object": "Ural-4320",
        "team": "2",
        "obj1": "null",
        "obj2": "ru_trk_support",
        "maxspawn": "300.0",
        "minspawn": "300.0",
        "spawndelay": "false",
        "ttl": "99999.0",
        "cpid": "218"
      }
    },
    {
      "type": "Feature",
      "geometry": {
        "type": "Point",
        "coordinates": [1943.103, -1257.174],
        "size": [16, 16]
      },
      "properties": {
        "iconurl": "icons/vehicles_map/mini_trk_support.png",
        "iconrotate": "161.07",
        "popupContent": "Amazing information about null will be found here!"
      },
      "bf2props": {
        "name": "cpname_beirut_aas16_factory_trans6",
        "class": "ObjectSpawner",
        "name_object": "Ural-4320",
        "team": "2",
        "obj1": "null",
        "obj2": "ru_trk_support",
        "maxspawn": "300.0",
        "minspawn": "300.0",
        "spawndelay": "false",
        "ttl": "99999.0",
        "cpid": "218"
      }
    },
    {
      "type": "Feature",
      "geometry": {
        "type": "Point",
        "coordinates": [129.80402, -657.815],
        "size": [16, 16]
      },
      "properties": {
        "iconurl": "icons/vehicles_map/mini_trk_support.png",
        "iconrotate": "180.0",
        "popupContent": "Amazing information about null will be found here!"
      },
      "bf2props": {
        "name": "cpname_beirut_aas16_docks_trans7",
        "class": "ObjectSpawner",
        "name_object": "Ural-4320",
        "team": "2",
        "obj1": "null",
        "obj2": "ru_trk_support",
        "maxspawn": "300.0",
        "minspawn": "300.0",
        "spawndelay": "false",
        "ttl": "99999.0",
        "cpid": "210"
      }
    },
    {
      "type": "Feature",
      "geometry": {
        "type": "Point",
        "coordinates": [134.95801, -657.903],
        "size": [16, 16]
      },
      "properties": {
        "iconurl": "icons/vehicles_map/mini_trk_support.png",
        "iconrotate": "180.0",
        "popupContent": "Amazing information about null will be found here!"
      },
      "bf2props": {
        "name": "cpname_beirut_aas16_docks_trans8",
        "class": "ObjectSpawner",
        "name_object": "Ural-4320",
        "team": "2",
        "obj1": "null",
        "obj2": "ru_trk_support",
        "maxspawn": "300.0",
        "minspawn": "300.0",
        "spawndelay": "false",
        "ttl": "99999.0",
        "cpid": "210"
      }
    },
    {
      "type": "Feature",
      "geometry": {
        "type": "Point",
        "coordinates": [140.21698, -657.94604],
        "size": [16, 16]
      },
      "properties": {
        "iconurl": "icons/vehicles_map/mini_trk_support.png",
        "iconrotate": "180.0",
        "popupContent": "Amazing information about null will be found here!"
      },
      "bf2props": {
        "name": "cpname_beirut_aas16_docks_trans9",
        "class": "ObjectSpawner",
        "name_object": "Ural-4320",
        "team": "2",
        "obj1": "null",
        "obj2": "ru_trk_support",
        "maxspawn": "300.0",
        "minspawn": "300.0",
        "spawndelay": "false",
        "ttl": "99999.0",
        "cpid": "210"
      }
    },
    {
      "type": "Feature",
      "geometry": {
        "type": "Point",
        "coordinates": [1986.4819, -1348.31],
        "size": [16, 16]
      },
      "properties": {
        "iconurl": "icons/player_map/mini_squad.png",
        "iconrotate": "0",
        "popupContent": "Amazing information about null will be found here!"
      },
      "bf2props": {
        "name": "cpname_beirut_aas16_3factory_spawn",
        "class": "ObjectSpawner",
        "name_object": "Permanent spawnpoint",
        "team": "2",
        "obj1": "null",
        "obj2": "rallypoint_ru_placeable_noexpire",
        "maxspawn": "300.0",
        "minspawn": "300.0",
        "spawndelay": "false",
        "ttl": "99999.0",
        "cpid": "218"
      }
    },
    {
      "type": "Feature",
      "geometry": {
        "type": "Point",
        "coordinates": [1986.1909, -1346.978],
        "size": [16, 16]
      },
      "properties": {
        "iconurl": "icons/player_map/mini_squad.png",
        "iconrotate": "0",
        "popupContent": "Amazing information about null will be found here!"
      },
      "bf2props": {
        "name": "cpname_beirut_aas16_factory_spawn",
        "class": "ObjectSpawner",
        "name_object": "Permanent spawnpoint",
        "team": "2",
        "obj1": "null",
        "obj2": "rallypoint_ru_placeable_noexpire",
        "maxspawn": "300.0",
        "minspawn": "300.0",
        "spawndelay": "false",
        "ttl": "99999.0",
        "cpid": "203"
      }
    },
    {
      "type": "Feature",
      "geometry": {
        "type": "Point",
        "coordinates": [130.802, -707.615],
        "size": [16, 16]
      },
      "properties": {
        "iconurl": "icons/player_map/mini_squad.png",
        "iconrotate": "0",
        "popupContent": "Amazing information about null will be found here!"
      },
      "bf2props": {
        "name": "cpname_beirut_aas16_docks_spawn",
        "class": "ObjectSpawner",
        "name_object": "Permanent spawnpoint",
        "team": "2",
        "obj1": "null",
        "obj2": "rallypoint_ru_placeable_noexpire",
        "maxspawn": "300.0",
        "minspawn": "300.0",
        "spawndelay": "false",
        "ttl": "99999.0",
        "cpid": "210"
      }
    },
    {
      "type": "Feature",
      "geometry": {
        "type": "Point",
        "coordinates": [701.648, -1550.897],
        "size": [33, 33],
        "radius": "170.0"
      },
      "properties": {
        "iconurl": "icons/flags_map/neutral/minimap_cp.png",
        "iconrotate": "0",
        "popupContent": "Amazing information about Old Town 170m will be found here!"
      },
      "bf2props": {
        "name": "cpname_beirut_aas16_oldtown",
        "class": "ControlPoint",
        "name_object": "Old Town 170m",
        "team": "0",
        "areavalue1": "0.0",
        "areavalue2": "200.0",
        "cpid": "201",
        "sgid": "202",
        "uncap": "false",
        "ttgc": "90.0",
        "ttlc": "180.0"
      }
    },
    {
      "type": "Feature",
      "geometry": {
        "type": "Point",
        "coordinates": [1447.593, -1781.853],
        "size": [33, 33],
        "radius": "150.0"
      },
      "properties": {
        "iconurl": "icons/flags_map/neutral/minimap_cp.png",
        "iconrotate": "0",
        "popupContent": "Amazing information about Railway Station 150m will be found here!"
      },
      "bf2props": {
        "name": "cpname_beirut_aas16_industrialrailwaystation",
        "class": "ControlPoint",
        "name_object": "Railway Station 150m",
        "team": "0",
        "areavalue1": "0.0",
        "areavalue2": "0.0",
        "cpid": "202",
        "sgid": "411",
        "uncap": "false",
        "ttgc": "120.0",
        "ttlc": "120.0"
      }
    },
    {
      "type": "Feature",
      "geometry": {
        "type": "Point",
        "coordinates": [1712.631, -1575.815],
        "size": [33, 33],
        "radius": "150.0"
      },
      "properties": {
        "iconurl": "icons/flags_map/neutral/minimap_cp.png",
        "iconrotate": "0",
        "popupContent": "Amazing information about Eastern Apartments 150m will be found here!"
      },
      "bf2props": {
        "name": "cpname_beirut_aas16_easternapartments",
        "class": "ControlPoint",
        "name_object": "Eastern Apartments 150m",
        "team": "0",
        "areavalue1": "0.0",
        "areavalue2": "0.0",
        "cpid": "204",
        "sgid": "501",
        "uncap": "false",
        "ttgc": "120.0",
        "ttlc": "120.0"
      }
    },
    {
      "type": "Feature",
      "geometry": {
        "type": "Point",
        "coordinates": [1013.056, -1419.352],
        "size": [33, 33],
        "radius": "150.0"
      },
      "properties": {
        "iconurl": "icons/flags_map/neutral/minimap_cp.png",
        "iconrotate": "0",
        "popupContent": "Amazing information about Western Apartments 150m will be found here!"
      },
      "bf2props": {
        "name": "cpname_beirut_aas16_westernapartments",
        "class": "ControlPoint",
        "name_object": "Western Apartments 150m",
        "team": "0",
        "areavalue1": "0.0",
        "areavalue2": "0.0",
        "cpid": "205",
        "sgid": "312",
        "uncap": "false",
        "ttgc": "120.0",
        "ttlc": "120.0"
      }
    },
    {
      "type": "Feature",
      "geometry": {
        "type": "Point",
        "coordinates": [1803.0, -1324.947],
        "size": [33, 33],
        "radius": "100.0"
      },
      "properties": {
        "iconurl": "icons/flags_map/neutral/minimap_cp.png",
        "iconrotate": "0",
        "popupContent": "Amazing information about Factory 100m will be found here!"
      },
      "bf2props": {
        "name": "cpname_beirut_aas16_factory",
        "class": "ControlPoint",
        "name_object": "Factory 100m",
        "team": "0",
        "areavalue1": "200.0",
        "areavalue2": "0.0",
        "cpid": "203",
        "sgid": "601",
        "uncap": "false",
        "ttgc": "180.0",
        "ttlc": "90.0"
      }
    },
    {
      "type": "Feature",
      "geometry": {
        "type": "Point",
        "coordinates": [1354.905, -974.134],
        "size": [33, 33],
        "radius": "130.0"
      },
      "properties": {
        "iconurl": "icons/flags_map/neutral/minimap_cp.png",
        "iconrotate": "0",
        "popupContent": "Amazing information about North City Center 130m will be found here!"
      },
      "bf2props": {
        "name": "cpname_beirut_aas16_citycentre",
        "class": "ControlPoint",
        "name_object": "North City Center 130m",
        "team": "0",
        "areavalue1": "0.0",
        "areavalue2": "0.0",
        "cpid": "206",
        "sgid": "413",
        "uncap": "false",
        "ttgc": "120.0",
        "ttlc": "120.0"
      }
    },
    {
      "type": "Feature",
      "geometry": {
        "type": "Point",
        "coordinates": [838.324, -956.522],
        "size": [33, 33],
        "radius": "120.0"
      },
      "properties": {
        "iconurl": "icons/flags_map/neutral/minimap_cp.png",
        "iconrotate": "0",
        "popupContent": "Amazing information about Coastal Settlement 120m will be found here!"
      },
      "bf2props": {
        "name": "cpname_beirut_aas16_coastsettlement_0",
        "class": "ControlPoint",
        "name_object": "Coastal Settlement 120m",
        "team": "0",
        "areavalue1": "0.0",
        "areavalue2": "0.0",
        "cpid": "207",
        "sgid": "502",
        "uncap": "false",
        "ttgc": "120.0",
        "ttlc": "120.0"
      }
    },
    {
      "type": "Feature",
      "geometry": {
        "type": "Point",
        "coordinates": [1425.882, -1435.83],
        "size": [33, 33],
        "radius": "150.0"
      },
      "properties": {
        "iconurl": "icons/flags_map/neutral/minimap_cp.png",
        "iconrotate": "0",
        "popupContent": "Amazing information about Market 150m will be found here!"
      },
      "bf2props": {
        "name": "cpname_beirut_aas16_blackmarket",
        "class": "ControlPoint",
        "name_object": "Market 150m",
        "team": "0",
        "areavalue1": "0.0",
        "areavalue2": "0.0",
        "cpid": "208",
        "sgid": "411",
        "uncap": "false",
        "ttgc": "120.0",
        "ttlc": "120.0"
      }
    },
    {
      "type": "Feature",
      "geometry": {
        "type": "Point",
        "coordinates": [258.05603, -710.0],
        "size": [33, 33],
        "radius": "200.0"
      },
      "properties": {
        "iconurl": "icons/flags_map/neutral/minimap_cp.png",
        "iconrotate": "0",
        "popupContent": "Amazing information about Docks 200m will be found here!"
      },
      "bf2props": {
        "name": "cpname_beirut_aas16_docks",
        "class": "ControlPoint",
        "name_object": "Docks 200m",
        "team": "0",
        "areavalue1": "200.0",
        "areavalue2": "0.0",
        "cpid": "210",
        "sgid": "602",
        "uncap": "false",
        "ttgc": "180.0",
        "ttlc": "90.0"
      }
    },
    {
      "type": "Feature",
      "geometry": {
        "type": "Point",
        "coordinates": [1763.969, -39.98999],
        "size": [33, 33],
        "radius": "0.0"
      },
      "properties": {
        "iconurl": "icons/flags_map/ru/minimap_cpbase.png",
        "iconrotate": "0",
        "popupContent": "Amazing information about Russian Cargo Ship will be found here!"
      },
      "bf2props": {
        "name": "cpname_beirut_aas16_russianship",
        "class": "ControlPoint",
        "name_object": "Russian Cargo Ship",
        "team": "2",
        "areavalue1": "0.0",
        "areavalue2": "0.0",
        "cpid": "211",
        "sgid": "-999",
        "uncap": "true",
        "ttgc": "0.0",
        "ttlc": "0.0"
      }
    },
    {
      "type": "Feature",
      "geometry": {
        "type": "Point",
        "coordinates": [1237.099, -1565.729],
        "size": [33, 33],
        "radius": "150.0"
      },
      "properties": {
        "iconurl": "icons/flags_map/neutral/minimap_cp.png",
        "iconrotate": "0",
        "popupContent": "Amazing information about Southern Apartments 150m will be found here!"
      },
      "bf2props": {
        "name": "cpname_beirut_aas16_southernapartments",
        "class": "ControlPoint",
        "name_object": "Southern Apartments 150m",
        "team": "0",
        "areavalue1": "0.0",
        "areavalue2": "0.0",
        "cpid": "209",
        "sgid": "312",
        "uncap": "false",
        "ttgc": "120.0",
        "ttlc": "120.0"
      }
    },
    {
      "type": "Feature",
      "geometry": {
        "type": "Point",
        "coordinates": [1212.657, -1100.751],
        "size": [33, 33],
        "radius": "150.0"
      },
      "properties": {
        "iconurl": "icons/flags_map/neutral/minimap_cp.png",
        "iconrotate": "0",
        "popupContent": "Amazing information about West City Center 150m will be found here!"
      },
      "bf2props": {
        "name": "cpname_beirut_aas16_citycentre2",
        "class": "ControlPoint",
        "name_object": "West City Center 150m",
        "team": "0",
        "areavalue1": "0.0",
        "areavalue2": "0.0",
        "cpid": "212",
        "sgid": "412",
        "uncap": "false",
        "ttgc": "120.0",
        "ttlc": "120.0"
      }
    },
    {
      "type": "Feature",
      "geometry": {
        "type": "Point",
        "coordinates": [1341.859, -1257.638],
        "size": [33, 33],
        "radius": "150.0"
      },
      "properties": {
        "iconurl": "icons/flags_map/neutral/minimap_cp.png",
        "iconrotate": "0",
        "popupContent": "Amazing information about East City Center 150m will be found here!"
      },
      "bf2props": {
        "name": "cpname_beirut_aas16_citycentre3",
        "class": "ControlPoint",
        "name_object": "East City Center 150m",
        "team": "0",
        "areavalue1": "0.0",
        "areavalue2": "0.0",
        "cpid": "213",
        "sgid": "412",
        "uncap": "false",
        "ttgc": "120.0",
        "ttlc": "120.0"
      }
    },
    {
      "type": "Feature",
      "geometry": {
        "type": "Point",
        "coordinates": [1070.436, -1135.88],
        "size": [33, 33],
        "radius": "120.0"
      },
      "properties": {
        "iconurl": "icons/flags_map/neutral/minimap_cp.png",
        "iconrotate": "0",
        "popupContent": "Amazing information about Bridge 120m will be found here!"
      },
      "bf2props": {
        "name": "cpname_beirut_aas16_bridge",
        "class": "ControlPoint",
        "name_object": "Bridge 120m",
        "team": "0",
        "areavalue1": "0.0",
        "areavalue2": "0.0",
        "cpid": "214",
        "sgid": "412",
        "uncap": "false",
        "ttgc": "120.0",
        "ttlc": "120.0"
      }
    },
    {
      "type": "Feature",
      "geometry": {
        "type": "Point",
        "coordinates": [757.974, -1589.5869],
        "size": [33, 33],
        "radius": "170.0"
      },
      "properties": {
        "iconurl": "icons/flags_map/neutral/minimap_cp.png",
        "iconrotate": "0",
        "popupContent": "Amazing information about South City 170m will be found here!"
      },
      "bf2props": {
        "name": "cpname_beirut_aas16_1oldtown",
        "class": "ControlPoint",
        "name_object": "South City 170m",
        "team": "0",
        "areavalue1": "0.0",
        "areavalue2": "200.0",
        "cpid": "215",
        "sgid": "201",
        "uncap": "false",
        "ttgc": "90.0",
        "ttlc": "180.0"
      }
    },
    {
      "type": "Feature",
      "geometry": {
        "type": "Point",
        "coordinates": [1085.837, -1430.35],
        "size": [33, 33],
        "radius": "150.0"
      },
      "properties": {
        "iconurl": "icons/flags_map/neutral/minimap_cp.png",
        "iconrotate": "0",
        "popupContent": "Amazing information about Western Apartments 150m will be found here!"
      },
      "bf2props": {
        "name": "cpname_beirut_aas16_1westernapartments",
        "class": "ControlPoint",
        "name_object": "Western Apartments 150m",
        "team": "0",
        "areavalue1": "0.0",
        "areavalue2": "0.0",
        "cpid": "216",
        "sgid": "311",
        "uncap": "false",
        "ttgc": "120.0",
        "ttlc": "120.0"
      }
    },
    {
      "type": "Feature",
      "geometry": {
        "type": "Point",
        "coordinates": [1102.103, -1634.448],
        "size": [33, 33],
        "radius": "150.0"
      },
      "properties": {
        "iconurl": "icons/flags_map/neutral/minimap_cp.png",
        "iconrotate": "0",
        "popupContent": "Amazing information about Southern Apartments 150m will be found here!"
      },
      "bf2props": {
        "name": "cpname_beirut_aas16_1southernapartments",
        "class": "ControlPoint",
        "name_object": "Southern Apartments 150m",
        "team": "0",
        "areavalue1": "0.0",
        "areavalue2": "0.0",
        "cpid": "217",
        "sgid": "311",
        "uncap": "false",
        "ttgc": "120.0",
        "ttlc": "120.0"
      }
    },
    {
      "type": "Feature",
      "geometry": {
        "type": "Point",
        "coordinates": [1803.0, -1324.947],
        "size": [33, 33],
        "radius": "100.0"
      },
      "properties": {
        "iconurl": "icons/flags_map/neutral/minimap_cp.png",
        "iconrotate": "0",
        "popupContent": "Amazing information about Factory 100m will be found here!"
      },
      "bf2props": {
        "name": "cpname_beirut_aas16_3factory",
        "class": "ControlPoint",
        "name_object": "Factory 100m",
        "team": "0",
        "areavalue1": "200.0",
        "areavalue2": "0.0",
        "cpid": "218",
        "sgid": "603",
        "uncap": "false",
        "ttgc": "180.0",
        "ttlc": "90.0"
      }
    },
    {
      "type": "Feature",
      "geometry": {
        "type": "Point",
        "coordinates": [1578.175, -1163.706],
        "size": [33, 33],
        "radius": "120.0"
      },
      "properties": {
        "iconurl": "icons/flags_map/neutral/minimap_cp.png",
        "iconrotate": "0",
        "popupContent": "Amazing information about Hotel District 120m will be found here!"
      },
      "bf2props": {
        "name": "cpname_beirut_aas16_3harbor",
        "class": "ControlPoint",
        "name_object": "Hotel District 120m",
        "team": "0",
        "areavalue1": "0.0",
        "areavalue2": "0.0",
        "cpid": "219",
        "sgid": "503",
        "uncap": "false",
        "ttgc": "120.0",
        "ttlc": "120.0"
      }
    },
    {
      "type": "Feature",
      "geometry": {
        "type": "Point",
        "coordinates": [1021.8, -1384.937],
        "size": [33, 33],
        "radius": "150.0"
      },
      "properties": {
        "iconurl": "icons/flags_map/neutral/minimap_cp.png",
        "iconrotate": "0",
        "popupContent": "Amazing information about Western Apartments 150m will be found here!"
      },
      "bf2props": {
        "name": "cpname_beirut_aas16_3westernapartments",
        "class": "ControlPoint",
        "name_object": "Western Apartments 150m",
        "team": "0",
        "areavalue1": "0.0",
        "areavalue2": "0.0",
        "cpid": "220",
        "sgid": "313",
        "uncap": "false",
        "ttgc": "120.0",
        "ttlc": "120.0"
      }
    },
    {
      "type": "Feature",
      "geometry": {
        "type": "Point",
        "coordinates": [1288.6221, -1237.065],
        "size": [33, 33],
        "radius": "130.0"
      },
      "properties": {
        "iconurl": "icons/flags_map/neutral/minimap_cp.png",
        "iconrotate": "0",
        "popupContent": "Amazing information about City Center 130m will be found here!"
      },
      "bf2props": {
        "name": "cpname_beirut_aas16_3citycentre_0",
        "class": "ControlPoint",
        "name_object": "City Center 130m",
        "team": "0",
        "areavalue1": "0.0",
        "areavalue2": "0.0",
        "cpid": "221",
        "sgid": "413",
        "uncap": "false",
        "ttgc": "120.0",
        "ttlc": "120.0"
      }
    },
    {
      "type": "Feature",
      "geometry": {
        "type": "Point",
        "coordinates": [1237.099, -1565.729],
        "size": [33, 33],
        "radius": "150.0"
      },
      "properties": {
        "iconurl": "icons/flags_map/neutral/minimap_cp.png",
        "iconrotate": "0",
        "popupContent": "Amazing information about Southern Apartments 150m will be found here!"
      },
      "bf2props": {
        "name": "cpname_beirut_aas16_3southernapartments",
        "class": "ControlPoint",
        "name_object": "Southern Apartments 150m",
        "team": "0",
        "areavalue1": "0.0",
        "areavalue2": "0.0",
        "cpid": "222",
        "sgid": "313",
        "uncap": "false",
        "ttgc": "120.0",
        "ttlc": "120.0"
      }
    },
    {
      "type": "Feature",
      "geometry": {
        "type": "Point",
        "coordinates": [735.042, -1565.177],
        "size": [33, 33],
        "radius": "170.0"
      },
      "properties": {
        "iconurl": "icons/flags_map/neutral/minimap_cp.png",
        "iconrotate": "0",
        "popupContent": "Amazing information about South City 170m will be found here!"
      },
      "bf2props": {
        "name": "cpname_beirut_aas16_3oldtown",
        "class": "ControlPoint",
        "name_object": "South City 170m",
        "team": "0",
        "areavalue1": "0.0",
        "areavalue2": "200.0",
        "cpid": "223",
        "sgid": "203",
        "uncap": "false",
        "ttgc": "90.0",
        "ttlc": "180.0"
      }
    },
    {
      "type": "Feature",
      "geometry": {
        "type": "Point",
        "coordinates": [176.74597, -1905.223],
        "size": [33, 33],
        "radius": "0.0"
      },
      "properties": {
        "iconurl": "icons/flags_map/idf/minimap_cpbase.png",
        "iconrotate": "0",
        "popupContent": "Amazing information about IDF Deployment Area will be found here!"
      },
      "bf2props": {
        "name": "cpname_beirut_aas16_idfmain",
        "class": "ControlPoint",
        "name_object": "IDF Deployment Area",
        "team": "1",
        "areavalue1": "0.0",
        "areavalue2": "0.0",
        "cpid": "224",
        "sgid": "1",
        "uncap": "true",
        "ttgc": "0.0",
        "ttlc": "0.0"
      }
    },
    {
      "type": "Feature",
      "geometry": {
        "type": "Polygon",
        "coordinates": [
          [
            [0,0],
            [0,-2048],
            [2048,-2048],
            [2048,0]
          ],[
            [2044.0, -4.0],
            [4.0, -4.0],
            [4.0, -2044.0],
            [2044.0, -2044.0]
          ]
        ]
      },
      "bf2props": {
        "code": "combatarea_0_aas16",
        "class": "CombatArea",
        "team": "0",
        "vehicles": "4",
        "layer": "2",
        "inverted": "false",
        "max": [0.0, 0.0],
        "min": [0.0, 0.0]
      }
    },
    {
      "type": "Feature",
      "geometry": {
        "type": "Polygon",
        "coordinates": [
          [
            [2046.067, -1008.05774],
            [2045.7617, -2.9414062],
            [894.176, -1.8410645]
          ]
        ]
      },
      "bf2props": {
        "code": "combatarea_4_aas16",
        "class": "CombatArea",
        "team": "1",
        "vehicles": "4",
        "layer": "2",
        "inverted": "true",
        "max": [0.0, 0.0],
        "min": [0.0, 0.0]
      }
    },
    {
      "type": "Feature",
      "geometry": {
        "type": "Polygon",
        "coordinates": [
          [
            [2.053772, -2046.0574],
            [548.0474, -2046.008],
            [678.37494, -1851.1788],
            [652.09595, -1766.4971],
            [503.102, -1683.3746],
            [453.40173, -1633.104],
            [398.649, -1612.2357],
            [357.63232, -1589.9038],
            [324.99066, -1555.7927],
            [278.16962, -1470.6768],
            [160.323, -1380.0543],
            [1.5169678, -1346.1189]
          ]
        ]
      },
      "bf2props": {
        "code": "combatarea_7_aas16",
        "class": "CombatArea",
        "team": "2",
        "vehicles": "4",
        "layer": "2",
        "inverted": "true",
        "max": [0.0, 0.0],
        "min": [0.0, 0.0]
      }
    }
  ]
}