{
  "team1":"idf",
  "team2":"ru",
  "team1tickets":"500",
  "team2tickets":"550",
  "mapsize":"2048",
  "viewdistance":"700",
  "combatareause":"true",
  "combatareadamage":"20.0",
  "combatareaallowoutside":"10.0",
  "routes": [
    [
      [
        "cpname_beirut_coop64_trainstation"
      ],
      [
        "cpname_beirut_coop64_downtown",
        "cpname_beirut_coop64_southcity"
      ],
      [
        "cpname_beirut_coop64_citycentre",
        "cpname_beirut_coop64_residencies"
      ],
      [
        "cpname_beirut_coop64_apartment"
      ],
      [
        "cpname_beirut_coop64_harbour"
      ],
      [
        "cpname_beirut_coop64_carrier"
      ]
    ]
  ],
  "type": "FeatureCollection",
  "features": [
    {
      "type": "Feature",
      "geometry": {
        "type": "Point",
        "coordinates": [1342.474, -1907.213],
        "size": [16, 16]
      },
      "properties": {
        "iconurl": "icons/mini_map/repairdepot.png",
        "iconrotate": "0",
        "popupContent": "Amazing information about Vehicle Depot will be found here!"
      },
      "bf2props": {
        "name": "cpname_beirut_coop64_trainstation_vehicledepot",
        "class": "ObjectSpawner",
        "name_object": "Vehicle Depot",
        "team": "1",
        "obj1": "vehicle_depot_idf",
        "obj2": "null",
        "maxspawn": "0.0",
        "minspawn": "0.0",
        "spawndelay": "false",
        "ttl": "0.0",
        "cpid": "307"
      }
    },
    {
      "type": "Feature",
      "geometry": {
        "type": "Point",
        "coordinates": [1349.824, -1866.273],
        "size": [16, 16]
      },
      "properties": {
        "iconurl": "icons/vehicles_map/mini_tank_heavy.png",
        "iconrotate": "90.0",
        "popupContent": "Amazing information about Merkava Mark IV will be found here!"
      },
      "bf2props": {
        "name": "cpname_beirut_coop64_trainstation_tank",
        "class": "ObjectSpawner",
        "name_object": "Merkava Mark IV",
        "team": "1",
        "obj1": "idf_tnk_merkava_bf2",
        "obj2": "null",
        "maxspawn": "600.0",
        "minspawn": "600.0",
        "spawndelay": "false",
        "ttl": "1200.0",
        "cpid": "307"
      }
    },
    {
      "type": "Feature",
      "geometry": {
        "type": "Point",
        "coordinates": [1349.312, -1878.235],
        "size": [16, 16]
      },
      "properties": {
        "iconurl": "icons/vehicles_map/mini_tank_heavy.png",
        "iconrotate": "90.0",
        "popupContent": "Amazing information about Merkava Mark IV will be found here!"
      },
      "bf2props": {
        "name": "cpname_beirut_coop64_trainstation_tank_0",
        "class": "ObjectSpawner",
        "name_object": "Merkava Mark IV",
        "team": "1",
        "obj1": "idf_tnk_merkava",
        "obj2": "null",
        "maxspawn": "600.0",
        "minspawn": "600.0",
        "spawndelay": "false",
        "ttl": "1200.0",
        "cpid": "307"
      }
    },
    {
      "type": "Feature",
      "geometry": {
        "type": "Point",
        "coordinates": [1349.15, -1834.8469],
        "size": [16, 16]
      },
      "properties": {
        "iconurl": "icons/vehicles_map/mini_apc_light.png",
        "iconrotate": "90.0",
        "popupContent": "Amazing information about Namer will be found here!"
      },
      "bf2props": {
        "name": "cpname_beirut_coop64_trainstation_apc",
        "class": "ObjectSpawner",
        "name_object": "Namer",
        "team": "1",
        "obj1": "idf_apc_namer",
        "obj2": "null",
        "maxspawn": "300.0",
        "minspawn": "300.0",
        "spawndelay": "false",
        "ttl": "1200.0",
        "cpid": "307"
      }
    },
    {
      "type": "Feature",
      "geometry": {
        "type": "Point",
        "coordinates": [1349.15, -1845.394],
        "size": [16, 16]
      },
      "properties": {
        "iconurl": "icons/vehicles_map/mini_apc_light.png",
        "iconrotate": "90.0",
        "popupContent": "Amazing information about Namer will be found here!"
      },
      "bf2props": {
        "name": "cpname_beirut_coop64_trainstation_apc_0",
        "class": "ObjectSpawner",
        "name_object": "Namer",
        "team": "1",
        "obj1": "idf_apc_namer",
        "obj2": "null",
        "maxspawn": "300.0",
        "minspawn": "300.0",
        "spawndelay": "false",
        "ttl": "1200.0",
        "cpid": "307"
      }
    },
    {
      "type": "Feature",
      "geometry": {
        "type": "Point",
        "coordinates": [1409.5911, -1864.6489],
        "size": [16, 16]
      },
      "properties": {
        "iconurl": "icons/vehicles_map/mini_stw_aa_light.png",
        "iconrotate": "0.0",
        "popupContent": "Amazing information about usaas_stinger will be found here!"
      },
      "bf2props": {
        "name": "cpname_beirut_coop64_trainstation_aa",
        "class": "ObjectSpawner",
        "name_object": "usaas_stinger",
        "team": "1",
        "obj1": "usaas_stinger",
        "obj2": "null",
        "maxspawn": "600.0",
        "minspawn": "600.0",
        "spawndelay": "false",
        "ttl": "1200.0",
        "cpid": "307"
      }
    },
    {
      "type": "Feature",
      "geometry": {
        "type": "Point",
        "coordinates": [1815.734, -47.692017],
        "size": [16, 16]
      },
      "properties": {
        "iconurl": "icons/vehicles_map/mini_the_medium.png",
        "iconrotate": "180.0",
        "popupContent": "Amazing information about null will be found here!"
      },
      "bf2props": {
        "name": "cpname_beirut_coop64_carrier_trans",
        "class": "ObjectSpawner",
        "name_object": "Mi-8MT Hip-C",
        "team": "2",
        "obj1": "null",
        "obj2": "ru_the_mi8",
        "maxspawn": "300.0",
        "minspawn": "300.0",
        "spawndelay": "false",
        "ttl": "1200.0",
        "cpid": "308"
      }
    },
    {
      "type": "Feature",
      "geometry": {
        "type": "Point",
        "coordinates": [1871.353, -47.692017],
        "size": [16, 16]
      },
      "properties": {
        "iconurl": "icons/vehicles_map/mini_the_medium.png",
        "iconrotate": "180.0",
        "popupContent": "Amazing information about null will be found here!"
      },
      "bf2props": {
        "name": "cpname_beirut_coop64_carrier_the",
        "class": "ObjectSpawner",
        "name_object": "Mi-8MT Hip-C",
        "team": "2",
        "obj1": "null",
        "obj2": "ru_the_mi8",
        "maxspawn": "300.0",
        "minspawn": "300.0",
        "spawndelay": "false",
        "ttl": "1200.0",
        "cpid": "308"
      }
    },
    {
      "type": "Feature",
      "geometry": {
        "type": "Point",
        "coordinates": [1897.0349, -70.820984],
        "size": [16, 16]
      },
      "properties": {
        "iconurl": "icons/vehicles_map/mini_apc_medium.png",
        "iconrotate": "180.0",
        "popupContent": "Amazing information about null will be found here!"
      },
      "bf2props": {
        "name": "cpname_beirut_coop64_carrier_apc_0",
        "class": "ObjectSpawner",
        "name_object": "BTR-80A",
        "team": "2",
        "obj1": "null",
        "obj2": "ru_apc_btr80a_bf2",
        "maxspawn": "300.0",
        "minspawn": "300.0",
        "spawndelay": "false",
        "ttl": "1200.0",
        "cpid": "308"
      }
    },
    {
      "type": "Feature",
      "geometry": {
        "type": "Point",
        "coordinates": [1903.394, -70.820984],
        "size": [16, 16]
      },
      "properties": {
        "iconurl": "icons/vehicles_map/mini_apc_medium.png",
        "iconrotate": "180.0",
        "popupContent": "Amazing information about null will be found here!"
      },
      "bf2props": {
        "name": "cpname_beirut_coop64_carrier_apc_1",
        "class": "ObjectSpawner",
        "name_object": "BTR-80A",
        "team": "2",
        "obj1": "null",
        "obj2": "ru_apc_btr80a_bf2",
        "maxspawn": "300.0",
        "minspawn": "300.0",
        "spawndelay": "false",
        "ttl": "1200.0",
        "cpid": "308"
      }
    },
    {
      "type": "Feature",
      "geometry": {
        "type": "Point",
        "coordinates": [1910.834, -70.820984],
        "size": [16, 16]
      },
      "properties": {
        "iconurl": "icons/vehicles_map/mini_apc_medium.png",
        "iconrotate": "180.0",
        "popupContent": "Amazing information about null will be found here!"
      },
      "bf2props": {
        "name": "cpname_beirut_coop64_carrier_apc_2",
        "class": "ObjectSpawner",
        "name_object": "BTR-80A",
        "team": "2",
        "obj1": "null",
        "obj2": "ru_apc_btr80a",
        "maxspawn": "300.0",
        "minspawn": "300.0",
        "spawndelay": "false",
        "ttl": "1200.0",
        "cpid": "308"
      }
    },
    {
      "type": "Feature",
      "geometry": {
        "type": "Point",
        "coordinates": [1918.383, -70.820984],
        "size": [16, 16]
      },
      "properties": {
        "iconurl": "icons/vehicles_map/mini_apc_medium.png",
        "iconrotate": "180.0",
        "popupContent": "Amazing information about null will be found here!"
      },
      "bf2props": {
        "name": "cpname_beirut_coop64_carrier_apc_3",
        "class": "ObjectSpawner",
        "name_object": "BTR-80A",
        "team": "2",
        "obj1": "null",
        "obj2": "ru_apc_btr80a",
        "maxspawn": "300.0",
        "minspawn": "300.0",
        "spawndelay": "false",
        "ttl": "1200.0",
        "cpid": "308"
      }
    },
    {
      "type": "Feature",
      "geometry": {
        "type": "Point",
        "coordinates": [1935.928, -50.669006],
        "size": [16, 16]
      },
      "properties": {
        "iconurl": "icons/vehicles_map/mini_ahe_heavy.png",
        "iconrotate": "180.0",
        "popupContent": "Amazing information about null will be found here!"
      },
      "bf2props": {
        "name": "cpname_beirut_coop64_carrier_cas",
        "class": "ObjectSpawner",
        "name_object": "Mi-28N Havoc",
        "team": "2",
        "obj1": "null",
        "obj2": "ru_ahe_havoc",
        "maxspawn": "600.0",
        "minspawn": "600.0",
        "spawndelay": "false",
        "ttl": "1200.0",
        "cpid": "308"
      }
    },
    {
      "type": "Feature",
      "geometry": {
        "type": "Point",
        "coordinates": [1790.103, -48.974],
        "size": [16, 16]
      },
      "properties": {
        "iconurl": "icons/vehicles_map/mini_ahe_heavy.png",
        "iconrotate": "180.0",
        "popupContent": "Amazing information about null will be found here!"
      },
      "bf2props": {
        "name": "cpname_beirut_coop64_carrier_cas_sp",
        "class": "ObjectSpawner",
        "name_object": "Mi-28N Havoc",
        "team": "2",
        "obj1": "null",
        "obj2": "ru_ahe_havoc_sp",
        "maxspawn": "600.0",
        "minspawn": "600.0",
        "spawndelay": "false",
        "ttl": "1200.0",
        "cpid": "308"
      }
    },
    {
      "type": "Feature",
      "geometry": {
        "type": "Point",
        "coordinates": [246.276, -761.853],
        "size": [16, 16]
      },
      "properties": {
        "iconurl": "icons/mini_map/repairdepot.png",
        "iconrotate": "0",
        "popupContent": "Amazing information about null will be found here!"
      },
      "bf2props": {
        "name": "cpname_beirut_coop64_harbour_vehicledepot",
        "class": "ObjectSpawner",
        "name_object": "Vehicle Depot",
        "team": "2",
        "obj1": "null",
        "obj2": "vehicle_depot_ru",
        "maxspawn": "0.0",
        "minspawn": "0.0",
        "spawndelay": "false",
        "ttl": "0.0",
        "cpid": "301"
      }
    },
    {
      "type": "Feature",
      "geometry": {
        "type": "Point",
        "coordinates": [1845.6589, -47.692017],
        "size": [16, 16]
      },
      "properties": {
        "iconurl": "icons/vehicles_map/mini_the_medium.png",
        "iconrotate": "180.0",
        "popupContent": "Amazing information about null will be found here!"
      },
      "bf2props": {
        "name": "cpname_beirut_coop64_carrier_trans_0",
        "class": "ObjectSpawner",
        "name_object": "Mi-8MT Hip-C",
        "team": "2",
        "obj1": "null",
        "obj2": "ru_the_mi8",
        "maxspawn": "300.0",
        "minspawn": "300.0",
        "spawndelay": "false",
        "ttl": "1200.0",
        "cpid": "308"
      }
    },
    {
      "type": "Feature",
      "geometry": {
        "type": "Point",
        "coordinates": [1889.8259, -40.421997],
        "size": [16, 16]
      },
      "properties": {
        "iconurl": "icons/vehicles_map/firebase_mini_white.png",
        "iconrotate": "0",
        "popupContent": "Amazing information about null will be found here!"
      },
      "bf2props": {
        "name": "cpname_beirut_coop64_carrier_cp",
        "class": "ObjectSpawner",
        "name_object": "Command Post",
        "team": "2",
        "obj1": "null",
        "obj2": "deployable_commandpost_ru",
        "maxspawn": "600.0",
        "minspawn": "600.0",
        "spawndelay": "false",
        "ttl": "1200.0",
        "cpid": "308"
      }
    },
    {
      "type": "Feature",
      "geometry": {
        "type": "Point",
        "coordinates": [1373.6531, -1913.689],
        "size": [16, 16]
      },
      "properties": {
        "iconurl": "icons/vehicles_map/mini_jep_medium.png",
        "iconrotate": "0.0",
        "popupContent": "Amazing information about HMMWV SIYUR will be found here!"
      },
      "bf2props": {
        "name": "cpname_beirut_coop64_trainstation_jeep",
        "class": "ObjectSpawner",
        "name_object": "HMMWV SIYUR",
        "team": "1",
        "obj1": "idf_jep_hmmwv",
        "obj2": "null",
        "maxspawn": "300.0",
        "minspawn": "300.0",
        "spawndelay": "false",
        "ttl": "1200.0",
        "cpid": "307"
      }
    },
    {
      "type": "Feature",
      "geometry": {
        "type": "Point",
        "coordinates": [1361.147, -1913.689],
        "size": [16, 16]
      },
      "properties": {
        "iconurl": "icons/vehicles_map/mini_jep_medium.png",
        "iconrotate": "0.0",
        "popupContent": "Amazing information about HMMWV SIYUR will be found here!"
      },
      "bf2props": {
        "name": "cpname_beirut_coop64_trainstation_jeep_0",
        "class": "ObjectSpawner",
        "name_object": "HMMWV SIYUR",
        "team": "1",
        "obj1": "idf_jep_hmmwv",
        "obj2": "null",
        "maxspawn": "300.0",
        "minspawn": "300.0",
        "spawndelay": "false",
        "ttl": "1200.0",
        "cpid": "307"
      }
    },
    {
      "type": "Feature",
      "geometry": {
        "type": "Point",
        "coordinates": [1365.182, -1913.689],
        "size": [16, 16]
      },
      "properties": {
        "iconurl": "icons/vehicles_map/mini_jep_medium.png",
        "iconrotate": "0.0",
        "popupContent": "Amazing information about HMMWV SIYUR will be found here!"
      },
      "bf2props": {
        "name": "cpname_beirut_coop64_trainstation_jeep_1",
        "class": "ObjectSpawner",
        "name_object": "HMMWV SIYUR",
        "team": "1",
        "obj1": "idf_jep_hmmwv",
        "obj2": "null",
        "maxspawn": "300.0",
        "minspawn": "300.0",
        "spawndelay": "false",
        "ttl": "1200.0",
        "cpid": "307"
      }
    },
    {
      "type": "Feature",
      "geometry": {
        "type": "Point",
        "coordinates": [1369.345, -1913.689],
        "size": [16, 16]
      },
      "properties": {
        "iconurl": "icons/vehicles_map/mini_jep_medium.png",
        "iconrotate": "0.0",
        "popupContent": "Amazing information about HMMWV SIYUR will be found here!"
      },
      "bf2props": {
        "name": "cpname_beirut_coop64_trainstation_jeep_2",
        "class": "ObjectSpawner",
        "name_object": "HMMWV SIYUR",
        "team": "1",
        "obj1": "idf_jep_hmmwv",
        "obj2": "null",
        "maxspawn": "300.0",
        "minspawn": "300.0",
        "spawndelay": "false",
        "ttl": "1200.0",
        "cpid": "307"
      }
    },
    {
      "type": "Feature",
      "geometry": {
        "type": "Point",
        "coordinates": [1389.06, -1919.457],
        "size": [16, 16]
      },
      "properties": {
        "iconurl": "icons/vehicles_map/mini_trk_logistics.png",
        "iconrotate": "0.0",
        "popupContent": "Amazing information about M35 Logistics will be found here!"
      },
      "bf2props": {
        "name": "cpname_beirut_coop64_trainstation_logi",
        "class": "ObjectSpawner",
        "name_object": "M35 Logistics",
        "team": "1",
        "obj1": "idf_trk_logistics",
        "obj2": "null",
        "maxspawn": "300.0",
        "minspawn": "300.0",
        "spawndelay": "false",
        "ttl": "1200.0",
        "cpid": "307"
      }
    },
    {
      "type": "Feature",
      "geometry": {
        "type": "Point",
        "coordinates": [1385.181, -1919.457],
        "size": [16, 16]
      },
      "properties": {
        "iconurl": "icons/vehicles_map/mini_trk_logistics.png",
        "iconrotate": "0.0",
        "popupContent": "Amazing information about M35 Logistics will be found here!"
      },
      "bf2props": {
        "name": "cpname_beirut_coop64_trainstation_logi_0",
        "class": "ObjectSpawner",
        "name_object": "M35 Logistics",
        "team": "1",
        "obj1": "idf_trk_logistics",
        "obj2": "null",
        "maxspawn": "300.0",
        "minspawn": "300.0",
        "spawndelay": "false",
        "ttl": "1200.0",
        "cpid": "307"
      }
    },
    {
      "type": "Feature",
      "geometry": {
        "type": "Point",
        "coordinates": [239.539, -762.656],
        "size": [16, 16]
      },
      "properties": {
        "iconurl": "icons/vehicles_map/mini_trk_logistics.png",
        "iconrotate": "-180.0",
        "popupContent": "Amazing information about null will be found here!"
      },
      "bf2props": {
        "name": "cpname_beirut_coop64_harbour_logi",
        "class": "ObjectSpawner",
        "name_object": "Ural-4320 Logistics",
        "team": "2",
        "obj1": "null",
        "obj2": "ru_trk_logistics",
        "maxspawn": "300.0",
        "minspawn": "300.0",
        "spawndelay": "false",
        "ttl": "1200.0",
        "cpid": "301"
      }
    },
    {
      "type": "Feature",
      "geometry": {
        "type": "Point",
        "coordinates": [265.734, -768.91504],
        "size": [16, 16]
      },
      "properties": {
        "iconurl": "icons/player_map/mini_squad.png",
        "iconrotate": "0",
        "popupContent": "Amazing information about null will be found here!"
      },
      "bf2props": {
        "name": "cpname_beirut_coop64_harbour_rally",
        "class": "ObjectSpawner",
        "name_object": "Permanent spawnpoint",
        "team": "2",
        "obj1": "null",
        "obj2": "rallypoint_ru_placeable_noexpire",
        "maxspawn": "0.0",
        "minspawn": "0.0",
        "spawndelay": "false",
        "ttl": "0.0",
        "cpid": "301"
      }
    },
    {
      "type": "Feature",
      "geometry": {
        "type": "Point",
        "coordinates": [231.62, -763.188],
        "size": [16, 16]
      },
      "properties": {
        "iconurl": "icons/vehicles_map/mini_rec_atgm.png",
        "iconrotate": "-180.0",
        "popupContent": "Amazing information about null will be found here!"
      },
      "bf2props": {
        "name": "cpname_beirut_coop64_harbour_spandrel",
        "class": "ObjectSpawner",
        "name_object": "9P148 Spandrel",
        "team": "2",
        "obj1": "null",
        "obj2": "ru_atm_spandrel_bf2",
        "maxspawn": "450.0",
        "minspawn": "450.0",
        "spawndelay": "false",
        "ttl": "1200.0",
        "cpid": "301"
      }
    },
    {
      "type": "Feature",
      "geometry": {
        "type": "Point",
        "coordinates": [222.807, -763.188],
        "size": [16, 16]
      },
      "properties": {
        "iconurl": "icons/vehicles_map/mini_rec_light.png",
        "iconrotate": "-180.0",
        "popupContent": "Amazing information about null will be found here!"
      },
      "bf2props": {
        "name": "cpname_beirut_coop64_harbour_brdm",
        "class": "ObjectSpawner",
        "name_object": "BRDM-2",
        "team": "2",
        "obj1": "null",
        "obj2": "ru_jep_brdm2",
        "maxspawn": "450.0",
        "minspawn": "450.0",
        "spawndelay": "false",
        "ttl": "1200.0",
        "cpid": "301"
      }
    },
    {
      "type": "Feature",
      "geometry": {
        "type": "Point",
        "coordinates": [227.16302, -763.188],
        "size": [16, 16]
      },
      "properties": {
        "iconurl": "icons/vehicles_map/mini_rec_light.png",
        "iconrotate": "-180.0",
        "popupContent": "Amazing information about null will be found here!"
      },
      "bf2props": {
        "name": "cpname_beirut_coop64_harbour_brdm_0",
        "class": "ObjectSpawner",
        "name_object": "BRDM-2",
        "team": "2",
        "obj1": "null",
        "obj2": "ru_jep_brdm2",
        "maxspawn": "450.0",
        "minspawn": "450.0",
        "spawndelay": "false",
        "ttl": "1200.0",
        "cpid": "301"
      }
    },
    {
      "type": "Feature",
      "geometry": {
        "type": "Point",
        "coordinates": [1931.415, -69.91199],
        "size": [16, 16]
      },
      "properties": {
        "iconurl": "icons/vehicles_map/mini_shp_light.png",
        "iconrotate": "180.0",
        "popupContent": "Amazing information about null will be found here!"
      },
      "bf2props": {
        "name": "cpname_beirut_coop64_carrier_boat",
        "class": "ObjectSpawner",
        "name_object": "RHIB",
        "team": "2",
        "obj1": "null",
        "obj2": "boat_rib_gpmg_pkp",
        "maxspawn": "300.0",
        "minspawn": "300.0",
        "spawndelay": "false",
        "ttl": "1200.0",
        "cpid": "308"
      }
    },
    {
      "type": "Feature",
      "geometry": {
        "type": "Point",
        "coordinates": [1925.9141, -69.91199],
        "size": [16, 16]
      },
      "properties": {
        "iconurl": "icons/vehicles_map/mini_shp_light.png",
        "iconrotate": "180.0",
        "popupContent": "Amazing information about null will be found here!"
      },
      "bf2props": {
        "name": "cpname_beirut_coop64_carrier_boat_0",
        "class": "ObjectSpawner",
        "name_object": "RHIB",
        "team": "2",
        "obj1": "null",
        "obj2": "boat_rib_gpmg_pkp",
        "maxspawn": "300.0",
        "minspawn": "300.0",
        "spawndelay": "false",
        "ttl": "1200.0",
        "cpid": "308"
      }
    },
    {
      "type": "Feature",
      "geometry": {
        "type": "Point",
        "coordinates": [286.362, -715.947],
        "size": [33, 33],
        "radius": "120.0"
      },
      "properties": {
        "iconurl": "icons/flags_map/neutral/minimap_cp.png",
        "iconrotate": "0",
        "popupContent": "Amazing information about City Docks 120m will be found here!"
      },
      "bf2props": {
        "name": "cpname_beirut_coop64_harbour",
        "class": "ControlPoint",
        "name_object": "City Docks 120m",
        "team": "0",
        "areavalue1": "100.0",
        "areavalue2": "0.0",
        "cpid": "301",
        "sgid": "5",
        "uncap": "false",
        "ttgc": "180.0",
        "ttlc": "180.0"
      }
    },
    {
      "type": "Feature",
      "geometry": {
        "type": "Point",
        "coordinates": [819.56, -950.425],
        "size": [33, 33],
        "radius": "60.0"
      },
      "properties": {
        "iconurl": "icons/flags_map/idf/minimap_cp.png",
        "iconrotate": "0",
        "popupContent": "Amazing information about Western Apartments 60m will be found here!"
      },
      "bf2props": {
        "name": "cpname_beirut_coop64_apartment",
        "class": "ControlPoint",
        "name_object": "Western Apartments 60m",
        "team": "1",
        "areavalue1": "0.0",
        "areavalue2": "0.0",
        "cpid": "302",
        "sgid": "4",
        "uncap": "false",
        "ttgc": "120.0",
        "ttlc": "120.0"
      }
    },
    {
      "type": "Feature",
      "geometry": {
        "type": "Point",
        "coordinates": [1334.862, -1116.668],
        "size": [33, 33],
        "radius": "80.0"
      },
      "properties": {
        "iconurl": "icons/flags_map/idf/minimap_cp.png",
        "iconrotate": "0",
        "popupContent": "Amazing information about City Centre 80m will be found here!"
      },
      "bf2props": {
        "name": "cpname_beirut_coop64_citycentre",
        "class": "ControlPoint",
        "name_object": "City Centre 80m",
        "team": "1",
        "areavalue1": "0.0",
        "areavalue2": "0.0",
        "cpid": "303",
        "sgid": "3",
        "uncap": "false",
        "ttgc": "120.0",
        "ttlc": "120.0"
      }
    },
    {
      "type": "Feature",
      "geometry": {
        "type": "Point",
        "coordinates": [1422.5701, -1420.849],
        "size": [33, 33],
        "radius": "80.0"
      },
      "properties": {
        "iconurl": "icons/flags_map/idf/minimap_cp.png",
        "iconrotate": "0",
        "popupContent": "Amazing information about Downtown 80m will be found here!"
      },
      "bf2props": {
        "name": "cpname_beirut_coop64_downtown",
        "class": "ControlPoint",
        "name_object": "Downtown 80m",
        "team": "1",
        "areavalue1": "0.0",
        "areavalue2": "0.0",
        "cpid": "304",
        "sgid": "2",
        "uncap": "false",
        "ttgc": "120.0",
        "ttlc": "120.0"
      }
    },
    {
      "type": "Feature",
      "geometry": {
        "type": "Point",
        "coordinates": [991.296, -1385.749],
        "size": [33, 33],
        "radius": "80.0"
      },
      "properties": {
        "iconurl": "icons/flags_map/idf/minimap_cp.png",
        "iconrotate": "0",
        "popupContent": "Amazing information about Apartments 80m will be found here!"
      },
      "bf2props": {
        "name": "cpname_beirut_coop64_residencies",
        "class": "ControlPoint",
        "name_object": "Apartments 80m",
        "team": "1",
        "areavalue1": "0.0",
        "areavalue2": "0.0",
        "cpid": "305",
        "sgid": "3",
        "uncap": "false",
        "ttgc": "120.0",
        "ttlc": "120.0"
      }
    },
    {
      "type": "Feature",
      "geometry": {
        "type": "Point",
        "coordinates": [1132.756, -1712.356],
        "size": [33, 33],
        "radius": "80.0"
      },
      "properties": {
        "iconurl": "icons/flags_map/idf/minimap_cp.png",
        "iconrotate": "0",
        "popupContent": "Amazing information about South City 80m will be found here!"
      },
      "bf2props": {
        "name": "cpname_beirut_coop64_southcity",
        "class": "ControlPoint",
        "name_object": "South City 80m",
        "team": "1",
        "areavalue1": "0.0",
        "areavalue2": "0.0",
        "cpid": "306",
        "sgid": "2",
        "uncap": "false",
        "ttgc": "120.0",
        "ttlc": "120.0"
      }
    },
    {
      "type": "Feature",
      "geometry": {
        "type": "Point",
        "coordinates": [1454.421, -1768.313],
        "size": [33, 33],
        "radius": "80.0"
      },
      "properties": {
        "iconurl": "icons/flags_map/idf/minimap_cp.png",
        "iconrotate": "0",
        "popupContent": "Amazing information about Rail Depot will be found here!"
      },
      "bf2props": {
        "name": "cpname_beirut_coop64_trainstation",
        "class": "ControlPoint",
        "name_object": "Rail Depot",
        "team": "1",
        "areavalue1": "0.0",
        "areavalue2": "9999.0",
        "cpid": "307",
        "sgid": "1",
        "uncap": "false",
        "ttgc": "120.0",
        "ttlc": "120.0"
      }
    },
    {
      "type": "Feature",
      "geometry": {
        "type": "Point",
        "coordinates": [1852.5, -37.491028],
        "size": [33, 33],
        "radius": "55.0"
      },
      "properties": {
        "iconurl": "icons/flags_map/ru/minimap_cpbase.png",
        "iconrotate": "0",
        "popupContent": "Amazing information about Russian Carrier will be found here!"
      },
      "bf2props": {
        "name": "cpname_beirut_coop64_carrier",
        "class": "ControlPoint",
        "name_object": "Russian Carrier",
        "team": "2",
        "areavalue1": "0.0",
        "areavalue2": "0.0",
        "cpid": "308",
        "sgid": "6",
        "uncap": "true",
        "ttgc": "120.0",
        "ttlc": "120.0"
      }
    },
    {
      "type": "Feature",
      "geometry": {
        "type": "Polygon",
        "coordinates": [
          [
            [2047.4194, -1242.7299],
            [1655.6282, -1025.346],
            [1650.692, -987.4076],
            [1526.622, -899.3567],
            [1512.2102, -879.39905],
            [1505.6008, -848.2455],
            [1503.7953, -822.7634],
            [1462.1022, -800.44617],
            [1436.0499, -793.6592],
            [1378.1753, -797.80444],
            [1335.2196, -815.1483],
            [1317.6854, -833.1188],
            [1255.4111, -828.63403],
            [1168.556, -826.68225],
            [1087.6862, -826.1859],
            [951.4332, -819.4629],
            [747.14886, -807.0033],
            [647.96136, -782.48254],
            [554.9987, -747.1279],
            [483.38208, -744.65027],
            [474.71436, -588.1963],
            [0.0, -544.845],
            [0.5513916, -0.6590576],
            [2045.3976, 3.027832],
            [2047.4194, -1242.7299],
            [1655.6282, -1025.346],
            [1650.692, -987.4076],
            [1526.622, -899.3567],
            [1512.2102, -879.39905],
            [1505.6008, -848.2455],
            [1503.7953, -822.7634],
            [1462.1022, -800.44617],
            [1436.0499, -793.6592],
            [1378.1753, -797.80444],
            [1335.2196, -815.1483],
            [1317.6854, -833.1188],
            [1255.4111, -828.63403],
            [1168.556, -826.68225],
            [1087.6862, -826.1859],
            [951.4332, -819.4629],
            [747.14886, -807.0033],
            [647.96136, -782.48254],
            [554.9987, -747.1279],
            [483.38208, -744.65027],
            [474.71436, -588.1963],
            [0.0, -544.845],
            [0.5513916, -0.6590576],
            [2045.3976, 3.027832]
          ]
        ]
      },
      "bf2props": {
        "code": "combatarea_4_default",
        "class": "CombatArea",
        "team": "1",
        "vehicles": "4",
        "layer": "3",
        "inverted": "true",
        "max": [0.0, 0.0],
        "min": [0.0, 0.0]
      }
    },
    {
      "type": "Feature",
      "geometry": {
        "type": "Polygon",
        "coordinates": [
          [
            [0,0],
            [0,-2048],
            [2048,-2048],
            [2048,0]
          ],[
            [-2.1044922, 2.053711],
            [0.39733887, -2047.8342],
            [2047.3567, -2047.4077],
            [2048.1643, 0.0]
          ]
        ]
      },
      "bf2props": {
        "code": "combatarea_23_default",
        "class": "CombatArea",
        "team": "0",
        "vehicles": "4",
        "layer": "3",
        "inverted": "false",
        "max": [0.0, 0.0],
        "min": [0.0, 0.0]
      }
    }
  ]
}