{
  "team1":"idf",
  "team2":"ru",
  "team1tickets":"500",
  "team2tickets":"500",
  "mapsize":"2048",
  "viewdistance":"700",
  "combatareause":"true",
  "combatareadamage":"20.0",
  "combatareaallowoutside":"10.0",
  "routes": [
    [
      [
        "cpname_beirut_coop32_constructionsite"
      ],
      [
        "cpname_beirut_coop32_oldtown"
      ],
      [
        "cpname_beirut_coop32_apartments"
      ],
      [
        "cpname_beirut_coop32_seaside"
      ],
      [
        "cpname_beirut_coop32_tvstation"
      ],
      [
        "cpname_beirut_coop32_housing"
      ],
      [
        "cpname_beirut_coop32_factory"
      ]
    ]
  ],
  "type": "FeatureCollection",
  "features": [
    {
      "type": "Feature",
      "geometry": {
        "type": "Point",
        "coordinates": [1860.651, -48.833984],
        "size": [16, 16]
      },
      "properties": {
        "iconurl": "icons/vehicles_map/mini_ahe_medium.png",
        "iconrotate": "180.0",
        "popupContent": "Amazing information about null will be found here!"
      },
      "bf2props": {
        "name": "cpname_beirut_coop32_factory_cas",
        "class": "ObjectSpawner",
        "name_object": "Mi-24P Hind-F",
        "team": "2",
        "obj1": "null",
        "obj2": "ru_ahe_mi24",
        "maxspawn": "600.0",
        "minspawn": "600.0",
        "spawndelay": "false",
        "ttl": "1200.0",
        "cpid": "206"
      }
    },
    {
      "type": "Feature",
      "geometry": {
        "type": "Point",
        "coordinates": [1813.8301, -48.590027],
        "size": [16, 16]
      },
      "properties": {
        "iconurl": "icons/vehicles_map/mini_ahe_medium.png",
        "iconrotate": "180.0",
        "popupContent": "Amazing information about null will be found here!"
      },
      "bf2props": {
        "name": "cpname_beirut_coop32_factory_cas_sp",
        "class": "ObjectSpawner",
        "name_object": "Mi-24P Hind-F",
        "team": "2",
        "obj1": "null",
        "obj2": "ru_ahe_mi24_sp",
        "maxspawn": "600.0",
        "minspawn": "600.0",
        "spawndelay": "false",
        "ttl": "1200.0",
        "cpid": "206"
      }
    },
    {
      "type": "Feature",
      "geometry": {
        "type": "Point",
        "coordinates": [1893.8091, -65.30298],
        "size": [16, 16]
      },
      "properties": {
        "iconurl": "icons/vehicles_map/mini_shp_light.png",
        "iconrotate": "180.0",
        "popupContent": "Amazing information about null will be found here!"
      },
      "bf2props": {
        "name": "cpname_beirut_coop32_factory_boat",
        "class": "ObjectSpawner",
        "name_object": "RHIB",
        "team": "2",
        "obj1": "null",
        "obj2": "boat_rib_gpmg_pkp",
        "maxspawn": "300.0",
        "minspawn": "300.0",
        "spawndelay": "false",
        "ttl": "1200.0",
        "cpid": "206"
      }
    },
    {
      "type": "Feature",
      "geometry": {
        "type": "Point",
        "coordinates": [1902.202, -65.30298],
        "size": [16, 16]
      },
      "properties": {
        "iconurl": "icons/vehicles_map/mini_shp_light.png",
        "iconrotate": "180.0",
        "popupContent": "Amazing information about null will be found here!"
      },
      "bf2props": {
        "name": "cpname_beirut_coop32_factory_boat_0",
        "class": "ObjectSpawner",
        "name_object": "RHIB",
        "team": "2",
        "obj1": "null",
        "obj2": "boat_rib_gpmg_pkp",
        "maxspawn": "300.0",
        "minspawn": "300.0",
        "spawndelay": "false",
        "ttl": "1200.0",
        "cpid": "206"
      }
    },
    {
      "type": "Feature",
      "geometry": {
        "type": "Point",
        "coordinates": [1897.863, -65.30298],
        "size": [16, 16]
      },
      "properties": {
        "iconurl": "icons/vehicles_map/mini_shp_light.png",
        "iconrotate": "180.0",
        "popupContent": "Amazing information about null will be found here!"
      },
      "bf2props": {
        "name": "cpname_beirut_coop32_factory_boat_1",
        "class": "ObjectSpawner",
        "name_object": "RHIB",
        "team": "2",
        "obj1": "null",
        "obj2": "boat_rib_gpmg_pkp",
        "maxspawn": "300.0",
        "minspawn": "300.0",
        "spawndelay": "false",
        "ttl": "1200.0",
        "cpid": "206"
      }
    },
    {
      "type": "Feature",
      "geometry": {
        "type": "Point",
        "coordinates": [1821.8611, -1343.252],
        "size": [16, 16]
      },
      "properties": {
        "iconurl": "icons/mini_map/repairdepot.png",
        "iconrotate": "0",
        "popupContent": "Amazing information about null will be found here!"
      },
      "bf2props": {
        "name": "cpname_beirut_coop32_factory_depot",
        "class": "ObjectSpawner",
        "name_object": "Vehicle Depot",
        "team": "2",
        "obj1": "null",
        "obj2": "vehicle_depot_ru",
        "maxspawn": "0.0",
        "minspawn": "0.0",
        "spawndelay": "false",
        "ttl": "0.0",
        "cpid": "206"
      }
    },
    {
      "type": "Feature",
      "geometry": {
        "type": "Point",
        "coordinates": [1838.844, -1706.5381],
        "size": [16, 16]
      },
      "properties": {
        "iconurl": "icons/vehicles_map/mini_apc_heavy.png",
        "iconrotate": "-75.0",
        "popupContent": "Amazing information about null will be found here!"
      },
      "bf2props": {
        "name": "cpname_beirut_coop32_factory_ifv",
        "class": "ObjectSpawner",
        "name_object": "BMP-3",
        "team": "2",
        "obj1": "null",
        "obj2": "ru_ifv_bmp3",
        "maxspawn": "600.0",
        "minspawn": "600.0",
        "spawndelay": "false",
        "ttl": "1200.0",
        "cpid": "206"
      }
    },
    {
      "type": "Feature",
      "geometry": {
        "type": "Point",
        "coordinates": [1811.439, -1731.907],
        "size": [16, 16]
      },
      "properties": {
        "iconurl": "icons/vehicles_map/mini_apc_heavy.png",
        "iconrotate": "-75.0",
        "popupContent": "Amazing information about null will be found here!"
      },
      "bf2props": {
        "name": "cpname_beirut_coop32_factory_ifv_0",
        "class": "ObjectSpawner",
        "name_object": "BMP-3",
        "team": "2",
        "obj1": "null",
        "obj2": "ru_ifv_bmp3_bf2",
        "maxspawn": "600.0",
        "minspawn": "600.0",
        "spawndelay": "false",
        "ttl": "1200.0",
        "cpid": "206"
      }
    },
    {
      "type": "Feature",
      "geometry": {
        "type": "Point",
        "coordinates": [1827.0239, -1728.448],
        "size": [16, 16]
      },
      "properties": {
        "iconurl": "icons/vehicles_map/mini_apc_heavy.png",
        "iconrotate": "-75.0",
        "popupContent": "Amazing information about null will be found here!"
      },
      "bf2props": {
        "name": "cpname_beirut_coop32_factory_ifv_1",
        "class": "ObjectSpawner",
        "name_object": "BMP-3",
        "team": "2",
        "obj1": "null",
        "obj2": "ru_ifv_bmp3_bf2",
        "maxspawn": "600.0",
        "minspawn": "600.0",
        "spawndelay": "false",
        "ttl": "1200.0",
        "cpid": "206"
      }
    },
    {
      "type": "Feature",
      "geometry": {
        "type": "Point",
        "coordinates": [1916.058, -1316.66],
        "size": [16, 16]
      },
      "properties": {
        "iconurl": "icons/vehicles_map/mini_apc_medium.png",
        "iconrotate": "-90.0",
        "popupContent": "Amazing information about null will be found here!"
      },
      "bf2props": {
        "name": "cpname_beirut_coop32_factory_btr80",
        "class": "ObjectSpawner",
        "name_object": "BMP-2",
        "team": "2",
        "obj1": "null",
        "obj2": "ru_apc_bmp2",
        "maxspawn": "300.0",
        "minspawn": "300.0",
        "spawndelay": "false",
        "ttl": "1200.0",
        "cpid": "206"
      }
    },
    {
      "type": "Feature",
      "geometry": {
        "type": "Point",
        "coordinates": [1916.9719, -1311.1],
        "size": [16, 16]
      },
      "properties": {
        "iconurl": "icons/vehicles_map/mini_apc_medium.png",
        "iconrotate": "-90.0",
        "popupContent": "Amazing information about null will be found here!"
      },
      "bf2props": {
        "name": "cpname_beirut_coop32_factory_apc",
        "class": "ObjectSpawner",
        "name_object": "BMP-2",
        "team": "2",
        "obj1": "null",
        "obj2": "ru_apc_bmp2",
        "maxspawn": "300.0",
        "minspawn": "300.0",
        "spawndelay": "false",
        "ttl": "1200.0",
        "cpid": "206"
      }
    },
    {
      "type": "Feature",
      "geometry": {
        "type": "Point",
        "coordinates": [1878.823, -1256.205],
        "size": [16, 16]
      },
      "properties": {
        "iconurl": "icons/vehicles_map/mini_apc_medium.png",
        "iconrotate": "-155.0",
        "popupContent": "Amazing information about null will be found here!"
      },
      "bf2props": {
        "name": "cpname_beirut_coop32_factory_apc_0",
        "class": "ObjectSpawner",
        "name_object": "BMP-2",
        "team": "2",
        "obj1": "null",
        "obj2": "ru_apc_bmp2_bf2",
        "maxspawn": "300.0",
        "minspawn": "300.0",
        "spawndelay": "false",
        "ttl": "1200.0",
        "cpid": "206"
      }
    },
    {
      "type": "Feature",
      "geometry": {
        "type": "Point",
        "coordinates": [1873.051, -1253.513],
        "size": [16, 16]
      },
      "properties": {
        "iconurl": "icons/vehicles_map/mini_apc_medium.png",
        "iconrotate": "-155.0",
        "popupContent": "Amazing information about null will be found here!"
      },
      "bf2props": {
        "name": "cpname_beirut_coop32_factory_apc_1",
        "class": "ObjectSpawner",
        "name_object": "BMP-2",
        "team": "2",
        "obj1": "null",
        "obj2": "ru_apc_bmp2_bf2",
        "maxspawn": "300.0",
        "minspawn": "300.0",
        "spawndelay": "false",
        "ttl": "1200.0",
        "cpid": "206"
      }
    },
    {
      "type": "Feature",
      "geometry": {
        "type": "Point",
        "coordinates": [105.791016, -2008.315],
        "size": [16, 16]
      },
      "properties": {
        "iconurl": "icons/vehicles_map/mini_ahe_heavy.png",
        "iconrotate": "0.0",
        "popupContent": "Amazing information about AH-64D Saraph will be found here!"
      },
      "bf2props": {
        "name": "cpname_beirut_coop32_constructionsite_apache",
        "class": "ObjectSpawner",
        "name_object": "AH-64D Saraph",
        "team": "1",
        "obj1": "idf_ahe_apache",
        "obj2": "null",
        "maxspawn": "600.0",
        "minspawn": "600.0",
        "spawndelay": "false",
        "ttl": "1200.0",
        "cpid": "207"
      }
    },
    {
      "type": "Feature",
      "geometry": {
        "type": "Point",
        "coordinates": [45.554993, -2002.823],
        "size": [16, 16]
      },
      "properties": {
        "iconurl": "icons/vehicles_map/mini_ahe_heavy.png",
        "iconrotate": "0.0",
        "popupContent": "Amazing information about AH-64D Saraph will be found here!"
      },
      "bf2props": {
        "name": "cpname_beirut_coop32_constructionsite_apache_sp",
        "class": "ObjectSpawner",
        "name_object": "AH-64D Saraph",
        "team": "1",
        "obj1": "idf_ahe_apache_sp",
        "obj2": "null",
        "maxspawn": "600.0",
        "minspawn": "600.0",
        "spawndelay": "false",
        "ttl": "1200.0",
        "cpid": "207"
      }
    },
    {
      "type": "Feature",
      "geometry": {
        "type": "Point",
        "coordinates": [70.26001, -1908.417],
        "size": [16, 16]
      },
      "properties": {
        "iconurl": "icons/vehicles_map/mini_tank_heavy.png",
        "iconrotate": "0.0",
        "popupContent": "Amazing information about Merkava Mark IV will be found here!"
      },
      "bf2props": {
        "name": "cpname_beirut_coop32_constructionsite_tank",
        "class": "ObjectSpawner",
        "name_object": "Merkava Mark IV",
        "team": "1",
        "obj1": "idf_tnk_merkava_bf2",
        "obj2": "null",
        "maxspawn": "600.0",
        "minspawn": "600.0",
        "spawndelay": "false",
        "ttl": "1200.0",
        "cpid": "207"
      }
    },
    {
      "type": "Feature",
      "geometry": {
        "type": "Point",
        "coordinates": [64.16901, -1908.417],
        "size": [16, 16]
      },
      "properties": {
        "iconurl": "icons/vehicles_map/mini_tank_heavy.png",
        "iconrotate": "0.0",
        "popupContent": "Amazing information about Merkava Mark IV will be found here!"
      },
      "bf2props": {
        "name": "cpname_beirut_coop32_constructionsite_tank_0",
        "class": "ObjectSpawner",
        "name_object": "Merkava Mark IV",
        "team": "1",
        "obj1": "idf_tnk_merkava_bf2",
        "obj2": "null",
        "maxspawn": "600.0",
        "minspawn": "600.0",
        "spawndelay": "false",
        "ttl": "1200.0",
        "cpid": "207"
      }
    },
    {
      "type": "Feature",
      "geometry": {
        "type": "Point",
        "coordinates": [81.747986, -1909.006],
        "size": [16, 16]
      },
      "properties": {
        "iconurl": "icons/vehicles_map/mini_apc_light.png",
        "iconrotate": "0.0",
        "popupContent": "Amazing information about Namer will be found here!"
      },
      "bf2props": {
        "name": "cpname_beirut_coop32_constructionsite_m113",
        "class": "ObjectSpawner",
        "name_object": "Namer",
        "team": "1",
        "obj1": "idf_apc_namer",
        "obj2": "null",
        "maxspawn": "300.0",
        "minspawn": "300.0",
        "spawndelay": "false",
        "ttl": "1200.0",
        "cpid": "207"
      }
    },
    {
      "type": "Feature",
      "geometry": {
        "type": "Point",
        "coordinates": [76.12903, -1909.006],
        "size": [16, 16]
      },
      "properties": {
        "iconurl": "icons/vehicles_map/mini_apc_light.png",
        "iconrotate": "0.0",
        "popupContent": "Amazing information about Namer will be found here!"
      },
      "bf2props": {
        "name": "cpname_beirut_coop32_constructionsite_namer",
        "class": "ObjectSpawner",
        "name_object": "Namer",
        "team": "1",
        "obj1": "idf_apc_namer",
        "obj2": "null",
        "maxspawn": "300.0",
        "minspawn": "300.0",
        "spawndelay": "false",
        "ttl": "1200.0",
        "cpid": "207"
      }
    },
    {
      "type": "Feature",
      "geometry": {
        "type": "Point",
        "coordinates": [116.461975, -1906.388],
        "size": [16, 16]
      },
      "properties": {
        "iconurl": "icons/vehicles_map/mini_jep_medium.png",
        "iconrotate": "0.0",
        "popupContent": "Amazing information about HMMWV SIYUR will be found here!"
      },
      "bf2props": {
        "name": "cpname_beirut_coop32_constructionsite_hmmwv",
        "class": "ObjectSpawner",
        "name_object": "HMMWV SIYUR",
        "team": "1",
        "obj1": "idf_jep_hmmwv",
        "obj2": "null",
        "maxspawn": "300.0",
        "minspawn": "300.0",
        "spawndelay": "false",
        "ttl": "1200.0",
        "cpid": "207"
      }
    },
    {
      "type": "Feature",
      "geometry": {
        "type": "Point",
        "coordinates": [109.012024, -1906.388],
        "size": [16, 16]
      },
      "properties": {
        "iconurl": "icons/vehicles_map/mini_jep_medium.png",
        "iconrotate": "0.0",
        "popupContent": "Amazing information about HMMWV SIYUR will be found here!"
      },
      "bf2props": {
        "name": "cpname_beirut_coop32_constructionsite_hmmwv_0",
        "class": "ObjectSpawner",
        "name_object": "HMMWV SIYUR",
        "team": "1",
        "obj1": "idf_jep_hmmwv",
        "obj2": "null",
        "maxspawn": "300.0",
        "minspawn": "300.0",
        "spawndelay": "false",
        "ttl": "1200.0",
        "cpid": "207"
      }
    },
    {
      "type": "Feature",
      "geometry": {
        "type": "Point",
        "coordinates": [112.83301, -1906.623],
        "size": [16, 16]
      },
      "properties": {
        "iconurl": "icons/vehicles_map/mini_jep_medium.png",
        "iconrotate": "0.0",
        "popupContent": "Amazing information about HMMWV SIYUR will be found here!"
      },
      "bf2props": {
        "name": "cpname_beirut_coop32_constructionsite_hmmwv_1",
        "class": "ObjectSpawner",
        "name_object": "HMMWV SIYUR",
        "team": "1",
        "obj1": "idf_jep_hmmwv",
        "obj2": "null",
        "maxspawn": "300.0",
        "minspawn": "300.0",
        "spawndelay": "false",
        "ttl": "1200.0",
        "cpid": "207"
      }
    },
    {
      "type": "Feature",
      "geometry": {
        "type": "Point",
        "coordinates": [77.83099, -2009.97],
        "size": [16, 16]
      },
      "properties": {
        "iconurl": "icons/vehicles_map/mini_tank_heavy.png",
        "iconrotate": "0.0",
        "popupContent": "Amazing information about Merkava Mark IV will be found here!"
      },
      "bf2props": {
        "name": "cpname_beirut_coop32_constructionsite_tank_1",
        "class": "ObjectSpawner",
        "name_object": "Merkava Mark IV",
        "team": "1",
        "obj1": "idf_tnk_merkava",
        "obj2": "null",
        "maxspawn": "600.0",
        "minspawn": "600.0",
        "spawndelay": "false",
        "ttl": "1200.0",
        "cpid": "207"
      }
    },
    {
      "type": "Feature",
      "geometry": {
        "type": "Point",
        "coordinates": [73.01001, -2009.97],
        "size": [16, 16]
      },
      "properties": {
        "iconurl": "icons/vehicles_map/mini_tank_heavy.png",
        "iconrotate": "0.0",
        "popupContent": "Amazing information about Merkava Mark IV will be found here!"
      },
      "bf2props": {
        "name": "cpname_beirut_coop32_constructionsite_tank_2",
        "class": "ObjectSpawner",
        "name_object": "Merkava Mark IV",
        "team": "1",
        "obj1": "idf_tnk_merkava",
        "obj2": "null",
        "maxspawn": "600.0",
        "minspawn": "600.0",
        "spawndelay": "false",
        "ttl": "1200.0",
        "cpid": "207"
      }
    },
    {
      "type": "Feature",
      "geometry": {
        "type": "Point",
        "coordinates": [89.44098, -2007.777],
        "size": [16, 16]
      },
      "properties": {
        "iconurl": "icons/vehicles_map/mini_trk_logistics.png",
        "iconrotate": "0.0",
        "popupContent": "Amazing information about M35 Logistics will be found here!"
      },
      "bf2props": {
        "name": "cpname_beirut_coop32_constructionsite_logi",
        "class": "ObjectSpawner",
        "name_object": "M35 Logistics",
        "team": "1",
        "obj1": "idf_trk_logistics",
        "obj2": "null",
        "maxspawn": "300.0",
        "minspawn": "300.0",
        "spawndelay": "false",
        "ttl": "1200.0",
        "cpid": "207"
      }
    },
    {
      "type": "Feature",
      "geometry": {
        "type": "Point",
        "coordinates": [85.55798, -2007.777],
        "size": [16, 16]
      },
      "properties": {
        "iconurl": "icons/vehicles_map/mini_trk_logistics.png",
        "iconrotate": "0.0",
        "popupContent": "Amazing information about M35 Logistics will be found here!"
      },
      "bf2props": {
        "name": "cpname_beirut_coop32_constructionsite_logi_0",
        "class": "ObjectSpawner",
        "name_object": "M35 Logistics",
        "team": "1",
        "obj1": "idf_trk_logistics",
        "obj2": "null",
        "maxspawn": "300.0",
        "minspawn": "300.0",
        "spawndelay": "false",
        "ttl": "1200.0",
        "cpid": "207"
      }
    },
    {
      "type": "Feature",
      "geometry": {
        "type": "Point",
        "coordinates": [76.90802, -1956.877],
        "size": [16, 16]
      },
      "properties": {
        "iconurl": "icons/vehicles_map/mini_jep_support.png",
        "iconrotate": "90.0",
        "popupContent": "Amazing information about HMMWV SIYUR will be found here!"
      },
      "bf2props": {
        "name": "cpname_beirut_coop32_constructionsite_jep",
        "class": "ObjectSpawner",
        "name_object": "HMMWV SIYUR",
        "team": "1",
        "obj1": "idf_jep_hmmwvopen",
        "obj2": "null",
        "maxspawn": "300.0",
        "minspawn": "300.0",
        "spawndelay": "false",
        "ttl": "1200.0",
        "cpid": "207"
      }
    },
    {
      "type": "Feature",
      "geometry": {
        "type": "Point",
        "coordinates": [76.90802, -1952.998],
        "size": [16, 16]
      },
      "properties": {
        "iconurl": "icons/vehicles_map/mini_jep_support.png",
        "iconrotate": "90.0",
        "popupContent": "Amazing information about HMMWV SIYUR will be found here!"
      },
      "bf2props": {
        "name": "cpname_beirut_coop32_constructionsite_support",
        "class": "ObjectSpawner",
        "name_object": "HMMWV SIYUR",
        "team": "1",
        "obj1": "idf_jep_hmmwvopen",
        "obj2": "null",
        "maxspawn": "300.0",
        "minspawn": "300.0",
        "spawndelay": "false",
        "ttl": "1200.0",
        "cpid": "207"
      }
    },
    {
      "type": "Feature",
      "geometry": {
        "type": "Point",
        "coordinates": [1835.2639, -1350.58],
        "size": [16, 16]
      },
      "properties": {
        "iconurl": "icons/vehicles_map/mini_trk_logistics.png",
        "iconrotate": "110.0",
        "popupContent": "Amazing information about null will be found here!"
      },
      "bf2props": {
        "name": "cpname_beirut_coop32_factory_logi",
        "class": "ObjectSpawner",
        "name_object": "Ural-4320 Logistics",
        "team": "2",
        "obj1": "null",
        "obj2": "ru_trk_logistics",
        "maxspawn": "300.0",
        "minspawn": "300.0",
        "spawndelay": "false",
        "ttl": "1200.0",
        "cpid": "206"
      }
    },
    {
      "type": "Feature",
      "geometry": {
        "type": "Point",
        "coordinates": [1834.093, -1353.8],
        "size": [16, 16]
      },
      "properties": {
        "iconurl": "icons/vehicles_map/mini_trk_logistics.png",
        "iconrotate": "110.0",
        "popupContent": "Amazing information about null will be found here!"
      },
      "bf2props": {
        "name": "cpname_beirut_coop32_factory_logi_0",
        "class": "ObjectSpawner",
        "name_object": "Ural-4320 Logistics",
        "team": "2",
        "obj1": "null",
        "obj2": "ru_trk_logistics",
        "maxspawn": "300.0",
        "minspawn": "300.0",
        "spawndelay": "false",
        "ttl": "1200.0",
        "cpid": "206"
      }
    },
    {
      "type": "Feature",
      "geometry": {
        "type": "Point",
        "coordinates": [1837.578, -1344.224],
        "size": [16, 16]
      },
      "properties": {
        "iconurl": "icons/vehicles_map/mini_trk_support.png",
        "iconrotate": "110.0",
        "popupContent": "Amazing information about null will be found here!"
      },
      "bf2props": {
        "name": "cpname_beirut_coop32_factory_support",
        "class": "ObjectSpawner",
        "name_object": "Ural-4320",
        "team": "2",
        "obj1": "null",
        "obj2": "ru_trk_support",
        "maxspawn": "300.0",
        "minspawn": "300.0",
        "spawndelay": "false",
        "ttl": "1200.0",
        "cpid": "206"
      }
    },
    {
      "type": "Feature",
      "geometry": {
        "type": "Point",
        "coordinates": [1836.394, -1347.477],
        "size": [16, 16]
      },
      "properties": {
        "iconurl": "icons/vehicles_map/mini_trk_support.png",
        "iconrotate": "110.0",
        "popupContent": "Amazing information about null will be found here!"
      },
      "bf2props": {
        "name": "cpname_beirut_coop32_factory_support_0",
        "class": "ObjectSpawner",
        "name_object": "Ural-4320",
        "team": "2",
        "obj1": "null",
        "obj2": "ru_trk_support",
        "maxspawn": "300.0",
        "minspawn": "300.0",
        "spawndelay": "false",
        "ttl": "1200.0",
        "cpid": "206"
      }
    },
    {
      "type": "Feature",
      "geometry": {
        "type": "Point",
        "coordinates": [68.63501, -1968.602],
        "size": [16, 16]
      },
      "properties": {
        "iconurl": "icons/mini_map/repairdepot.png",
        "iconrotate": "0",
        "popupContent": "Amazing information about Vehicle Depot will be found here!"
      },
      "bf2props": {
        "name": "cpname_beirut_coop32_constructionsite_depot",
        "class": "ObjectSpawner",
        "name_object": "Vehicle Depot",
        "team": "1",
        "obj1": "vehicle_depot_idf",
        "obj2": "null",
        "maxspawn": "0.0",
        "minspawn": "0.0",
        "spawndelay": "false",
        "ttl": "0.0",
        "cpid": "207"
      }
    },
    {
      "type": "Feature",
      "geometry": {
        "type": "Point",
        "coordinates": [1877.4551, -1383.911],
        "size": [16, 16]
      },
      "properties": {
        "iconurl": "icons/mini_map/uavtrailer.png",
        "iconrotate": "0",
        "popupContent": "Amazing information about null will be found here!"
      },
      "bf2props": {
        "name": "cpname_beirut_coop32_factory_acv",
        "class": "ObjectSpawner",
        "name_object": "UAV Terminal",
        "team": "2",
        "obj1": "null",
        "obj2": "ru_acv_btr60pu",
        "maxspawn": "0.0",
        "minspawn": "0.0",
        "spawndelay": "false",
        "ttl": "0.0",
        "cpid": "206"
      }
    },
    {
      "type": "Feature",
      "geometry": {
        "type": "Point",
        "coordinates": [137.61798, -1967.7949],
        "size": [16, 16]
      },
      "properties": {
        "iconurl": "icons/mini_map/uavtrailer.png",
        "iconrotate": "0",
        "popupContent": "Amazing information about UAV Terminal will be found here!"
      },
      "bf2props": {
        "name": "cpname_beirut_coop32_constructionsite_acv",
        "class": "ObjectSpawner",
        "name_object": "UAV Terminal",
        "team": "1",
        "obj1": "idf_acv_m557",
        "obj2": "null",
        "maxspawn": "0.0",
        "minspawn": "0.0",
        "spawndelay": "false",
        "ttl": "0.0",
        "cpid": "207"
      }
    },
    {
      "type": "Feature",
      "geometry": {
        "type": "Point",
        "coordinates": [339.05298, -1731.64],
        "size": [33, 33],
        "radius": "80.0"
      },
      "properties": {
        "iconurl": "icons/flags_map/idf/minimap_cp.png",
        "iconrotate": "0",
        "popupContent": "Amazing information about Construction Site will be found here!"
      },
      "bf2props": {
        "name": "cpname_beirut_coop32_constructionsite",
        "class": "ControlPoint",
        "name_object": "Construction Site",
        "team": "1",
        "areavalue1": "0.0",
        "areavalue2": "99999.0",
        "cpid": "207",
        "sgid": "1",
        "uncap": "false",
        "ttgc": "120.0",
        "ttlc": "120.0"
      }
    },
    {
      "type": "Feature",
      "geometry": {
        "type": "Point",
        "coordinates": [712.873, -1559.0239],
        "size": [33, 33],
        "radius": "80.0"
      },
      "properties": {
        "iconurl": "icons/flags_map/neutral/minimap_cp.png",
        "iconrotate": "0",
        "popupContent": "Amazing information about Old Town 80m will be found here!"
      },
      "bf2props": {
        "name": "cpname_beirut_coop32_oldtown",
        "class": "ControlPoint",
        "name_object": "Old Town 80m",
        "team": "0",
        "areavalue1": "30.0",
        "areavalue2": "30.0",
        "cpid": "201",
        "sgid": "2",
        "uncap": "false",
        "ttgc": "120.0",
        "ttlc": "120.0"
      }
    },
    {
      "type": "Feature",
      "geometry": {
        "type": "Point",
        "coordinates": [980.528, -1394.911],
        "size": [33, 33],
        "radius": "60.0"
      },
      "properties": {
        "iconurl": "icons/flags_map/neutral/minimap_cp.png",
        "iconrotate": "0",
        "popupContent": "Amazing information about Apartments 60m will be found here!"
      },
      "bf2props": {
        "name": "cpname_beirut_coop32_apartments",
        "class": "ControlPoint",
        "name_object": "Apartments 60m",
        "team": "0",
        "areavalue1": "30.0",
        "areavalue2": "30.0",
        "cpid": "202",
        "sgid": "3",
        "uncap": "false",
        "ttgc": "120.0",
        "ttlc": "120.0"
      }
    },
    {
      "type": "Feature",
      "geometry": {
        "type": "Point",
        "coordinates": [1108.087, -1041.598],
        "size": [33, 33],
        "radius": "60.0"
      },
      "properties": {
        "iconurl": "icons/flags_map/neutral/minimap_cp.png",
        "iconrotate": "0",
        "popupContent": "Amazing information about Seaside Apartments 60m will be found here!"
      },
      "bf2props": {
        "name": "cpname_beirut_coop32_seaside",
        "class": "ControlPoint",
        "name_object": "Seaside Apartments 60m",
        "team": "0",
        "areavalue1": "30.0",
        "areavalue2": "30.0",
        "cpid": "203",
        "sgid": "4",
        "uncap": "false",
        "ttgc": "120.0",
        "ttlc": "120.0"
      }
    },
    {
      "type": "Feature",
      "geometry": {
        "type": "Point",
        "coordinates": [1420.547, -875.841],
        "size": [33, 33],
        "radius": "60.0"
      },
      "properties": {
        "iconurl": "icons/flags_map/neutral/minimap_cp.png",
        "iconrotate": "0",
        "popupContent": "Amazing information about TV Station 60m will be found here!"
      },
      "bf2props": {
        "name": "cpname_beirut_coop32_tvstation",
        "class": "ControlPoint",
        "name_object": "TV Station 60m",
        "team": "0",
        "areavalue1": "30.0",
        "areavalue2": "30.0",
        "cpid": "204",
        "sgid": "5",
        "uncap": "false",
        "ttgc": "120.0",
        "ttlc": "120.0"
      }
    },
    {
      "type": "Feature",
      "geometry": {
        "type": "Point",
        "coordinates": [1455.507, -1207.021],
        "size": [33, 33],
        "radius": "60.0"
      },
      "properties": {
        "iconurl": "icons/flags_map/neutral/minimap_cp.png",
        "iconrotate": "0",
        "popupContent": "Amazing information about Housing Block 60m will be found here!"
      },
      "bf2props": {
        "name": "cpname_beirut_coop32_housing",
        "class": "ControlPoint",
        "name_object": "Housing Block 60m",
        "team": "0",
        "areavalue1": "30.0",
        "areavalue2": "30.0",
        "cpid": "205",
        "sgid": "6",
        "uncap": "false",
        "ttgc": "120.0",
        "ttlc": "120.0"
      }
    },
    {
      "type": "Feature",
      "geometry": {
        "type": "Point",
        "coordinates": [1808.2529, -1341.733],
        "size": [33, 33],
        "radius": "100.0"
      },
      "properties": {
        "iconurl": "icons/flags_map/ru/minimap_cp.png",
        "iconrotate": "0",
        "popupContent": "Amazing information about Factory will be found here!"
      },
      "bf2props": {
        "name": "cpname_beirut_coop32_factory",
        "class": "ControlPoint",
        "name_object": "Factory",
        "team": "2",
        "areavalue1": "99999.0",
        "areavalue2": "0.0",
        "cpid": "206",
        "sgid": "7",
        "uncap": "false",
        "ttgc": "120.0",
        "ttlc": "120.0"
      }
    },
    {
      "type": "Feature",
      "geometry": {
        "type": "Polygon",
        "coordinates": [
          [
            [0,0],
            [0,-2048],
            [2048,-2048],
            [2048,0]
          ],[
            [2046.8488, -2.4803467],
            [1216.5023, 0.0],
            [999.48193, -817.67285],
            [982.4546, -1039.0776],
            [875.98706, -1194.3357],
            [666.42285, -1320.0504],
            [402.8792, -1344.3079],
            [100.97516, -1275.1589],
            [0.0, -1289.8528],
            [0.6882324, -2047.3711],
            [2045.5951, -2047.7517]
          ]
        ]
      },
      "bf2props": {
        "code": "combatarea_0_skirmish16",
        "class": "CombatArea",
        "team": "0",
        "vehicles": "4",
        "layer": "2",
        "inverted": "false",
        "max": [0.0, 0.0],
        "min": [0.0, 0.0]
      }
    },
    {
      "type": "Feature",
      "geometry": {
        "type": "Polygon",
        "coordinates": [
          [
            [2046.0361, -2.5998535],
            [2043.3596, -1206.1035],
            [1642.594, -1034.9194],
            [1632.1753, -991.03345],
            [1565.067, -938.8357],
            [1521.1533, -916.1223],
            [1497.401, -900.77356],
            [1492.5873, -881.90967],
            [1496.61, -838.1748],
            [1479.539, -815.11304],
            [1397.9272, -803.7295],
            [1368.6788, -809.0171],
            [1343.4828, -830.0581],
            [1330.2694, -840.43665],
            [1070.5912, -828.1919],
            [998.77295, -820.37915],
            [1209.8207, -0.36816406],
            [2044.0331, 0.033691406],
            [2046.9618, -2.692749]
          ]
        ]
      },
      "bf2props": {
        "code": "combatarea_11_skirmish16",
        "class": "CombatArea",
        "team": "1",
        "vehicles": "4",
        "layer": "2",
        "inverted": "true",
        "max": [0.0, 0.0],
        "min": [0.0, 0.0]
      }
    },
    {
      "type": "Feature",
      "geometry": {
        "type": "Polygon",
        "coordinates": [
          [
            [0.7163696, -2047.6353],
            [352.40894, -2047.547],
            [330.45276, -1879.717],
            [210.73828, -1777.5101],
            [0.50219727, -1738.4142]
          ]
        ]
      },
      "bf2props": {
        "code": "combatarea_30_skirmish16",
        "class": "CombatArea",
        "team": "2",
        "vehicles": "4",
        "layer": "2",
        "inverted": "true",
        "max": [0.0, 0.0],
        "min": [0.0, 0.0]
      }
    }
  ]
}