{
  "team1":"ger",
  "team2":"ru",
  "team1tickets":"600",
  "team2tickets":"550",
  "mapsize":"2048",
  "viewdistance":"300",
  "combatareause":"true",
  "combatareadamage":"20.0",
  "combatareaallowoutside":"10.0",
  "routes": [
    [
      [
        "cpname_dovre_winter_aas16_hv05"
      ],
      [
        "cpname_dovre_winter_aas16_station_1"
      ],
      [
        "cpname_dovre_winter_aas16_east_city_1"
      ],
      [
        "cpname_dovre_winter_aas16_north_fields_1"
      ],
      [
        "cpname_dovre_winter_aas16_radar_station_1"
      ],
      [
        "cpname_dovre_winter_aas16_west_fields_1"
      ],
      [
        "cpname_dovre_winter_aas16_rusmain"
      ]
    ],
    [
      [
        "cpname_dovre_winter_aas16_hv05"
      ],
      [
        "cpname_dovre_winter_aas16_station_2"
      ],
      [
        "cpname_dovre_winter_aas16_city_center_2"
      ],
      [
        "cpname_dovre_winter_aas16_bridges_2"
      ],
      [
        "cpname_dovre_winter_aas16_north_west_fields_2"
      ],
      [
        "cpname_dovre_winter_aas16_radar_station_2"
      ],
      [
        "cpname_dovre_winter_aas16_rusmain"
      ]
    ],
    [
      [
        "cpname_dovre_winter_aas16_hv05"
      ],
      [
        "cpname_dovre_winter_aas16_south_city_3"
      ],
      [
        "cpname_dovre_winter_aas16_hotel_3"
      ],
      [
        "cpname_dovre_winter_aas16_truck_stop_3"
      ],
      [
        "cpname_dovre_winter_aas16_freight_train_3"
      ],
      [
        "cpname_dovre_winter_aas16_fruit_farm_3"
      ],
      [
        "cpname_dovre_winter_aas16_rusmain"
      ]
    ],
    [
      [
        "cpname_dovre_winter_aas16_hv05"
      ],
      [
        "cpname_dovre_winter_aas16_aparments_4"
      ],
      [
        "cpname_dovre_winter_aas16_city_center_4"
      ],
      [
        "cpname_dovre_winter_aas16_factory_4"
      ],
      [
        "cpname_dovre_winter_aas16_little_valley_4"
      ],
      [
        "cpname_dovre_winter_aas16_fruit_farm_4"
      ],
      [
        "cpname_dovre_winter_aas16_rusmain"
      ]
    ],
    [
      [
        "cpname_dovre_winter_aas16_hv05"
      ],
      [
        "cpname_dovre_winter_aas16_station_5"
      ],
      [
        "cpname_dovre_winter_aas16_apartments_5"
      ],
      [
        "cpname_dovre_winter_aas16_cabins_5",
        "cpname_dovre_winter_aas16_delta_5"
      ],
      [
        "cpname_dovre_winter_aas16_south_farm_5"
      ],
      [
        "cpname_dovre_winter_aas16_european_road_6_5"
      ],
      [
        "cpname_dovre_winter_aas16_rusmain"
      ]
    ]
  ],
  "type": "FeatureCollection",
  "features": [
    {
      "type": "Feature",
      "geometry": {
        "type": "Point",
        "coordinates": [1517.147, -1983.198],
        "size": [16, 16]
      },
      "properties": {
        "iconurl": "icons/vehicles_map/mini_jep_support.png",
        "iconrotate": "-74.54",
        "popupContent": "Amazing information about Mercedes G-Wagen will be found here!"
      },
      "bf2props": {
        "name": "cpname_dovre_winter_aas16_hv05_ca_jeep",
        "class": "ObjectSpawner",
        "name_object": "Mercedes G-Wagen",
        "team": "1",
        "obj1": "ger_jep_gwagon_support_alt",
        "obj2": "dummy",
        "maxspawn": "300.0",
        "minspawn": "300.0",
        "spawndelay": "false",
        "ttl": "99999.0",
        "cpid": "1"
      }
    },
    {
      "type": "Feature",
      "geometry": {
        "type": "Point",
        "coordinates": [1468.675, -1971.46],
        "size": [16, 16]
      },
      "properties": {
        "iconurl": "icons/vehicles_map/mini_apc_light.png",
        "iconrotate": "0.0",
        "popupContent": "Amazing information about TPz Fuchs 1A8 will be found here!"
      },
      "bf2props": {
        "name": "cpname_dovre_winter_aas16_hv05_ger_apc",
        "class": "ObjectSpawner",
        "name_object": "TPz Fuchs 1A8",
        "team": "1",
        "obj1": "ger_apc_fuchs",
        "obj2": "dummy",
        "maxspawn": "300.0",
        "minspawn": "300.0",
        "spawndelay": "true",
        "ttl": "99999.0",
        "cpid": "1"
      }
    },
    {
      "type": "Feature",
      "geometry": {
        "type": "Point",
        "coordinates": [1517.388, -1971.471],
        "size": [16, 16]
      },
      "properties": {
        "iconurl": "icons/vehicles_map/mini_jep_support.png",
        "iconrotate": "-85.0",
        "popupContent": "Amazing information about Mercedes G-Wagen will be found here!"
      },
      "bf2props": {
        "name": "cpname_dovre_winter_aas16_hv05_ger_jeep2",
        "class": "ObjectSpawner",
        "name_object": "Mercedes G-Wagen",
        "team": "1",
        "obj1": "ger_jep_gwagon_support_alt",
        "obj2": "dummy",
        "maxspawn": "300.0",
        "minspawn": "300.0",
        "spawndelay": "false",
        "ttl": "99999.0",
        "cpid": "1"
      }
    },
    {
      "type": "Feature",
      "geometry": {
        "type": "Point",
        "coordinates": [1464.017, -1967.373],
        "size": [16, 16]
      },
      "properties": {
        "iconurl": "icons/vehicles_map/mini_trk_logistics.png",
        "iconrotate": "38.039",
        "popupContent": "Amazing information about MAN SV Logistics will be found here!"
      },
      "bf2props": {
        "name": "cpname_dovre_winter_aas16_hv05_ger_logistics",
        "class": "ObjectSpawner",
        "name_object": "MAN SV Logistics",
        "team": "1",
        "obj1": "ger_trk_logistics",
        "obj2": "dummy",
        "maxspawn": "300.0",
        "minspawn": "300.0",
        "spawndelay": "false",
        "ttl": "99999.0",
        "cpid": "1"
      }
    },
    {
      "type": "Feature",
      "geometry": {
        "type": "Point",
        "coordinates": [1422.135, -2002.165],
        "size": [16, 16]
      },
      "properties": {
        "iconurl": "icons/vehicles_map/mini_the_light.png",
        "iconrotate": "-19.079",
        "popupContent": "Amazing information about Bell UH-1D will be found here!"
      },
      "bf2props": {
        "name": "cpname_dovre_winter_aas16_hv05_ger_boat",
        "class": "ObjectSpawner",
        "name_object": "Bell UH-1D",
        "team": "1",
        "obj1": "ger_the_uh1d_mg3",
        "obj2": "dummy",
        "maxspawn": "600.0",
        "minspawn": "600.0",
        "spawndelay": "true",
        "ttl": "99999.0",
        "cpid": "1"
      }
    },
    {
      "type": "Feature",
      "geometry": {
        "type": "Point",
        "coordinates": [1445.419, -1995.334],
        "size": [16, 16]
      },
      "properties": {
        "iconurl": "icons/player_map/mini_squad.png",
        "iconrotate": "0",
        "popupContent": "Amazing information about Permanent spawnpoint will be found here!"
      },
      "bf2props": {
        "name": "cpname_dovre_winter_aas16_hv05_ger_rally",
        "class": "ObjectSpawner",
        "name_object": "Permanent spawnpoint",
        "team": "1",
        "obj1": "rallypoint_ger_placeable_noexpire",
        "obj2": "null",
        "maxspawn": "0.0",
        "minspawn": "0.0",
        "spawndelay": "false",
        "ttl": "0.0",
        "cpid": "1"
      }
    },
    {
      "type": "Feature",
      "geometry": {
        "type": "Point",
        "coordinates": [23.67102, -646.896],
        "size": [16, 16]
      },
      "properties": {
        "iconurl": "icons/vehicles_map/mini_trk_support.png",
        "iconrotate": "69.562",
        "popupContent": "Amazing information about null will be found here!"
      },
      "bf2props": {
        "name": "cpname_dovre_winter_aas16_rusmain_rus_truck",
        "class": "ObjectSpawner",
        "name_object": "Ural-4320",
        "team": "2",
        "obj1": "null",
        "obj2": "ru_trk_support",
        "maxspawn": "300.0",
        "minspawn": "300.0",
        "spawndelay": "false",
        "ttl": "99999.0",
        "cpid": "101"
      }
    },
    {
      "type": "Feature",
      "geometry": {
        "type": "Point",
        "coordinates": [31.85498, -639.206],
        "size": [16, 16]
      },
      "properties": {
        "iconurl": "icons/vehicles_map/mini_trk_logistics.png",
        "iconrotate": "70.809",
        "popupContent": "Amazing information about null will be found here!"
      },
      "bf2props": {
        "name": "cpname_dovre_winter_aas16_rusmain_rus_trucklogi",
        "class": "ObjectSpawner",
        "name_object": "Ural-4320 Logistics",
        "team": "2",
        "obj1": "null",
        "obj2": "ru_trk_logistics",
        "maxspawn": "300.0",
        "minspawn": "300.0",
        "spawndelay": "false",
        "ttl": "99999.0",
        "cpid": "101"
      }
    },
    {
      "type": "Feature",
      "geometry": {
        "type": "Point",
        "coordinates": [85.362976, -646.354],
        "size": [16, 16]
      },
      "properties": {
        "iconurl": "icons/mini_map/repairdepot.png",
        "iconrotate": "0",
        "popupContent": "Amazing information about null will be found here!"
      },
      "bf2props": {
        "name": "cpname_dovre_winter_aas16_rusmain_rus_rep",
        "class": "ObjectSpawner",
        "name_object": "Vehicle Depot",
        "team": "2",
        "obj1": "null",
        "obj2": "vehicle_depot_ru",
        "maxspawn": "0.0",
        "minspawn": "0.0",
        "spawndelay": "false",
        "ttl": "999999.0",
        "cpid": "101"
      }
    },
    {
      "type": "Feature",
      "geometry": {
        "type": "Point",
        "coordinates": [103.65399, -647.98],
        "size": [16, 16]
      },
      "properties": {
        "iconurl": "icons/mini_map/uavtrailer.png",
        "iconrotate": "0",
        "popupContent": "Amazing information about null will be found here!"
      },
      "bf2props": {
        "name": "cpname_dovre_winter_aas16_rusmain_rus_com",
        "class": "ObjectSpawner",
        "name_object": "UAV Terminal",
        "team": "2",
        "obj1": "null",
        "obj2": "ru_acv_btr60pu",
        "maxspawn": "0.0",
        "minspawn": "0.0",
        "spawndelay": "false",
        "ttl": "999999.0",
        "cpid": "101"
      }
    },
    {
      "type": "Feature",
      "geometry": {
        "type": "Point",
        "coordinates": [1456.0281, -1951.552],
        "size": [16, 16]
      },
      "properties": {
        "iconurl": "icons/mini_map/repairdepot.png",
        "iconrotate": "0",
        "popupContent": "Amazing information about Vehicle Depot will be found here!"
      },
      "bf2props": {
        "name": "cpname_dovre_winter_aas16_hv05_ger_rep",
        "class": "ObjectSpawner",
        "name_object": "Vehicle Depot",
        "team": "1",
        "obj1": "vehicle_depot_ger",
        "obj2": "null",
        "maxspawn": "0.0",
        "minspawn": "0.0",
        "spawndelay": "false",
        "ttl": "0.0",
        "cpid": "1"
      }
    },
    {
      "type": "Feature",
      "geometry": {
        "type": "Point",
        "coordinates": [1493.73, -1917.109],
        "size": [16, 16]
      },
      "properties": {
        "iconurl": "icons/mini_map/uavtrailer.png",
        "iconrotate": "0",
        "popupContent": "Amazing information about UAV Terminal will be found here!"
      },
      "bf2props": {
        "name": "cpname_dovre_winter_aas16_hv05_ger_com",
        "class": "ObjectSpawner",
        "name_object": "UAV Terminal",
        "team": "1",
        "obj1": "ger_acv_m557a2",
        "obj2": "null",
        "maxspawn": "0.0",
        "minspawn": "0.0",
        "spawndelay": "false",
        "ttl": "99999.0",
        "cpid": "1"
      }
    },
    {
      "type": "Feature",
      "geometry": {
        "type": "Point",
        "coordinates": [1436.315, -1992.959],
        "size": [16, 16]
      },
      "properties": {
        "iconurl": "icons/vehicles_map/mini_trk_support.png",
        "iconrotate": "-48.151",
        "popupContent": "Amazing information about MAN Support Vehicle will be found here!"
      },
      "bf2props": {
        "name": "cpname_dovre_winter_aas16_hv05_ger_apc2",
        "class": "ObjectSpawner",
        "name_object": "MAN Support Vehicle",
        "team": "1",
        "obj1": "ger_trk_support",
        "obj2": "null",
        "maxspawn": "300.0",
        "minspawn": "300.0",
        "spawndelay": "false",
        "ttl": "99999.0",
        "cpid": "1"
      }
    },
    {
      "type": "Feature",
      "geometry": {
        "type": "Point",
        "coordinates": [311.266, -1093.7109],
        "size": [16, 16]
      },
      "properties": {
        "iconurl": "icons/player_map/mini_squad.png",
        "iconrotate": "0",
        "popupContent": "Amazing information about null will be found here!"
      },
      "bf2props": {
        "name": "cpname_dovre_winter_aas16_rusmain_ru_paradrop",
        "class": "ObjectSpawner",
        "name_object": "Temporary paradrop spawn",
        "team": "2",
        "obj1": "null",
        "obj2": "paradrop",
        "maxspawn": "20.0",
        "minspawn": "20.0",
        "spawndelay": "false",
        "maxnr": "5",
        "ttl": "0.0",
        "cpid": "101"
      }
    },
    {
      "type": "Feature",
      "geometry": {
        "type": "Point",
        "coordinates": [1572.751, -1496.712],
        "size": [16, 16]
      },
      "properties": {
        "iconurl": "icons/player_map/mini_squad.png",
        "iconrotate": "0",
        "popupContent": "Amazing information about Temporary spawnpoint will be found here!"
      },
      "bf2props": {
        "name": "cpname_dovre_winter_aas16_hv05_ger_rally_exp",
        "class": "ObjectSpawner",
        "name_object": "Temporary spawnpoint",
        "team": "1",
        "obj1": "rallypoint_ger_placeable",
        "obj2": "null",
        "maxspawn": "9999.0",
        "minspawn": "9999.0",
        "spawndelay": "false",
        "ttl": "300.0",
        "cpid": "1"
      }
    },
    {
      "type": "Feature",
      "geometry": {
        "type": "Point",
        "coordinates": [23.825012, -641.799],
        "size": [16, 16]
      },
      "properties": {
        "iconurl": "icons/vehicles_map/mini_trk_logistics.png",
        "iconrotate": "69.604",
        "popupContent": "Amazing information about null will be found here!"
      },
      "bf2props": {
        "name": "cpname_dovre_winter_aas16_rusmain_ru_supply_truck",
        "class": "ObjectSpawner",
        "name_object": "Ural-4320 Logistics",
        "team": "2",
        "obj1": "null",
        "obj2": "ru_trk_logistics",
        "maxspawn": "300.0",
        "minspawn": "300.0",
        "spawndelay": "false",
        "ttl": "99999.0",
        "cpid": "101"
      }
    },
    {
      "type": "Feature",
      "geometry": {
        "type": "Point",
        "coordinates": [31.03003, -644.237],
        "size": [16, 16]
      },
      "properties": {
        "iconurl": "icons/vehicles_map/mini_trk_support.png",
        "iconrotate": "70.604",
        "popupContent": "Amazing information about null will be found here!"
      },
      "bf2props": {
        "name": "cpname_dovre_winter_aas16_rusmain_ru_trans_truck",
        "class": "ObjectSpawner",
        "name_object": "Ural-4320",
        "team": "2",
        "obj1": "null",
        "obj2": "ru_trk_support",
        "maxspawn": "300.0",
        "minspawn": "300.0",
        "spawndelay": "false",
        "ttl": "99999.0",
        "cpid": "101"
      }
    },
    {
      "type": "Feature",
      "geometry": {
        "type": "Point",
        "coordinates": [16.132996, -635.31104],
        "size": [16, 16]
      },
      "properties": {
        "iconurl": "icons/player_map/mini_squad.png",
        "iconrotate": "0",
        "popupContent": "Amazing information about null will be found here!"
      },
      "bf2props": {
        "name": "cpname_dovre_winter_aas16_rusmain_ru_rally",
        "class": "ObjectSpawner",
        "name_object": "Permanent spawnpoint",
        "team": "2",
        "obj1": "null",
        "obj2": "rallypoint_ru_placeable_noexpire",
        "maxspawn": "9999.0",
        "minspawn": "9999.0",
        "spawndelay": "false",
        "ttl": "99999.0",
        "cpid": "101"
      }
    },
    {
      "type": "Feature",
      "geometry": {
        "type": "Point",
        "coordinates": [-229.74097, -106.99298],
        "size": [16, 16]
      },
      "properties": {
        "iconurl": "icons/mini_map/airdef.png",
        "iconrotate": "0",
        "popupContent": "Amazing information about null will be found here!"
      },
      "bf2props": {
        "name": "cpname_dovre_winter_aas16_rusmain_art_1",
        "class": "ObjectSpawner",
        "name_object": "Artillery Barrage Call-In",
        "team": "2",
        "obj1": "null",
        "obj2": "artillery_team2",
        "maxspawn": "0.0",
        "minspawn": "1800.0",
        "spawndelay": "true",
        "ttl": "999999.0",
        "cpid": "101"
      }
    },
    {
      "type": "Feature",
      "geometry": {
        "type": "Point",
        "coordinates": [-223.12, -108.47101],
        "size": [16, 16]
      },
      "properties": {
        "iconurl": "icons/mini_map/airdef.png",
        "iconrotate": "0",
        "popupContent": "Amazing information about null will be found here!"
      },
      "bf2props": {
        "name": "cpname_dovre_winter_aas16_rusmain_art_2",
        "class": "ObjectSpawner",
        "name_object": "Artillery Barrage Call-In",
        "team": "2",
        "obj1": "null",
        "obj2": "artillery_team2",
        "maxspawn": "0.0",
        "minspawn": "1800.0",
        "spawndelay": "true",
        "ttl": "999999.0",
        "cpid": "101"
      }
    },
    {
      "type": "Feature",
      "geometry": {
        "type": "Point",
        "coordinates": [-213.95496, -110.12903],
        "size": [16, 16]
      },
      "properties": {
        "iconurl": "icons/mini_map/airdef.png",
        "iconrotate": "0",
        "popupContent": "Amazing information about null will be found here!"
      },
      "bf2props": {
        "name": "cpname_dovre_winter_aas16_rusmain_art_3",
        "class": "ObjectSpawner",
        "name_object": "Artillery Barrage Call-In",
        "team": "2",
        "obj1": "null",
        "obj2": "artillery_team2",
        "maxspawn": "0.0",
        "minspawn": "1800.0",
        "spawndelay": "true",
        "ttl": "99999.0",
        "cpid": "101"
      }
    },
    {
      "type": "Feature",
      "geometry": {
        "type": "Point",
        "coordinates": [-209.19495, -112.26001],
        "size": [16, 16]
      },
      "properties": {
        "iconurl": "icons/mini_map/airdef.png",
        "iconrotate": "0",
        "popupContent": "Amazing information about null will be found here!"
      },
      "bf2props": {
        "name": "cpname_dovre_winter_aas16_rusmain_art_4",
        "class": "ObjectSpawner",
        "name_object": "Artillery Barrage Call-In",
        "team": "2",
        "obj1": "null",
        "obj2": "artillery_team2",
        "maxspawn": "0.0",
        "minspawn": "1800.0",
        "spawndelay": "true",
        "ttl": "99999.0",
        "cpid": "101"
      }
    },
    {
      "type": "Feature",
      "geometry": {
        "type": "Point",
        "coordinates": [2073.229, -2312.282],
        "size": [16, 16]
      },
      "properties": {
        "iconurl": "icons/mini_map/airdef.png",
        "iconrotate": "0",
        "popupContent": "Amazing information about Artillery Barrage Call-In will be found here!"
      },
      "bf2props": {
        "name": "cpname_dovre_winter_aas16_hv05_art_1",
        "class": "ObjectSpawner",
        "name_object": "Artillery Barrage Call-In",
        "team": "1",
        "obj1": "artillery_team1",
        "obj2": "null",
        "maxspawn": "0.0",
        "minspawn": "1800.0",
        "spawndelay": "true",
        "ttl": "999999.0",
        "cpid": "1"
      }
    },
    {
      "type": "Feature",
      "geometry": {
        "type": "Point",
        "coordinates": [2080.447, -2312.933],
        "size": [16, 16]
      },
      "properties": {
        "iconurl": "icons/mini_map/airdef.png",
        "iconrotate": "0",
        "popupContent": "Amazing information about Artillery Barrage Call-In will be found here!"
      },
      "bf2props": {
        "name": "cpname_dovre_winter_aas16_hv05_art_2",
        "class": "ObjectSpawner",
        "name_object": "Artillery Barrage Call-In",
        "team": "1",
        "obj1": "artillery_team1",
        "obj2": "null",
        "maxspawn": "0.0",
        "minspawn": "1800.0",
        "spawndelay": "true",
        "ttl": "99999.0",
        "cpid": "1"
      }
    },
    {
      "type": "Feature",
      "geometry": {
        "type": "Point",
        "coordinates": [2088.9028, -2313.662],
        "size": [16, 16]
      },
      "properties": {
        "iconurl": "icons/mini_map/airdef.png",
        "iconrotate": "0",
        "popupContent": "Amazing information about Artillery Barrage Call-In will be found here!"
      },
      "bf2props": {
        "name": "cpname_dovre_winter_aas16_hv05_art_3",
        "class": "ObjectSpawner",
        "name_object": "Artillery Barrage Call-In",
        "team": "1",
        "obj1": "artillery_team1",
        "obj2": "null",
        "maxspawn": "0.0",
        "minspawn": "1800.0",
        "spawndelay": "true",
        "ttl": "99999.0",
        "cpid": "1"
      }
    },
    {
      "type": "Feature",
      "geometry": {
        "type": "Point",
        "coordinates": [2093.969, -2313.599],
        "size": [16, 16]
      },
      "properties": {
        "iconurl": "icons/mini_map/airdef.png",
        "iconrotate": "0",
        "popupContent": "Amazing information about Artillery Barrage Call-In will be found here!"
      },
      "bf2props": {
        "name": "cpname_dovre_winter_aas16_hv05_art_4",
        "class": "ObjectSpawner",
        "name_object": "Artillery Barrage Call-In",
        "team": "1",
        "obj1": "artillery_team1",
        "obj2": "null",
        "maxspawn": "0.0",
        "minspawn": "1800.0",
        "spawndelay": "true",
        "ttl": "99999.0",
        "cpid": "1"
      }
    },
    {
      "type": "Feature",
      "geometry": {
        "type": "Point",
        "coordinates": [376.813, -1348.465],
        "size": [16, 16]
      },
      "properties": {
        "iconurl": "icons/player_map/mini_squad.png",
        "iconrotate": "0",
        "popupContent": "Amazing information about null will be found here!"
      },
      "bf2props": {
        "name": "cpname_dovre_winter_aas16_rusmain_paradrop_2",
        "class": "ObjectSpawner",
        "name_object": "Temporary paradrop spawn",
        "team": "2",
        "obj1": "null",
        "obj2": "paradrop",
        "maxspawn": "20.0",
        "minspawn": "20.0",
        "spawndelay": "false",
        "maxnr": "5",
        "ttl": "0.0",
        "cpid": "101"
      }
    },
    {
      "type": "Feature",
      "geometry": {
        "type": "Point",
        "coordinates": [38.416992, -641.364],
        "size": [16, 16]
      },
      "properties": {
        "iconurl": "icons/vehicles_map/mini_trk_support.png",
        "iconrotate": "70.1",
        "popupContent": "Amazing information about null will be found here!"
      },
      "bf2props": {
        "name": "cpname_dovre_winter_aas16_rusmain_truck5",
        "class": "ObjectSpawner",
        "name_object": "Ural-4320",
        "team": "2",
        "obj1": "null",
        "obj2": "ru_trk_support",
        "maxspawn": "300.0",
        "minspawn": "300.0",
        "spawndelay": "false",
        "ttl": "99999.0",
        "cpid": "101"
      }
    },
    {
      "type": "Feature",
      "geometry": {
        "type": "Point",
        "coordinates": [1473.981, -1971.324],
        "size": [16, 16]
      },
      "properties": {
        "iconurl": "icons/vehicles_map/mini_trk_support.png",
        "iconrotate": "0.0",
        "popupContent": "Amazing information about MAN Support Vehicle will be found here!"
      },
      "bf2props": {
        "name": "cpname_dovre_winter_aas16_hv05_truck7",
        "class": "ObjectSpawner",
        "name_object": "MAN Support Vehicle",
        "team": "1",
        "obj1": "ger_trk_support",
        "obj2": "null",
        "maxspawn": "300.0",
        "minspawn": "300.0",
        "spawndelay": "false",
        "ttl": "99999.0",
        "cpid": "1"
      }
    },
    {
      "type": "Feature",
      "geometry": {
        "type": "Point",
        "coordinates": [1460.675, -1957.615],
        "size": [16, 16]
      },
      "properties": {
        "iconurl": "icons/vehicles_map/mini_trk_logistics.png",
        "iconrotate": "69.296",
        "popupContent": "Amazing information about MAN SV Logistics will be found here!"
      },
      "bf2props": {
        "name": "cpname_dovre_winter_aas16_hv05_logi3",
        "class": "ObjectSpawner",
        "name_object": "MAN SV Logistics",
        "team": "1",
        "obj1": "ger_trk_logistics",
        "obj2": "null",
        "maxspawn": "300.0",
        "minspawn": "300.0",
        "spawndelay": "false",
        "ttl": "99999.0",
        "cpid": "1"
      }
    },
    {
      "type": "Feature",
      "geometry": {
        "type": "Point",
        "coordinates": [36.041016, -709.17896],
        "size": [16, 16]
      },
      "properties": {
        "iconurl": "icons/vehicles_map/mini_the_medium.png",
        "iconrotate": "75.58",
        "popupContent": "Amazing information about null will be found here!"
      },
      "bf2props": {
        "name": "cpname_dovre_winter_aas16_rusmain_rib1",
        "class": "ObjectSpawner",
        "name_object": "Mi-8MT Hip-C",
        "team": "2",
        "obj1": "null",
        "obj2": "ru_the_mi8",
        "maxspawn": "600.0",
        "minspawn": "600.0",
        "spawndelay": "true",
        "ttl": "99999.0",
        "cpid": "101"
      }
    },
    {
      "type": "Feature",
      "geometry": {
        "type": "Point",
        "coordinates": [53.596985, -691.98],
        "size": [16, 16]
      },
      "properties": {
        "iconurl": "icons/vehicles_map/mini_jep_support.png",
        "iconrotate": "96.796",
        "popupContent": "Amazing information about null will be found here!"
      },
      "bf2props": {
        "name": "cpname_dovre_winter_aas16_rusmain_rib2",
        "class": "ObjectSpawner",
        "name_object": "BRDM-2 Support",
        "team": "2",
        "obj1": "null",
        "obj2": "ru_jep_brdm2_support",
        "maxspawn": "300.0",
        "minspawn": "300.0",
        "spawndelay": "true",
        "ttl": "99999.0",
        "cpid": "101"
      }
    },
    {
      "type": "Feature",
      "geometry": {
        "type": "Point",
        "coordinates": [1487.094, -1929.679],
        "size": [33, 33],
        "radius": "0.0"
      },
      "properties": {
        "iconurl": "icons/flags_map/ger/minimap_cpbase.png",
        "iconrotate": "0",
        "popupContent": "Amazing information about HV 05 will be found here!"
      },
      "bf2props": {
        "name": "cpname_dovre_winter_aas16_hv05",
        "class": "ControlPoint",
        "name_object": "HV 05",
        "team": "1",
        "areavalue1": "0.0",
        "areavalue2": "0.0",
        "cpid": "1",
        "sgid": "1",
        "uncap": "true",
        "ttgc": "0.0",
        "ttlc": "0.0"
      }
    },
    {
      "type": "Feature",
      "geometry": {
        "type": "Point",
        "coordinates": [88.788025, -620.301],
        "size": [33, 33],
        "radius": "0.0"
      },
      "properties": {
        "iconurl": "icons/flags_map/ru/minimap_cpbase.png",
        "iconrotate": "0",
        "popupContent": "Amazing information about Tunnel will be found here!"
      },
      "bf2props": {
        "name": "cpname_dovre_winter_aas16_rusmain",
        "class": "ControlPoint",
        "name_object": "Tunnel",
        "team": "2",
        "areavalue1": "0.0",
        "areavalue2": "0.0",
        "cpid": "101",
        "sgid": "7",
        "uncap": "true",
        "ttgc": "0.0",
        "ttlc": "0.0"
      }
    },
    {
      "type": "Feature",
      "geometry": {
        "type": "Point",
        "coordinates": [1641.685, -1494.9141],
        "size": [33, 33],
        "radius": "75.0"
      },
      "properties": {
        "iconurl": "icons/flags_map/neutral/minimap_cp.png",
        "iconrotate": "0",
        "popupContent": "Amazing information about Train Station 75m will be found here!"
      },
      "bf2props": {
        "name": "cpname_dovre_winter_aas16_station_1",
        "class": "ControlPoint",
        "name_object": "Train Station 75m",
        "team": "0",
        "areavalue1": "50.0",
        "areavalue2": "30.0",
        "cpid": "102",
        "sgid": "201",
        "uncap": "false",
        "ttgc": "120.0",
        "ttlc": "90.0"
      }
    },
    {
      "type": "Feature",
      "geometry": {
        "type": "Point",
        "coordinates": [1791.0171, -1063.888],
        "size": [33, 33],
        "radius": "100.0"
      },
      "properties": {
        "iconurl": "icons/flags_map/neutral/minimap_cp.png",
        "iconrotate": "0",
        "popupContent": "Amazing information about East City 100m will be found here!"
      },
      "bf2props": {
        "name": "cpname_dovre_winter_aas16_east_city_1",
        "class": "ControlPoint",
        "name_object": "East City 100m",
        "team": "0",
        "areavalue1": "15.0",
        "areavalue2": "15.0",
        "cpid": "103",
        "sgid": "301",
        "uncap": "false",
        "ttgc": "120.0",
        "ttlc": "120.0"
      }
    },
    {
      "type": "Feature",
      "geometry": {
        "type": "Point",
        "coordinates": [1502.8201, -734.307],
        "size": [33, 33],
        "radius": "90.0"
      },
      "properties": {
        "iconurl": "icons/flags_map/neutral/minimap_cp.png",
        "iconrotate": "0",
        "popupContent": "Amazing information about North Fields 90m will be found here!"
      },
      "bf2props": {
        "name": "cpname_dovre_winter_aas16_north_fields_1",
        "class": "ControlPoint",
        "name_object": "North Fields 90m",
        "team": "0",
        "areavalue1": "15.0",
        "areavalue2": "15.0",
        "cpid": "104",
        "sgid": "401",
        "uncap": "false",
        "ttgc": "120.0",
        "ttlc": "120.0"
      }
    },
    {
      "type": "Feature",
      "geometry": {
        "type": "Point",
        "coordinates": [786.933, -483.03302],
        "size": [33, 33],
        "radius": "90.0"
      },
      "properties": {
        "iconurl": "icons/flags_map/neutral/minimap_cp.png",
        "iconrotate": "0",
        "popupContent": "Amazing information about Radar Station 90m will be found here!"
      },
      "bf2props": {
        "name": "cpname_dovre_winter_aas16_radar_station_1",
        "class": "ControlPoint",
        "name_object": "Radar Station 90m",
        "team": "0",
        "areavalue1": "15.0",
        "areavalue2": "15.0",
        "cpid": "105",
        "sgid": "501",
        "uncap": "false",
        "ttgc": "120.0",
        "ttlc": "120.0"
      }
    },
    {
      "type": "Feature",
      "geometry": {
        "type": "Point",
        "coordinates": [774.718, -884.801],
        "size": [33, 33],
        "radius": "90.0"
      },
      "properties": {
        "iconurl": "icons/flags_map/neutral/minimap_cp.png",
        "iconrotate": "0",
        "popupContent": "Amazing information about West Fields 90m will be found here!"
      },
      "bf2props": {
        "name": "cpname_dovre_winter_aas16_west_fields_1",
        "class": "ControlPoint",
        "name_object": "West Fields 90m",
        "team": "0",
        "areavalue1": "30.0",
        "areavalue2": "50.0",
        "cpid": "106",
        "sgid": "601",
        "uncap": "false",
        "ttgc": "120.0",
        "ttlc": "90.0"
      }
    },
    {
      "type": "Feature",
      "geometry": {
        "type": "Point",
        "coordinates": [1641.47, -1497.5181],
        "size": [33, 33],
        "radius": "75.0"
      },
      "properties": {
        "iconurl": "icons/flags_map/neutral/minimap_cp.png",
        "iconrotate": "0",
        "popupContent": "Amazing information about Train Station 75m will be found here!"
      },
      "bf2props": {
        "name": "cpname_dovre_winter_aas16_station_2",
        "class": "ControlPoint",
        "name_object": "Train Station 75m",
        "team": "0",
        "areavalue1": "50.0",
        "areavalue2": "30.0",
        "cpid": "107",
        "sgid": "202",
        "uncap": "false",
        "ttgc": "120.0",
        "ttlc": "90.0"
      }
    },
    {
      "type": "Feature",
      "geometry": {
        "type": "Point",
        "coordinates": [1629.092, -1138.9141],
        "size": [33, 33],
        "radius": "75.0"
      },
      "properties": {
        "iconurl": "icons/flags_map/neutral/minimap_cp.png",
        "iconrotate": "0",
        "popupContent": "Amazing information about City Center 75m will be found here!"
      },
      "bf2props": {
        "name": "cpname_dovre_winter_aas16_city_center_2",
        "class": "ControlPoint",
        "name_object": "City Center 75m",
        "team": "0",
        "areavalue1": "15.0",
        "areavalue2": "15.0",
        "cpid": "108",
        "sgid": "302",
        "uncap": "false",
        "ttgc": "120.0",
        "ttlc": "120.0"
      }
    },
    {
      "type": "Feature",
      "geometry": {
        "type": "Point",
        "coordinates": [1313.737, -986.869],
        "size": [33, 33],
        "radius": "90.0"
      },
      "properties": {
        "iconurl": "icons/flags_map/neutral/minimap_cp.png",
        "iconrotate": "0",
        "popupContent": "Amazing information about Bridges 90m will be found here!"
      },
      "bf2props": {
        "name": "cpname_dovre_winter_aas16_bridges_2",
        "class": "ControlPoint",
        "name_object": "Bridges 90m",
        "team": "0",
        "areavalue1": "15.0",
        "areavalue2": "15.0",
        "cpid": "109",
        "sgid": "402",
        "uncap": "false",
        "ttgc": "120.0",
        "ttlc": "120.0"
      }
    },
    {
      "type": "Feature",
      "geometry": {
        "type": "Point",
        "coordinates": [1171.247, -624.104],
        "size": [33, 33],
        "radius": "90.0"
      },
      "properties": {
        "iconurl": "icons/flags_map/neutral/minimap_cp.png",
        "iconrotate": "0",
        "popupContent": "Amazing information about NW Fields 90m will be found here!"
      },
      "bf2props": {
        "name": "cpname_dovre_winter_aas16_north_west_fields_2",
        "class": "ControlPoint",
        "name_object": "NW Fields 90m",
        "team": "0",
        "areavalue1": "15.0",
        "areavalue2": "15.0",
        "cpid": "110",
        "sgid": "502",
        "uncap": "false",
        "ttgc": "120.0",
        "ttlc": "120.0"
      }
    },
    {
      "type": "Feature",
      "geometry": {
        "type": "Point",
        "coordinates": [788.031, -486.13202],
        "size": [33, 33],
        "radius": "90.0"
      },
      "properties": {
        "iconurl": "icons/flags_map/neutral/minimap_cp.png",
        "iconrotate": "0",
        "popupContent": "Amazing information about Radar Station 90m will be found here!"
      },
      "bf2props": {
        "name": "cpname_dovre_winter_aas16_radar_station_2",
        "class": "ControlPoint",
        "name_object": "Radar Station 90m",
        "team": "0",
        "areavalue1": "30.0",
        "areavalue2": "50.0",
        "cpid": "111",
        "sgid": "602",
        "uncap": "false",
        "ttgc": "120.0",
        "ttlc": "90.0"
      }
    },
    {
      "type": "Feature",
      "geometry": {
        "type": "Point",
        "coordinates": [1493.629, -1428.602],
        "size": [33, 33],
        "radius": "75.0"
      },
      "properties": {
        "iconurl": "icons/flags_map/neutral/minimap_cp.png",
        "iconrotate": "0",
        "popupContent": "Amazing information about South City 75m will be found here!"
      },
      "bf2props": {
        "name": "cpname_dovre_winter_aas16_south_city_3",
        "class": "ControlPoint",
        "name_object": "South City 75m",
        "team": "0",
        "areavalue1": "50.0",
        "areavalue2": "30.0",
        "cpid": "112",
        "sgid": "203",
        "uncap": "false",
        "ttgc": "120.0",
        "ttlc": "90.0"
      }
    },
    {
      "type": "Feature",
      "geometry": {
        "type": "Point",
        "coordinates": [1411.714, -1172.156],
        "size": [33, 33],
        "radius": "75.0"
      },
      "properties": {
        "iconurl": "icons/flags_map/neutral/minimap_cp.png",
        "iconrotate": "0",
        "popupContent": "Amazing information about Hotel 75m will be found here!"
      },
      "bf2props": {
        "name": "cpname_dovre_winter_aas16_hotel_3",
        "class": "ControlPoint",
        "name_object": "Hotel 75m",
        "team": "0",
        "areavalue1": "15.0",
        "areavalue2": "15.0",
        "cpid": "113",
        "sgid": "303",
        "uncap": "false",
        "ttgc": "120.0",
        "ttlc": "120.0"
      }
    },
    {
      "type": "Feature",
      "geometry": {
        "type": "Point",
        "coordinates": [1024.467, -1042.669],
        "size": [33, 33],
        "radius": "75.0"
      },
      "properties": {
        "iconurl": "icons/flags_map/neutral/minimap_cp.png",
        "iconrotate": "0",
        "popupContent": "Amazing information about Truck Stop 75m will be found here!"
      },
      "bf2props": {
        "name": "cpname_dovre_winter_aas16_truck_stop_3",
        "class": "ControlPoint",
        "name_object": "Truck Stop 75m",
        "team": "0",
        "areavalue1": "15.0",
        "areavalue2": "15.0",
        "cpid": "114",
        "sgid": "403",
        "uncap": "false",
        "ttgc": "120.0",
        "ttlc": "120.0"
      }
    },
    {
      "type": "Feature",
      "geometry": {
        "type": "Point",
        "coordinates": [711.521, -786.347],
        "size": [33, 33],
        "radius": "90.0"
      },
      "properties": {
        "iconurl": "icons/flags_map/neutral/minimap_cp.png",
        "iconrotate": "0",
        "popupContent": "Amazing information about Freight Train 90m will be found here!"
      },
      "bf2props": {
        "name": "cpname_dovre_winter_aas16_freight_train_3",
        "class": "ControlPoint",
        "name_object": "Freight Train 90m",
        "team": "0",
        "areavalue1": "15.0",
        "areavalue2": "15.0",
        "cpid": "115",
        "sgid": "503",
        "uncap": "false",
        "ttgc": "120.0",
        "ttlc": "120.0"
      }
    },
    {
      "type": "Feature",
      "geometry": {
        "type": "Point",
        "coordinates": [557.824, -1077.268],
        "size": [33, 33],
        "radius": "75.0"
      },
      "properties": {
        "iconurl": "icons/flags_map/neutral/minimap_cp.png",
        "iconrotate": "0",
        "popupContent": "Amazing information about Fruit Farm 75m will be found here!"
      },
      "bf2props": {
        "name": "cpname_dovre_winter_aas16_fruit_farm_3",
        "class": "ControlPoint",
        "name_object": "Fruit Farm 75m",
        "team": "0",
        "areavalue1": "30.0",
        "areavalue2": "50.0",
        "cpid": "116",
        "sgid": "603",
        "uncap": "false",
        "ttgc": "120.0",
        "ttlc": "90.0"
      }
    },
    {
      "type": "Feature",
      "geometry": {
        "type": "Point",
        "coordinates": [1296.816, -1454.898],
        "size": [33, 33],
        "radius": "75.0"
      },
      "properties": {
        "iconurl": "icons/flags_map/neutral/minimap_cp.png",
        "iconrotate": "0",
        "popupContent": "Amazing information about Apartments 75m will be found here!"
      },
      "bf2props": {
        "name": "cpname_dovre_winter_aas16_aparments_4",
        "class": "ControlPoint",
        "name_object": "Apartments 75m",
        "team": "0",
        "areavalue1": "50.0",
        "areavalue2": "30.0",
        "cpid": "117",
        "sgid": "204",
        "uncap": "false",
        "ttgc": "120.0",
        "ttlc": "90.0"
      }
    },
    {
      "type": "Feature",
      "geometry": {
        "type": "Point",
        "coordinates": [1541.012, -1167.23],
        "size": [33, 33],
        "radius": "75.0"
      },
      "properties": {
        "iconurl": "icons/flags_map/neutral/minimap_cp.png",
        "iconrotate": "0",
        "popupContent": "Amazing information about City Center 75m will be found here!"
      },
      "bf2props": {
        "name": "cpname_dovre_winter_aas16_city_center_4",
        "class": "ControlPoint",
        "name_object": "City Center 75m",
        "team": "0",
        "areavalue1": "15.0",
        "areavalue2": "15.0",
        "cpid": "118",
        "sgid": "304",
        "uncap": "false",
        "ttgc": "120.0",
        "ttlc": "120.0"
      }
    },
    {
      "type": "Feature",
      "geometry": {
        "type": "Point",
        "coordinates": [1526.9719, -874.199],
        "size": [33, 33],
        "radius": "75.0"
      },
      "properties": {
        "iconurl": "icons/flags_map/neutral/minimap_cp.png",
        "iconrotate": "0",
        "popupContent": "Amazing information about Factory 75m will be found here!"
      },
      "bf2props": {
        "name": "cpname_dovre_winter_aas16_factory_4",
        "class": "ControlPoint",
        "name_object": "Factory 75m",
        "team": "0",
        "areavalue1": "15.0",
        "areavalue2": "15.0",
        "cpid": "119",
        "sgid": "404",
        "uncap": "false",
        "ttgc": "120.0",
        "ttlc": "120.0"
      }
    },
    {
      "type": "Feature",
      "geometry": {
        "type": "Point",
        "coordinates": [1001.817, -793.43],
        "size": [33, 33],
        "radius": "75.0"
      },
      "properties": {
        "iconurl": "icons/flags_map/neutral/minimap_cp.png",
        "iconrotate": "0",
        "popupContent": "Amazing information about Little Valley 75m will be found here!"
      },
      "bf2props": {
        "name": "cpname_dovre_winter_aas16_little_valley_4",
        "class": "ControlPoint",
        "name_object": "Little Valley 75m",
        "team": "0",
        "areavalue1": "15.0",
        "areavalue2": "15.0",
        "cpid": "120",
        "sgid": "504",
        "uncap": "false",
        "ttgc": "120.0",
        "ttlc": "120.0"
      }
    },
    {
      "type": "Feature",
      "geometry": {
        "type": "Point",
        "coordinates": [568.833, -1040.117],
        "size": [33, 33],
        "radius": "75.0"
      },
      "properties": {
        "iconurl": "icons/flags_map/neutral/minimap_cp.png",
        "iconrotate": "0",
        "popupContent": "Amazing information about Fruit Farm 75m will be found here!"
      },
      "bf2props": {
        "name": "cpname_dovre_winter_aas16_fruit_farm_4",
        "class": "ControlPoint",
        "name_object": "Fruit Farm 75m",
        "team": "0",
        "areavalue1": "30.0",
        "areavalue2": "50.0",
        "cpid": "121",
        "sgid": "604",
        "uncap": "false",
        "ttgc": "120.0",
        "ttlc": "90.0"
      }
    },
    {
      "type": "Feature",
      "geometry": {
        "type": "Point",
        "coordinates": [1644.78, -1500.868],
        "size": [33, 33],
        "radius": "75.0"
      },
      "properties": {
        "iconurl": "icons/flags_map/neutral/minimap_cp.png",
        "iconrotate": "0",
        "popupContent": "Amazing information about Train Station 75m will be found here!"
      },
      "bf2props": {
        "name": "cpname_dovre_winter_aas16_station_5",
        "class": "ControlPoint",
        "name_object": "Train Station 75m",
        "team": "0",
        "areavalue1": "30.0",
        "areavalue2": "50.0",
        "cpid": "122",
        "sgid": "205",
        "uncap": "false",
        "ttgc": "120.0",
        "ttlc": "90.0"
      }
    },
    {
      "type": "Feature",
      "geometry": {
        "type": "Point",
        "coordinates": [1299.193, -1456.898],
        "size": [33, 33],
        "radius": "75.0"
      },
      "properties": {
        "iconurl": "icons/flags_map/neutral/minimap_cp.png",
        "iconrotate": "0",
        "popupContent": "Amazing information about Apartments 75m will be found here!"
      },
      "bf2props": {
        "name": "cpname_dovre_winter_aas16_apartments_5",
        "class": "ControlPoint",
        "name_object": "Apartments 75m",
        "team": "0",
        "areavalue1": "15.0",
        "areavalue2": "15.0",
        "cpid": "123",
        "sgid": "305",
        "uncap": "false",
        "ttgc": "120.0",
        "ttlc": "120.0"
      }
    },
    {
      "type": "Feature",
      "geometry": {
        "type": "Point",
        "coordinates": [896.246, -1690.703],
        "size": [33, 33],
        "radius": "75.0"
      },
      "properties": {
        "iconurl": "icons/flags_map/neutral/minimap_cp.png",
        "iconrotate": "0",
        "popupContent": "Amazing information about Cabins 75m will be found here!"
      },
      "bf2props": {
        "name": "cpname_dovre_winter_aas16_cabins_5",
        "class": "ControlPoint",
        "name_object": "Cabins 75m",
        "team": "0",
        "areavalue1": "15.0",
        "areavalue2": "15.0",
        "cpid": "124",
        "sgid": "415",
        "uncap": "false",
        "ttgc": "120.0",
        "ttlc": "120.0"
      }
    },
    {
      "type": "Feature",
      "geometry": {
        "type": "Point",
        "coordinates": [570.786, -1336.7781],
        "size": [33, 33],
        "radius": "90.0"
      },
      "properties": {
        "iconurl": "icons/flags_map/neutral/minimap_cp.png",
        "iconrotate": "0",
        "popupContent": "Amazing information about South Farm 90m will be found here!"
      },
      "bf2props": {
        "name": "cpname_dovre_winter_aas16_south_farm_5",
        "class": "ControlPoint",
        "name_object": "South Farm 90m",
        "team": "0",
        "areavalue1": "15.0",
        "areavalue2": "15.0",
        "cpid": "125",
        "sgid": "505",
        "uncap": "false",
        "ttgc": "120.0",
        "ttlc": "120.0"
      }
    },
    {
      "type": "Feature",
      "geometry": {
        "type": "Point",
        "coordinates": [523.326, -955.958],
        "size": [33, 33],
        "radius": "75.0"
      },
      "properties": {
        "iconurl": "icons/flags_map/neutral/minimap_cp.png",
        "iconrotate": "0",
        "popupContent": "Amazing information about European Route 6 75m will be found here!"
      },
      "bf2props": {
        "name": "cpname_dovre_winter_aas16_european_road_6_5",
        "class": "ControlPoint",
        "name_object": "European Route 6 75m",
        "team": "0",
        "areavalue1": "30.0",
        "areavalue2": "50.0",
        "cpid": "126",
        "sgid": "605",
        "uncap": "false",
        "ttgc": "120.0",
        "ttlc": "90.0"
      }
    },
    {
      "type": "Feature",
      "geometry": {
        "type": "Point",
        "coordinates": [966.684, -1294.464],
        "size": [33, 33],
        "radius": "90.0"
      },
      "properties": {
        "iconurl": "icons/flags_map/neutral/minimap_cp.png",
        "iconrotate": "0",
        "popupContent": "Amazing information about River Delta 90m will be found here!"
      },
      "bf2props": {
        "name": "cpname_dovre_winter_aas16_delta_5",
        "class": "ControlPoint",
        "name_object": "River Delta 90m",
        "team": "0",
        "areavalue1": "15.0",
        "areavalue2": "15.0",
        "cpid": "127",
        "sgid": "415",
        "uncap": "false",
        "ttgc": "120.0",
        "ttlc": "120.0"
      }
    },
    {
      "type": "Feature",
      "geometry": {
        "type": "Polygon",
        "coordinates": [
          [
            [0,0],
            [0,-2048],
            [2048,-2048],
            [2048,0]
          ],[
            [1655.4333, -2039.781],
            [1795.1547, -2042.475],
            [1911.3497, -2040.729],
            [1961.4115, -2033.9736],
            [2048.0, -2048.0],
            [1961.4115, -2033.9736],
            [1989.9088, -2021.9302],
            [2008.5026, -1993.7374],
            [2004.2434, -1945.8215],
            [2006.0273, -1870.3376],
            [1991.453, -1834.9115],
            [1998.8987, -1800.188],
            [2006.9163, -1703.8318],
            [2015.7734, -1662.8204],
            [2014.2179, -1623.0552],
            [2016.6621, -1527.1963],
            [2014.7133, -1478.9326],
            [2002.9725, -1440.811],
            [1996.7015, -1387.3945],
            [1995.7749, -1358.0728],
            [2003.9601, -1307.4407],
            [2014.1877, -1275.2026],
            [2019.989, -1217.4625],
            [2017.346, -1167.7407],
            [2018.4796, -1071.8853],
            [2014.6466, -1009.6106],
            [2023.0067, -966.6703],
            [2031.7522, -944.37537],
            [2027.5438, -881.8292],
            [2022.4684, -819.10876],
            [2027.2023, -761.048],
            [2027.599, -678.5614],
            [2024.0189, -596.22156],
            [2027.9204, -476.58374],
            [2016.6095, -400.31104],
            [2012.7537, -354.19885],
            [1998.8184, -289.5735],
            [1992.8767, -144.16882],
            [1974.1437, -93.28552],
            [1897.1765, -35.458984],
            [1792.2711, -21.167358],
            [1654.0448, -18.509888],
            [1487.7855, -15.346802],
            [1359.4271, -15.271973],
            [1218.3975, -13.001709],
            [1138.1091, -10.37439],
            [1003.9698, -18.062378],
            [913.04724, -17.18518],
            [796.8212, -23.672852],
            [709.05206, -26.306519],
            [519.032, -27.75879],
            [382.03955, -27.725098],
            [245.24219, -15.758789],
            [91.00531, -16.970215],
            [35.40619, -21.892822],
            [0.0, 0.0],
            [35.40619, -21.892822],
            [30.417358, -113.29077],
            [24.029785, -293.36194],
            [28.73883, -386.61157],
            [27.852478, -502.08875],
            [29.1344, -563.6008],
            [7.159546, -565.739],
            [5.699585, -677.0957],
            [9.612122, -752.3496],
            [19.551575, -799.2825],
            [11.7387085, -859.23706],
            [11.904541, -892.59607],
            [9.859924, -1054.7217],
            [13.426025, -1146.0042],
            [8.938904, -1266.0822],
            [11.511719, -1394.3538],
            [12.05249, -1518.6738],
            [10.391846, -1613.246],
            [23.310913, -1667.1416],
            [28.01648, -1703.9949],
            [9.775085, -1732.7827],
            [11.912415, -1803.6998],
            [12.018982, -1896.9895],
            [15.021423, -1979.6284],
            [17.638306, -2018.0828],
            [22.281555, -2034.6013],
            [136.80847, -2037.851],
            [184.0733, -2032.8885],
            [237.7987, -2033.5793],
            [295.24518, -2034.3909],
            [416.14612, -2034.5715],
            [502.96844, -2033.3783],
            [576.9903, -2034.8455],
            [638.5602, -2034.2451],
            [672.6375, -2036.9427],
            [704.823, -2037.3284],
            [770.68933, -2038.9517],
            [829.54987, -2036.1074],
            [941.3401, -2033.8568],
            [1047.0427, -2032.792],
            [1126.097, -2036.1912],
            [1225.8506, -2034.1238],
            [1295.8765, -2035.2551],
            [1367.8884, -2038.0118],
            [1437.4559, -2038.0554],
            [1536.5165, -2041.2173]
          ]
        ]
      },
      "bf2props": {
        "code": "combatarea_0_conquest_16",
        "class": "CombatArea",
        "team": "0",
        "vehicles": "4",
        "layer": "2",
        "inverted": "false",
        "max": [0.0, 0.0],
        "min": [0.0, 0.0]
      }
    },
    {
      "type": "Feature",
      "geometry": {
        "type": "Polygon",
        "coordinates": [
          [
            [18.949707, -935.76514],
            [185.60938, -942.2623],
            [319.6527, -821.6045],
            [392.96826, -682.42725],
            [391.47723, -512.9606],
            [294.5791, -409.26904],
            [5.7877197, -421.01013],
            [6.3723755, -936.6647]
          ]
        ]
      },
      "bf2props": {
        "code": "combatarea_98_conquest_16",
        "class": "CombatArea",
        "team": "1",
        "vehicles": "4",
        "layer": "2",
        "inverted": "true",
        "max": [10.0, 10.0],
        "min": [10.0, 10.0]
      }
    },
    {
      "type": "Feature",
      "geometry": {
        "type": "Polygon",
        "coordinates": [
          [
            [1226.0427, -2038.4395],
            [1248.6912, -1924.4368],
            [1525.5151, -1764.2067],
            [1621.1837, -1733.8983],
            [1725.1282, -1685.1047],
            [2035.6162, -1688.6498],
            [2037.4205, -2017.1304]
          ]
        ]
      },
      "bf2props": {
        "code": "combatarea_106_conquest_16",
        "class": "CombatArea",
        "team": "2",
        "vehicles": "4",
        "layer": "2",
        "inverted": "true",
        "max": [10.0, 10.0],
        "min": [10.0, 10.0]
      }
    },
    {
      "type": "Feature",
      "geometry": {
        "type": "Polygon",
        "coordinates": [
          [
            [1708.1389, -2019.456],
            [1659.9442, -1835.5233],
            [1730.1937, -1722.6761],
            [1944.5024, -1666.2448],
            [2042.9851, -1594.0237],
            [2040.6907, -2041.552],
            [1715.0297, -2042.9989]
          ]
        ]
      },
      "bf2props": {
        "code": "combatarea_113_conquest_16",
        "class": "CombatArea",
        "team": "0",
        "vehicles": "4",
        "layer": "2",
        "inverted": "true",
        "max": [10.0, 10.0],
        "min": [10.0, 10.0]
      }
    }
  ]
}