{
  "team1":"chinsurgent",
  "team2":"gb",
  "team1tickets":"1000",
  "team2tickets":"950",
  "mapsize":"2048",
  "viewdistance":"650",
  "combatareause":"true",
  "combatareadamage":"20.0",
  "combatareaallowoutside":"10.0",
  "routes": [
    [
      [
        "cpname_fools_road_aas128_militiamain"
      ],
      [
        "cpname_fools_road_aas128_bunker"
      ],
      [
        "cpname_fools_road_aas128_2estate"
      ],
      [
        "cpname_fools_road_aas128_1helibase"
      ],
      [
        "cpname_fools_road_aas128_village"
      ],
      [
        "cpname_fools_road_aas128_gbmain"
      ]
    ],
    [
      [
        "cpname_fools_road_aas128_militiamain"
      ],
      [
        "cpname_fools_road_aas128_bunker"
      ],
      [
        "cpname_fools_road_aas128_2obj3",
        "cpname_fools_road_aas128_3obj2"
      ],
      [
        "cpname_fools_road_aas128_3obj1"
      ],
      [
        "cpname_fools_road_aas128_village"
      ],
      [
        "cpname_fools_road_aas128_gbmain"
      ]
    ],
    [
      [
        "cpname_fools_road_aas128_militiamain"
      ],
      [
        "cpname_fools_road_aas128_bunker"
      ],
      [
        "cpname_fools_road_aas128_4obj3"
      ],
      [
        "cpname_fools_road_aas128_4obj1",
        "cpname_fools_road_aas128_4train"
      ],
      [
        "cpname_fools_road_aas128_village"
      ],
      [
        "cpname_fools_road_aas128_gbmain"
      ]
    ]
  ],
  "type": "FeatureCollection",
  "features": [
    {
      "type": "Feature",
      "geometry": {
        "type": "Point",
        "coordinates": [1905.629, -1943.1069],
        "size": [16, 16]
      },
      "properties": {
        "iconurl": "icons/vehicles_map/mini_apc_medium.png",
        "iconrotate": "30.571",
        "popupContent": "Amazing information about null will be found here!"
      },
      "bf2props": {
        "name": "cpname_fools_road_aas128_britstart_gb_ch_scouttank_0",
        "class": "ObjectSpawner",
        "name_object": "FV 510 Warrior",
        "team": "2",
        "obj1": "null",
        "obj2": "gb_apc_warrior",
        "maxspawn": "900.0",
        "minspawn": "900.0",
        "spawndelay": "false",
        "ttl": "99999.0",
        "cpid": "202"
      }
    },
    {
      "type": "Feature",
      "geometry": {
        "type": "Point",
        "coordinates": [1884.374, -1964.9661],
        "size": [16, 16]
      },
      "properties": {
        "iconurl": "icons/vehicles_map/mini_jep_support.png",
        "iconrotate": "54.238",
        "popupContent": "Amazing information about null will be found here!"
      },
      "bf2props": {
        "name": "cpname_fools_road_aas128_britstart_gb_ch_apc",
        "class": "ObjectSpawner",
        "name_object": "Land Rover Support",
        "team": "2",
        "obj1": "null",
        "obj2": "gb_jep_landrover_support",
        "maxspawn": "300.0",
        "minspawn": "300.0",
        "spawndelay": "false",
        "ttl": "99999.0",
        "cpid": "202"
      }
    },
    {
      "type": "Feature",
      "geometry": {
        "type": "Point",
        "coordinates": [196.27502, -273.049],
        "size": [16, 16]
      },
      "properties": {
        "iconurl": "icons/vehicles_map/mini_jep_light.png",
        "iconrotate": "-41.803",
        "popupContent": "Amazing information about DShKM Technical will be found here!"
      },
      "bf2props": {
        "name": "cpname_fools_road_aas128_armoury_gb_ch_apc",
        "class": "ObjectSpawner",
        "name_object": "DShKM Technical",
        "team": "1",
        "obj1": "civ_jep_technical_militia",
        "obj2": "null",
        "maxspawn": "600.0",
        "minspawn": "600.0",
        "spawndelay": "false",
        "ttl": "99999.0",
        "cpid": "203"
      }
    },
    {
      "type": "Feature",
      "geometry": {
        "type": "Point",
        "coordinates": [1858.5181, -1983.419],
        "size": [16, 16]
      },
      "properties": {
        "iconurl": "icons/vehicles_map/mini_jep_support.png",
        "iconrotate": "46.862",
        "popupContent": "Amazing information about null will be found here!"
      },
      "bf2props": {
        "name": "cpname_fools_road_aas128_britstart_gb_ch_apc_0",
        "class": "ObjectSpawner",
        "name_object": "Land Rover Support",
        "team": "2",
        "obj1": "null",
        "obj2": "gb_jep_landrover_support",
        "maxspawn": "300.0",
        "minspawn": "300.0",
        "spawndelay": "false",
        "ttl": "99999.0",
        "cpid": "202"
      }
    },
    {
      "type": "Feature",
      "geometry": {
        "type": "Point",
        "coordinates": [1911.185, -1928.4409],
        "size": [16, 16]
      },
      "properties": {
        "iconurl": "icons/vehicles_map/mini_rec_medium.png",
        "iconrotate": "8.749",
        "popupContent": "Amazing information about null will be found here!"
      },
      "bf2props": {
        "name": "cpname_fools_road_aas128_britstart_gb_ch_apc_1",
        "class": "ObjectSpawner",
        "name_object": "FV 107 Scimitar",
        "team": "2",
        "obj1": "null",
        "obj2": "gb_ifv_scimitar",
        "maxspawn": "900.0",
        "minspawn": "900.0",
        "spawndelay": "true",
        "ttl": "99999.0",
        "cpid": "202"
      }
    },
    {
      "type": "Feature",
      "geometry": {
        "type": "Point",
        "coordinates": [171.12097, -290.867],
        "size": [16, 16]
      },
      "properties": {
        "iconurl": "icons/vehicles_map/mini_rec_atgm.png",
        "iconrotate": "-44.75",
        "popupContent": "Amazing information about 9P148 Spandrel will be found here!"
      },
      "bf2props": {
        "name": "cpname_fools_road_aas128_armoury_gb_ch_apc_2",
        "class": "ObjectSpawner",
        "name_object": "9P148 Spandrel",
        "team": "1",
        "obj1": "mec_atm_spandrel",
        "obj2": "null",
        "maxspawn": "900.0",
        "minspawn": "900.0",
        "spawndelay": "true",
        "ttl": "99999.0",
        "cpid": "203"
      }
    },
    {
      "type": "Feature",
      "geometry": {
        "type": "Point",
        "coordinates": [174.38599, -276.167],
        "size": [16, 16]
      },
      "properties": {
        "iconurl": "icons/vehicles_map/mini_jep_light.png",
        "iconrotate": "-42.096",
        "popupContent": "Amazing information about DShKM Technical will be found here!"
      },
      "bf2props": {
        "name": "cpname_fools_road_aas128_armoury_millita_technical_0",
        "class": "ObjectSpawner",
        "name_object": "DShKM Technical",
        "team": "1",
        "obj1": "civ_jep_technical_militia",
        "obj2": "null",
        "maxspawn": "600.0",
        "minspawn": "600.0",
        "spawndelay": "false",
        "ttl": "99999.0",
        "cpid": "203"
      }
    },
    {
      "type": "Feature",
      "geometry": {
        "type": "Point",
        "coordinates": [177.09497, -273.63702],
        "size": [16, 16]
      },
      "properties": {
        "iconurl": "icons/vehicles_map/mini_jep_light.png",
        "iconrotate": "-44.57",
        "popupContent": "Amazing information about DShKM Technical will be found here!"
      },
      "bf2props": {
        "name": "cpname_fools_road_aas128_armoury_millita_technical_1",
        "class": "ObjectSpawner",
        "name_object": "DShKM Technical",
        "team": "1",
        "obj1": "civ_jep_technical_militia",
        "obj2": "null",
        "maxspawn": "600.0",
        "minspawn": "600.0",
        "spawndelay": "false",
        "ttl": "99999.0",
        "cpid": "203"
      }
    },
    {
      "type": "Feature",
      "geometry": {
        "type": "Point",
        "coordinates": [162.943, -223.23798],
        "size": [16, 16]
      },
      "properties": {
        "iconurl": "icons/vehicles_map/mini_trk_support.png",
        "iconrotate": "-132.957",
        "popupContent": "Amazing information about Ural-4320 will be found here!"
      },
      "bf2props": {
        "name": "cpname_fools_road_aas128_armoury_millita_supportjeep",
        "class": "ObjectSpawner",
        "name_object": "Ural-4320",
        "team": "1",
        "obj1": "mil_trk_support",
        "obj2": "null",
        "maxspawn": "300.0",
        "minspawn": "300.0",
        "spawndelay": "false",
        "ttl": "99999.0",
        "cpid": "203"
      }
    },
    {
      "type": "Feature",
      "geometry": {
        "type": "Point",
        "coordinates": [1899.154, -1569.185],
        "size": [16, 16]
      },
      "properties": {
        "iconurl": "icons/vehicles_map/mini_smgsmall.png",
        "iconrotate": "-90.127",
        "popupContent": "Amazing information about null will be found here!"
      },
      "bf2props": {
        "name": "cpname_fools_road_aas128_britstart_gb_ch_bipod_2",
        "class": "ObjectSpawner",
        "name_object": "Stationary BIPOD",
        "team": "2",
        "obj1": "null",
        "obj2": "gb_bipod",
        "maxspawn": "1800.0",
        "minspawn": "1800.0",
        "spawndelay": "false",
        "ttl": "99999.0",
        "cpid": "103"
      }
    },
    {
      "type": "Feature",
      "geometry": {
        "type": "Point",
        "coordinates": [1899.921, -1567.516],
        "size": [16, 16]
      },
      "properties": {
        "iconurl": "icons/vehicles_map/mini_smgsmall.png",
        "iconrotate": "0.0",
        "popupContent": "Amazing information about null will be found here!"
      },
      "bf2props": {
        "name": "cpname_fools_road_aas128_village_gb_ch_bipod",
        "class": "ObjectSpawner",
        "name_object": "Stationary BIPOD",
        "team": "2",
        "obj1": "null",
        "obj2": "gb_bipod",
        "maxspawn": "1800.0",
        "minspawn": "1800.0",
        "spawndelay": "false",
        "ttl": "99999.0",
        "cpid": "103"
      }
    },
    {
      "type": "Feature",
      "geometry": {
        "type": "Point",
        "coordinates": [1917.275, -1567.4719],
        "size": [16, 16]
      },
      "properties": {
        "iconurl": "icons/vehicles_map/mini_smgsmall.png",
        "iconrotate": "0.0",
        "popupContent": "Amazing information about null will be found here!"
      },
      "bf2props": {
        "name": "cpname_fools_road_aas128_village_gb_ch_bipod_0",
        "class": "ObjectSpawner",
        "name_object": "Stationary BIPOD",
        "team": "2",
        "obj1": "null",
        "obj2": "gb_bipod",
        "maxspawn": "1800.0",
        "minspawn": "1800.0",
        "spawndelay": "false",
        "ttl": "99999.0",
        "cpid": "103"
      }
    },
    {
      "type": "Feature",
      "geometry": {
        "type": "Point",
        "coordinates": [450.526, -391.27197],
        "size": [16, 16]
      },
      "properties": {
        "iconurl": "icons/vehicles_map/mini_stw_atgun.png",
        "iconrotate": "68.597",
        "popupContent": "Amazing information about ZiS-3 Field Gun will be found here!"
      },
      "bf2props": {
        "name": "cpname_fools_road_aas128_bunker_mec_usmc_aascannons",
        "class": "ObjectSpawner",
        "name_object": "ZiS-3 Field Gun",
        "team": "1",
        "obj1": "zis3",
        "obj2": "null",
        "maxspawn": "1800.0",
        "minspawn": "1800.0",
        "spawndelay": "false",
        "ttl": "99999.0",
        "cpid": "107"
      }
    },
    {
      "type": "Feature",
      "geometry": {
        "type": "Point",
        "coordinates": [386.841, -464.13098],
        "size": [16, 16]
      },
      "properties": {
        "iconurl": "icons/vehicles_map/mini_stw_atgun.png",
        "iconrotate": "-159.294",
        "popupContent": "Amazing information about ZiS-3 Field Gun will be found here!"
      },
      "bf2props": {
        "name": "cpname_fools_road_aas128_bunker_gb_mec_aascannons",
        "class": "ObjectSpawner",
        "name_object": "ZiS-3 Field Gun",
        "team": "1",
        "obj1": "zis3",
        "obj2": "null",
        "maxspawn": "1800.0",
        "minspawn": "1800.0",
        "spawndelay": "false",
        "ttl": "99999.0",
        "cpid": "107"
      }
    },
    {
      "type": "Feature",
      "geometry": {
        "type": "Point",
        "coordinates": [1853.581, -1989.686],
        "size": [16, 16]
      },
      "properties": {
        "iconurl": "icons/vehicles_map/mini_jep_light.png",
        "iconrotate": "32.687",
        "popupContent": "Amazing information about null will be found here!"
      },
      "bf2props": {
        "name": "cpname_fools_road_aas128_britstart_gb_ch_lightjeep_0",
        "class": "ObjectSpawner",
        "name_object": "Land Rover",
        "team": "2",
        "obj1": "null",
        "obj2": "gb_jep_landrover",
        "maxspawn": "600.0",
        "minspawn": "600.0",
        "spawndelay": "false",
        "ttl": "99999.0",
        "cpid": "202"
      }
    },
    {
      "type": "Feature",
      "geometry": {
        "type": "Point",
        "coordinates": [1896.155, -1954.457],
        "size": [16, 16]
      },
      "properties": {
        "iconurl": "icons/vehicles_map/mini_apc_medium.png",
        "iconrotate": "44.8",
        "popupContent": "Amazing information about null will be found here!"
      },
      "bf2props": {
        "name": "cpname_fools_road_aas128_britstart_gb_ch_scouttank",
        "class": "ObjectSpawner",
        "name_object": "FV 510 Warrior",
        "team": "2",
        "obj1": "null",
        "obj2": "gb_apc_warrior",
        "maxspawn": "600.0",
        "minspawn": "600.0",
        "spawndelay": "true",
        "ttl": "99999.0",
        "cpid": "202"
      }
    },
    {
      "type": "Feature",
      "geometry": {
        "type": "Point",
        "coordinates": [1960.583, -1888.28],
        "size": [16, 16]
      },
      "properties": {
        "iconurl": "icons/vehicles_map/mini_trk_logistics.png",
        "iconrotate": "-133.404",
        "popupContent": "Amazing information about null will be found here!"
      },
      "bf2props": {
        "name": "brit_supply_truck1",
        "class": "ObjectSpawner",
        "name_object": "MAN SV Logistics",
        "team": "2",
        "obj1": "null",
        "obj2": "gb_trk_logistics",
        "maxspawn": "300.0",
        "minspawn": "300.0",
        "spawndelay": "false",
        "ttl": "99999.0",
        "cpid": "202"
      }
    },
    {
      "type": "Feature",
      "geometry": {
        "type": "Point",
        "coordinates": [1969.408, -1879.246],
        "size": [16, 16]
      },
      "properties": {
        "iconurl": "icons/vehicles_map/mini_trk_logistics.png",
        "iconrotate": "-132.898",
        "popupContent": "Amazing information about null will be found here!"
      },
      "bf2props": {
        "name": "brit_supply_truck2",
        "class": "ObjectSpawner",
        "name_object": "MAN SV Logistics",
        "team": "2",
        "obj1": "null",
        "obj2": "gb_trk_logistics",
        "maxspawn": "300.0",
        "minspawn": "300.0",
        "spawndelay": "false",
        "ttl": "99999.0",
        "cpid": "202"
      }
    },
    {
      "type": "Feature",
      "geometry": {
        "type": "Point",
        "coordinates": [1901.742, -1567.525],
        "size": [16, 16]
      },
      "properties": {
        "iconurl": "icons/vehicles_map/mini_smgsmall.png",
        "iconrotate": "0.0",
        "popupContent": "Amazing information about null will be found here!"
      },
      "bf2props": {
        "name": "saw_5",
        "class": "ObjectSpawner",
        "name_object": "Stationary BIPOD",
        "team": "2",
        "obj1": "null",
        "obj2": "gb_bipod",
        "maxspawn": "1800.0",
        "minspawn": "1800.0",
        "spawndelay": "false",
        "ttl": "99999.0",
        "cpid": "103"
      }
    },
    {
      "type": "Feature",
      "geometry": {
        "type": "Point",
        "coordinates": [160.22803, -220.41199],
        "size": [16, 16]
      },
      "properties": {
        "iconurl": "icons/vehicles_map/mini_trk_support.png",
        "iconrotate": "-132.543",
        "popupContent": "Amazing information about Ural-4320 will be found here!"
      },
      "bf2props": {
        "name": "militiatruck",
        "class": "ObjectSpawner",
        "name_object": "Ural-4320",
        "team": "1",
        "obj1": "mil_trk_support",
        "obj2": "null",
        "maxspawn": "300.0",
        "minspawn": "300.0",
        "spawndelay": "false",
        "ttl": "99999.0",
        "cpid": "203"
      }
    },
    {
      "type": "Feature",
      "geometry": {
        "type": "Point",
        "coordinates": [157.46802, -217.482],
        "size": [16, 16]
      },
      "properties": {
        "iconurl": "icons/vehicles_map/mini_trk_support.png",
        "iconrotate": "-132.438",
        "popupContent": "Amazing information about Ural-4320 will be found here!"
      },
      "bf2props": {
        "name": "militiatruck_0",
        "class": "ObjectSpawner",
        "name_object": "Ural-4320",
        "team": "1",
        "obj1": "mil_trk_support",
        "obj2": "null",
        "maxspawn": "300.0",
        "minspawn": "300.0",
        "spawndelay": "false",
        "ttl": "99999.0",
        "cpid": "203"
      }
    },
    {
      "type": "Feature",
      "geometry": {
        "type": "Point",
        "coordinates": [154.56702, -214.35602],
        "size": [16, 16]
      },
      "properties": {
        "iconurl": "icons/vehicles_map/mini_trk_support.png",
        "iconrotate": "-132.943",
        "popupContent": "Amazing information about Ural-4320 will be found here!"
      },
      "bf2props": {
        "name": "militiatruck_1",
        "class": "ObjectSpawner",
        "name_object": "Ural-4320",
        "team": "1",
        "obj1": "mil_trk_support",
        "obj2": "null",
        "maxspawn": "300.0",
        "minspawn": "300.0",
        "spawndelay": "false",
        "ttl": "99999.0",
        "cpid": "203"
      }
    },
    {
      "type": "Feature",
      "geometry": {
        "type": "Point",
        "coordinates": [179.64099, -271.12598],
        "size": [16, 16]
      },
      "properties": {
        "iconurl": "icons/vehicles_map/mini_jep_atgm.png",
        "iconrotate": "-45.5",
        "popupContent": "Amazing information about SPG-9 Technical will be found here!"
      },
      "bf2props": {
        "name": "t62",
        "class": "ObjectSpawner",
        "name_object": "SPG-9 Technical",
        "team": "1",
        "obj1": "civ_atm_technical_militia",
        "obj2": "null",
        "maxspawn": "900.0",
        "minspawn": "900.0",
        "spawndelay": "false",
        "ttl": "99999.0",
        "cpid": "203"
      }
    },
    {
      "type": "Feature",
      "geometry": {
        "type": "Point",
        "coordinates": [1919.138, -1567.506],
        "size": [16, 16]
      },
      "properties": {
        "iconurl": "icons/vehicles_map/mini_smgsmall.png",
        "iconrotate": "0.0",
        "popupContent": "Amazing information about null will be found here!"
      },
      "bf2props": {
        "name": "saw_6",
        "class": "ObjectSpawner",
        "name_object": "Stationary BIPOD",
        "team": "2",
        "obj1": "null",
        "obj2": "gb_bipod",
        "maxspawn": "1800.0",
        "minspawn": "1800.0",
        "spawndelay": "false",
        "ttl": "9999.0",
        "cpid": "103"
      }
    },
    {
      "type": "Feature",
      "geometry": {
        "type": "Point",
        "coordinates": [199.06, -270.54303],
        "size": [16, 16]
      },
      "properties": {
        "iconurl": "icons/vehicles_map/mini_apc_heavy.png",
        "iconrotate": "-42.732",
        "popupContent": "Amazing information about BMP-1 will be found here!"
      },
      "bf2props": {
        "name": "brdm",
        "class": "ObjectSpawner",
        "name_object": "BMP-1",
        "team": "1",
        "obj1": "mil_ifv_bmp1",
        "obj2": "null",
        "maxspawn": "900.0",
        "minspawn": "900.0",
        "spawndelay": "false",
        "ttl": "99999.0",
        "cpid": "203"
      }
    },
    {
      "type": "Feature",
      "geometry": {
        "type": "Point",
        "coordinates": [1978.381, -1867.22],
        "size": [16, 16]
      },
      "properties": {
        "iconurl": "icons/mini_map/repairdepot.png",
        "iconrotate": "0",
        "popupContent": "Amazing information about null will be found here!"
      },
      "bf2props": {
        "name": "rp",
        "class": "ObjectSpawner",
        "name_object": "Vehicle Depot",
        "team": "2",
        "obj1": "null",
        "obj2": "vehicle_depot_gb",
        "maxspawn": "0.0",
        "minspawn": "0.0",
        "spawndelay": "false",
        "ttl": "99999.0",
        "cpid": "202"
      }
    },
    {
      "type": "Feature",
      "geometry": {
        "type": "Point",
        "coordinates": [136.48499, -216.87402],
        "size": [16, 16]
      },
      "properties": {
        "iconurl": "icons/vehicles_map/mini_jep_support.png",
        "iconrotate": "90.763",
        "popupContent": "Amazing information about BRDM-2 Support will be found here!"
      },
      "bf2props": {
        "name": "brdm_0",
        "class": "ObjectSpawner",
        "name_object": "BRDM-2 Support",
        "team": "1",
        "obj1": "mec_jep_brdm2_support",
        "obj2": "null",
        "maxspawn": "300.0",
        "minspawn": "300.0",
        "spawndelay": "false",
        "ttl": "99999.0",
        "cpid": "203"
      }
    },
    {
      "type": "Feature",
      "geometry": {
        "type": "Point",
        "coordinates": [1157.312, -340.672],
        "size": [16, 16]
      },
      "properties": {
        "iconurl": "icons/vehicles_map/mini_stw_atgun.png",
        "iconrotate": "118.273",
        "popupContent": "Amazing information about ZiS-3 Field Gun will be found here!"
      },
      "bf2props": {
        "name": "zis",
        "class": "ObjectSpawner",
        "name_object": "ZiS-3 Field Gun",
        "team": "1",
        "obj1": "zis3",
        "obj2": "null",
        "maxspawn": "1800.0",
        "minspawn": "1800.0",
        "spawndelay": "false",
        "ttl": "99999.0",
        "cpid": "107"
      }
    },
    {
      "type": "Feature",
      "geometry": {
        "type": "Point",
        "coordinates": [1795.569, -482.66998],
        "size": [16, 16]
      },
      "properties": {
        "iconurl": "icons/vehicles_map/mini_stw_atgun.png",
        "iconrotate": "-161.234",
        "popupContent": "Amazing information about ZiS-3 Field Gun will be found here!"
      },
      "bf2props": {
        "name": "zis_0",
        "class": "ObjectSpawner",
        "name_object": "ZiS-3 Field Gun",
        "team": "1",
        "obj1": "zis3",
        "obj2": "null",
        "maxspawn": "1800.0",
        "minspawn": "1800.0",
        "spawndelay": "false",
        "ttl": "99999.0",
        "cpid": "107"
      }
    },
    {
      "type": "Feature",
      "geometry": {
        "type": "Point",
        "coordinates": [1922.113, -577.63904],
        "size": [16, 16]
      },
      "properties": {
        "iconurl": "icons/vehicles_map/mini_stw_atgun.png",
        "iconrotate": "-178.205",
        "popupContent": "Amazing information about ZiS-3 Field Gun will be found here!"
      },
      "bf2props": {
        "name": "zis_1",
        "class": "ObjectSpawner",
        "name_object": "ZiS-3 Field Gun",
        "team": "1",
        "obj1": "zis3",
        "obj2": "null",
        "maxspawn": "1800.0",
        "minspawn": "1800.0",
        "spawndelay": "false",
        "ttl": "99999.0",
        "cpid": "107"
      }
    },
    {
      "type": "Feature",
      "geometry": {
        "type": "Point",
        "coordinates": [462.281, -1297.237],
        "size": [16, 16]
      },
      "properties": {
        "iconurl": "icons/vehicles_map/mini_stw_atgun.png",
        "iconrotate": "-147.01",
        "popupContent": "Amazing information about ZiS-3 Field Gun will be found here!"
      },
      "bf2props": {
        "name": "zis_2",
        "class": "ObjectSpawner",
        "name_object": "ZiS-3 Field Gun",
        "team": "1",
        "obj1": "zis3",
        "obj2": "null",
        "maxspawn": "1800.0",
        "minspawn": "1800.0",
        "spawndelay": "false",
        "ttl": "99999.0",
        "cpid": "107"
      }
    },
    {
      "type": "Feature",
      "geometry": {
        "type": "Point",
        "coordinates": [1949.4089, -1868.9761],
        "size": [16, 16]
      },
      "properties": {
        "iconurl": "icons/mini_map/uavtrailer.png",
        "iconrotate": "0",
        "popupContent": "Amazing information about null will be found here!"
      },
      "bf2props": {
        "name": "cp",
        "class": "ObjectSpawner",
        "name_object": "UAV Terminal",
        "team": "2",
        "obj1": "null",
        "obj2": "gb_acv_sultan",
        "maxspawn": "0.0",
        "minspawn": "0.0",
        "spawndelay": "false",
        "ttl": "99999.0",
        "cpid": "202"
      }
    },
    {
      "type": "Feature",
      "geometry": {
        "type": "Point",
        "coordinates": [189.961, -286.09302],
        "size": [16, 16]
      },
      "properties": {
        "iconurl": "icons/mini_map/uavtrailer.png",
        "iconrotate": "0",
        "popupContent": "Amazing information about UAV Terminal will be found here!"
      },
      "bf2props": {
        "name": "cp2",
        "class": "ObjectSpawner",
        "name_object": "UAV Terminal",
        "team": "1",
        "obj1": "mil_acv_technical",
        "obj2": "null",
        "maxspawn": "0.0",
        "minspawn": "0.0",
        "spawndelay": "false",
        "ttl": "99999.0",
        "cpid": "203"
      }
    },
    {
      "type": "Feature",
      "geometry": {
        "type": "Point",
        "coordinates": [136.469, -224.70801],
        "size": [16, 16]
      },
      "properties": {
        "iconurl": "icons/vehicles_map/mini_trk_logistics.png",
        "iconrotate": "91.484",
        "popupContent": "Amazing information about Ural-4320 Logistics will be found here!"
      },
      "bf2props": {
        "name": "a_0",
        "class": "ObjectSpawner",
        "name_object": "Ural-4320 Logistics",
        "team": "1",
        "obj1": "mil_trk_logistics",
        "obj2": "null",
        "maxspawn": "300.0",
        "minspawn": "300.0",
        "spawndelay": "false",
        "ttl": "99999.0",
        "cpid": "203"
      }
    },
    {
      "type": "Feature",
      "geometry": {
        "type": "Point",
        "coordinates": [136.49402, -220.76898],
        "size": [16, 16]
      },
      "properties": {
        "iconurl": "icons/vehicles_map/mini_trk_logistics.png",
        "iconrotate": "90.103",
        "popupContent": "Amazing information about Ural-4320 Logistics will be found here!"
      },
      "bf2props": {
        "name": "a_1",
        "class": "ObjectSpawner",
        "name_object": "Ural-4320 Logistics",
        "team": "1",
        "obj1": "mil_trk_logistics",
        "obj2": "null",
        "maxspawn": "300.0",
        "minspawn": "300.0",
        "spawndelay": "false",
        "ttl": "99999.0",
        "cpid": "203"
      }
    },
    {
      "type": "Feature",
      "geometry": {
        "type": "Point",
        "coordinates": [137.72699, -236.76398],
        "size": [16, 16]
      },
      "properties": {
        "iconurl": "icons/mini_map/repairdepot.png",
        "iconrotate": "0",
        "popupContent": "Amazing information about Vehicle Depot will be found here!"
      },
      "bf2props": {
        "name": "fixedbunker",
        "class": "ObjectSpawner",
        "name_object": "Vehicle Depot",
        "team": "1",
        "obj1": "vehicle_depot_mil",
        "obj2": "null",
        "maxspawn": "0.0",
        "minspawn": "0.0",
        "spawndelay": "false",
        "ttl": "99999.0",
        "cpid": "203"
      }
    },
    {
      "type": "Feature",
      "geometry": {
        "type": "Point",
        "coordinates": [1698.593, -2442.021],
        "size": [16, 16]
      },
      "properties": {
        "iconurl": "icons/mini_map/airdef.png",
        "iconrotate": "0",
        "popupContent": "Amazing information about null will be found here!"
      },
      "bf2props": {
        "name": "arty",
        "class": "ObjectSpawner",
        "name_object": "Artillery Barrage Call-In",
        "team": "2",
        "obj1": "null",
        "obj2": "artillery_team2",
        "maxspawn": "1800.0",
        "minspawn": "1800.0",
        "spawndelay": "true",
        "ttl": "0.0",
        "cpid": "202"
      }
    },
    {
      "type": "Feature",
      "geometry": {
        "type": "Point",
        "coordinates": [1859.53, -1608.931],
        "size": [16, 16]
      },
      "properties": {
        "iconurl": "icons/vehicles_map/mini_stw_atgm.png",
        "iconrotate": "0.0",
        "popupContent": "Amazing information about null will be found here!"
      },
      "bf2props": {
        "name": "tow",
        "class": "ObjectSpawner",
        "name_object": "ats_tow",
        "team": "2",
        "obj1": "null",
        "obj2": "ats_tow",
        "maxspawn": "1800.0",
        "minspawn": "1800.0",
        "spawndelay": "false",
        "ttl": "99999.0",
        "cpid": "103"
      }
    },
    {
      "type": "Feature",
      "geometry": {
        "type": "Point",
        "coordinates": [1702.99, -2448.1519],
        "size": [16, 16]
      },
      "properties": {
        "iconurl": "icons/mini_map/airdef.png",
        "iconrotate": "0",
        "popupContent": "Amazing information about null will be found here!"
      },
      "bf2props": {
        "name": "arty_1",
        "class": "ObjectSpawner",
        "name_object": "Artillery Barrage Call-In",
        "team": "2",
        "obj1": "null",
        "obj2": "artillery_team2",
        "maxspawn": "1800.0",
        "minspawn": "1800.0",
        "spawndelay": "true",
        "ttl": "0.0",
        "cpid": "202"
      }
    },
    {
      "type": "Feature",
      "geometry": {
        "type": "Point",
        "coordinates": [1707.249, -2441.865],
        "size": [16, 16]
      },
      "properties": {
        "iconurl": "icons/mini_map/airdef.png",
        "iconrotate": "0",
        "popupContent": "Amazing information about null will be found here!"
      },
      "bf2props": {
        "name": "arty_2",
        "class": "ObjectSpawner",
        "name_object": "Artillery Barrage Call-In",
        "team": "2",
        "obj1": "null",
        "obj2": "artillery_team2",
        "maxspawn": "1800.0",
        "minspawn": "1800.0",
        "spawndelay": "true",
        "ttl": "0.0",
        "cpid": "202"
      }
    },
    {
      "type": "Feature",
      "geometry": {
        "type": "Point",
        "coordinates": [1705.598, -2436.229],
        "size": [16, 16]
      },
      "properties": {
        "iconurl": "icons/mini_map/airdef.png",
        "iconrotate": "0",
        "popupContent": "Amazing information about null will be found here!"
      },
      "bf2props": {
        "name": "arty_3",
        "class": "ObjectSpawner",
        "name_object": "Artillery Barrage Call-In",
        "team": "2",
        "obj1": "null",
        "obj2": "artillery_team2",
        "maxspawn": "1800.0",
        "minspawn": "1800.0",
        "spawndelay": "true",
        "ttl": "0.0",
        "cpid": "202"
      }
    },
    {
      "type": "Feature",
      "geometry": {
        "type": "Point",
        "coordinates": [1865.244, -1978.262],
        "size": [16, 16]
      },
      "properties": {
        "iconurl": "icons/vehicles_map/mini_jep_support.png",
        "iconrotate": "49.061",
        "popupContent": "Amazing information about null will be found here!"
      },
      "bf2props": {
        "name": "cpname_fools_road_aas128_village_truck",
        "class": "ObjectSpawner",
        "name_object": "Land Rover Support",
        "team": "2",
        "obj1": "null",
        "obj2": "gb_jep_landrover_support",
        "maxspawn": "300.0",
        "minspawn": "300.0",
        "spawndelay": "false",
        "ttl": "99999.0",
        "cpid": "202"
      }
    },
    {
      "type": "Feature",
      "geometry": {
        "type": "Point",
        "coordinates": [405.53198, -455.87],
        "size": [16, 16]
      },
      "properties": {
        "iconurl": "icons/vehicles_map/mini_stw_atgun.png",
        "iconrotate": "-180.0",
        "popupContent": "Amazing information about ZiS-3 Field Gun will be found here!"
      },
      "bf2props": {
        "name": "cpname_fools_road_aas128_bunker_zis1",
        "class": "ObjectSpawner",
        "name_object": "ZiS-3 Field Gun",
        "team": "1",
        "obj1": "zis3",
        "obj2": "null",
        "maxspawn": "1800.0",
        "minspawn": "1800.0",
        "spawndelay": "false",
        "ttl": "99999.0",
        "cpid": "107"
      }
    },
    {
      "type": "Feature",
      "geometry": {
        "type": "Point",
        "coordinates": [427.54797, -426.65997],
        "size": [16, 16]
      },
      "properties": {
        "iconurl": "icons/vehicles_map/mini_stw_atgun.png",
        "iconrotate": "90.0",
        "popupContent": "Amazing information about ZiS-3 Field Gun will be found here!"
      },
      "bf2props": {
        "name": "cpname_fools_road_aas128_bunker_zis2",
        "class": "ObjectSpawner",
        "name_object": "ZiS-3 Field Gun",
        "team": "1",
        "obj1": "zis3",
        "obj2": "null",
        "maxspawn": "1800.0",
        "minspawn": "1800.0",
        "spawndelay": "false",
        "ttl": "99999.0",
        "cpid": "107"
      }
    },
    {
      "type": "Feature",
      "geometry": {
        "type": "Point",
        "coordinates": [520.084, 512.432],
        "size": [16, 16]
      },
      "properties": {
        "iconurl": "icons/mini_map/airdef.png",
        "iconrotate": "0",
        "popupContent": "Amazing information about Mortar Barrage Call-In will be found here!"
      },
      "bf2props": {
        "name": "arty1_1",
        "class": "ObjectSpawner",
        "name_object": "Mortar Barrage Call-In",
        "team": "1",
        "obj1": "mortar_team1",
        "obj2": "null",
        "maxspawn": "1200.0",
        "minspawn": "1200.0",
        "spawndelay": "true",
        "ttl": "0.0",
        "cpid": "203"
      }
    },
    {
      "type": "Feature",
      "geometry": {
        "type": "Point",
        "coordinates": [512.787, 510.51196],
        "size": [16, 16]
      },
      "properties": {
        "iconurl": "icons/mini_map/airdef.png",
        "iconrotate": "0",
        "popupContent": "Amazing information about Mortar Barrage Call-In will be found here!"
      },
      "bf2props": {
        "name": "arty1_2",
        "class": "ObjectSpawner",
        "name_object": "Mortar Barrage Call-In",
        "team": "1",
        "obj1": "mortar_team1",
        "obj2": "null",
        "maxspawn": "1200.0",
        "minspawn": "1200.0",
        "spawndelay": "true",
        "ttl": "0.0",
        "cpid": "203"
      }
    },
    {
      "type": "Feature",
      "geometry": {
        "type": "Point",
        "coordinates": [517.141, 504.29102],
        "size": [16, 16]
      },
      "properties": {
        "iconurl": "icons/mini_map/airdef.png",
        "iconrotate": "0",
        "popupContent": "Amazing information about Mortar Barrage Call-In will be found here!"
      },
      "bf2props": {
        "name": "arty1_3",
        "class": "ObjectSpawner",
        "name_object": "Mortar Barrage Call-In",
        "team": "1",
        "obj1": "mortar_team1",
        "obj2": "null",
        "maxspawn": "1200.0",
        "minspawn": "1200.0",
        "spawndelay": "true",
        "ttl": "0.0",
        "cpid": "203"
      }
    },
    {
      "type": "Feature",
      "geometry": {
        "type": "Point",
        "coordinates": [522.996, 503.82202],
        "size": [16, 16]
      },
      "properties": {
        "iconurl": "icons/mini_map/airdef.png",
        "iconrotate": "0",
        "popupContent": "Amazing information about Mortar Barrage Call-In will be found here!"
      },
      "bf2props": {
        "name": "arty1_4",
        "class": "ObjectSpawner",
        "name_object": "Mortar Barrage Call-In",
        "team": "1",
        "obj1": "mortar_team1",
        "obj2": "null",
        "maxspawn": "1200.0",
        "minspawn": "1200.0",
        "spawndelay": "true",
        "ttl": "0.0",
        "cpid": "203"
      }
    },
    {
      "type": "Feature",
      "geometry": {
        "type": "Point",
        "coordinates": [1890.984, -1467.743],
        "size": [33, 33],
        "radius": "150.0"
      },
      "properties": {
        "iconurl": "icons/flags_map/gb/minimap_cp.png",
        "iconrotate": "0",
        "popupContent": "Amazing information about Dylym Village 150m will be found here!"
      },
      "bf2props": {
        "name": "cpname_fools_road_aas128_village",
        "class": "ControlPoint",
        "name_object": "Dylym Village 150m",
        "team": "2",
        "areavalue1": "500.0",
        "areavalue2": "0.0",
        "cpid": "103",
        "sgid": "5",
        "uncap": "false",
        "ttgc": "180.0",
        "ttlc": "180.0"
      }
    },
    {
      "type": "Feature",
      "geometry": {
        "type": "Point",
        "coordinates": [1654.429, -228.557],
        "size": [33, 33],
        "radius": "50.0"
      },
      "properties": {
        "iconurl": "icons/flags_map/neutral/minimap_cp.png",
        "iconrotate": "0",
        "popupContent": "Amazing information about Helicopter Base 50m will be found here!"
      },
      "bf2props": {
        "name": "cpname_fools_road_aas128_1helibase",
        "class": "ControlPoint",
        "name_object": "Helicopter Base 50m",
        "team": "0",
        "areavalue1": "0.0",
        "areavalue2": "0.0",
        "cpid": "106",
        "sgid": "401",
        "uncap": "false",
        "ttgc": "180.0",
        "ttlc": "180.0"
      }
    },
    {
      "type": "Feature",
      "geometry": {
        "type": "Point",
        "coordinates": [409.036, -421.372],
        "size": [33, 33],
        "radius": "40.0"
      },
      "properties": {
        "iconurl": "icons/flags_map/chinsurgent/minimap_cp.png",
        "iconrotate": "0",
        "popupContent": "Amazing information about Militia Fortress 40m will be found here!"
      },
      "bf2props": {
        "name": "cpname_fools_road_aas128_bunker",
        "class": "ControlPoint",
        "name_object": "Militia Fortress 40m",
        "team": "1",
        "areavalue1": "0.0",
        "areavalue2": "300.0",
        "cpid": "107",
        "sgid": "2",
        "uncap": "false",
        "ttgc": "90.0",
        "ttlc": "180.0"
      }
    },
    {
      "type": "Feature",
      "geometry": {
        "type": "Point",
        "coordinates": [1151.062, -647.799],
        "size": [33, 33],
        "radius": "65.0"
      },
      "properties": {
        "iconurl": "icons/flags_map/neutral/minimap_cp.png",
        "iconrotate": "0",
        "popupContent": "Amazing information about Old Estate 65m will be found here!"
      },
      "bf2props": {
        "name": "cpname_fools_road_aas128_2obj3",
        "class": "ControlPoint",
        "name_object": "Old Estate 65m",
        "team": "0",
        "areavalue1": "0.0",
        "areavalue2": "0.0",
        "cpid": "105",
        "sgid": "312",
        "uncap": "false",
        "ttgc": "180.0",
        "ttlc": "180.0"
      }
    },
    {
      "type": "Feature",
      "geometry": {
        "type": "Point",
        "coordinates": [1151.062, -647.799],
        "size": [33, 33],
        "radius": "65.0"
      },
      "properties": {
        "iconurl": "icons/flags_map/neutral/minimap_cp.png",
        "iconrotate": "0",
        "popupContent": "Amazing information about Old Estate 65m will be found here!"
      },
      "bf2props": {
        "name": "cpname_fools_road_aas128_2estate",
        "class": "ControlPoint",
        "name_object": "Old Estate 65m",
        "team": "0",
        "areavalue1": "0.0",
        "areavalue2": "0.0",
        "cpid": "108",
        "sgid": "301",
        "uncap": "false",
        "ttgc": "180.0",
        "ttlc": "180.0"
      }
    },
    {
      "type": "Feature",
      "geometry": {
        "type": "Point",
        "coordinates": [1171.629, -1357.188],
        "size": [33, 33],
        "radius": "100.0"
      },
      "properties": {
        "iconurl": "icons/flags_map/neutral/minimap_cp.png",
        "iconrotate": "0",
        "popupContent": "Amazing information about Mining Facility 100m will be found here!"
      },
      "bf2props": {
        "name": "cpname_fools_road_aas128_3obj1",
        "class": "ControlPoint",
        "name_object": "Mining Facility 100m",
        "team": "0",
        "areavalue1": "0.0",
        "areavalue2": "0.0",
        "cpid": "110",
        "sgid": "402",
        "uncap": "false",
        "ttgc": "180.0",
        "ttlc": "180.0"
      }
    },
    {
      "type": "Feature",
      "geometry": {
        "type": "Point",
        "coordinates": [963.369, -1004.167],
        "size": [33, 33],
        "radius": "100.0"
      },
      "properties": {
        "iconurl": "icons/flags_map/neutral/minimap_cp.png",
        "iconrotate": "0",
        "popupContent": "Amazing information about Novolak Hill 100m will be found here!"
      },
      "bf2props": {
        "name": "cpname_fools_road_aas128_3obj2",
        "class": "ControlPoint",
        "name_object": "Novolak Hill 100m",
        "team": "0",
        "areavalue1": "0.0",
        "areavalue2": "0.0",
        "cpid": "111",
        "sgid": "312",
        "uncap": "false",
        "ttgc": "180.0",
        "ttlc": "180.0"
      }
    },
    {
      "type": "Feature",
      "geometry": {
        "type": "Point",
        "coordinates": [1171.629, -1357.188],
        "size": [33, 33],
        "radius": "100.0"
      },
      "properties": {
        "iconurl": "icons/flags_map/neutral/minimap_cp.png",
        "iconrotate": "0",
        "popupContent": "Amazing information about Mining Facility 100m will be found here!"
      },
      "bf2props": {
        "name": "cpname_fools_road_aas128_4obj1",
        "class": "ControlPoint",
        "name_object": "Mining Facility 100m",
        "team": "0",
        "areavalue1": "0.0",
        "areavalue2": "0.0",
        "cpid": "114",
        "sgid": "413",
        "uncap": "false",
        "ttgc": "180.0",
        "ttlc": "180.0"
      }
    },
    {
      "type": "Feature",
      "geometry": {
        "type": "Point",
        "coordinates": [558.98596, -1773.6279],
        "size": [33, 33],
        "radius": "75.0"
      },
      "properties": {
        "iconurl": "icons/flags_map/neutral/minimap_cp.png",
        "iconrotate": "0",
        "popupContent": "Amazing information about Train Depot 75m will be found here!"
      },
      "bf2props": {
        "name": "cpname_fools_road_aas128_4train",
        "class": "ControlPoint",
        "name_object": "Train Depot 75m",
        "team": "0",
        "areavalue1": "0.0",
        "areavalue2": "0.0",
        "cpid": "116",
        "sgid": "413",
        "uncap": "false",
        "ttgc": "180.0",
        "ttlc": "180.0"
      }
    },
    {
      "type": "Feature",
      "geometry": {
        "type": "Point",
        "coordinates": [300.90002, -1184.605],
        "size": [33, 33],
        "radius": "100.0"
      },
      "properties": {
        "iconurl": "icons/flags_map/neutral/minimap_cp.png",
        "iconrotate": "0",
        "popupContent": "Amazing information about West Ridge 100m will be found here!"
      },
      "bf2props": {
        "name": "cpname_fools_road_aas128_4obj3",
        "class": "ControlPoint",
        "name_object": "West Ridge 100m",
        "team": "0",
        "areavalue1": "0.0",
        "areavalue2": "0.0",
        "cpid": "117",
        "sgid": "303",
        "uncap": "false",
        "ttgc": "180.0",
        "ttlc": "180.0"
      }
    },
    {
      "type": "Feature",
      "geometry": {
        "type": "Point",
        "coordinates": [1962.1431, -1874.321],
        "size": [33, 33],
        "radius": "0.0"
      },
      "properties": {
        "iconurl": "icons/flags_map/gb/minimap_cpbase.png",
        "iconrotate": "0",
        "popupContent": "Amazing information about British FOB will be found here!"
      },
      "bf2props": {
        "name": "cpname_fools_road_aas128_gbmain",
        "class": "ControlPoint",
        "name_object": "British FOB",
        "team": "2",
        "areavalue1": "0.0",
        "areavalue2": "0.0",
        "cpid": "202",
        "sgid": "-999",
        "uncap": "true",
        "ttgc": "0.0",
        "ttlc": "0.0"
      }
    },
    {
      "type": "Feature",
      "geometry": {
        "type": "Point",
        "coordinates": [199.50098, -227.23798],
        "size": [33, 33],
        "radius": "0.0"
      },
      "properties": {
        "iconurl": "icons/flags_map/chinsurgent/minimap_cpbase.png",
        "iconrotate": "0",
        "popupContent": "Amazing information about Militia Base will be found here!"
      },
      "bf2props": {
        "name": "cpname_fools_road_aas128_militiamain",
        "class": "ControlPoint",
        "name_object": "Militia Base",
        "team": "1",
        "areavalue1": "0.0",
        "areavalue2": "0.0",
        "cpid": "203",
        "sgid": "1",
        "uncap": "true",
        "ttgc": "0.0",
        "ttlc": "0.0"
      }
    },
    {
      "type": "Feature",
      "geometry": {
        "type": "Polygon",
        "coordinates": [
          [
            [0,0],
            [0,-2048],
            [2048,-2048],
            [2048,0]
          ],[
            [2039.1965, -2040.2986],
            [2048.0, -2048.0],
            [2039.1965, -2040.2986],
            [2030.7324, -1512.4026],
            [2013.3396, -1464.4789],
            [2000.9608, -1249.1685],
            [2017.816, -1160.8732],
            [2004.5269, -1106.156],
            [2022.4202, -846.0585],
            [2004.417, -687.59814],
            [2027.1927, -552.64014],
            [1998.8932, -257.65015],
            [1993.9816, -144.63171],
            [1926.892, -95.00696],
            [1667.3794, -66.39783],
            [1604.9924, -60.352783],
            [1474.6927, -86.5072],
            [1294.1638, -63.38513],
            [999.8864, -17.582764],
            [613.05475, -24.368408],
            [476.73303, -94.09131],
            [438.1869, -106.918335],
            [341.4726, -41.37439],
            [167.50739, -75.030396],
            [0.0, 0.0],
            [167.50739, -75.030396],
            [70.69708, -145.12402],
            [73.93994, -513.8981],
            [35.002563, -672.4911],
            [75.345215, -1184.8618],
            [110.199524, -1237.7623],
            [77.51282, -1317.4373],
            [90.276245, -1440.1299],
            [55.76593, -1500.7268],
            [35.586, -1602.4573],
            [62.589417, -1810.6785],
            [73.95972, -1928.4285],
            [136.39508, -1983.1072],
            [363.05908, -1947.2699],
            [493.88562, -2001.4695],
            [648.6454, -2024.71],
            [1185.9775, -2019.6805],
            [1222.372, -2044.8997]
          ]
        ]
      },
      "bf2props": {
        "code": "combatarea_121_aas64",
        "class": "CombatArea",
        "team": "0",
        "vehicles": "4",
        "layer": "3",
        "inverted": "false",
        "max": [0.0, 0.0],
        "min": [0.0, 0.0]
      }
    },
    {
      "type": "Feature",
      "geometry": {
        "type": "Polygon",
        "coordinates": [
          [
            [2042.8534, -2041.9587],
            [2039.5415, -1620.1012],
            [1942.6642, -1608.2922],
            [1846.2222, -1623.4523],
            [1751.6527, -1732.1367],
            [1600.306, -1723.1377],
            [1492.157, -2046.0353]
          ]
        ]
      },
      "bf2props": {
        "code": "combatarea_58_default",
        "class": "CombatArea",
        "team": "1",
        "vehicles": "4",
        "layer": "3",
        "inverted": "true",
        "max": [0.0, 0.0],
        "min": [0.0, 0.0]
      }
    },
    {
      "type": "Feature",
      "geometry": {
        "type": "Polygon",
        "coordinates": [
          [
            [51.2453, -583.881],
            [105.574524, -575.71875],
            [158.64014, -572.2291],
            [206.37653, -505.28833],
            [247.57947, -379.76086],
            [262.63696, -251.62903],
            [347.95404, -279.71887],
            [395.09192, -271.77087],
            [419.84326, -216.05823],
            [529.3217, -199.85522],
            [550.5824, -138.57422],
            [536.0406, -3.4261475],
            [22.07135, -16.719116]
          ]
        ]
      },
      "bf2props": {
        "code": "combatarea_53_aas64",
        "class": "CombatArea",
        "team": "2",
        "vehicles": "4",
        "layer": "3",
        "inverted": "true",
        "max": [0.0, 0.0],
        "min": [0.0, 0.0]
      }
    }
  ]
}