{
  "team1":"vnnva",
  "team2":"vnusa",
  "team1tickets":"400",
  "team2tickets":"350",
  "mapsize":"1024",
  "viewdistance":"400",
  "combatareause":"true",
  "combatareadamage":"20.0",
  "combatareaallowoutside":"10.0",
  "routes": [
    [
      [
        "cpname_hill_488_aas16_vcmain"
      ],
      [
        "cpname_hill_488_aas16_westvillage"
      ],
      [
        "cpname_hill_488_aas16_hill488"
      ],
      [
        "cpname_hill_488_aas16_village"
      ],
      [
        "cpname_hill_488_aas16_vcsupplyroute"
      ],
      [
        "cpname_hill_488_aas16_usmain"
      ]
    ]
  ],
  "type": "FeatureCollection",
  "features": [
    {
      "type": "Feature",
      "geometry": {
        "type": "Point",
        "coordinates": [174.788, -173.436],
        "size": [16, 16]
      },
      "properties": {
        "iconurl": "icons/vehicles_map/mini_shp_medium.png",
        "iconrotate": "175.104",
        "popupContent": "Amazing information about null will be found here!"
      },
      "bf2props": {
        "name": "cpname_hill_488_aas16_usmain_spdboat",
        "class": "ObjectSpawner",
        "name_object": "Patrol Boat-River",
        "team": "2",
        "obj1": "null",
        "obj2": "us_shp_pbr",
        "maxspawn": "300.0",
        "minspawn": "300.0",
        "spawndelay": "false",
        "ttl": "99999.0",
        "cpid": "2"
      }
    },
    {
      "type": "Feature",
      "geometry": {
        "type": "Point",
        "coordinates": [181.229, -181.98499],
        "size": [16, 16]
      },
      "properties": {
        "iconurl": "icons/vehicles_map/mini_shp_medium.png",
        "iconrotate": "157.469",
        "popupContent": "Amazing information about null will be found here!"
      },
      "bf2props": {
        "name": "cpname_hill_488_aas16_usmain_1_0",
        "class": "ObjectSpawner",
        "name_object": "Patrol Boat-River",
        "team": "2",
        "obj1": "null",
        "obj2": "us_shp_pbr",
        "maxspawn": "300.0",
        "minspawn": "300.0",
        "spawndelay": "false",
        "ttl": "99999.0",
        "cpid": "2"
      }
    },
    {
      "type": "Feature",
      "geometry": {
        "type": "Point",
        "coordinates": [626.252, -880.86],
        "size": [16, 16]
      },
      "properties": {
        "iconurl": "icons/vehicles_map/mini_jep_support.png",
        "iconrotate": "-70.147",
        "popupContent": "Amazing information about UAZ-469 Support will be found here!"
      },
      "bf2props": {
        "name": "cpname_hill_488_aas16_vcmain_heavyjeep",
        "class": "ObjectSpawner",
        "name_object": "UAZ-469 Support",
        "team": "1",
        "obj1": "nva_jep_uaz",
        "obj2": "null",
        "maxspawn": "300.0",
        "minspawn": "300.0",
        "spawndelay": "false",
        "ttl": "99999.0",
        "cpid": "4"
      }
    },
    {
      "type": "Feature",
      "geometry": {
        "type": "Point",
        "coordinates": [621.613, -884.516],
        "size": [16, 16]
      },
      "properties": {
        "iconurl": "icons/vehicles_map/mini_jep_support.png",
        "iconrotate": "-63.592",
        "popupContent": "Amazing information about UAZ-469 Support will be found here!"
      },
      "bf2props": {
        "name": "cpname_hill_488_aas16_vcmain_0_3",
        "class": "ObjectSpawner",
        "name_object": "UAZ-469 Support",
        "team": "1",
        "obj1": "nva_jep_uaz",
        "obj2": "null",
        "maxspawn": "300.0",
        "minspawn": "300.0",
        "spawndelay": "false",
        "ttl": "99999.0",
        "cpid": "4"
      }
    },
    {
      "type": "Feature",
      "geometry": {
        "type": "Point",
        "coordinates": [837.99, -842.742],
        "size": [16, 16]
      },
      "properties": {
        "iconurl": "icons/vehicles_map/mini_shp_light_sampan.png",
        "iconrotate": "-162.502",
        "popupContent": "Amazing information about Sampan will be found here!"
      },
      "bf2props": {
        "name": "cpname_hill_488_aas16_vcmain_spdboat",
        "class": "ObjectSpawner",
        "name_object": "Sampan",
        "team": "1",
        "obj1": "vc_shp_sampan",
        "obj2": "null",
        "maxspawn": "300.0",
        "minspawn": "300.0",
        "spawndelay": "false",
        "ttl": "99999.0",
        "cpid": "4"
      }
    },
    {
      "type": "Feature",
      "geometry": {
        "type": "Point",
        "coordinates": [844.709, -837.346],
        "size": [16, 16]
      },
      "properties": {
        "iconurl": "icons/vehicles_map/mini_shp_light_sampan.png",
        "iconrotate": "-155.525",
        "popupContent": "Amazing information about Sampan will be found here!"
      },
      "bf2props": {
        "name": "cpname_hill_488_aas16_vcmain_0_4",
        "class": "ObjectSpawner",
        "name_object": "Sampan",
        "team": "1",
        "obj1": "vc_shp_sampan",
        "obj2": "null",
        "maxspawn": "300.0",
        "minspawn": "300.0",
        "spawndelay": "false",
        "ttl": "99999.0",
        "cpid": "4"
      }
    },
    {
      "type": "Feature",
      "geometry": {
        "type": "Point",
        "coordinates": [702.597, -129.285],
        "size": [16, 16]
      },
      "properties": {
        "iconurl": "icons/player_map/mini_squad.png",
        "iconrotate": "0",
        "popupContent": "Amazing information about null will be found here!"
      },
      "bf2props": {
        "name": "cpname_hill_488_aas16_vcsupplyroute_rpnoexpire",
        "class": "ObjectSpawner",
        "name_object": "Temporary spawnpoint",
        "team": "2",
        "obj1": "null",
        "obj2": "rallypoint_vnusa_placeable",
        "maxspawn": "999999.0",
        "minspawn": "999999.0",
        "spawndelay": "false",
        "ttl": "99999.0",
        "cpid": "5"
      }
    },
    {
      "type": "Feature",
      "geometry": {
        "type": "Point",
        "coordinates": [692.539, -482.398],
        "size": [16, 16]
      },
      "properties": {
        "iconurl": "icons/player_map/mini_squad.png",
        "iconrotate": "0",
        "popupContent": "Amazing information about Temporary spawnpoint will be found here!"
      },
      "bf2props": {
        "name": "cpname_hill_488_aas16_westvillage_rpnoexpire",
        "class": "ObjectSpawner",
        "name_object": "Temporary spawnpoint",
        "team": "1",
        "obj1": "rallypoint_vnnva_placeable",
        "obj2": "null",
        "maxspawn": "999999.0",
        "minspawn": "999999.0",
        "spawndelay": "false",
        "ttl": "99999.0",
        "cpid": "1"
      }
    },
    {
      "type": "Feature",
      "geometry": {
        "type": "Point",
        "coordinates": [324.242, -187.99301],
        "size": [16, 16]
      },
      "properties": {
        "iconurl": "icons/vehicles_map/mini_trk_support.png",
        "iconrotate": "128.347",
        "popupContent": "Amazing information about null will be found here!"
      },
      "bf2props": {
        "name": "cpname_hill_488_aas16_usmain_suporttruck",
        "class": "ObjectSpawner",
        "name_object": "M35 2.5 Ton",
        "team": "2",
        "obj1": "null",
        "obj2": "us_trk_m35",
        "maxspawn": "300.0",
        "minspawn": "300.0",
        "spawndelay": "false",
        "ttl": "99999.0",
        "cpid": "2"
      }
    },
    {
      "type": "Feature",
      "geometry": {
        "type": "Point",
        "coordinates": [627.584, -873.659],
        "size": [16, 16]
      },
      "properties": {
        "iconurl": "icons/vehicles_map/mini_trk_support.png",
        "iconrotate": "-110.777",
        "popupContent": "Amazing information about ZIL 131 will be found here!"
      },
      "bf2props": {
        "name": "cpname_hill_488_aas16_vcmain_suporttruck",
        "class": "ObjectSpawner",
        "name_object": "ZIL 131",
        "team": "1",
        "obj1": "nva_trk_support",
        "obj2": "null",
        "maxspawn": "300.0",
        "minspawn": "300.0",
        "spawndelay": "false",
        "ttl": "99999.0",
        "cpid": "4"
      }
    },
    {
      "type": "Feature",
      "geometry": {
        "type": "Point",
        "coordinates": [328.63202, -173.297],
        "size": [16, 16]
      },
      "properties": {
        "iconurl": "icons/vehicles_map/mini_apc_logistics.png",
        "iconrotate": "150.412",
        "popupContent": "Amazing information about null will be found here!"
      },
      "bf2props": {
        "name": "cpname_hill_488_aas16_usmain_4_0",
        "class": "ObjectSpawner",
        "name_object": "M548A1",
        "team": "2",
        "obj1": "null",
        "obj2": "us_trk_m548a1",
        "maxspawn": "300.0",
        "minspawn": "300.0",
        "spawndelay": "false",
        "ttl": "99999.0",
        "cpid": "2"
      }
    },
    {
      "type": "Feature",
      "geometry": {
        "type": "Point",
        "coordinates": [627.14, -866.53],
        "size": [16, 16]
      },
      "properties": {
        "iconurl": "icons/vehicles_map/mini_trk_logistics.png",
        "iconrotate": "-115.136",
        "popupContent": "Amazing information about ZIS-5V will be found here!"
      },
      "bf2props": {
        "name": "cpname_hill_488_aas16_vcmain_0_5",
        "class": "ObjectSpawner",
        "name_object": "ZIS-5V",
        "team": "1",
        "obj1": "nva_trk_zis5",
        "obj2": "null",
        "maxspawn": "300.0",
        "minspawn": "300.0",
        "spawndelay": "false",
        "ttl": "99999.0",
        "cpid": "4"
      }
    },
    {
      "type": "Feature",
      "geometry": {
        "type": "Point",
        "coordinates": [312.026, -170.72],
        "size": [16, 16]
      },
      "properties": {
        "iconurl": "icons/vehicles_map/mini_jep_light.png",
        "iconrotate": "127.785",
        "popupContent": "Amazing information about null will be found here!"
      },
      "bf2props": {
        "name": "cpname_hill_488_aas16_usmain_jeep",
        "class": "ObjectSpawner",
        "name_object": "M151A2",
        "team": "2",
        "obj1": "null",
        "obj2": "us_jep_m151a2",
        "maxspawn": "300.0",
        "minspawn": "300.0",
        "spawndelay": "false",
        "ttl": "99999.0",
        "cpid": "2"
      }
    },
    {
      "type": "Feature",
      "geometry": {
        "type": "Point",
        "coordinates": [317.262, -177.4],
        "size": [16, 16]
      },
      "properties": {
        "iconurl": "icons/vehicles_map/mini_jep_light.png",
        "iconrotate": "116.619",
        "popupContent": "Amazing information about null will be found here!"
      },
      "bf2props": {
        "name": "cpname_hill_488_aas16_usmain_jeep_0",
        "class": "ObjectSpawner",
        "name_object": "M151A2",
        "team": "2",
        "obj1": "null",
        "obj2": "us_jep_m151a2",
        "maxspawn": "300.0",
        "minspawn": "300.0",
        "spawndelay": "false",
        "ttl": "99999.0",
        "cpid": "2"
      }
    },
    {
      "type": "Feature",
      "geometry": {
        "type": "Point",
        "coordinates": [321.45898, -199.858],
        "size": [16, 16]
      },
      "properties": {
        "iconurl": "icons/mini_map/repairdepot.png",
        "iconrotate": "0",
        "popupContent": "Amazing information about null will be found here!"
      },
      "bf2props": {
        "name": "cpname_hill_488_aas16_usmain_us_vehicle_depot",
        "class": "ObjectSpawner",
        "name_object": "Vehicle Depot",
        "team": "2",
        "obj1": "null",
        "obj2": "vehicle_depot_us",
        "maxspawn": "999999.0",
        "minspawn": "999999.0",
        "spawndelay": "false",
        "ttl": "999999.0",
        "cpid": "2"
      }
    },
    {
      "type": "Feature",
      "geometry": {
        "type": "Point",
        "coordinates": [630.745, -872.55],
        "size": [16, 16]
      },
      "properties": {
        "iconurl": "icons/mini_map/repairdepot.png",
        "iconrotate": "0",
        "popupContent": "Amazing information about Vehicle Depot will be found here!"
      },
      "bf2props": {
        "name": "cpname_hill_488_aas16_vcmain_vehicle_depot",
        "class": "ObjectSpawner",
        "name_object": "Vehicle Depot",
        "team": "1",
        "obj1": "vehicle_depot_vnnva",
        "obj2": "null",
        "maxspawn": "999999.0",
        "minspawn": "999999.0",
        "spawndelay": "false",
        "ttl": "999999.0",
        "cpid": "4"
      }
    },
    {
      "type": "Feature",
      "geometry": {
        "type": "Point",
        "coordinates": [622.585, -862.492],
        "size": [16, 16]
      },
      "properties": {
        "iconurl": "icons/vehicles_map/mini_trk_logistics.png",
        "iconrotate": "-140.351",
        "popupContent": "Amazing information about ZIS-5V will be found here!"
      },
      "bf2props": {
        "name": "cpname_hill_488_aas16_vcmain_logi",
        "class": "ObjectSpawner",
        "name_object": "ZIS-5V",
        "team": "1",
        "obj1": "nva_trk_zis5",
        "obj2": "null",
        "maxspawn": "300.0",
        "minspawn": "300.0",
        "spawndelay": "false",
        "ttl": "99999.0",
        "cpid": "4"
      }
    },
    {
      "type": "Feature",
      "geometry": {
        "type": "Point",
        "coordinates": [346.276, -180.854],
        "size": [16, 16]
      },
      "properties": {
        "iconurl": "icons/vehicles_map/mini_apc_logistics.png",
        "iconrotate": "-138.302",
        "popupContent": "Amazing information about null will be found here!"
      },
      "bf2props": {
        "name": "cpname_hill_488_aas16_usmain_logi",
        "class": "ObjectSpawner",
        "name_object": "M548A1",
        "team": "2",
        "obj1": "null",
        "obj2": "us_trk_m548a1",
        "maxspawn": "300.0",
        "minspawn": "300.0",
        "spawndelay": "false",
        "ttl": "99999.0",
        "cpid": "2"
      }
    },
    {
      "type": "Feature",
      "geometry": {
        "type": "Point",
        "coordinates": [830.982, -849.76404],
        "size": [16, 16]
      },
      "properties": {
        "iconurl": "icons/vehicles_map/mini_shp_light_sampan.png",
        "iconrotate": "-162.502",
        "popupContent": "Amazing information about Sampan will be found here!"
      },
      "bf2props": {
        "name": "cpname_hill_488_aas16_vcmain_sampan",
        "class": "ObjectSpawner",
        "name_object": "Sampan",
        "team": "1",
        "obj1": "vc_shp_sampan",
        "obj2": "null",
        "maxspawn": "300.0",
        "minspawn": "300.0",
        "spawndelay": "false",
        "ttl": "99999.0",
        "cpid": "4"
      }
    },
    {
      "type": "Feature",
      "geometry": {
        "type": "Point",
        "coordinates": [702.45, -489.105],
        "size": [33, 33],
        "radius": "45.0"
      },
      "properties": {
        "iconurl": "icons/flags_map/vnnva/minimap_cp.png",
        "iconrotate": "0",
        "popupContent": "Amazing information about East Village 45m will be found here!"
      },
      "bf2props": {
        "name": "cpname_hill_488_aas16_village",
        "class": "ControlPoint",
        "name_object": "East Village 45m",
        "team": "1",
        "areavalue1": "0.0",
        "areavalue2": "0.0",
        "cpid": "3",
        "sgid": "4",
        "uncap": "false",
        "ttgc": "120.0",
        "ttlc": "120.0"
      }
    },
    {
      "type": "Feature",
      "geometry": {
        "type": "Point",
        "coordinates": [278.888, -152.738],
        "size": [33, 33],
        "radius": "60.0"
      },
      "properties": {
        "iconurl": "icons/flags_map/us/minimap_cpbase.png",
        "iconrotate": "0",
        "popupContent": "Amazing information about US Camp will be found here!"
      },
      "bf2props": {
        "name": "cpname_hill_488_aas16_usmain",
        "class": "ControlPoint",
        "name_object": "US Camp",
        "team": "2",
        "areavalue1": "0.0",
        "areavalue2": "0.0",
        "cpid": "2",
        "sgid": "6",
        "uncap": "true",
        "ttgc": "999999.0",
        "ttlc": "999999.0"
      }
    },
    {
      "type": "Feature",
      "geometry": {
        "type": "Point",
        "coordinates": [183.68399, -781.834],
        "size": [33, 33],
        "radius": "50.0"
      },
      "properties": {
        "iconurl": "icons/flags_map/vnnva/minimap_cp.png",
        "iconrotate": "0",
        "popupContent": "Amazing information about West Village 50m will be found here!"
      },
      "bf2props": {
        "name": "cpname_hill_488_aas16_westvillage",
        "class": "ControlPoint",
        "name_object": "West Village 50m",
        "team": "1",
        "areavalue1": "200.0",
        "areavalue2": "0.0",
        "cpid": "1",
        "sgid": "2",
        "uncap": "false",
        "ttgc": "120.0",
        "ttlc": "120.0"
      }
    },
    {
      "type": "Feature",
      "geometry": {
        "type": "Point",
        "coordinates": [726.298, -127.017],
        "size": [33, 33],
        "radius": "50.0"
      },
      "properties": {
        "iconurl": "icons/flags_map/us/minimap_cp.png",
        "iconrotate": "0",
        "popupContent": "Amazing information about NVA Supply Route 50m will be found here!"
      },
      "bf2props": {
        "name": "cpname_hill_488_aas16_vcsupplyroute",
        "class": "ControlPoint",
        "name_object": "NVA Supply Route 50m",
        "team": "2",
        "areavalue1": "0.0",
        "areavalue2": "200.0",
        "cpid": "5",
        "sgid": "5",
        "uncap": "false",
        "ttgc": "120.0",
        "ttlc": "120.0"
      }
    },
    {
      "type": "Feature",
      "geometry": {
        "type": "Point",
        "coordinates": [623.363, -857.114],
        "size": [33, 33],
        "radius": "35.0"
      },
      "properties": {
        "iconurl": "icons/flags_map/vnnva/minimap_cpbase.png",
        "iconrotate": "0",
        "popupContent": "Amazing information about NVA Tunnels will be found here!"
      },
      "bf2props": {
        "name": "cpname_hill_488_aas16_vcmain",
        "class": "ControlPoint",
        "name_object": "NVA Tunnels",
        "team": "1",
        "areavalue1": "0.0",
        "areavalue2": "0.0",
        "cpid": "4",
        "sgid": "1",
        "uncap": "true",
        "ttgc": "999999.0",
        "ttlc": "999999.0"
      }
    },
    {
      "type": "Feature",
      "geometry": {
        "type": "Point",
        "coordinates": [203.819, -430.845],
        "size": [33, 33],
        "radius": "50.0"
      },
      "properties": {
        "iconurl": "icons/flags_map/neutral/minimap_cp.png",
        "iconrotate": "0",
        "popupContent": "Amazing information about Hill 488 50m will be found here!"
      },
      "bf2props": {
        "name": "cpname_hill_488_aas16_hill488",
        "class": "ControlPoint",
        "name_object": "Hill 488 50m",
        "team": "0",
        "areavalue1": "0.0",
        "areavalue2": "0.0",
        "cpid": "8",
        "sgid": "3",
        "uncap": "false",
        "ttgc": "120.0",
        "ttlc": "120.0"
      }
    },
    {
      "type": "Feature",
      "geometry": {
        "type": "Polygon",
        "coordinates": [
          [
            [0,0],
            [0,-1024],
            [1024,-1024],
            [1024,0]
          ],[
            [102.036896, -43.3584],
            [0.0, 0.0],
            [102.036896, -43.3584],
            [119.24213, -38.352722],
            [157.22089, -43.934753],
            [169.67657, -74.207886],
            [219.96506, -71.54706],
            [256.2175, -63.295166],
            [300.83994, -62.12201],
            [342.713, -47.982605],
            [360.5335, -37.99762],
            [477.2635, -35.43518],
            [511.1043, -60.477295],
            [561.9975, -68.30121],
            [609.2171, -77.547],
            [654.6387, -52.867737],
            [713.64777, -33.86786],
            [885.82965, -45.041565],
            [937.1456, -75.22772],
            [975.867, -107.9035],
            [988.06995, -211.2987],
            [979.437, -394.1198],
            [976.2621, -569.53467],
            [982.5076, -656.28577],
            [963.0938, -694.6328],
            [975.7246, -774.09863],
            [972.6588, -803.2938],
            [931.8773, -845.5492],
            [941.94147, -881.66376],
            [918.2325, -927.2075],
            [1024.0, -1024.0],
            [918.2325, -927.2075],
            [895.11127, -975.97656],
            [790.7161, -978.76965],
            [570.3986, -976.68835],
            [459.4737, -969.0768],
            [429.57578, -964.0674],
            [368.46582, -962.27466],
            [298.24374, -948.7154],
            [230.22614, -950.6383],
            [207.5957, -967.5976],
            [154.39154, -967.7903],
            [110.176025, -966.104],
            [75.92432, -955.15564],
            [49.021454, -943.8594],
            [44.02484, -880.2464],
            [54.776672, -831.7357],
            [38.22336, -794.5707],
            [37.658325, -762.5512],
            [52.03018, -739.6904],
            [56.444366, -712.59235],
            [37.82428, -666.86084],
            [29.41864, -649.734],
            [35.811127, -625.1621],
            [33.658997, -602.1234],
            [36.342987, -586.6737],
            [55.954346, -565.4148],
            [67.05582, -534.07434],
            [47.746155, -508.992],
            [42.295135, -502.87262],
            [39.718384, -371.349],
            [47.535828, -206.24908],
            [52.60788, -144.70203],
            [83.18097, -70.17688]
          ]
        ]
      },
      "bf2props": {
        "code": "combatarea_0_conquest_64",
        "class": "CombatArea",
        "team": "0",
        "vehicles": "4",
        "layer": "2",
        "inverted": "false",
        "max": [0.0, 0.0],
        "min": [0.0, 0.0]
      }
    },
    {
      "type": "Feature",
      "geometry": {
        "type": "Polygon",
        "coordinates": [
          [
            [51.6192, -194.91656],
            [56.454376, -146.755],
            [85.846375, -76.19238],
            [102.532684, -53.150146],
            [152.86911, -48.205994],
            [168.06012, -78.8443],
            [300.20245, -65.67981],
            [345.805, -51.417725],
            [361.0146, -43.302307],
            [475.65295, -38.39972],
            [507.8409, -62.581726],
            [572.4458, -72.526855],
            [541.02783, -138.76709],
            [513.6661, -193.81464],
            [444.08966, -299.68494],
            [378.3473, -330.0205],
            [335.1348, -286.69983],
            [299.04593, -273.12463],
            [261.7046, -260.42212],
            [223.20746, -228.37567],
            [185.18964, -212.35681],
            [114.99295, -203.24493]
          ]
        ]
      },
      "bf2props": {
        "code": "combatarea_60_aas_64",
        "class": "CombatArea",
        "team": "1",
        "vehicles": "4",
        "layer": "2",
        "inverted": "true",
        "max": [0.0, 0.0],
        "min": [0.0, 0.0]
      }
    },
    {
      "type": "Feature",
      "geometry": {
        "type": "Polygon",
        "coordinates": [
          [
            [687.6579, -941.7272],
            [636.96594, -948.5464],
            [588.48883, -953.0799],
            [549.7822, -950.3695],
            [541.13214, -939.153],
            [520.838, -927.38513],
            [510.13748, -916.44836],
            [501.8598, -904.2776],
            [498.95502, -896.01715],
            [505.24304, -884.9256],
            [515.27423, -867.6271],
            [515.46497, -849.30096],
            [512.0978, -832.01056],
            [504.1405, -819.2444],
            [501.67654, -800.69006],
            [521.51556, -764.3861],
            [537.7816, -744.3458],
            [567.91705, -734.3236],
            [598.7462, -723.7562],
            [617.7282, -719.4464],
            [638.70544, -727.1913],
            [658.6421, -733.4302],
            [739.4549, -714.68024],
            [804.5543, -708.30396],
            [861.6897, -705.89813],
            [912.9716, -714.2765],
            [965.05145, -721.36334],
            [972.64514, -773.8508],
            [969.00024, -802.5831],
            [929.7511, -843.4351],
            [939.0718, -880.7465],
            [893.2615, -972.71783],
            [790.649, -976.2152]
          ]
        ]
      },
      "bf2props": {
        "code": "combatarea_82_aas_64",
        "class": "CombatArea",
        "team": "2",
        "vehicles": "4",
        "layer": "2",
        "inverted": "true",
        "max": [0.0, 0.0],
        "min": [0.0, 0.0]
      }
    }
  ]
}