{
  "team1":"mec",
  "team2":"idf",
  "team1tickets":"700",
  "team2tickets":"700",
  "mapsize":"1024",
  "viewdistance":"400",
  "combatareause":"true",
  "combatareadamage":"20.0",
  "combatareaallowoutside":"10.0",
  "routes": [
    [
      [
        "cpname_gaza_2_aas32_mecbase"
      ],
      [
        "cpname_gaza_2_aas32_pub"
      ],
      [
        "cpname_gaza_2_aas32_alley2",
        "cpname_gaza_2_aas32_hotel"
      ],
      [
        "cpname_gaza_2_aas32_apts1",
        "cpname_gaza_2_aas32_apts2",
        "cpname_gaza_2_aas32_apts3"
      ],
      [
        "cpname_gaza_2_aas32_mosqueblock",
        "cpname_gaza_2_aas32_mosque1"
      ],
      [
        "cpname_gaza_2_aas32_idfbase"
      ]
    ],
    [
      [
        "cpname_gaza_2_aas32_mecbase"
      ],
      [
        "cpname_gaza_2_aas32_shops",
        "cpname_gaza_2_aas32_shops2"
      ],
      [
        "cpname_gaza_2_aas32_seaside1",
        "cpname_gaza_2_aas32_harbor",
        "cpname_gaza_2_aas32_bomballey"
      ],
      [
        "cpname_gaza_2_aas32_mosque2",
        "cpname_gaza_2_aas32_seahotel"
      ],
      [
        "cpname_gaza_2_aas32_idfbase"
      ]
    ]
  ],
  "type": "FeatureCollection",
  "features": [
    {
      "type": "Feature",
      "geometry": {
        "type": "Point",
        "coordinates": [954.0, -53.0],
        "size": [16, 16]
      },
      "properties": {
        "iconurl": "icons/vehicles_map/mini_apc_light.png",
        "iconrotate": "180.0",
        "popupContent": "Amazing information about null will be found here!"
      },
      "bf2props": {
        "name": "cpname_gaza_2_aas32_idfbase_d",
        "class": "ObjectSpawner",
        "name_object": "M113",
        "team": "2",
        "obj1": "null",
        "obj2": "idf_apc_m113",
        "maxspawn": "600.0",
        "minspawn": "600.0",
        "spawndelay": "false",
        "ttl": "12000.0",
        "cpid": "817"
      }
    },
    {
      "type": "Feature",
      "geometry": {
        "type": "Point",
        "coordinates": [962.0, -53.0],
        "size": [16, 16]
      },
      "properties": {
        "iconurl": "icons/vehicles_map/mini_apc_light.png",
        "iconrotate": "180.0",
        "popupContent": "Amazing information about null will be found here!"
      },
      "bf2props": {
        "name": "cpname_gaza_2_aas32_idfbase_d_0",
        "class": "ObjectSpawner",
        "name_object": "M113",
        "team": "2",
        "obj1": "null",
        "obj2": "idf_apc_m113",
        "maxspawn": "600.0",
        "minspawn": "600.0",
        "spawndelay": "false",
        "ttl": "12000.0",
        "cpid": "817"
      }
    },
    {
      "type": "Feature",
      "geometry": {
        "type": "Point",
        "coordinates": [971.0, -51.0],
        "size": [16, 16]
      },
      "properties": {
        "iconurl": "icons/vehicles_map/mini_jep_medium.png",
        "iconrotate": "180.0",
        "popupContent": "Amazing information about null will be found here!"
      },
      "bf2props": {
        "name": "cpname_gaza_2_aas32_idfbase_d_1",
        "class": "ObjectSpawner",
        "name_object": "HMMWV SIYUR",
        "team": "2",
        "obj1": "null",
        "obj2": "idf_jep_hmmwv",
        "maxspawn": "600.0",
        "minspawn": "600.0",
        "spawndelay": "false",
        "ttl": "12000.0",
        "cpid": "817"
      }
    },
    {
      "type": "Feature",
      "geometry": {
        "type": "Point",
        "coordinates": [975.0, -51.0],
        "size": [16, 16]
      },
      "properties": {
        "iconurl": "icons/vehicles_map/mini_jep_medium.png",
        "iconrotate": "180.0",
        "popupContent": "Amazing information about null will be found here!"
      },
      "bf2props": {
        "name": "cpname_gaza_2_aas32_idfbase_d_2",
        "class": "ObjectSpawner",
        "name_object": "HMMWV SIYUR",
        "team": "2",
        "obj1": "null",
        "obj2": "idf_jep_hmmwv",
        "maxspawn": "600.0",
        "minspawn": "600.0",
        "spawndelay": "false",
        "ttl": "12000.0",
        "cpid": "817"
      }
    },
    {
      "type": "Feature",
      "geometry": {
        "type": "Point",
        "coordinates": [980.0, -51.0],
        "size": [16, 16]
      },
      "properties": {
        "iconurl": "icons/vehicles_map/mini_jep_support.png",
        "iconrotate": "180.0",
        "popupContent": "Amazing information about null will be found here!"
      },
      "bf2props": {
        "name": "cpname_gaza_2_aas32_idfbase_d_3",
        "class": "ObjectSpawner",
        "name_object": "HMMWV SIYUR",
        "team": "2",
        "obj1": "null",
        "obj2": "idf_jep_hmmwvopen",
        "maxspawn": "300.0",
        "minspawn": "300.0",
        "spawndelay": "false",
        "ttl": "12000.0",
        "cpid": "817"
      }
    },
    {
      "type": "Feature",
      "geometry": {
        "type": "Point",
        "coordinates": [933.0, -103.0],
        "size": [16, 16]
      },
      "properties": {
        "iconurl": "icons/mini_map/repairdepot.png",
        "iconrotate": "0",
        "popupContent": "Amazing information about null will be found here!"
      },
      "bf2props": {
        "name": "cpname_gaza_2_aas32_idfbase_d_4",
        "class": "ObjectSpawner",
        "name_object": "Vehicle Depot",
        "team": "2",
        "obj1": "null",
        "obj2": "vehicle_depot_idf",
        "maxspawn": "600.0",
        "minspawn": "600.0",
        "spawndelay": "false",
        "ttl": "12000.0",
        "cpid": "817"
      }
    },
    {
      "type": "Feature",
      "geometry": {
        "type": "Point",
        "coordinates": [907.0, -117.0],
        "size": [16, 16]
      },
      "properties": {
        "iconurl": "icons/mini_map/uavtrailer.png",
        "iconrotate": "0",
        "popupContent": "Amazing information about null will be found here!"
      },
      "bf2props": {
        "name": "cpname_gaza_2_aas32_idfbase_d_5",
        "class": "ObjectSpawner",
        "name_object": "UAV Terminal",
        "team": "2",
        "obj1": "null",
        "obj2": "idf_acv_m557",
        "maxspawn": "300.0",
        "minspawn": "300.0",
        "spawndelay": "false",
        "ttl": "12000.0",
        "cpid": "817"
      }
    },
    {
      "type": "Feature",
      "geometry": {
        "type": "Point",
        "coordinates": [983.0, -92.0],
        "size": [16, 16]
      },
      "properties": {
        "iconurl": "icons/vehicles_map/mini_apc_logistics.png",
        "iconrotate": "-90.0",
        "popupContent": "Amazing information about null will be found here!"
      },
      "bf2props": {
        "name": "cpname_gaza_2_aas32_idfbase_d_6",
        "class": "ObjectSpawner",
        "name_object": "M113 Logistics",
        "team": "2",
        "obj1": "null",
        "obj2": "idf_apc_m113_logistics",
        "maxspawn": "600.0",
        "minspawn": "600.0",
        "spawndelay": "false",
        "ttl": "12000.0",
        "cpid": "817"
      }
    },
    {
      "type": "Feature",
      "geometry": {
        "type": "Point",
        "coordinates": [804.0, -121.49399],
        "size": [16, 16]
      },
      "properties": {
        "iconurl": "icons/vehicles_map/mini_shp_light.png",
        "iconrotate": "-90.0",
        "popupContent": "Amazing information about null will be found here!"
      },
      "bf2props": {
        "name": "cpname_gaza_2_aas32_idfbase_d_8",
        "class": "ObjectSpawner",
        "name_object": "RHIB",
        "team": "2",
        "obj1": "null",
        "obj2": "boat_rib_gpmg_m240b",
        "maxspawn": "300.0",
        "minspawn": "300.0",
        "spawndelay": "false",
        "ttl": "300.0",
        "cpid": "817"
      }
    },
    {
      "type": "Feature",
      "geometry": {
        "type": "Point",
        "coordinates": [983.0, -97.0],
        "size": [16, 16]
      },
      "properties": {
        "iconurl": "icons/vehicles_map/mini_trk_logistics.png",
        "iconrotate": "-90.0",
        "popupContent": "Amazing information about null will be found here!"
      },
      "bf2props": {
        "name": "cpname_gaza_2_aas32_idfbase_d_9",
        "class": "ObjectSpawner",
        "name_object": "M35 Logistics",
        "team": "2",
        "obj1": "null",
        "obj2": "idf_trk_logistics",
        "maxspawn": "300.0",
        "minspawn": "300.0",
        "spawndelay": "false",
        "ttl": "12000.0",
        "cpid": "817"
      }
    },
    {
      "type": "Feature",
      "geometry": {
        "type": "Point",
        "coordinates": [1854.448, -86.5],
        "size": [16, 16]
      },
      "properties": {
        "iconurl": "icons/mini_map/airdef.png",
        "iconrotate": "0",
        "popupContent": "Amazing information about null will be found here!"
      },
      "bf2props": {
        "name": "cpname_gaza_2_aas32_idfbase_d_10",
        "class": "ObjectSpawner",
        "name_object": "Mortar Barrage Call-In",
        "team": "2",
        "obj1": "null",
        "obj2": "mortar_team2",
        "maxspawn": "1200.0",
        "minspawn": "1200.0",
        "spawndelay": "true",
        "ttl": "0.0",
        "cpid": "817"
      }
    },
    {
      "type": "Feature",
      "geometry": {
        "type": "Point",
        "coordinates": [1858.448, -86.5],
        "size": [16, 16]
      },
      "properties": {
        "iconurl": "icons/mini_map/airdef.png",
        "iconrotate": "0",
        "popupContent": "Amazing information about null will be found here!"
      },
      "bf2props": {
        "name": "cpname_gaza_2_aas32_idfbase_d_11",
        "class": "ObjectSpawner",
        "name_object": "Mortar Barrage Call-In",
        "team": "2",
        "obj1": "null",
        "obj2": "mortar_team2",
        "maxspawn": "1200.0",
        "minspawn": "1200.0",
        "spawndelay": "true",
        "ttl": "0.0",
        "cpid": "817"
      }
    },
    {
      "type": "Feature",
      "geometry": {
        "type": "Point",
        "coordinates": [1854.448, -82.5],
        "size": [16, 16]
      },
      "properties": {
        "iconurl": "icons/mini_map/airdef.png",
        "iconrotate": "0",
        "popupContent": "Amazing information about null will be found here!"
      },
      "bf2props": {
        "name": "cpname_gaza_2_aas32_idfbase_d_12",
        "class": "ObjectSpawner",
        "name_object": "Mortar Barrage Call-In",
        "team": "2",
        "obj1": "null",
        "obj2": "mortar_team2",
        "maxspawn": "1200.0",
        "minspawn": "1200.0",
        "spawndelay": "true",
        "ttl": "0.0",
        "cpid": "817"
      }
    },
    {
      "type": "Feature",
      "geometry": {
        "type": "Point",
        "coordinates": [1858.448, -82.5],
        "size": [16, 16]
      },
      "properties": {
        "iconurl": "icons/mini_map/airdef.png",
        "iconrotate": "0",
        "popupContent": "Amazing information about null will be found here!"
      },
      "bf2props": {
        "name": "cpname_gaza_2_aas32_idfbase_d_13",
        "class": "ObjectSpawner",
        "name_object": "Mortar Barrage Call-In",
        "team": "2",
        "obj1": "null",
        "obj2": "mortar_team2",
        "maxspawn": "1200.0",
        "minspawn": "1200.0",
        "spawndelay": "true",
        "ttl": "0.0",
        "cpid": "817"
      }
    },
    {
      "type": "Feature",
      "geometry": {
        "type": "Point",
        "coordinates": [55.0, -958.0],
        "size": [16, 16]
      },
      "properties": {
        "iconurl": "icons/vehicles_map/mini_jep_light.png",
        "iconrotate": "-90.0",
        "popupContent": "Amazing information about UAZ-3151 will be found here!"
      },
      "bf2props": {
        "name": "cpname_gaza_2_aas32_mecbase_d",
        "class": "ObjectSpawner",
        "name_object": "UAZ-3151",
        "team": "1",
        "obj1": "mec_jep_uaz_mg",
        "obj2": "null",
        "maxspawn": "600.0",
        "minspawn": "600.0",
        "spawndelay": "false",
        "ttl": "99999.0",
        "cpid": "816"
      }
    },
    {
      "type": "Feature",
      "geometry": {
        "type": "Point",
        "coordinates": [55.0, -963.0],
        "size": [16, 16]
      },
      "properties": {
        "iconurl": "icons/vehicles_map/mini_jep_support.png",
        "iconrotate": "-90.0",
        "popupContent": "Amazing information about UAZ-3151 Support will be found here!"
      },
      "bf2props": {
        "name": "cpname_gaza_2_aas32_mecbase_d_0",
        "class": "ObjectSpawner",
        "name_object": "UAZ-3151 Support",
        "team": "1",
        "obj1": "mec_jep_uaz",
        "obj2": "null",
        "maxspawn": "300.0",
        "minspawn": "300.0",
        "spawndelay": "false",
        "ttl": "99999.0",
        "cpid": "816"
      }
    },
    {
      "type": "Feature",
      "geometry": {
        "type": "Point",
        "coordinates": [55.0, -954.0],
        "size": [16, 16]
      },
      "properties": {
        "iconurl": "icons/vehicles_map/mini_jep_light.png",
        "iconrotate": "-90.0",
        "popupContent": "Amazing information about UAZ-3151 will be found here!"
      },
      "bf2props": {
        "name": "cpname_gaza_2_aas32_mecbase_d_1",
        "class": "ObjectSpawner",
        "name_object": "UAZ-3151",
        "team": "1",
        "obj1": "mec_jep_uaz_mg",
        "obj2": "null",
        "maxspawn": "600.0",
        "minspawn": "600.0",
        "spawndelay": "false",
        "ttl": "99999.0",
        "cpid": "816"
      }
    },
    {
      "type": "Feature",
      "geometry": {
        "type": "Point",
        "coordinates": [39.0, -1001.0],
        "size": [16, 16]
      },
      "properties": {
        "iconurl": "icons/mini_map/repairdepot.png",
        "iconrotate": "0",
        "popupContent": "Amazing information about Vehicle Depot will be found here!"
      },
      "bf2props": {
        "name": "cpname_gaza_2_aas32_mecbase_d_2",
        "class": "ObjectSpawner",
        "name_object": "Vehicle Depot",
        "team": "1",
        "obj1": "vehicle_depot_mec",
        "obj2": "null",
        "maxspawn": "600.0",
        "minspawn": "600.0",
        "spawndelay": "false",
        "ttl": "12000.0",
        "cpid": "816"
      }
    },
    {
      "type": "Feature",
      "geometry": {
        "type": "Point",
        "coordinates": [31.0, -964.0],
        "size": [16, 16]
      },
      "properties": {
        "iconurl": "icons/vehicles_map/mini_trk_logistics.png",
        "iconrotate": "45.0",
        "popupContent": "Amazing information about Ural-4320 Logistics will be found here!"
      },
      "bf2props": {
        "name": "cpname_gaza_2_aas32_mecbase_d_3",
        "class": "ObjectSpawner",
        "name_object": "Ural-4320 Logistics",
        "team": "1",
        "obj1": "mec_trk_logistics",
        "obj2": "null",
        "maxspawn": "300.0",
        "minspawn": "300.0",
        "spawndelay": "false",
        "ttl": "12000.0",
        "cpid": "816"
      }
    },
    {
      "type": "Feature",
      "geometry": {
        "type": "Point",
        "coordinates": [33.0, -950.0],
        "size": [16, 16]
      },
      "properties": {
        "iconurl": "icons/vehicles_map/mini_apc_light.png",
        "iconrotate": "90.0",
        "popupContent": "Amazing information about MT-LB 6M will be found here!"
      },
      "bf2props": {
        "name": "cpname_gaza_2_aas32_mecbase_d_4",
        "class": "ObjectSpawner",
        "name_object": "MT-LB 6M",
        "team": "1",
        "obj1": "mec_apc_mtlb_hmg",
        "obj2": "null",
        "maxspawn": "600.0",
        "minspawn": "600.0",
        "spawndelay": "false",
        "ttl": "12000.0",
        "cpid": "816"
      }
    },
    {
      "type": "Feature",
      "geometry": {
        "type": "Point",
        "coordinates": [30.0, -982.0],
        "size": [16, 16]
      },
      "properties": {
        "iconurl": "icons/mini_map/uavtrailer.png",
        "iconrotate": "0",
        "popupContent": "Amazing information about UAV Terminal will be found here!"
      },
      "bf2props": {
        "name": "cpname_gaza_2_aas32_mecbase_d_7",
        "class": "ObjectSpawner",
        "name_object": "UAV Terminal",
        "team": "1",
        "obj1": "mec_acv_btr60pu",
        "obj2": "null",
        "maxspawn": "300.0",
        "minspawn": "300.0",
        "spawndelay": "false",
        "ttl": "12000.0",
        "cpid": "816"
      }
    },
    {
      "type": "Feature",
      "geometry": {
        "type": "Point",
        "coordinates": [31.0, -969.0],
        "size": [16, 16]
      },
      "properties": {
        "iconurl": "icons/vehicles_map/mini_trk_logistics.png",
        "iconrotate": "45.0",
        "popupContent": "Amazing information about Ural-4320 Logistics will be found here!"
      },
      "bf2props": {
        "name": "cpname_gaza_2_aas32_mecbase_d_8",
        "class": "ObjectSpawner",
        "name_object": "Ural-4320 Logistics",
        "team": "1",
        "obj1": "mec_trk_logistics",
        "obj2": "null",
        "maxspawn": "300.0",
        "minspawn": "300.0",
        "spawndelay": "false",
        "ttl": "12000.0",
        "cpid": "816"
      }
    },
    {
      "type": "Feature",
      "geometry": {
        "type": "Point",
        "coordinates": [33.0, -955.0],
        "size": [16, 16]
      },
      "properties": {
        "iconurl": "icons/vehicles_map/mini_apc_light.png",
        "iconrotate": "90.0",
        "popupContent": "Amazing information about MT-LB 6M will be found here!"
      },
      "bf2props": {
        "name": "cpname_gaza_2_aas32_mecbase_d_9",
        "class": "ObjectSpawner",
        "name_object": "MT-LB 6M",
        "team": "1",
        "obj1": "mec_apc_mtlb_hmg",
        "obj2": "null",
        "maxspawn": "600.0",
        "minspawn": "600.0",
        "spawndelay": "false",
        "ttl": "99999.0",
        "cpid": "816"
      }
    },
    {
      "type": "Feature",
      "geometry": {
        "type": "Point",
        "coordinates": [-467.479, -1010.0],
        "size": [16, 16]
      },
      "properties": {
        "iconurl": "icons/mini_map/airdef.png",
        "iconrotate": "0",
        "popupContent": "Amazing information about Mortar Barrage Call-In will be found here!"
      },
      "bf2props": {
        "name": "cpname_gaza_2_aas32_mecbase_d_10",
        "class": "ObjectSpawner",
        "name_object": "Mortar Barrage Call-In",
        "team": "1",
        "obj1": "mortar_team1",
        "obj2": "null",
        "maxspawn": "1200.0",
        "minspawn": "1200.0",
        "spawndelay": "true",
        "ttl": "0.0",
        "cpid": "816"
      }
    },
    {
      "type": "Feature",
      "geometry": {
        "type": "Point",
        "coordinates": [-463.479, -1010.0],
        "size": [16, 16]
      },
      "properties": {
        "iconurl": "icons/mini_map/airdef.png",
        "iconrotate": "0",
        "popupContent": "Amazing information about Mortar Barrage Call-In will be found here!"
      },
      "bf2props": {
        "name": "cpname_gaza_2_aas32_mecbase_d_11",
        "class": "ObjectSpawner",
        "name_object": "Mortar Barrage Call-In",
        "team": "1",
        "obj1": "mortar_team1",
        "obj2": "null",
        "maxspawn": "1200.0",
        "minspawn": "1200.0",
        "spawndelay": "true",
        "ttl": "0.0",
        "cpid": "816"
      }
    },
    {
      "type": "Feature",
      "geometry": {
        "type": "Point",
        "coordinates": [-467.479, -1014.0],
        "size": [16, 16]
      },
      "properties": {
        "iconurl": "icons/mini_map/airdef.png",
        "iconrotate": "0",
        "popupContent": "Amazing information about Mortar Barrage Call-In will be found here!"
      },
      "bf2props": {
        "name": "cpname_gaza_2_aas32_mecbase_d_12",
        "class": "ObjectSpawner",
        "name_object": "Mortar Barrage Call-In",
        "team": "1",
        "obj1": "mortar_team1",
        "obj2": "null",
        "maxspawn": "1200.0",
        "minspawn": "1200.0",
        "spawndelay": "true",
        "ttl": "0.0",
        "cpid": "816"
      }
    },
    {
      "type": "Feature",
      "geometry": {
        "type": "Point",
        "coordinates": [-463.479, -1014.0],
        "size": [16, 16]
      },
      "properties": {
        "iconurl": "icons/mini_map/airdef.png",
        "iconrotate": "0",
        "popupContent": "Amazing information about Mortar Barrage Call-In will be found here!"
      },
      "bf2props": {
        "name": "cpname_gaza_2_aas32_mecbase_d_13",
        "class": "ObjectSpawner",
        "name_object": "Mortar Barrage Call-In",
        "team": "1",
        "obj1": "mortar_team1",
        "obj2": "null",
        "maxspawn": "1200.0",
        "minspawn": "1200.0",
        "spawndelay": "true",
        "ttl": "0.0",
        "cpid": "816"
      }
    },
    {
      "type": "Feature",
      "geometry": {
        "type": "Point",
        "coordinates": [31.0, -974.0],
        "size": [16, 16]
      },
      "properties": {
        "iconurl": "icons/vehicles_map/mini_trk_logistics.png",
        "iconrotate": "45.0",
        "popupContent": "Amazing information about Ural-4320 Logistics will be found here!"
      },
      "bf2props": {
        "name": "cpname_gaza_2_aas32_mecbase_d_14",
        "class": "ObjectSpawner",
        "name_object": "Ural-4320 Logistics",
        "team": "1",
        "obj1": "mec_trk_logistics",
        "obj2": "null",
        "maxspawn": "300.0",
        "minspawn": "300.0",
        "spawndelay": "false",
        "ttl": "12000.0",
        "cpid": "816"
      }
    },
    {
      "type": "Feature",
      "geometry": {
        "type": "Point",
        "coordinates": [983.0, -101.0],
        "size": [16, 16]
      },
      "properties": {
        "iconurl": "icons/vehicles_map/mini_trk_logistics.png",
        "iconrotate": "-90.0",
        "popupContent": "Amazing information about null will be found here!"
      },
      "bf2props": {
        "name": "cpname_gaza_2_aas32_idfbase_t",
        "class": "ObjectSpawner",
        "name_object": "M35 Logistics",
        "team": "2",
        "obj1": "null",
        "obj2": "idf_trk_logistics",
        "maxspawn": "300.0",
        "minspawn": "300.0",
        "spawndelay": "false",
        "ttl": "12000.0",
        "cpid": "817"
      }
    },
    {
      "type": "Feature",
      "geometry": {
        "type": "Point",
        "coordinates": [325.0, -913.0],
        "size": [33, 33],
        "radius": "50.0"
      },
      "properties": {
        "iconurl": "icons/flags_map/neutral/minimap_cp.png",
        "iconrotate": "0",
        "popupContent": "Amazing information about Office 50m will be found here!"
      },
      "bf2props": {
        "name": "cpname_gaza_2_aas32_pub",
        "class": "ControlPoint",
        "name_object": "Office 50m",
        "team": "0",
        "areavalue1": "0.0",
        "areavalue2": "100.0",
        "cpid": "801",
        "sgid": "211",
        "uncap": "false",
        "ttgc": "180.0",
        "ttlc": "180.0"
      }
    },
    {
      "type": "Feature",
      "geometry": {
        "type": "Point",
        "coordinates": [485.0, -832.0],
        "size": [33, 33],
        "radius": "50.0"
      },
      "properties": {
        "iconurl": "icons/flags_map/neutral/minimap_cp.png",
        "iconrotate": "0",
        "popupContent": "Amazing information about Alley 50m will be found here!"
      },
      "bf2props": {
        "name": "cpname_gaza_2_aas32_alley2",
        "class": "ControlPoint",
        "name_object": "Alley 50m",
        "team": "0",
        "areavalue1": "0.0",
        "areavalue2": "0.0",
        "cpid": "802",
        "sgid": "311",
        "uncap": "false",
        "ttgc": "180.0",
        "ttlc": "180.0"
      }
    },
    {
      "type": "Feature",
      "geometry": {
        "type": "Point",
        "coordinates": [554.0, -868.0],
        "size": [33, 33],
        "radius": "50.0"
      },
      "properties": {
        "iconurl": "icons/flags_map/neutral/minimap_cp.png",
        "iconrotate": "0",
        "popupContent": "Amazing information about Hotel 50m will be found here!"
      },
      "bf2props": {
        "name": "cpname_gaza_2_aas32_hotel",
        "class": "ControlPoint",
        "name_object": "Hotel 50m",
        "team": "0",
        "areavalue1": "0.0",
        "areavalue2": "0.0",
        "cpid": "803",
        "sgid": "311",
        "uncap": "false",
        "ttgc": "180.0",
        "ttlc": "180.0"
      }
    },
    {
      "type": "Feature",
      "geometry": {
        "type": "Point",
        "coordinates": [696.0, -884.0],
        "size": [33, 33],
        "radius": "65.0"
      },
      "properties": {
        "iconurl": "icons/flags_map/neutral/minimap_cp.png",
        "iconrotate": "0",
        "popupContent": "Amazing information about Apartments 65m will be found here!"
      },
      "bf2props": {
        "name": "cpname_gaza_2_aas32_apts1",
        "class": "ControlPoint",
        "name_object": "Apartments 65m",
        "team": "0",
        "areavalue1": "0.0",
        "areavalue2": "0.0",
        "cpid": "804",
        "sgid": "411",
        "uncap": "false",
        "ttgc": "180.0",
        "ttlc": "180.0"
      }
    },
    {
      "type": "Feature",
      "geometry": {
        "type": "Point",
        "coordinates": [813.0, -818.0],
        "size": [33, 33],
        "radius": "65.0"
      },
      "properties": {
        "iconurl": "icons/flags_map/neutral/minimap_cp.png",
        "iconrotate": "0",
        "popupContent": "Amazing information about Apartments 65m will be found here!"
      },
      "bf2props": {
        "name": "cpname_gaza_2_aas32_apts2",
        "class": "ControlPoint",
        "name_object": "Apartments 65m",
        "team": "0",
        "areavalue1": "0.0",
        "areavalue2": "0.0",
        "cpid": "805",
        "sgid": "411",
        "uncap": "false",
        "ttgc": "180.0",
        "ttlc": "180.0"
      }
    },
    {
      "type": "Feature",
      "geometry": {
        "type": "Point",
        "coordinates": [715.0, -818.0],
        "size": [33, 33],
        "radius": "65.0"
      },
      "properties": {
        "iconurl": "icons/flags_map/neutral/minimap_cp.png",
        "iconrotate": "0",
        "popupContent": "Amazing information about Apartments 65m will be found here!"
      },
      "bf2props": {
        "name": "cpname_gaza_2_aas32_apts3",
        "class": "ControlPoint",
        "name_object": "Apartments 65m",
        "team": "0",
        "areavalue1": "0.0",
        "areavalue2": "0.0",
        "cpid": "806",
        "sgid": "411",
        "uncap": "false",
        "ttgc": "180.0",
        "ttlc": "180.0"
      }
    },
    {
      "type": "Feature",
      "geometry": {
        "type": "Point",
        "coordinates": [834.0, -641.0],
        "size": [33, 33],
        "radius": "65.0"
      },
      "properties": {
        "iconurl": "icons/flags_map/neutral/minimap_cp.png",
        "iconrotate": "0",
        "popupContent": "Amazing information about Mosque Area 65m will be found here!"
      },
      "bf2props": {
        "name": "cpname_gaza_2_aas32_mosqueblock",
        "class": "ControlPoint",
        "name_object": "Mosque Area 65m",
        "team": "0",
        "areavalue1": "100.0",
        "areavalue2": "0.0",
        "cpid": "807",
        "sgid": "511",
        "uncap": "false",
        "ttgc": "180.0",
        "ttlc": "180.0"
      }
    },
    {
      "type": "Feature",
      "geometry": {
        "type": "Point",
        "coordinates": [754.0, -577.0],
        "size": [33, 33],
        "radius": "50.0"
      },
      "properties": {
        "iconurl": "icons/flags_map/neutral/minimap_cp.png",
        "iconrotate": "0",
        "popupContent": "Amazing information about Mosque 50m will be found here!"
      },
      "bf2props": {
        "name": "cpname_gaza_2_aas32_mosque1",
        "class": "ControlPoint",
        "name_object": "Mosque 50m",
        "team": "0",
        "areavalue1": "100.0",
        "areavalue2": "0.0",
        "cpid": "808",
        "sgid": "511",
        "uncap": "false",
        "ttgc": "180.0",
        "ttlc": "180.0"
      }
    },
    {
      "type": "Feature",
      "geometry": {
        "type": "Point",
        "coordinates": [271.0, -736.0],
        "size": [33, 33],
        "radius": "50.0"
      },
      "properties": {
        "iconurl": "icons/flags_map/neutral/minimap_cp.png",
        "iconrotate": "0",
        "popupContent": "Amazing information about Shops 50m will be found here!"
      },
      "bf2props": {
        "name": "cpname_gaza_2_aas32_shops",
        "class": "ControlPoint",
        "name_object": "Shops 50m",
        "team": "0",
        "areavalue1": "0.0",
        "areavalue2": "100.0",
        "cpid": "809",
        "sgid": "212",
        "uncap": "false",
        "ttgc": "180.0",
        "ttlc": "180.0"
      }
    },
    {
      "type": "Feature",
      "geometry": {
        "type": "Point",
        "coordinates": [449.0, -677.0],
        "size": [33, 33],
        "radius": "75.0"
      },
      "properties": {
        "iconurl": "icons/flags_map/neutral/minimap_cp.png",
        "iconrotate": "0",
        "popupContent": "Amazing information about Seaside 75m will be found here!"
      },
      "bf2props": {
        "name": "cpname_gaza_2_aas32_seaside1",
        "class": "ControlPoint",
        "name_object": "Seaside 75m",
        "team": "0",
        "areavalue1": "0.0",
        "areavalue2": "0.0",
        "cpid": "810",
        "sgid": "312",
        "uncap": "false",
        "ttgc": "180.0",
        "ttlc": "180.0"
      }
    },
    {
      "type": "Feature",
      "geometry": {
        "type": "Point",
        "coordinates": [381.0, -526.0],
        "size": [33, 33],
        "radius": "75.0"
      },
      "properties": {
        "iconurl": "icons/flags_map/neutral/minimap_cp.png",
        "iconrotate": "0",
        "popupContent": "Amazing information about Harbor 75m will be found here!"
      },
      "bf2props": {
        "name": "cpname_gaza_2_aas32_harbor",
        "class": "ControlPoint",
        "name_object": "Harbor 75m",
        "team": "0",
        "areavalue1": "0.0",
        "areavalue2": "0.0",
        "cpid": "811",
        "sgid": "312",
        "uncap": "false",
        "ttgc": "180.0",
        "ttlc": "180.0"
      }
    },
    {
      "type": "Feature",
      "geometry": {
        "type": "Point",
        "coordinates": [585.0, -746.0],
        "size": [33, 33],
        "radius": "75.0"
      },
      "properties": {
        "iconurl": "icons/flags_map/neutral/minimap_cp.png",
        "iconrotate": "0",
        "popupContent": "Amazing information about Bombed Alley 75m will be found here!"
      },
      "bf2props": {
        "name": "cpname_gaza_2_aas32_bomballey",
        "class": "ControlPoint",
        "name_object": "Bombed Alley 75m",
        "team": "0",
        "areavalue1": "0.0",
        "areavalue2": "0.0",
        "cpid": "812",
        "sgid": "312",
        "uncap": "false",
        "ttgc": "180.0",
        "ttlc": "180.0"
      }
    },
    {
      "type": "Feature",
      "geometry": {
        "type": "Point",
        "coordinates": [739.0, -581.0],
        "size": [33, 33],
        "radius": "75.0"
      },
      "properties": {
        "iconurl": "icons/flags_map/neutral/minimap_cp.png",
        "iconrotate": "0",
        "popupContent": "Amazing information about Mosque 75m will be found here!"
      },
      "bf2props": {
        "name": "cpname_gaza_2_aas32_mosque2",
        "class": "ControlPoint",
        "name_object": "Mosque 75m",
        "team": "0",
        "areavalue1": "100.0",
        "areavalue2": "0.0",
        "cpid": "813",
        "sgid": "412",
        "uncap": "false",
        "ttgc": "180.0",
        "ttlc": "180.0"
      }
    },
    {
      "type": "Feature",
      "geometry": {
        "type": "Point",
        "coordinates": [637.0, -464.0],
        "size": [33, 33],
        "radius": "75.0"
      },
      "properties": {
        "iconurl": "icons/flags_map/neutral/minimap_cp.png",
        "iconrotate": "0",
        "popupContent": "Amazing information about Seaside Hotel 75m will be found here!"
      },
      "bf2props": {
        "name": "cpname_gaza_2_aas32_seahotel",
        "class": "ControlPoint",
        "name_object": "Seaside Hotel 75m",
        "team": "0",
        "areavalue1": "100.0",
        "areavalue2": "0.0",
        "cpid": "814",
        "sgid": "412",
        "uncap": "false",
        "ttgc": "180.0",
        "ttlc": "180.0"
      }
    },
    {
      "type": "Feature",
      "geometry": {
        "type": "Point",
        "coordinates": [339.0, -804.0],
        "size": [33, 33],
        "radius": "50.0"
      },
      "properties": {
        "iconurl": "icons/flags_map/neutral/minimap_cp.png",
        "iconrotate": "0",
        "popupContent": "Amazing information about Shops 50m will be found here!"
      },
      "bf2props": {
        "name": "cpname_gaza_2_aas32_shops2",
        "class": "ControlPoint",
        "name_object": "Shops 50m",
        "team": "0",
        "areavalue1": "0.0",
        "areavalue2": "100.0",
        "cpid": "815",
        "sgid": "212",
        "uncap": "false",
        "ttgc": "180.0",
        "ttlc": "180.0"
      }
    },
    {
      "type": "Feature",
      "geometry": {
        "type": "Point",
        "coordinates": [62.78, -937.105],
        "size": [33, 33],
        "radius": "0.0"
      },
      "properties": {
        "iconurl": "icons/flags_map/mec/minimap_cpbase.png",
        "iconrotate": "0",
        "popupContent": "Amazing information about MEC Operations Base will be found here!"
      },
      "bf2props": {
        "name": "cpname_gaza_2_aas32_mecbase",
        "class": "ControlPoint",
        "name_object": "MEC Operations Base",
        "team": "1",
        "areavalue1": "0.0",
        "areavalue2": "0.0",
        "cpid": "816",
        "sgid": "10",
        "uncap": "true",
        "ttgc": "180.0",
        "ttlc": "180.0"
      }
    },
    {
      "type": "Feature",
      "geometry": {
        "type": "Point",
        "coordinates": [906.0, -132.0],
        "size": [33, 33],
        "radius": "0.0"
      },
      "properties": {
        "iconurl": "icons/flags_map/idf/minimap_cpbase.png",
        "iconrotate": "0",
        "popupContent": "Amazing information about IDF Operations Base will be found here!"
      },
      "bf2props": {
        "name": "cpname_gaza_2_aas32_idfbase",
        "class": "ControlPoint",
        "name_object": "IDF Operations Base",
        "team": "2",
        "areavalue1": "0.0",
        "areavalue2": "0.0",
        "cpid": "817",
        "sgid": "-999",
        "uncap": "true",
        "ttgc": "180.0",
        "ttlc": "180.0"
      }
    },
    {
      "type": "Feature",
      "geometry": {
        "type": "Polygon",
        "coordinates": [
          [
            [182.17883, -1022.0127],
            [178.12378, -985.1686],
            [171.92639, -974.9223],
            [171.80847, -936.29663],
            [161.84201, -936.0187],
            [162.15369, -895.53125],
            [165.32458, -883.5329],
            [164.534, -846.75757],
            [164.78183, -823.006],
            [156.90564, -800.9249],
            [138.72137, -743.8104],
            [128.13712, -723.1061],
            [111.627594, -702.76855],
            [-0.15740967, -770.93616],
            [2.0110474, -1022.01733]
          ]
        ]
      },
      "bf2props": {
        "code": "combatarea_0_aas32",
        "class": "CombatArea",
        "team": "2",
        "vehicles": "4",
        "layer": "9",
        "inverted": "true",
        "max": [0.0, 0.0],
        "min": [0.0, 0.0]
      }
    },
    {
      "type": "Feature",
      "geometry": {
        "type": "Polygon",
        "coordinates": [
          [
            [0,0],
            [0,-1024],
            [1024,-1024],
            [1024,0]
          ],[
            [1015.682, -8.225525],
            [790.04504, -9.799561],
            [6.0071716, -6.2626953],
            [7.61911, -748.0492],
            [5.609131, -774.1255],
            [4.9503784, -795.93884],
            [4.0720215, -822.02277],
            [3.3848572, -842.8041],
            [2.673645, -1001.4964],
            [4.145172, -1018.96216],
            [255.86716, -1018.30896],
            [280.04968, -1017.872],
            [301.14624, -1018.0565],
            [330.177, -1017.36835],
            [338.31628, -1017.3003],
            [410.18268, -1018.38525],
            [447.04126, -1016.25],
            [463.84302, -1015.8643],
            [888.10565, -1017.3988],
            [909.1798, -1017.7159],
            [1014.35175, -1015.2931],
            [1014.6211, -971.5491],
            [1016.2518, -914.5591],
            [1016.195, -894.98413],
            [1020.521, -860.9629],
            [1015.80975, -709.0327],
            [1015.28625, -687.00134],
            [1014.10126, -586.0343],
            [1014.0835, -573.8871],
            [1014.0951, -312.17798],
            [1012.01825, -284.10516],
            [1017.5657, -254.6399]
          ]
        ]
      },
      "bf2props": {
        "code": "combatarea_15_aas32",
        "class": "CombatArea",
        "team": "0",
        "vehicles": "4",
        "layer": "9",
        "inverted": "false",
        "max": [0.0, 0.0],
        "min": [0.0, 0.0]
      }
    },
    {
      "type": "Feature",
      "geometry": {
        "type": "Polygon",
        "coordinates": [
          [
            [688.1564, -278.09967],
            [724.6627, -329.4843],
            [792.31805, -345.9596],
            [827.5518, -406.28644],
            [911.04706, -433.75958],
            [1020.58215, -438.16296],
            [1021.2922, -4.298523],
            [485.61496, -2.3566895]
          ]
        ]
      },
      "bf2props": {
        "code": "combatarea_47_aas32",
        "class": "CombatArea",
        "team": "1",
        "vehicles": "4",
        "layer": "9",
        "inverted": "true",
        "max": [0.0, 0.0],
        "min": [0.0, 0.0]
      }
    }
  ]
}