{
  "team1":"taliban",
  "team2":"us",
  "team1tickets":"4",
  "team2tickets":"600",
  "mapsize":"4096",
  "viewdistance":"1000",
  "combatareause":"true",
  "combatareadamage":"20.0",
  "combatareaallowoutside":"30.0",
  "routes": [
  ],
  "type": "FeatureCollection",
  "features": [
    {
      "type": "Feature",
      "geometry": {
        "type": "Point",
        "coordinates": [3991.915, -295.33105],
        "size": [16, 16]
      },
      "properties": {
        "iconurl": "icons/mini_map/repairdepot.png",
        "iconrotate": "0",
        "popupContent": "Amazing information about Vehicle Depot will be found here!"
      },
      "bf2props": {
        "name": "cpname_bamyan_insurgency64_opformain_depot",
        "class": "ObjectSpawner",
        "name_object": "Vehicle Depot",
        "team": "1",
        "obj1": "vehicle_depot_tal",
        "obj2": "null",
        "maxspawn": "0.0",
        "minspawn": "0.0",
        "spawndelay": "false",
        "ttl": "0.0",
        "cpid": "402"
      }
    },
    {
      "type": "Feature",
      "geometry": {
        "type": "Point",
        "coordinates": [4018.5781, -273.891],
        "size": [16, 16]
      },
      "properties": {
        "iconurl": "icons/vehicles_map/mini_civ_car.png",
        "iconrotate": "180.0",
        "popupContent": "Amazing information about Zastava 900AK Van will be found here!"
      },
      "bf2props": {
        "name": "cpname_bamyan_insurgency64_opformain_car1",
        "class": "ObjectSpawner",
        "name_object": "Zastava 900AK Van",
        "team": "1",
        "obj1": "civ_jep_zastava900ak",
        "obj2": "null",
        "maxspawn": "300.0",
        "minspawn": "300.0",
        "spawndelay": "false",
        "ttl": "99999.0",
        "cpid": "402"
      }
    },
    {
      "type": "Feature",
      "geometry": {
        "type": "Point",
        "coordinates": [4022.81, -273.885],
        "size": [16, 16]
      },
      "properties": {
        "iconurl": "icons/vehicles_map/mini_jep_logistics.png",
        "iconrotate": "180.0",
        "popupContent": "Amazing information about Logistics Technical will be found here!"
      },
      "bf2props": {
        "name": "cpname_bamyan_insurgency64_opformain_car2",
        "class": "ObjectSpawner",
        "name_object": "Logistics Technical",
        "team": "1",
        "obj1": "civ_jep_support_logistics",
        "obj2": "null",
        "maxspawn": "300.0",
        "minspawn": "300.0",
        "spawndelay": "false",
        "ttl": "99999.0",
        "cpid": "402"
      }
    },
    {
      "type": "Feature",
      "geometry": {
        "type": "Point",
        "coordinates": [4027.0479, -273.859],
        "size": [16, 16]
      },
      "properties": {
        "iconurl": "icons/vehicles_map/mini_jep_logistics.png",
        "iconrotate": "180.0",
        "popupContent": "Amazing information about Logistics Technical will be found here!"
      },
      "bf2props": {
        "name": "cpname_bamyan_insurgency64_opformain_car3",
        "class": "ObjectSpawner",
        "name_object": "Logistics Technical",
        "team": "1",
        "obj1": "civ_jep_support_logistics",
        "obj2": "null",
        "maxspawn": "300.0",
        "minspawn": "300.0",
        "spawndelay": "false",
        "ttl": "99999.0",
        "cpid": "402"
      }
    },
    {
      "type": "Feature",
      "geometry": {
        "type": "Point",
        "coordinates": [4031.175, -273.79297],
        "size": [16, 16]
      },
      "properties": {
        "iconurl": "icons/vehicles_map/mini_civ_car.png",
        "iconrotate": "180.0",
        "popupContent": "Amazing information about Zastava 900AK Van will be found here!"
      },
      "bf2props": {
        "name": "cpname_bamyan_insurgency64_opformain_car4",
        "class": "ObjectSpawner",
        "name_object": "Zastava 900AK Van",
        "team": "1",
        "obj1": "civ_jep_zastava900ak",
        "obj2": "null",
        "maxspawn": "300.0",
        "minspawn": "300.0",
        "spawndelay": "false",
        "ttl": "99999.0",
        "cpid": "402"
      }
    },
    {
      "type": "Feature",
      "geometry": {
        "type": "Point",
        "coordinates": [4035.145, -273.82996],
        "size": [16, 16]
      },
      "properties": {
        "iconurl": "icons/vehicles_map/mini_civ_car.png",
        "iconrotate": "180.0",
        "popupContent": "Amazing information about Zastava 900AK Van will be found here!"
      },
      "bf2props": {
        "name": "cpname_bamyan_insurgency64_opformain_car5",
        "class": "ObjectSpawner",
        "name_object": "Zastava 900AK Van",
        "team": "1",
        "obj1": "civ_jep_zastava900ak",
        "obj2": "null",
        "maxspawn": "300.0",
        "minspawn": "300.0",
        "spawndelay": "false",
        "ttl": "99999.0",
        "cpid": "402"
      }
    },
    {
      "type": "Feature",
      "geometry": {
        "type": "Point",
        "coordinates": [4039.051, -273.823],
        "size": [16, 16]
      },
      "properties": {
        "iconurl": "icons/vehicles_map/mini_civ_car.png",
        "iconrotate": "180.0",
        "popupContent": "Amazing information about Zastava 900AK Van will be found here!"
      },
      "bf2props": {
        "name": "cpname_bamyan_insurgency64_opformain_car6",
        "class": "ObjectSpawner",
        "name_object": "Zastava 900AK Van",
        "team": "1",
        "obj1": "civ_jep_zastava900ak",
        "obj2": "null",
        "maxspawn": "300.0",
        "minspawn": "300.0",
        "spawndelay": "false",
        "ttl": "99999.0",
        "cpid": "402"
      }
    },
    {
      "type": "Feature",
      "geometry": {
        "type": "Point",
        "coordinates": [4012.925, -274.807],
        "size": [16, 16]
      },
      "properties": {
        "iconurl": "icons/vehicles_map/mini_jep_light.png",
        "iconrotate": "140.732",
        "popupContent": "Amazing information about M2HB Technical will be found here!"
      },
      "bf2props": {
        "name": "cpname_bamyan_insurgency64_opformain_mg1",
        "class": "ObjectSpawner",
        "name_object": "M2HB Technical",
        "team": "1",
        "obj1": "civ_jep_technical_black",
        "obj2": "null",
        "maxspawn": "600.0",
        "minspawn": "600.0",
        "spawndelay": "false",
        "ttl": "99999.0",
        "cpid": "402"
      }
    },
    {
      "type": "Feature",
      "geometry": {
        "type": "Point",
        "coordinates": [4046.351, -289.11694],
        "size": [16, 16]
      },
      "properties": {
        "iconurl": "icons/vehicles_map/mini_adv_light.png",
        "iconrotate": "-136.078",
        "popupContent": "Amazing information about Ural-4320 ZU-23-2 will be found here!"
      },
      "bf2props": {
        "name": "cpname_bamyan_insurgency64_opformain_aav1",
        "class": "ObjectSpawner",
        "name_object": "Ural-4320 ZU-23-2",
        "team": "1",
        "obj1": "civ_aav_uralzu232",
        "obj2": "null",
        "maxspawn": "600.0",
        "minspawn": "600.0",
        "spawndelay": "false",
        "ttl": "99999.0",
        "cpid": "402"
      }
    },
    {
      "type": "Feature",
      "geometry": {
        "type": "Point",
        "coordinates": [4045.242, -281.42896],
        "size": [16, 16]
      },
      "properties": {
        "iconurl": "icons/vehicles_map/mini_adv_light.png",
        "iconrotate": "-136.078",
        "popupContent": "Amazing information about Ural-4320 ZU-23-2 will be found here!"
      },
      "bf2props": {
        "name": "cpname_bamyan_insurgency64_opformain_aav2",
        "class": "ObjectSpawner",
        "name_object": "Ural-4320 ZU-23-2",
        "team": "1",
        "obj1": "civ_aav_uralzu232",
        "obj2": "null",
        "maxspawn": "600.0",
        "minspawn": "600.0",
        "spawndelay": "false",
        "ttl": "99999.0",
        "cpid": "402"
      }
    },
    {
      "type": "Feature",
      "geometry": {
        "type": "Point",
        "coordinates": [2009.029, -3794.87],
        "size": [16, 16]
      },
      "properties": {
        "iconurl": "icons/vehicles_map/mini_jep_medium.png",
        "iconrotate": "-19.1",
        "popupContent": "Amazing information about null will be found here!"
      },
      "bf2props": {
        "name": "cpname_bamyan_insurgency64_blueformain_jeep3",
        "class": "ObjectSpawner",
        "name_object": "M1151 Up-Armored HMMWV",
        "team": "2",
        "obj1": "null",
        "obj2": "us_jep_hmmwv_uparmored",
        "maxspawn": "300.0",
        "minspawn": "300.0",
        "spawndelay": "false",
        "ttl": "99999.0",
        "cpid": "401"
      }
    },
    {
      "type": "Feature",
      "geometry": {
        "type": "Point",
        "coordinates": [2003.874, -3806.104],
        "size": [16, 16]
      },
      "properties": {
        "iconurl": "icons/vehicles_map/mini_jep_medium.png",
        "iconrotate": "-19.1",
        "popupContent": "Amazing information about null will be found here!"
      },
      "bf2props": {
        "name": "cpname_bamyan_insurgency64_blueformain_jeep4",
        "class": "ObjectSpawner",
        "name_object": "M1151 Up-Armored HMMWV",
        "team": "2",
        "obj1": "null",
        "obj2": "us_jep_hmmwv_uparmored",
        "maxspawn": "300.0",
        "minspawn": "300.0",
        "spawndelay": "false",
        "ttl": "99999.0",
        "cpid": "401"
      }
    },
    {
      "type": "Feature",
      "geometry": {
        "type": "Point",
        "coordinates": [2011.863, -3803.3599],
        "size": [16, 16]
      },
      "properties": {
        "iconurl": "icons/vehicles_map/mini_jep_medium.png",
        "iconrotate": "-19.1",
        "popupContent": "Amazing information about null will be found here!"
      },
      "bf2props": {
        "name": "cpname_bamyan_insurgency64_blueformain_jeep5",
        "class": "ObjectSpawner",
        "name_object": "M1151 Up-Armored HMMWV",
        "team": "2",
        "obj1": "null",
        "obj2": "us_jep_hmmwv_uparmored",
        "maxspawn": "300.0",
        "minspawn": "300.0",
        "spawndelay": "false",
        "ttl": "99999.0",
        "cpid": "401"
      }
    },
    {
      "type": "Feature",
      "geometry": {
        "type": "Point",
        "coordinates": [2150.352, -3759.165],
        "size": [16, 16]
      },
      "properties": {
        "iconurl": "icons/mini_map/repairdepot.png",
        "iconrotate": "0",
        "popupContent": "Amazing information about null will be found here!"
      },
      "bf2props": {
        "name": "cpname_bamyan_insurgency64_blueformain_depot",
        "class": "ObjectSpawner",
        "name_object": "Vehicle Depot",
        "team": "2",
        "obj1": "null",
        "obj2": "vehicle_depot_us",
        "maxspawn": "0.0",
        "minspawn": "0.0",
        "spawndelay": "false",
        "ttl": "0.0",
        "cpid": "401"
      }
    },
    {
      "type": "Feature",
      "geometry": {
        "type": "Point",
        "coordinates": [2037.021, -3789.4941],
        "size": [16, 16]
      },
      "properties": {
        "iconurl": "icons/vehicles_map/mini_trk_logistics.png",
        "iconrotate": "-19.1",
        "popupContent": "Amazing information about null will be found here!"
      },
      "bf2props": {
        "name": "cpname_bamyan_insurgency64_blueformain_logi1",
        "class": "ObjectSpawner",
        "name_object": "M35 Logistics",
        "team": "2",
        "obj1": "null",
        "obj2": "us_trk_logistics",
        "maxspawn": "300.0",
        "minspawn": "300.0",
        "spawndelay": "false",
        "ttl": "99999.0",
        "cpid": "401"
      }
    },
    {
      "type": "Feature",
      "geometry": {
        "type": "Point",
        "coordinates": [2041.7109, -3787.872],
        "size": [16, 16]
      },
      "properties": {
        "iconurl": "icons/vehicles_map/mini_trk_logistics.png",
        "iconrotate": "-19.1",
        "popupContent": "Amazing information about null will be found here!"
      },
      "bf2props": {
        "name": "cpname_bamyan_insurgency64_blueformain_logi2",
        "class": "ObjectSpawner",
        "name_object": "M35 Logistics",
        "team": "2",
        "obj1": "null",
        "obj2": "us_trk_logistics",
        "maxspawn": "300.0",
        "minspawn": "300.0",
        "spawndelay": "false",
        "ttl": "99999.0",
        "cpid": "401"
      }
    },
    {
      "type": "Feature",
      "geometry": {
        "type": "Point",
        "coordinates": [2026.056, -3793.394],
        "size": [16, 16]
      },
      "properties": {
        "iconurl": "icons/vehicles_map/mini_trk_support.png",
        "iconrotate": "-19.1",
        "popupContent": "Amazing information about null will be found here!"
      },
      "bf2props": {
        "name": "cpname_bamyan_insurgency64_blueformain_suptrk3",
        "class": "ObjectSpawner",
        "name_object": "M35 2.5 Ton",
        "team": "2",
        "obj1": "null",
        "obj2": "us_trk_support",
        "maxspawn": "300.0",
        "minspawn": "300.0",
        "spawndelay": "false",
        "ttl": "99999.0",
        "cpid": "401"
      }
    },
    {
      "type": "Feature",
      "geometry": {
        "type": "Point",
        "coordinates": [2000.792, -3797.718],
        "size": [16, 16]
      },
      "properties": {
        "iconurl": "icons/vehicles_map/mini_jep_medium.png",
        "iconrotate": "-19.1",
        "popupContent": "Amazing information about null will be found here!"
      },
      "bf2props": {
        "name": "cpname_bamyan_insurgency64_blueformain_jeep1",
        "class": "ObjectSpawner",
        "name_object": "M1151 Up-Armored HMMWV",
        "team": "2",
        "obj1": "null",
        "obj2": "us_jep_hmmwv_uparmored",
        "maxspawn": "300.0",
        "minspawn": "300.0",
        "spawndelay": "false",
        "ttl": "99999.0",
        "cpid": "401"
      }
    },
    {
      "type": "Feature",
      "geometry": {
        "type": "Point",
        "coordinates": [2004.951, -3796.253],
        "size": [16, 16]
      },
      "properties": {
        "iconurl": "icons/vehicles_map/mini_jep_medium.png",
        "iconrotate": "-19.1",
        "popupContent": "Amazing information about null will be found here!"
      },
      "bf2props": {
        "name": "cpname_bamyan_insurgency64_blueformain_jeep2",
        "class": "ObjectSpawner",
        "name_object": "M1151 Up-Armored HMMWV",
        "team": "2",
        "obj1": "null",
        "obj2": "us_jep_hmmwv_uparmored",
        "maxspawn": "300.0",
        "minspawn": "300.0",
        "spawndelay": "false",
        "ttl": "99999.0",
        "cpid": "401"
      }
    },
    {
      "type": "Feature",
      "geometry": {
        "type": "Point",
        "coordinates": [2131.834, -3776.1108],
        "size": [16, 16]
      },
      "properties": {
        "iconurl": "icons/vehicles_map/mini_jet_attack_heavy.png",
        "iconrotate": "160.9",
        "popupContent": "Amazing information about null will be found here!"
      },
      "bf2props": {
        "name": "cpname_bamyan_insurgency64_blueformain_jet",
        "class": "ObjectSpawner",
        "name_object": "A-10A Thunderbolt II",
        "team": "2",
        "obj1": "null",
        "obj2": "us_jet_a10a",
        "maxspawn": "1200.0",
        "minspawn": "1200.0",
        "spawndelay": "true",
        "ttl": "99999.0",
        "cpid": "401"
      }
    },
    {
      "type": "Feature",
      "geometry": {
        "type": "Point",
        "coordinates": [2175.194, -3750.113],
        "size": [16, 16]
      },
      "properties": {
        "iconurl": "icons/mini_map/uavtrailer.png",
        "iconrotate": "0",
        "popupContent": "Amazing information about null will be found here!"
      },
      "bf2props": {
        "name": "cpname_bamyan_insurgency64_blueformain_command",
        "class": "ObjectSpawner",
        "name_object": "UAV Terminal",
        "team": "2",
        "obj1": "null",
        "obj2": "us_acv_lavc2",
        "maxspawn": "0.0",
        "minspawn": "0.0",
        "spawndelay": "false",
        "ttl": "0.0",
        "cpid": "401"
      }
    },
    {
      "type": "Feature",
      "geometry": {
        "type": "Point",
        "coordinates": [2016.994, -3796.67],
        "size": [16, 16]
      },
      "properties": {
        "iconurl": "icons/vehicles_map/mini_trk_support.png",
        "iconrotate": "-19.1",
        "popupContent": "Amazing information about null will be found here!"
      },
      "bf2props": {
        "name": "cpname_bamyan_insurgency64_blueformain_suptrk1",
        "class": "ObjectSpawner",
        "name_object": "M35 2.5 Ton",
        "team": "2",
        "obj1": "null",
        "obj2": "us_trk_support",
        "maxspawn": "300.0",
        "minspawn": "300.0",
        "spawndelay": "false",
        "ttl": "99999.0",
        "cpid": "401"
      }
    },
    {
      "type": "Feature",
      "geometry": {
        "type": "Point",
        "coordinates": [2021.52, -3794.967],
        "size": [16, 16]
      },
      "properties": {
        "iconurl": "icons/vehicles_map/mini_trk_support.png",
        "iconrotate": "-19.1",
        "popupContent": "Amazing information about null will be found here!"
      },
      "bf2props": {
        "name": "cpname_bamyan_insurgency64_blueformain_suptrk2",
        "class": "ObjectSpawner",
        "name_object": "M35 2.5 Ton",
        "team": "2",
        "obj1": "null",
        "obj2": "us_trk_support",
        "maxspawn": "300.0",
        "minspawn": "300.0",
        "spawndelay": "false",
        "ttl": "99999.0",
        "cpid": "401"
      }
    },
    {
      "type": "Feature",
      "geometry": {
        "type": "Point",
        "coordinates": [4001.79, -283.96704],
        "size": [16, 16]
      },
      "properties": {
        "iconurl": "icons/vehicles_map/mini_jep_atgm.png",
        "iconrotate": "140.732",
        "popupContent": "Amazing information about SPG-9 Technical will be found here!"
      },
      "bf2props": {
        "name": "cpname_bamyan_insurgency64_opformain_spg2",
        "class": "ObjectSpawner",
        "name_object": "SPG-9 Technical",
        "team": "1",
        "obj1": "civ_atm_technical",
        "obj2": "null",
        "maxspawn": "600.0",
        "minspawn": "600.0",
        "spawndelay": "false",
        "ttl": "99999.0",
        "cpid": "402"
      }
    },
    {
      "type": "Feature",
      "geometry": {
        "type": "Point",
        "coordinates": [2032.125, -3791.19],
        "size": [16, 16]
      },
      "properties": {
        "iconurl": "icons/vehicles_map/mini_trk_logistics.png",
        "iconrotate": "-19.1",
        "popupContent": "Amazing information about null will be found here!"
      },
      "bf2props": {
        "name": "cpname_bamyan_insurgency64_blueformain_logi3",
        "class": "ObjectSpawner",
        "name_object": "M35 Logistics",
        "team": "2",
        "obj1": "null",
        "obj2": "us_trk_logistics",
        "maxspawn": "300.0",
        "minspawn": "300.0",
        "spawndelay": "false",
        "ttl": "99999.0",
        "cpid": "401"
      }
    },
    {
      "type": "Feature",
      "geometry": {
        "type": "Point",
        "coordinates": [2967.416, -2303.684],
        "size": [16, 16]
      },
      "properties": {
        "iconurl": "icons/vehicles_map/mini_civ_car.png",
        "iconrotate": "-90.0",
        "popupContent": "Amazing information about Civilian Car will be found here!"
      },
      "bf2props": {
        "name": "cpname_bamyan_insurgency64_opformain_citycar1",
        "class": "ObjectSpawner",
        "name_object": "Civilian Car",
        "team": "1",
        "obj1": "civ_jep_car_blue",
        "obj2": "null",
        "maxspawn": "300.0",
        "minspawn": "300.0",
        "spawndelay": "false",
        "ttl": "12000.0",
        "cpid": "402"
      }
    },
    {
      "type": "Feature",
      "geometry": {
        "type": "Point",
        "coordinates": [1221.509, -2446.657],
        "size": [16, 16]
      },
      "properties": {
        "iconurl": "icons/vehicles_map/mini_civ_car.png",
        "iconrotate": "-18.06",
        "popupContent": "Amazing information about Civilian Car will be found here!"
      },
      "bf2props": {
        "name": "cpname_bamyan_insurgency64_opformain_citycar2",
        "class": "ObjectSpawner",
        "name_object": "Civilian Car",
        "team": "1",
        "obj1": "civ_jep_car_blue",
        "obj2": "null",
        "maxspawn": "300.0",
        "minspawn": "300.0",
        "spawndelay": "false",
        "ttl": "12000.0",
        "cpid": "402"
      }
    },
    {
      "type": "Feature",
      "geometry": {
        "type": "Point",
        "coordinates": [1308.625, -1121.835],
        "size": [16, 16]
      },
      "properties": {
        "iconurl": "icons/vehicles_map/mini_civ_car.png",
        "iconrotate": "-131.783",
        "popupContent": "Amazing information about Civilian Car will be found here!"
      },
      "bf2props": {
        "name": "cpname_bamyan_insurgency64_opformain_citycar3",
        "class": "ObjectSpawner",
        "name_object": "Civilian Car",
        "team": "1",
        "obj1": "civ_jep_car_blue",
        "obj2": "null",
        "maxspawn": "300.0",
        "minspawn": "300.0",
        "spawndelay": "false",
        "ttl": "12000.0",
        "cpid": "402"
      }
    },
    {
      "type": "Feature",
      "geometry": {
        "type": "Point",
        "coordinates": [1427.6799, -875.079],
        "size": [16, 16]
      },
      "properties": {
        "iconurl": "icons/vehicles_map/mini_civ_car.png",
        "iconrotate": "117.152",
        "popupContent": "Amazing information about Civilian Car will be found here!"
      },
      "bf2props": {
        "name": "cpname_bamyan_insurgency64_opformain_citycar4",
        "class": "ObjectSpawner",
        "name_object": "Civilian Car",
        "team": "1",
        "obj1": "civ_jep_car_blue",
        "obj2": "null",
        "maxspawn": "300.0",
        "minspawn": "300.0",
        "spawndelay": "false",
        "ttl": "12000.0",
        "cpid": "402"
      }
    },
    {
      "type": "Feature",
      "geometry": {
        "type": "Point",
        "coordinates": [583.39795, -3093.9438],
        "size": [16, 16]
      },
      "properties": {
        "iconurl": "icons/vehicles_map/mini_civ_car.png",
        "iconrotate": "90.0",
        "popupContent": "Amazing information about Civilian Car will be found here!"
      },
      "bf2props": {
        "name": "cpname_bamyan_insurgency64_opformain_citycar5",
        "class": "ObjectSpawner",
        "name_object": "Civilian Car",
        "team": "1",
        "obj1": "civ_jep_car",
        "obj2": "null",
        "maxspawn": "300.0",
        "minspawn": "300.0",
        "spawndelay": "false",
        "ttl": "12000.0",
        "cpid": "402"
      }
    },
    {
      "type": "Feature",
      "geometry": {
        "type": "Point",
        "coordinates": [1338.9719, -1331.594],
        "size": [16, 16]
      },
      "properties": {
        "iconurl": "icons/vehicles_map/mini_civ_car.png",
        "iconrotate": "0.0",
        "popupContent": "Amazing information about Civilian Car will be found here!"
      },
      "bf2props": {
        "name": "cpname_bamyan_insurgency64_opformain_citycar6",
        "class": "ObjectSpawner",
        "name_object": "Civilian Car",
        "team": "1",
        "obj1": "civ_jep_car",
        "obj2": "null",
        "maxspawn": "300.0",
        "minspawn": "300.0",
        "spawndelay": "false",
        "ttl": "12000.0",
        "cpid": "402"
      }
    },
    {
      "type": "Feature",
      "geometry": {
        "type": "Point",
        "coordinates": [1359.224, -1569.822],
        "size": [16, 16]
      },
      "properties": {
        "iconurl": "icons/vehicles_map/mini_civ_car.png",
        "iconrotate": "81.415",
        "popupContent": "Amazing information about Civilian Car will be found here!"
      },
      "bf2props": {
        "name": "cpname_bamyan_insurgency64_opformain_citycar7",
        "class": "ObjectSpawner",
        "name_object": "Civilian Car",
        "team": "1",
        "obj1": "civ_jep_car_black",
        "obj2": "null",
        "maxspawn": "300.0",
        "minspawn": "300.0",
        "spawndelay": "false",
        "ttl": "12000.0",
        "cpid": "402"
      }
    },
    {
      "type": "Feature",
      "geometry": {
        "type": "Point",
        "coordinates": [1501.4861, -1027.697],
        "size": [16, 16]
      },
      "properties": {
        "iconurl": "icons/vehicles_map/mini_civ_car.png",
        "iconrotate": "-90.0",
        "popupContent": "Amazing information about Civilian Car will be found here!"
      },
      "bf2props": {
        "name": "cpname_bamyan_insurgency64_opformain_citycar8",
        "class": "ObjectSpawner",
        "name_object": "Civilian Car",
        "team": "1",
        "obj1": "civ_jep_car_black",
        "obj2": "null",
        "maxspawn": "300.0",
        "minspawn": "300.0",
        "spawndelay": "false",
        "ttl": "12000.0",
        "cpid": "402"
      }
    },
    {
      "type": "Feature",
      "geometry": {
        "type": "Point",
        "coordinates": [2394.247, -2190.691],
        "size": [16, 16]
      },
      "properties": {
        "iconurl": "icons/vehicles_map/mini_civ_car.png",
        "iconrotate": "55.338",
        "popupContent": "Amazing information about Civilian Car will be found here!"
      },
      "bf2props": {
        "name": "cpname_bamyan_insurgency64_opformain_citycar9",
        "class": "ObjectSpawner",
        "name_object": "Civilian Car",
        "team": "1",
        "obj1": "civ_jep_car",
        "obj2": "null",
        "maxspawn": "300.0",
        "minspawn": "300.0",
        "spawndelay": "false",
        "ttl": "12000.0",
        "cpid": "402"
      }
    },
    {
      "type": "Feature",
      "geometry": {
        "type": "Point",
        "coordinates": [1250.339, -2431.419],
        "size": [16, 16]
      },
      "properties": {
        "iconurl": "icons/vehicles_map/mini_civ_car.png",
        "iconrotate": "-13.909",
        "popupContent": "Amazing information about Civilian Car will be found here!"
      },
      "bf2props": {
        "name": "cpname_bamyan_insurgency64_opformain_citycar10",
        "class": "ObjectSpawner",
        "name_object": "Civilian Car",
        "team": "1",
        "obj1": "civ_jep_car",
        "obj2": "null",
        "maxspawn": "300.0",
        "minspawn": "300.0",
        "spawndelay": "false",
        "ttl": "12000.0",
        "cpid": "402"
      }
    },
    {
      "type": "Feature",
      "geometry": {
        "type": "Point",
        "coordinates": [2851.117, -2280.225],
        "size": [16, 16]
      },
      "properties": {
        "iconurl": "icons/vehicles_map/mini_civ_car.png",
        "iconrotate": "90.0",
        "popupContent": "Amazing information about Civilian Car will be found here!"
      },
      "bf2props": {
        "name": "cpname_bamyan_insurgency64_opformain_citycar11",
        "class": "ObjectSpawner",
        "name_object": "Civilian Car",
        "team": "1",
        "obj1": "civ_jep_car_black",
        "obj2": "null",
        "maxspawn": "300.0",
        "minspawn": "300.0",
        "spawndelay": "false",
        "ttl": "12000.0",
        "cpid": "402"
      }
    },
    {
      "type": "Feature",
      "geometry": {
        "type": "Point",
        "coordinates": [1508.3369, -855.937],
        "size": [16, 16]
      },
      "properties": {
        "iconurl": "icons/vehicles_map/mini_civ_car.png",
        "iconrotate": "31.979",
        "popupContent": "Amazing information about Civilian Car will be found here!"
      },
      "bf2props": {
        "name": "cpname_bamyan_insurgency64_opformain_citycar12",
        "class": "ObjectSpawner",
        "name_object": "Civilian Car",
        "team": "1",
        "obj1": "civ_jep_car_black",
        "obj2": "null",
        "maxspawn": "300.0",
        "minspawn": "300.0",
        "spawndelay": "false",
        "ttl": "12000.0",
        "cpid": "402"
      }
    },
    {
      "type": "Feature",
      "geometry": {
        "type": "Point",
        "coordinates": [2216.178, -3919.751],
        "size": [16, 16]
      },
      "properties": {
        "iconurl": "icons/vehicles_map/mini_the_light.png",
        "iconrotate": "-19.1",
        "popupContent": "Amazing information about null will be found here!"
      },
      "bf2props": {
        "name": "cpname_bamyan_insurgency64_blueformain_trans1",
        "class": "ObjectSpawner",
        "name_object": "UH-1N Twin Huey",
        "team": "2",
        "obj1": "null",
        "obj2": "us_the_uh1n",
        "maxspawn": "600.0",
        "minspawn": "600.0",
        "spawndelay": "false",
        "ttl": "12000.0",
        "cpid": "401"
      }
    },
    {
      "type": "Feature",
      "geometry": {
        "type": "Point",
        "coordinates": [2238.946, -3911.77],
        "size": [16, 16]
      },
      "properties": {
        "iconurl": "icons/vehicles_map/mini_the_heavy_mv22.png",
        "iconrotate": "-19.1",
        "popupContent": "Amazing information about null will be found here!"
      },
      "bf2props": {
        "name": "cpname_bamyan_insurgency64_blueformain_ah",
        "class": "ObjectSpawner",
        "name_object": "MV-22 Osprey",
        "team": "2",
        "obj1": "null",
        "obj2": "us_the_mv22",
        "maxspawn": "600.0",
        "minspawn": "600.0",
        "spawndelay": "false",
        "ttl": "99999.0",
        "cpid": "401"
      }
    },
    {
      "type": "Feature",
      "geometry": {
        "type": "Point",
        "coordinates": [2598.16, -5373.419],
        "size": [16, 16]
      },
      "properties": {
        "iconurl": "icons/mini_map/airdef.png",
        "iconrotate": "0",
        "popupContent": "Amazing information about null will be found here!"
      },
      "bf2props": {
        "name": "cpname_bamyan_insurgency64_blueformain_artillery1",
        "class": "ObjectSpawner",
        "name_object": "Artillery Barrage Call-In",
        "team": "2",
        "obj1": "null",
        "obj2": "artillery_team2",
        "maxspawn": "1800.0",
        "minspawn": "1800.0",
        "spawndelay": "true",
        "ttl": "0.0",
        "cpid": "401"
      }
    },
    {
      "type": "Feature",
      "geometry": {
        "type": "Point",
        "coordinates": [2587.8691, -5368.1543],
        "size": [16, 16]
      },
      "properties": {
        "iconurl": "icons/mini_map/airdef.png",
        "iconrotate": "0",
        "popupContent": "Amazing information about null will be found here!"
      },
      "bf2props": {
        "name": "cpname_bamyan_insurgency64_blueformain_artillery2",
        "class": "ObjectSpawner",
        "name_object": "Artillery Barrage Call-In",
        "team": "2",
        "obj1": "null",
        "obj2": "artillery_team2",
        "maxspawn": "1800.0",
        "minspawn": "1800.0",
        "spawndelay": "true",
        "ttl": "0.0",
        "cpid": "401"
      }
    },
    {
      "type": "Feature",
      "geometry": {
        "type": "Point",
        "coordinates": [2596.669, -5361.1953],
        "size": [16, 16]
      },
      "properties": {
        "iconurl": "icons/mini_map/airdef.png",
        "iconrotate": "0",
        "popupContent": "Amazing information about null will be found here!"
      },
      "bf2props": {
        "name": "cpname_bamyan_insurgency64_blueformain_artillery3",
        "class": "ObjectSpawner",
        "name_object": "Artillery Barrage Call-In",
        "team": "2",
        "obj1": "null",
        "obj2": "artillery_team2",
        "maxspawn": "1800.0",
        "minspawn": "1800.0",
        "spawndelay": "true",
        "ttl": "0.0",
        "cpid": "401"
      }
    },
    {
      "type": "Feature",
      "geometry": {
        "type": "Point",
        "coordinates": [4055.7031, -297.30798],
        "size": [16, 16]
      },
      "properties": {
        "iconurl": "icons/vehicles_map/mini_civ_car_bomb.png",
        "iconrotate": "-90.0",
        "popupContent": "Amazing information about Car Bomb will be found here!"
      },
      "bf2props": {
        "name": "cpname_bamyan_insurgency64_opformain_bomber",
        "class": "ObjectSpawner",
        "name_object": "Car Bomb",
        "team": "1",
        "obj1": "civ_jep_car_bomber_blue",
        "obj2": "null",
        "maxspawn": "1200.0",
        "minspawn": "1200.0",
        "spawndelay": "false",
        "ttl": "12000.0",
        "cpid": "402"
      }
    },
    {
      "type": "Feature",
      "geometry": {
        "type": "Point",
        "coordinates": [3549.287, -2618.563],
        "size": [16, 16]
      },
      "properties": {
        "iconurl": "icons/player_map/mini_squad.png",
        "iconrotate": "0",
        "popupContent": "Amazing information about Temporary spawnpoint will be found here!"
      },
      "bf2props": {
        "name": "cpname_bamyan_insurgency64_opformain_hillspawn1",
        "class": "ObjectSpawner",
        "name_object": "Temporary spawnpoint",
        "team": "1",
        "obj1": "rallypoint_taliban_placeable",
        "obj2": "null",
        "maxspawn": "99999.0",
        "minspawn": "99999.0",
        "spawndelay": "false",
        "ttl": "0.0",
        "cpid": "402"
      }
    },
    {
      "type": "Feature",
      "geometry": {
        "type": "Point",
        "coordinates": [671.74695, -2202.742],
        "size": [16, 16]
      },
      "properties": {
        "iconurl": "icons/player_map/mini_squad.png",
        "iconrotate": "0",
        "popupContent": "Amazing information about Temporary spawnpoint will be found here!"
      },
      "bf2props": {
        "name": "cpname_bamyan_insurgency64_opformain_hillspawn2",
        "class": "ObjectSpawner",
        "name_object": "Temporary spawnpoint",
        "team": "1",
        "obj1": "rallypoint_taliban_placeable",
        "obj2": "null",
        "maxspawn": "99999.0",
        "minspawn": "99999.0",
        "spawndelay": "false",
        "ttl": "0.0",
        "cpid": "402"
      }
    },
    {
      "type": "Feature",
      "geometry": {
        "type": "Point",
        "coordinates": [4060.053, -268.05005],
        "size": [16, 16]
      },
      "properties": {
        "iconurl": "icons/vehicles_map/firebase_mini_white.png",
        "iconrotate": "0",
        "popupContent": "Amazing information about Hideout will be found here!"
      },
      "bf2props": {
        "name": "cpname_bamyan_insurgency64_opformain_command",
        "class": "ObjectSpawner",
        "name_object": "Hideout",
        "team": "1",
        "obj1": "deployable_commandpost_meins",
        "obj2": "null",
        "maxspawn": "0.0",
        "minspawn": "0.0",
        "spawndelay": "false",
        "ttl": "0.0",
        "cpid": "402"
      }
    },
    {
      "type": "Feature",
      "geometry": {
        "type": "Point",
        "coordinates": [2214.161, -3810.725],
        "size": [33, 33],
        "radius": "0.0"
      },
      "properties": {
        "iconurl": "icons/flags_map/us/minimap_cpbase.png",
        "iconrotate": "0",
        "popupContent": "Amazing information about US Main will be found here!"
      },
      "bf2props": {
        "name": "cpname_bamyan_insurgency64_blueformain",
        "class": "ControlPoint",
        "name_object": "US Main",
        "team": "2",
        "areavalue1": "0.0",
        "areavalue2": "0.0",
        "cpid": "401",
        "sgid": "-999",
        "uncap": "true",
        "ttgc": "0.0",
        "ttlc": "0.0"
      }
    },
    {
      "type": "Feature",
      "geometry": {
        "type": "Point",
        "coordinates": [4004.679, -247.28003],
        "size": [33, 33],
        "radius": "0.0"
      },
      "properties": {
        "iconurl": "icons/flags_map/taliban/minimap_cpbase.png",
        "iconrotate": "0",
        "popupContent": "Amazing information about Taliban Main will be found here!"
      },
      "bf2props": {
        "name": "cpname_bamyan_insurgency64_opformain",
        "class": "ControlPoint",
        "name_object": "Taliban Main",
        "team": "1",
        "areavalue1": "0.0",
        "areavalue2": "0.0",
        "cpid": "402",
        "sgid": "1",
        "uncap": "true",
        "ttgc": "0.0",
        "ttlc": "0.0"
      }
    },
    {
      "type": "Feature",
      "geometry": {
        "type": "Polygon",
        "coordinates": [
          [
            [0,0],
            [0,-4096],
            [4096,-4096],
            [4096,0]
          ],[
            [4096.0, -4096.0],
            [4096.0, 0.0],
            [0.0, 0.0],
            [0.0, -4096.0]
          ]
        ]
      },
      "bf2props": {
        "code": "combatarea_0_insurgency64",
        "class": "CombatArea",
        "team": "0",
        "vehicles": "4",
        "layer": "5",
        "inverted": "false",
        "max": [0.0, 0.0],
        "min": [0.0, 0.0]
      }
    },
    {
      "type": "Feature",
      "geometry": {
        "type": "Polygon",
        "coordinates": [
          [
            [1490.3917, -4095.3945],
            [1456.2559, -3845.4321],
            [2054.5645, -3436.399],
            [2669.6628, -3531.7478],
            [2676.9167, -4092.7693]
          ]
        ]
      },
      "bf2props": {
        "code": "combatarea_4_insurgency64",
        "class": "CombatArea",
        "team": "1",
        "vehicles": "4",
        "layer": "5",
        "inverted": "true",
        "max": [0.0, 0.0],
        "min": [0.0, 0.0]
      }
    },
    {
      "type": "Feature",
      "geometry": {
        "type": "Polygon",
        "coordinates": [
          [
            [4095.4326, -0.8000488],
            [3120.2659, -0.103515625],
            [3223.8374, -248.43701],
            [3493.447, -593.60376],
            [3896.61, -799.14966],
            [4095.5728, -857.3323]
          ]
        ]
      },
      "bf2props": {
        "code": "combatarea_9_insurgency64",
        "class": "CombatArea",
        "team": "2",
        "vehicles": "4",
        "layer": "5",
        "inverted": "true",
        "max": [0.0, 0.0],
        "min": [0.0, 0.0]
      }
    }
  ]
}