{
  "team1":"taliban",
  "team2":"us",
  "team1tickets":"800",
  "team2tickets":"800",
  "mapsize":"4096",
  "viewdistance":"1000",
  "combatareause":"true",
  "combatareadamage":"20.0",
  "combatareaallowoutside":"10.0",
  "routes": [
    [
      [
        "cpname_bamyan_coop16_compound1"
      ],
      [
        "cpname_bamyan_coop16_forthouse",
        "cpname_bamyan_coop16_compound2",
        "cpname_bamyan_coop16_compound3",
        "cpname_bamyan_coop16_gasstation"
      ],
      [
        "cpname_bamyan_coop16_compound4"
      ]
    ]
  ],
  "type": "FeatureCollection",
  "features": [
    {
      "type": "Feature",
      "geometry": {
        "type": "Point",
        "coordinates": [1398.0859, -834.177],
        "size": [33, 33],
        "radius": "30.0"
      },
      "properties": {
        "iconurl": "icons/flags_map/taliban/minimap_cp.png",
        "iconrotate": "0",
        "popupContent": "Amazing information about Compound Alpha 30m will be found here!"
      },
      "bf2props": {
        "name": "cpname_bamyan_coop16_compound1",
        "class": "ControlPoint",
        "name_object": "Compound Alpha 30m",
        "team": "1",
        "areavalue1": "0.0",
        "areavalue2": "0.0",
        "cpid": "401",
        "sgid": "10",
        "uncap": "false",
        "ttgc": "120.0",
        "ttlc": "120.0"
      }
    },
    {
      "type": "Feature",
      "geometry": {
        "type": "Point",
        "coordinates": [1479.6, -994.318],
        "size": [33, 33],
        "radius": "25.0"
      },
      "properties": {
        "iconurl": "icons/flags_map/neutral/minimap_cp.png",
        "iconrotate": "0",
        "popupContent": "Amazing information about Fortified House 25m will be found here!"
      },
      "bf2props": {
        "name": "cpname_bamyan_coop16_forthouse",
        "class": "ControlPoint",
        "name_object": "Fortified House 25m",
        "team": "0",
        "areavalue1": "0.0",
        "areavalue2": "0.0",
        "cpid": "402",
        "sgid": "20",
        "uncap": "false",
        "ttgc": "120.0",
        "ttlc": "120.0"
      }
    },
    {
      "type": "Feature",
      "geometry": {
        "type": "Point",
        "coordinates": [1534.032, -1214.7639],
        "size": [33, 33],
        "radius": "20.0"
      },
      "properties": {
        "iconurl": "icons/flags_map/neutral/minimap_cp.png",
        "iconrotate": "0",
        "popupContent": "Amazing information about Compound Bravo 20m will be found here!"
      },
      "bf2props": {
        "name": "cpname_bamyan_coop16_compound2",
        "class": "ControlPoint",
        "name_object": "Compound Bravo 20m",
        "team": "0",
        "areavalue1": "0.0",
        "areavalue2": "0.0",
        "cpid": "403",
        "sgid": "20",
        "uncap": "false",
        "ttgc": "120.0",
        "ttlc": "120.0"
      }
    },
    {
      "type": "Feature",
      "geometry": {
        "type": "Point",
        "coordinates": [1255.154, -1222.8301],
        "size": [33, 33],
        "radius": "20.0"
      },
      "properties": {
        "iconurl": "icons/flags_map/neutral/minimap_cp.png",
        "iconrotate": "0",
        "popupContent": "Amazing information about Compound Charlie 20m will be found here!"
      },
      "bf2props": {
        "name": "cpname_bamyan_coop16_compound3",
        "class": "ControlPoint",
        "name_object": "Compound Charlie 20m",
        "team": "0",
        "areavalue1": "0.0",
        "areavalue2": "0.0",
        "cpid": "404",
        "sgid": "20",
        "uncap": "false",
        "ttgc": "120.0",
        "ttlc": "120.0"
      }
    },
    {
      "type": "Feature",
      "geometry": {
        "type": "Point",
        "coordinates": [1327.203, -1329.9651],
        "size": [33, 33],
        "radius": "20.0"
      },
      "properties": {
        "iconurl": "icons/flags_map/neutral/minimap_cp.png",
        "iconrotate": "0",
        "popupContent": "Amazing information about Gas Station 20m will be found here!"
      },
      "bf2props": {
        "name": "cpname_bamyan_coop16_gasstation",
        "class": "ControlPoint",
        "name_object": "Gas Station 20m",
        "team": "0",
        "areavalue1": "0.0",
        "areavalue2": "0.0",
        "cpid": "405",
        "sgid": "20",
        "uncap": "false",
        "ttgc": "120.0",
        "ttlc": "120.0"
      }
    },
    {
      "type": "Feature",
      "geometry": {
        "type": "Point",
        "coordinates": [1347.219, -1493.3821],
        "size": [33, 33],
        "radius": "20.0"
      },
      "properties": {
        "iconurl": "icons/flags_map/us/minimap_cp.png",
        "iconrotate": "0",
        "popupContent": "Amazing information about Compound Delta 20m will be found here!"
      },
      "bf2props": {
        "name": "cpname_bamyan_coop16_compound4",
        "class": "ControlPoint",
        "name_object": "Compound Delta 20m",
        "team": "2",
        "areavalue1": "0.0",
        "areavalue2": "0.0",
        "cpid": "406",
        "sgid": "30",
        "uncap": "false",
        "ttgc": "120.0",
        "ttlc": "120.0"
      }
    },
    {
      "type": "Feature",
      "geometry": {
        "type": "Polygon",
        "coordinates": [
          [
            [0,0],
            [0,-4096],
            [4096,-4096],
            [4096,0]
          ],[
            [1395.9425, -1620.5713],
            [1550.9745, -1584.3464],
            [1540.5045, -1350.29],
            [1659.4875, -1254.3716],
            [1612.733, -770.3164],
            [1486.667, -693.115],
            [1414.9354, -653.4939],
            [1332.6525, -743.69116],
            [1243.6638, -863.89453],
            [1212.2604, -1120.8772],
            [1162.9579, -1280.3665],
            [1199.5035, -1467.585],
            [1287.5131, -1646.853]
          ]
        ]
      },
      "bf2props": {
        "code": "combatarea_0_coop16",
        "class": "CombatArea",
        "team": "0",
        "vehicles": "4",
        "layer": "5",
        "inverted": "false",
        "max": [0.0, 0.0],
        "min": [0.0, 0.0]
      }
    }
  ]
}