{
  "team1":"ru",
  "team2":"ch",
  "team1tickets":"200",
  "team2tickets":"200",
  "mapsize":"4096",
  "viewdistance":"1000",
  "combatareause":"true",
  "combatareadamage":"2.5",
  "combatareaallowoutside":"15.0",
  "routes": [
    [
      [
        "cpname_black_gold_vehicles64_1northoutpost"
      ],
      [
        "cpname_black_gold_vehicles64_1tunnelbunker"
      ],
      [
        "cpname_black_gold_vehicles64_1northcity"
      ],
      [
        "cpname_black_gold_vehicles64_1southcity"
      ],
      [
        "cpname_black_gold_vehicles64_1oilstorage",
        "cpname_black_gold_vehicles64_1bridges"
      ],
      [
        "cpname_black_gold_vehicles64_1waterpumpingstation",
        "cpname_black_gold_vehicles64_1southoutpost"
      ],
      [
        "cpname_black_gold_vehicles64_southmain"
      ]
    ],
    [
      [
        "cpname_black_gold_vehicles64_1northoutpost"
      ],
      [
        "cpname_black_gold_vehicles64_2supplybunker"
      ],
      [
        "cpname_black_gold_vehicles64_2controlfacility"
      ],
      [
        "cpname_black_gold_vehicles64_2oilrefinery"
      ],
      [
        "cpname_black_gold_vehicles64_2oldoutpost"
      ],
      [
        "cpname_black_gold_vehicles64_2abandonedfarm",
        "cpname_black_gold_vehicles64_1southoutpost"
      ],
      [
        "cpname_black_gold_vehicles64_southmain"
      ]
    ]
  ],
  "type": "FeatureCollection",
  "features": [
    {
      "type": "Feature",
      "geometry": {
        "type": "Point",
        "coordinates": [3946.242, -490.833],
        "size": [16, 16]
      },
      "properties": {
        "iconurl": "icons/vehicles_map/mini_trk_logistics.png",
        "iconrotate": "0.0",
        "popupContent": "Amazing information about Ural-4320 Logistics will be found here!"
      },
      "bf2props": {
        "name": "ru_air_base_ru_jet_fighter",
        "class": "ObjectSpawner",
        "name_object": "Ural-4320 Logistics",
        "team": "1",
        "obj1": "ru_trk_logistics",
        "obj2": "null",
        "maxspawn": "300.0",
        "minspawn": "300.0",
        "spawndelay": "true",
        "ttl": "12000.0",
        "cpid": "1"
      }
    },
    {
      "type": "Feature",
      "geometry": {
        "type": "Point",
        "coordinates": [3940.8408, -491.27905],
        "size": [16, 16]
      },
      "properties": {
        "iconurl": "icons/vehicles_map/mini_trk_logistics.png",
        "iconrotate": "0.0",
        "popupContent": "Amazing information about Ural-4320 Logistics will be found here!"
      },
      "bf2props": {
        "name": "ru_air_base_ru_jet_bomber",
        "class": "ObjectSpawner",
        "name_object": "Ural-4320 Logistics",
        "team": "1",
        "obj1": "ru_trk_logistics",
        "obj2": "null",
        "maxspawn": "300.0",
        "minspawn": "300.0",
        "spawndelay": "true",
        "ttl": "12000.0",
        "cpid": "1"
      }
    },
    {
      "type": "Feature",
      "geometry": {
        "type": "Point",
        "coordinates": [3950.522, -460.578],
        "size": [16, 16]
      },
      "properties": {
        "iconurl": "icons/vehicles_map/mini_tank_heavy.png",
        "iconrotate": "-44.0",
        "popupContent": "Amazing information about T-90A will be found here!"
      },
      "bf2props": {
        "name": "ru_air_base_ru_transheli01",
        "class": "ObjectSpawner",
        "name_object": "T-90A",
        "team": "1",
        "obj1": "ru_tnk_t90",
        "obj2": "null",
        "maxspawn": "300.0",
        "minspawn": "300.0",
        "spawndelay": "false",
        "ttl": "12000.0",
        "cpid": "1"
      }
    },
    {
      "type": "Feature",
      "geometry": {
        "type": "Point",
        "coordinates": [3950.1191, -467.52905],
        "size": [16, 16]
      },
      "properties": {
        "iconurl": "icons/vehicles_map/mini_tank_heavy.png",
        "iconrotate": "-44.0",
        "popupContent": "Amazing information about T-90A will be found here!"
      },
      "bf2props": {
        "name": "ru_air_base_ru_transheli02",
        "class": "ObjectSpawner",
        "name_object": "T-90A",
        "team": "1",
        "obj1": "ru_tnk_t90",
        "obj2": "null",
        "maxspawn": "300.0",
        "minspawn": "300.0",
        "spawndelay": "false",
        "ttl": "12000.0",
        "cpid": "1"
      }
    },
    {
      "type": "Feature",
      "geometry": {
        "type": "Point",
        "coordinates": [3950.2979, -453.489],
        "size": [16, 16]
      },
      "properties": {
        "iconurl": "icons/vehicles_map/mini_tank_heavy.png",
        "iconrotate": "-44.005",
        "popupContent": "Amazing information about T-90A will be found here!"
      },
      "bf2props": {
        "name": "ru_air_base_ru_lightheli",
        "class": "ObjectSpawner",
        "name_object": "T-90A",
        "team": "1",
        "obj1": "ru_tnk_t90",
        "obj2": "null",
        "maxspawn": "300.0",
        "minspawn": "300.0",
        "spawndelay": "true",
        "ttl": "12000.0",
        "cpid": "1"
      }
    },
    {
      "type": "Feature",
      "geometry": {
        "type": "Point",
        "coordinates": [185.70996, -3478.209],
        "size": [16, 16]
      },
      "properties": {
        "iconurl": "icons/vehicles_map/mini_trk_logistics.png",
        "iconrotate": "-24.164",
        "popupContent": "Amazing information about null will be found here!"
      },
      "bf2props": {
        "name": "pla_air_base_ch_jet_fighter",
        "class": "ObjectSpawner",
        "name_object": "EQ2080 Logistics",
        "team": "2",
        "obj1": "null",
        "obj2": "ch_trk_logistics",
        "maxspawn": "300.0",
        "minspawn": "300.0",
        "spawndelay": "true",
        "ttl": "12000.0",
        "cpid": "2"
      }
    },
    {
      "type": "Feature",
      "geometry": {
        "type": "Point",
        "coordinates": [191.53198, -3477.834],
        "size": [16, 16]
      },
      "properties": {
        "iconurl": "icons/vehicles_map/mini_trk_logistics.png",
        "iconrotate": "-24.026",
        "popupContent": "Amazing information about null will be found here!"
      },
      "bf2props": {
        "name": "pla_air_base_ch_jet_bomber",
        "class": "ObjectSpawner",
        "name_object": "EQ2080 Logistics",
        "team": "2",
        "obj1": "null",
        "obj2": "ch_trk_logistics",
        "maxspawn": "300.0",
        "minspawn": "300.0",
        "spawndelay": "true",
        "ttl": "12000.0",
        "cpid": "2"
      }
    },
    {
      "type": "Feature",
      "geometry": {
        "type": "Point",
        "coordinates": [176.31201, -3377.463],
        "size": [16, 16]
      },
      "properties": {
        "iconurl": "icons/vehicles_map/mini_tank_heavy.png",
        "iconrotate": "90.285",
        "popupContent": "Amazing information about null will be found here!"
      },
      "bf2props": {
        "name": "pla_air_base_ch_lightheli",
        "class": "ObjectSpawner",
        "name_object": "ZTZ-99A2",
        "team": "2",
        "obj1": "null",
        "obj2": "ch_tnk_ztz99",
        "maxspawn": "300.0",
        "minspawn": "300.0",
        "spawndelay": "true",
        "ttl": "12000.0",
        "cpid": "2"
      }
    },
    {
      "type": "Feature",
      "geometry": {
        "type": "Point",
        "coordinates": [175.969, -3372.408],
        "size": [16, 16]
      },
      "properties": {
        "iconurl": "icons/vehicles_map/mini_tank_heavy.png",
        "iconrotate": "84.236",
        "popupContent": "Amazing information about null will be found here!"
      },
      "bf2props": {
        "name": "pla_air_base_ch_transheli01",
        "class": "ObjectSpawner",
        "name_object": "ZTZ-99A2",
        "team": "2",
        "obj1": "null",
        "obj2": "ch_tnk_ztz99",
        "maxspawn": "300.0",
        "minspawn": "300.0",
        "spawndelay": "false",
        "ttl": "12000.0",
        "cpid": "2"
      }
    },
    {
      "type": "Feature",
      "geometry": {
        "type": "Point",
        "coordinates": [176.14697, -3383.037],
        "size": [16, 16]
      },
      "properties": {
        "iconurl": "icons/vehicles_map/mini_tank_heavy.png",
        "iconrotate": "88.0",
        "popupContent": "Amazing information about null will be found here!"
      },
      "bf2props": {
        "name": "pla_air_base_ch_transheli02",
        "class": "ObjectSpawner",
        "name_object": "ZTZ-99A2",
        "team": "2",
        "obj1": "null",
        "obj2": "ch_tnk_ztz99",
        "maxspawn": "300.0",
        "minspawn": "300.0",
        "spawndelay": "false",
        "ttl": "12000.0",
        "cpid": "2"
      }
    },
    {
      "type": "Feature",
      "geometry": {
        "type": "Point",
        "coordinates": [207.06201, -3488.154],
        "size": [16, 16]
      },
      "properties": {
        "iconurl": "icons/mini_map/uavtrailer.png",
        "iconrotate": "0",
        "popupContent": "Amazing information about null will be found here!"
      },
      "bf2props": {
        "name": "pla_air_base_ch_command_post",
        "class": "ObjectSpawner",
        "name_object": "UAV Terminal",
        "team": "2",
        "obj1": "null",
        "obj2": "ch_acv_wz551",
        "maxspawn": "0.0",
        "minspawn": "0.0",
        "spawndelay": "false",
        "ttl": "0.0",
        "cpid": "2"
      }
    },
    {
      "type": "Feature",
      "geometry": {
        "type": "Point",
        "coordinates": [3889.8818, -496.82898],
        "size": [16, 16]
      },
      "properties": {
        "iconurl": "icons/mini_map/uavtrailer.png",
        "iconrotate": "0",
        "popupContent": "Amazing information about UAV Terminal will be found here!"
      },
      "bf2props": {
        "name": "ru_air_base_ru_command_post",
        "class": "ObjectSpawner",
        "name_object": "UAV Terminal",
        "team": "1",
        "obj1": "ru_acv_btr60pu",
        "obj2": "null",
        "maxspawn": "0.0",
        "minspawn": "0.0",
        "spawndelay": "false",
        "ttl": "0.0",
        "cpid": "1"
      }
    },
    {
      "type": "Feature",
      "geometry": {
        "type": "Point",
        "coordinates": [3890.865, -477.26196],
        "size": [16, 16]
      },
      "properties": {
        "iconurl": "icons/vehicles_map/mini_tank_heavy.png",
        "iconrotate": "90.0",
        "popupContent": "Amazing information about T-90A will be found here!"
      },
      "bf2props": {
        "name": "ru_air_base_ru_apc01",
        "class": "ObjectSpawner",
        "name_object": "T-90A",
        "team": "1",
        "obj1": "ru_tnk_t90",
        "obj2": "null",
        "maxspawn": "300.0",
        "minspawn": "300.0",
        "spawndelay": "false",
        "ttl": "12000.0",
        "cpid": "1"
      }
    },
    {
      "type": "Feature",
      "geometry": {
        "type": "Point",
        "coordinates": [3890.8818, -481.37402],
        "size": [16, 16]
      },
      "properties": {
        "iconurl": "icons/vehicles_map/mini_tank_heavy.png",
        "iconrotate": "90.0",
        "popupContent": "Amazing information about T-90A will be found here!"
      },
      "bf2props": {
        "name": "ru_air_base_ru_apc02",
        "class": "ObjectSpawner",
        "name_object": "T-90A",
        "team": "1",
        "obj1": "ru_tnk_t90",
        "obj2": "null",
        "maxspawn": "300.0",
        "minspawn": "300.0",
        "spawndelay": "false",
        "ttl": "12000.0",
        "cpid": "1"
      }
    },
    {
      "type": "Feature",
      "geometry": {
        "type": "Point",
        "coordinates": [3890.707, -472.5],
        "size": [16, 16]
      },
      "properties": {
        "iconurl": "icons/vehicles_map/mini_tank_heavy.png",
        "iconrotate": "90.0",
        "popupContent": "Amazing information about T-90A will be found here!"
      },
      "bf2props": {
        "name": "ru_air_base_ru_apc03",
        "class": "ObjectSpawner",
        "name_object": "T-90A",
        "team": "1",
        "obj1": "ru_tnk_t90",
        "obj2": "null",
        "maxspawn": "300.0",
        "minspawn": "300.0",
        "spawndelay": "false",
        "ttl": "12000.0",
        "cpid": "1"
      }
    },
    {
      "type": "Feature",
      "geometry": {
        "type": "Point",
        "coordinates": [3907.651, -494.667],
        "size": [16, 16]
      },
      "properties": {
        "iconurl": "icons/vehicles_map/mini_tank_heavy.png",
        "iconrotate": "0.0",
        "popupContent": "Amazing information about T-90A will be found here!"
      },
      "bf2props": {
        "name": "ru_air_base_ru_apc04",
        "class": "ObjectSpawner",
        "name_object": "T-90A",
        "team": "1",
        "obj1": "ru_tnk_t90",
        "obj2": "null",
        "maxspawn": "300.0",
        "minspawn": "300.0",
        "spawndelay": "false",
        "ttl": "12000.0",
        "cpid": "1"
      }
    },
    {
      "type": "Feature",
      "geometry": {
        "type": "Point",
        "coordinates": [3912.5898, -494.36],
        "size": [16, 16]
      },
      "properties": {
        "iconurl": "icons/vehicles_map/mini_tank_heavy.png",
        "iconrotate": "0.0",
        "popupContent": "Amazing information about T-90A will be found here!"
      },
      "bf2props": {
        "name": "ru_air_base_ru_apc05",
        "class": "ObjectSpawner",
        "name_object": "T-90A",
        "team": "1",
        "obj1": "ru_tnk_t90",
        "obj2": "null",
        "maxspawn": "300.0",
        "minspawn": "300.0",
        "spawndelay": "false",
        "ttl": "12000.0",
        "cpid": "1"
      }
    },
    {
      "type": "Feature",
      "geometry": {
        "type": "Point",
        "coordinates": [3917.143, -494.46497],
        "size": [16, 16]
      },
      "properties": {
        "iconurl": "icons/vehicles_map/mini_tank_heavy.png",
        "iconrotate": "0.0",
        "popupContent": "Amazing information about T-90A will be found here!"
      },
      "bf2props": {
        "name": "ru_air_base_ru_apc06",
        "class": "ObjectSpawner",
        "name_object": "T-90A",
        "team": "1",
        "obj1": "ru_tnk_t90",
        "obj2": "null",
        "maxspawn": "300.0",
        "minspawn": "300.0",
        "spawndelay": "false",
        "ttl": "12000.0",
        "cpid": "1"
      }
    },
    {
      "type": "Feature",
      "geometry": {
        "type": "Point",
        "coordinates": [3889.0771, -456.00403],
        "size": [16, 16]
      },
      "properties": {
        "iconurl": "icons/vehicles_map/mini_tank_heavy.png",
        "iconrotate": "90.0",
        "popupContent": "Amazing information about T-90A will be found here!"
      },
      "bf2props": {
        "name": "ru_air_base_ru_tank01",
        "class": "ObjectSpawner",
        "name_object": "T-90A",
        "team": "1",
        "obj1": "ru_tnk_t90",
        "obj2": "null",
        "maxspawn": "300.0",
        "minspawn": "300.0",
        "spawndelay": "true",
        "ttl": "12000.0",
        "cpid": "1"
      }
    },
    {
      "type": "Feature",
      "geometry": {
        "type": "Point",
        "coordinates": [3889.084, -465.90002],
        "size": [16, 16]
      },
      "properties": {
        "iconurl": "icons/vehicles_map/mini_tank_heavy.png",
        "iconrotate": "90.0",
        "popupContent": "Amazing information about T-90A will be found here!"
      },
      "bf2props": {
        "name": "ru_air_base_ru_tank02",
        "class": "ObjectSpawner",
        "name_object": "T-90A",
        "team": "1",
        "obj1": "ru_tnk_t90",
        "obj2": "null",
        "maxspawn": "300.0",
        "minspawn": "300.0",
        "spawndelay": "true",
        "ttl": "12000.0",
        "cpid": "1"
      }
    },
    {
      "type": "Feature",
      "geometry": {
        "type": "Point",
        "coordinates": [3889.05, -460.63],
        "size": [16, 16]
      },
      "properties": {
        "iconurl": "icons/vehicles_map/mini_tank_heavy.png",
        "iconrotate": "90.0",
        "popupContent": "Amazing information about T-90A will be found here!"
      },
      "bf2props": {
        "name": "ru_air_base_ru_tank03",
        "class": "ObjectSpawner",
        "name_object": "T-90A",
        "team": "1",
        "obj1": "ru_tnk_t90",
        "obj2": "null",
        "maxspawn": "300.0",
        "minspawn": "300.0",
        "spawndelay": "true",
        "ttl": "12000.0",
        "cpid": "1"
      }
    },
    {
      "type": "Feature",
      "geometry": {
        "type": "Point",
        "coordinates": [3889.294, -440.62695],
        "size": [16, 16]
      },
      "properties": {
        "iconurl": "icons/vehicles_map/mini_tank_heavy.png",
        "iconrotate": "90.0",
        "popupContent": "Amazing information about T-90A will be found here!"
      },
      "bf2props": {
        "name": "ru_air_base_ru_aav01",
        "class": "ObjectSpawner",
        "name_object": "T-90A",
        "team": "1",
        "obj1": "ru_tnk_t90",
        "obj2": "null",
        "maxspawn": "300.0",
        "minspawn": "300.0",
        "spawndelay": "true",
        "ttl": "12000.0",
        "cpid": "1"
      }
    },
    {
      "type": "Feature",
      "geometry": {
        "type": "Point",
        "coordinates": [3889.321, -445.75806],
        "size": [16, 16]
      },
      "properties": {
        "iconurl": "icons/vehicles_map/mini_tank_heavy.png",
        "iconrotate": "90.0",
        "popupContent": "Amazing information about T-90A will be found here!"
      },
      "bf2props": {
        "name": "ru_air_base_ru_aav02",
        "class": "ObjectSpawner",
        "name_object": "T-90A",
        "team": "1",
        "obj1": "ru_tnk_t90",
        "obj2": "null",
        "maxspawn": "300.0",
        "minspawn": "300.0",
        "spawndelay": "true",
        "ttl": "12000.0",
        "cpid": "1"
      }
    },
    {
      "type": "Feature",
      "geometry": {
        "type": "Point",
        "coordinates": [3950.7778, -447.05603],
        "size": [16, 16]
      },
      "properties": {
        "iconurl": "icons/vehicles_map/mini_tank_heavy.png",
        "iconrotate": "-45.0",
        "popupContent": "Amazing information about T-90A will be found here!"
      },
      "bf2props": {
        "name": "ru_air_base_ru_logi01",
        "class": "ObjectSpawner",
        "name_object": "T-90A",
        "team": "1",
        "obj1": "ru_tnk_t90",
        "obj2": "null",
        "maxspawn": "300.0",
        "minspawn": "300.0",
        "spawndelay": "false",
        "ttl": "12000.0",
        "cpid": "1"
      }
    },
    {
      "type": "Feature",
      "geometry": {
        "type": "Point",
        "coordinates": [3928.498, -493.98206],
        "size": [16, 16]
      },
      "properties": {
        "iconurl": "icons/vehicles_map/mini_tank_heavy.png",
        "iconrotate": "0.0",
        "popupContent": "Amazing information about T-90A will be found here!"
      },
      "bf2props": {
        "name": "ru_air_base_ru_logi02",
        "class": "ObjectSpawner",
        "name_object": "T-90A",
        "team": "1",
        "obj1": "ru_tnk_t90",
        "obj2": "null",
        "maxspawn": "300.0",
        "minspawn": "300.0",
        "spawndelay": "false",
        "ttl": "12000.0",
        "cpid": "1"
      }
    },
    {
      "type": "Feature",
      "geometry": {
        "type": "Point",
        "coordinates": [3933.623, -494.02405],
        "size": [16, 16]
      },
      "properties": {
        "iconurl": "icons/vehicles_map/mini_tank_heavy.png",
        "iconrotate": "0.0",
        "popupContent": "Amazing information about T-90A will be found here!"
      },
      "bf2props": {
        "name": "ru_air_base_ru_logi03",
        "class": "ObjectSpawner",
        "name_object": "T-90A",
        "team": "1",
        "obj1": "ru_tnk_t90",
        "obj2": "null",
        "maxspawn": "300.0",
        "minspawn": "300.0",
        "spawndelay": "false",
        "ttl": "12000.0",
        "cpid": "1"
      }
    },
    {
      "type": "Feature",
      "geometry": {
        "type": "Point",
        "coordinates": [3889.258, -435.82605],
        "size": [16, 16]
      },
      "properties": {
        "iconurl": "icons/vehicles_map/mini_tank_heavy.png",
        "iconrotate": "90.0",
        "popupContent": "Amazing information about T-90A will be found here!"
      },
      "bf2props": {
        "name": "ru_air_base_ru_logi04",
        "class": "ObjectSpawner",
        "name_object": "T-90A",
        "team": "1",
        "obj1": "ru_tnk_t90",
        "obj2": "null",
        "maxspawn": "300.0",
        "minspawn": "300.0",
        "spawndelay": "false",
        "ttl": "12000.0",
        "cpid": "1"
      }
    },
    {
      "type": "Feature",
      "geometry": {
        "type": "Point",
        "coordinates": [211.33801, -3409.3062],
        "size": [16, 16]
      },
      "properties": {
        "iconurl": "icons/vehicles_map/mini_tank_heavy.png",
        "iconrotate": "-90.0",
        "popupContent": "Amazing information about null will be found here!"
      },
      "bf2props": {
        "name": "pla_air_base_ch_apc01",
        "class": "ObjectSpawner",
        "name_object": "ZTZ-99A2",
        "team": "2",
        "obj1": "null",
        "obj2": "ch_tnk_ztz99",
        "maxspawn": "300.0",
        "minspawn": "300.0",
        "spawndelay": "false",
        "ttl": "12000.0",
        "cpid": "2"
      }
    },
    {
      "type": "Feature",
      "geometry": {
        "type": "Point",
        "coordinates": [211.23999, -3413.732],
        "size": [16, 16]
      },
      "properties": {
        "iconurl": "icons/vehicles_map/mini_tank_heavy.png",
        "iconrotate": "-90.0",
        "popupContent": "Amazing information about null will be found here!"
      },
      "bf2props": {
        "name": "pla_air_base_ch_apc02",
        "class": "ObjectSpawner",
        "name_object": "ZTZ-99A2",
        "team": "2",
        "obj1": "null",
        "obj2": "ch_tnk_ztz99",
        "maxspawn": "300.0",
        "minspawn": "300.0",
        "spawndelay": "false",
        "ttl": "12000.0",
        "cpid": "2"
      }
    },
    {
      "type": "Feature",
      "geometry": {
        "type": "Point",
        "coordinates": [211.573, -3418.138],
        "size": [16, 16]
      },
      "properties": {
        "iconurl": "icons/vehicles_map/mini_tank_heavy.png",
        "iconrotate": "-90.0",
        "popupContent": "Amazing information about null will be found here!"
      },
      "bf2props": {
        "name": "pla_air_base_ch_apc03",
        "class": "ObjectSpawner",
        "name_object": "ZTZ-99A2",
        "team": "2",
        "obj1": "null",
        "obj2": "ch_tnk_ztz99",
        "maxspawn": "300.0",
        "minspawn": "300.0",
        "spawndelay": "false",
        "ttl": "12000.0",
        "cpid": "2"
      }
    },
    {
      "type": "Feature",
      "geometry": {
        "type": "Point",
        "coordinates": [211.52502, -3429.5],
        "size": [16, 16]
      },
      "properties": {
        "iconurl": "icons/vehicles_map/mini_tank_heavy.png",
        "iconrotate": "-90.0",
        "popupContent": "Amazing information about null will be found here!"
      },
      "bf2props": {
        "name": "pla_air_base_ch_apc04",
        "class": "ObjectSpawner",
        "name_object": "ZTZ-99A2",
        "team": "2",
        "obj1": "null",
        "obj2": "ch_tnk_ztz99",
        "maxspawn": "300.0",
        "minspawn": "300.0",
        "spawndelay": "false",
        "ttl": "12000.0",
        "cpid": "2"
      }
    },
    {
      "type": "Feature",
      "geometry": {
        "type": "Point",
        "coordinates": [211.44604, -3434.021],
        "size": [16, 16]
      },
      "properties": {
        "iconurl": "icons/vehicles_map/mini_tank_heavy.png",
        "iconrotate": "-90.0",
        "popupContent": "Amazing information about null will be found here!"
      },
      "bf2props": {
        "name": "pla_air_base_ch_apc05",
        "class": "ObjectSpawner",
        "name_object": "ZTZ-99A2",
        "team": "2",
        "obj1": "null",
        "obj2": "ch_tnk_ztz99",
        "maxspawn": "300.0",
        "minspawn": "300.0",
        "spawndelay": "false",
        "ttl": "12000.0",
        "cpid": "2"
      }
    },
    {
      "type": "Feature",
      "geometry": {
        "type": "Point",
        "coordinates": [211.64294, -3438.26],
        "size": [16, 16]
      },
      "properties": {
        "iconurl": "icons/vehicles_map/mini_tank_heavy.png",
        "iconrotate": "-90.0",
        "popupContent": "Amazing information about null will be found here!"
      },
      "bf2props": {
        "name": "pla_air_base_ch_apc06",
        "class": "ObjectSpawner",
        "name_object": "ZTZ-99A2",
        "team": "2",
        "obj1": "null",
        "obj2": "ch_tnk_ztz99",
        "maxspawn": "300.0",
        "minspawn": "300.0",
        "spawndelay": "false",
        "ttl": "0.0",
        "cpid": "2"
      }
    },
    {
      "type": "Feature",
      "geometry": {
        "type": "Point",
        "coordinates": [211.45496, -3392.843],
        "size": [16, 16]
      },
      "properties": {
        "iconurl": "icons/vehicles_map/mini_tank_heavy.png",
        "iconrotate": "-90.0",
        "popupContent": "Amazing information about null will be found here!"
      },
      "bf2props": {
        "name": "pla_air_base_ch_tank01",
        "class": "ObjectSpawner",
        "name_object": "ZTZ-99A2",
        "team": "2",
        "obj1": "null",
        "obj2": "ch_tnk_ztz99",
        "maxspawn": "300.0",
        "minspawn": "300.0",
        "spawndelay": "true",
        "ttl": "12000.0",
        "cpid": "2"
      }
    },
    {
      "type": "Feature",
      "geometry": {
        "type": "Point",
        "coordinates": [211.682, -3397.49],
        "size": [16, 16]
      },
      "properties": {
        "iconurl": "icons/vehicles_map/mini_tank_heavy.png",
        "iconrotate": "-90.0",
        "popupContent": "Amazing information about null will be found here!"
      },
      "bf2props": {
        "name": "pla_air_base_ch_tank02",
        "class": "ObjectSpawner",
        "name_object": "ZTZ-99A2",
        "team": "2",
        "obj1": "null",
        "obj2": "ch_tnk_ztz99",
        "maxspawn": "300.0",
        "minspawn": "300.0",
        "spawndelay": "true",
        "ttl": "12000.0",
        "cpid": "2"
      }
    },
    {
      "type": "Feature",
      "geometry": {
        "type": "Point",
        "coordinates": [211.62805, -3402.544],
        "size": [16, 16]
      },
      "properties": {
        "iconurl": "icons/vehicles_map/mini_tank_heavy.png",
        "iconrotate": "-90.0",
        "popupContent": "Amazing information about null will be found here!"
      },
      "bf2props": {
        "name": "pla_air_base_ch_tank03",
        "class": "ObjectSpawner",
        "name_object": "ZTZ-99A2",
        "team": "2",
        "obj1": "null",
        "obj2": "ch_tnk_ztz99",
        "maxspawn": "300.0",
        "minspawn": "300.0",
        "spawndelay": "true",
        "ttl": "12000.0",
        "cpid": "2"
      }
    },
    {
      "type": "Feature",
      "geometry": {
        "type": "Point",
        "coordinates": [3952.801, -424.432],
        "size": [16, 16]
      },
      "properties": {
        "iconurl": "icons/vehicles_map/mini_rec_light.png",
        "iconrotate": "-92.13",
        "popupContent": "Amazing information about BRDM-2 will be found here!"
      },
      "bf2props": {
        "name": "ru_outpost_ru_truck01",
        "class": "ObjectSpawner",
        "name_object": "BRDM-2",
        "team": "1",
        "obj1": "ru_jep_brdm2",
        "obj2": "null",
        "maxspawn": "300.0",
        "minspawn": "300.0",
        "spawndelay": "false",
        "ttl": "12000.0",
        "cpid": "1"
      }
    },
    {
      "type": "Feature",
      "geometry": {
        "type": "Point",
        "coordinates": [3868.117, -320.37695],
        "size": [16, 16]
      },
      "properties": {
        "iconurl": "",
        "iconrotate": "-180.0",
        "popupContent": "Amazing information about null will be found here!"
      },
      "bf2props": {
        "name": "ru_outpost_ru_rallypoint",
        "class": "ObjectSpawner",
        "name_object": "null",
        "team": "2",
        "obj1": "dummy",
        "obj2": "null",
        "maxspawn": "99999.0",
        "minspawn": "99999.0",
        "spawndelay": "false",
        "ttl": "12000.0",
        "cpid": "1"
      }
    },
    {
      "type": "Feature",
      "geometry": {
        "type": "Point",
        "coordinates": [3870.428, -334.59497],
        "size": [16, 16]
      },
      "properties": {
        "iconurl": "icons/mini_map/repairdepot.png",
        "iconrotate": "0",
        "popupContent": "Amazing information about Vehicle Depot will be found here!"
      },
      "bf2props": {
        "name": "ru_outpost_ru_jeep",
        "class": "ObjectSpawner",
        "name_object": "Vehicle Depot",
        "team": "1",
        "obj1": "vehicle_depot_ru",
        "obj2": "null",
        "maxspawn": "0.0",
        "minspawn": "0.0",
        "spawndelay": "false",
        "ttl": "12000.0",
        "cpid": "1"
      }
    },
    {
      "type": "Feature",
      "geometry": {
        "type": "Point",
        "coordinates": [170.82202, -3470.838],
        "size": [16, 16]
      },
      "properties": {
        "iconurl": "icons/vehicles_map/mini_rec_light.png",
        "iconrotate": "45.0",
        "popupContent": "Amazing information about null will be found here!"
      },
      "bf2props": {
        "name": "pla_outpost_ch_truck01",
        "class": "ObjectSpawner",
        "name_object": "VN-3",
        "team": "2",
        "obj1": "null",
        "obj2": "ch_jep_vn3",
        "maxspawn": "300.0",
        "minspawn": "300.0",
        "spawndelay": "false",
        "ttl": "12000.0",
        "cpid": "2"
      }
    },
    {
      "type": "Feature",
      "geometry": {
        "type": "Point",
        "coordinates": [217.83704, -3305.291],
        "size": [16, 16]
      },
      "properties": {
        "iconurl": "",
        "iconrotate": "90.0",
        "popupContent": "Amazing information about null will be found here!"
      },
      "bf2props": {
        "name": "pla_outpost_ch_rallypoint",
        "class": "ObjectSpawner",
        "name_object": "null",
        "team": "2",
        "obj1": "null",
        "obj2": "dummy",
        "maxspawn": "99999.0",
        "minspawn": "99999.0",
        "spawndelay": "false",
        "ttl": "12000.0",
        "cpid": "2"
      }
    },
    {
      "type": "Feature",
      "geometry": {
        "type": "Point",
        "coordinates": [217.57605, -3313.242],
        "size": [16, 16]
      },
      "properties": {
        "iconurl": "icons/mini_map/repairdepot.png",
        "iconrotate": "0",
        "popupContent": "Amazing information about null will be found here!"
      },
      "bf2props": {
        "name": "pla_outpost_ch_jeep",
        "class": "ObjectSpawner",
        "name_object": "Vehicle Depot",
        "team": "2",
        "obj1": "null",
        "obj2": "vehicle_depot_ch",
        "maxspawn": "0.0",
        "minspawn": "0.0",
        "spawndelay": "false",
        "ttl": "12000.0",
        "cpid": "2"
      }
    },
    {
      "type": "Feature",
      "geometry": {
        "type": "Point",
        "coordinates": [3953.17, -429.34497],
        "size": [16, 16]
      },
      "properties": {
        "iconurl": "icons/vehicles_map/mini_rec_light.png",
        "iconrotate": "-90.0",
        "popupContent": "Amazing information about BRDM-2 will be found here!"
      },
      "bf2props": {
        "name": "ru_air_base_ru_crate01_0",
        "class": "ObjectSpawner",
        "name_object": "BRDM-2",
        "team": "1",
        "obj1": "ru_jep_brdm2",
        "obj2": "null",
        "maxspawn": "300.0",
        "minspawn": "300.0",
        "spawndelay": "false",
        "ttl": "12000.0",
        "cpid": "1"
      }
    },
    {
      "type": "Feature",
      "geometry": {
        "type": "Point",
        "coordinates": [3907.6182, -419.11597],
        "size": [16, 16]
      },
      "properties": {
        "iconurl": "icons/vehicles_map/mini_tank_heavy.png",
        "iconrotate": "-180.0",
        "popupContent": "Amazing information about T-90A will be found here!"
      },
      "bf2props": {
        "name": "ru_air_base_ru_crate02",
        "class": "ObjectSpawner",
        "name_object": "T-90A",
        "team": "1",
        "obj1": "ru_tnk_t90",
        "obj2": "null",
        "maxspawn": "300.0",
        "minspawn": "300.0",
        "spawndelay": "false",
        "ttl": "12000.0",
        "cpid": "1"
      }
    },
    {
      "type": "Feature",
      "geometry": {
        "type": "Point",
        "coordinates": [3912.832, -419.30298],
        "size": [16, 16]
      },
      "properties": {
        "iconurl": "icons/vehicles_map/mini_tank_heavy.png",
        "iconrotate": "-180.0",
        "popupContent": "Amazing information about T-90A will be found here!"
      },
      "bf2props": {
        "name": "ru_air_base_ru_crate03",
        "class": "ObjectSpawner",
        "name_object": "T-90A",
        "team": "1",
        "obj1": "ru_tnk_t90",
        "obj2": "null",
        "maxspawn": "300.0",
        "minspawn": "300.0",
        "spawndelay": "false",
        "ttl": "12000.0",
        "cpid": "1"
      }
    },
    {
      "type": "Feature",
      "geometry": {
        "type": "Point",
        "coordinates": [3921.5698, -419.26],
        "size": [16, 16]
      },
      "properties": {
        "iconurl": "icons/vehicles_map/mini_tank_heavy.png",
        "iconrotate": "-180.0",
        "popupContent": "Amazing information about T-90A will be found here!"
      },
      "bf2props": {
        "name": "ru_air_base_ru_crate04",
        "class": "ObjectSpawner",
        "name_object": "T-90A",
        "team": "1",
        "obj1": "ru_tnk_t90",
        "obj2": "null",
        "maxspawn": "300.0",
        "minspawn": "300.0",
        "spawndelay": "false",
        "ttl": "12000.0",
        "cpid": "1"
      }
    },
    {
      "type": "Feature",
      "geometry": {
        "type": "Point",
        "coordinates": [3926.433, -419.276],
        "size": [16, 16]
      },
      "properties": {
        "iconurl": "icons/vehicles_map/mini_tank_heavy.png",
        "iconrotate": "-180.0",
        "popupContent": "Amazing information about T-90A will be found here!"
      },
      "bf2props": {
        "name": "ru_air_base_ru_crate05",
        "class": "ObjectSpawner",
        "name_object": "T-90A",
        "team": "1",
        "obj1": "ru_tnk_t90",
        "obj2": "null",
        "maxspawn": "300.0",
        "minspawn": "300.0",
        "spawndelay": "false",
        "ttl": "12000.0",
        "cpid": "1"
      }
    },
    {
      "type": "Feature",
      "geometry": {
        "type": "Point",
        "coordinates": [3917.043, -419.312],
        "size": [16, 16]
      },
      "properties": {
        "iconurl": "icons/vehicles_map/mini_tank_heavy.png",
        "iconrotate": "-180.0",
        "popupContent": "Amazing information about T-90A will be found here!"
      },
      "bf2props": {
        "name": "ru_air_base_ru_crate06",
        "class": "ObjectSpawner",
        "name_object": "T-90A",
        "team": "1",
        "obj1": "ru_tnk_t90",
        "obj2": "null",
        "maxspawn": "300.0",
        "minspawn": "300.0",
        "spawndelay": "false",
        "ttl": "12000.0",
        "cpid": "1"
      }
    },
    {
      "type": "Feature",
      "geometry": {
        "type": "Point",
        "coordinates": [174.21497, -3434.894],
        "size": [16, 16]
      },
      "properties": {
        "iconurl": "icons/vehicles_map/mini_tank_heavy.png",
        "iconrotate": "45.0",
        "popupContent": "Amazing information about null will be found here!"
      },
      "bf2props": {
        "name": "pla_air_base_ch_crate01",
        "class": "ObjectSpawner",
        "name_object": "ZTZ-99A2",
        "team": "2",
        "obj1": "null",
        "obj2": "ch_tnk_ztz99",
        "maxspawn": "300.0",
        "minspawn": "300.0",
        "spawndelay": "false",
        "ttl": "12000.0",
        "cpid": "2"
      }
    },
    {
      "type": "Feature",
      "geometry": {
        "type": "Point",
        "coordinates": [174.56897, -3440.8398],
        "size": [16, 16]
      },
      "properties": {
        "iconurl": "icons/vehicles_map/mini_tank_heavy.png",
        "iconrotate": "45.0",
        "popupContent": "Amazing information about null will be found here!"
      },
      "bf2props": {
        "name": "pla_air_base_ch_crate02",
        "class": "ObjectSpawner",
        "name_object": "ZTZ-99A2",
        "team": "2",
        "obj1": "null",
        "obj2": "ch_tnk_ztz99",
        "maxspawn": "300.0",
        "minspawn": "300.0",
        "spawndelay": "false",
        "ttl": "12000.0",
        "cpid": "2"
      }
    },
    {
      "type": "Feature",
      "geometry": {
        "type": "Point",
        "coordinates": [174.43701, -3447.011],
        "size": [16, 16]
      },
      "properties": {
        "iconurl": "icons/vehicles_map/mini_tank_heavy.png",
        "iconrotate": "45.0",
        "popupContent": "Amazing information about null will be found here!"
      },
      "bf2props": {
        "name": "pla_air_base_ch_crate03",
        "class": "ObjectSpawner",
        "name_object": "ZTZ-99A2",
        "team": "2",
        "obj1": "null",
        "obj2": "ch_tnk_ztz99",
        "maxspawn": "300.0",
        "minspawn": "300.0",
        "spawndelay": "false",
        "ttl": "12000.0",
        "cpid": "2"
      }
    },
    {
      "type": "Feature",
      "geometry": {
        "type": "Point",
        "coordinates": [174.20203, -3453.0908],
        "size": [16, 16]
      },
      "properties": {
        "iconurl": "icons/vehicles_map/mini_tank_heavy.png",
        "iconrotate": "45.0",
        "popupContent": "Amazing information about null will be found here!"
      },
      "bf2props": {
        "name": "pla_air_base_ch_crate04",
        "class": "ObjectSpawner",
        "name_object": "ZTZ-99A2",
        "team": "2",
        "obj1": "null",
        "obj2": "ch_tnk_ztz99",
        "maxspawn": "300.0",
        "minspawn": "300.0",
        "spawndelay": "false",
        "ttl": "12000.0",
        "cpid": "2"
      }
    },
    {
      "type": "Feature",
      "geometry": {
        "type": "Point",
        "coordinates": [174.42896, -3458.981],
        "size": [16, 16]
      },
      "properties": {
        "iconurl": "icons/vehicles_map/mini_tank_heavy.png",
        "iconrotate": "45.0",
        "popupContent": "Amazing information about null will be found here!"
      },
      "bf2props": {
        "name": "pla_air_base_ch_crate05",
        "class": "ObjectSpawner",
        "name_object": "ZTZ-99A2",
        "team": "2",
        "obj1": "null",
        "obj2": "ch_tnk_ztz99",
        "maxspawn": "300.0",
        "minspawn": "300.0",
        "spawndelay": "false",
        "ttl": "12000.0",
        "cpid": "2"
      }
    },
    {
      "type": "Feature",
      "geometry": {
        "type": "Point",
        "coordinates": [171.22998, -3477.939],
        "size": [16, 16]
      },
      "properties": {
        "iconurl": "icons/vehicles_map/mini_rec_light.png",
        "iconrotate": "45.0",
        "popupContent": "Amazing information about null will be found here!"
      },
      "bf2props": {
        "name": "pla_outpost_ch_crate_neutral",
        "class": "ObjectSpawner",
        "name_object": "VN-3",
        "team": "2",
        "obj1": "null",
        "obj2": "ch_jep_vn3",
        "maxspawn": "300.0",
        "minspawn": "300.0",
        "spawndelay": "false",
        "ttl": "12000.0",
        "cpid": "2"
      }
    },
    {
      "type": "Feature",
      "geometry": {
        "type": "Point",
        "coordinates": [3888.709, -422.135],
        "size": [16, 16]
      },
      "properties": {
        "iconurl": "icons/mini_map/repairdepot.png",
        "iconrotate": "0",
        "popupContent": "Amazing information about Vehicle Depot will be found here!"
      },
      "bf2props": {
        "name": "ru_air_base_ru_supply_depot",
        "class": "ObjectSpawner",
        "name_object": "Vehicle Depot",
        "team": "1",
        "obj1": "vehicle_depot_ru",
        "obj2": "null",
        "maxspawn": "0.0",
        "minspawn": "0.0",
        "spawndelay": "false",
        "ttl": "0.0",
        "cpid": "1"
      }
    },
    {
      "type": "Feature",
      "geometry": {
        "type": "Point",
        "coordinates": [212.172, -3364.407],
        "size": [16, 16]
      },
      "properties": {
        "iconurl": "icons/mini_map/repairdepot.png",
        "iconrotate": "0",
        "popupContent": "Amazing information about null will be found here!"
      },
      "bf2props": {
        "name": "pla_air_base_ch_supply_depot",
        "class": "ObjectSpawner",
        "name_object": "Vehicle Depot",
        "team": "2",
        "obj1": "null",
        "obj2": "vehicle_depot_ch",
        "maxspawn": "0.0",
        "minspawn": "0.0",
        "spawndelay": "false",
        "ttl": "0.0",
        "cpid": "2"
      }
    },
    {
      "type": "Feature",
      "geometry": {
        "type": "Point",
        "coordinates": [211.45203, -3373.433],
        "size": [16, 16]
      },
      "properties": {
        "iconurl": "icons/vehicles_map/mini_tank_heavy.png",
        "iconrotate": "-90.0",
        "popupContent": "Amazing information about null will be found here!"
      },
      "bf2props": {
        "name": "pla_air_base_ch_aav01",
        "class": "ObjectSpawner",
        "name_object": "ZTZ-99A2",
        "team": "2",
        "obj1": "null",
        "obj2": "ch_tnk_ztz99",
        "maxspawn": "300.0",
        "minspawn": "300.0",
        "spawndelay": "true",
        "ttl": "12000.0",
        "cpid": "2"
      }
    },
    {
      "type": "Feature",
      "geometry": {
        "type": "Point",
        "coordinates": [210.927, -3378.45],
        "size": [16, 16]
      },
      "properties": {
        "iconurl": "icons/vehicles_map/mini_tank_heavy.png",
        "iconrotate": "-90.0",
        "popupContent": "Amazing information about null will be found here!"
      },
      "bf2props": {
        "name": "pla_air_base_ch_aav02",
        "class": "ObjectSpawner",
        "name_object": "ZTZ-99A2",
        "team": "2",
        "obj1": "null",
        "obj2": "ch_tnk_ztz99",
        "maxspawn": "300.0",
        "minspawn": "300.0",
        "spawndelay": "true",
        "ttl": "12000.0",
        "cpid": "2"
      }
    },
    {
      "type": "Feature",
      "geometry": {
        "type": "Point",
        "coordinates": [211.55896, -3445.103],
        "size": [16, 16]
      },
      "properties": {
        "iconurl": "icons/vehicles_map/mini_tank_heavy.png",
        "iconrotate": "-90.0",
        "popupContent": "Amazing information about null will be found here!"
      },
      "bf2props": {
        "name": "pla_air_base_ch_logi01",
        "class": "ObjectSpawner",
        "name_object": "ZTZ-99A2",
        "team": "2",
        "obj1": "null",
        "obj2": "ch_tnk_ztz99",
        "maxspawn": "300.0",
        "minspawn": "300.0",
        "spawndelay": "false",
        "ttl": "12000.0",
        "cpid": "2"
      }
    },
    {
      "type": "Feature",
      "geometry": {
        "type": "Point",
        "coordinates": [211.34998, -3449.474],
        "size": [16, 16]
      },
      "properties": {
        "iconurl": "icons/vehicles_map/mini_tank_heavy.png",
        "iconrotate": "-90.0",
        "popupContent": "Amazing information about null will be found here!"
      },
      "bf2props": {
        "name": "pla_air_base_ch_logi02",
        "class": "ObjectSpawner",
        "name_object": "ZTZ-99A2",
        "team": "2",
        "obj1": "null",
        "obj2": "ch_tnk_ztz99",
        "maxspawn": "300.0",
        "minspawn": "300.0",
        "spawndelay": "false",
        "ttl": "12000.0",
        "cpid": "2"
      }
    },
    {
      "type": "Feature",
      "geometry": {
        "type": "Point",
        "coordinates": [211.36499, -3454.281],
        "size": [16, 16]
      },
      "properties": {
        "iconurl": "icons/vehicles_map/mini_tank_heavy.png",
        "iconrotate": "-90.0",
        "popupContent": "Amazing information about null will be found here!"
      },
      "bf2props": {
        "name": "pla_air_base_ch_logi03",
        "class": "ObjectSpawner",
        "name_object": "ZTZ-99A2",
        "team": "2",
        "obj1": "null",
        "obj2": "ch_tnk_ztz99",
        "maxspawn": "300.0",
        "minspawn": "300.0",
        "spawndelay": "false",
        "ttl": "12000.0",
        "cpid": "2"
      }
    },
    {
      "type": "Feature",
      "geometry": {
        "type": "Point",
        "coordinates": [211.20203, -3382.83],
        "size": [16, 16]
      },
      "properties": {
        "iconurl": "icons/vehicles_map/mini_tank_heavy.png",
        "iconrotate": "-90.0",
        "popupContent": "Amazing information about null will be found here!"
      },
      "bf2props": {
        "name": "pla_air_base_ch_logi04",
        "class": "ObjectSpawner",
        "name_object": "ZTZ-99A2",
        "team": "2",
        "obj1": "null",
        "obj2": "ch_tnk_ztz99",
        "maxspawn": "300.0",
        "minspawn": "300.0",
        "spawndelay": "false",
        "ttl": "12000.0",
        "cpid": "2"
      }
    },
    {
      "type": "Feature",
      "geometry": {
        "type": "Point",
        "coordinates": [3936.992, -548.996],
        "size": [16, 16]
      },
      "properties": {
        "iconurl": "",
        "iconrotate": "-90.025",
        "popupContent": "Amazing information about null will be found here!"
      },
      "bf2props": {
        "name": "cpname_black_gold_vehicles64_northmain_spg",
        "class": "ObjectSpawner",
        "name_object": "null",
        "team": "2",
        "obj1": "dummy",
        "obj2": "null",
        "maxspawn": "1800.0",
        "minspawn": "1800.0",
        "spawndelay": "false",
        "ttl": "0.0",
        "cpid": "1"
      }
    },
    {
      "type": "Feature",
      "geometry": {
        "type": "Point",
        "coordinates": [3749.9019, -776.728],
        "size": [33, 33],
        "radius": "0.0"
      },
      "properties": {
        "iconurl": "icons/flags_map/ru/minimap_cpbase.png",
        "iconrotate": "0",
        "popupContent": "Amazing information about RU Airbase will be found here!"
      },
      "bf2props": {
        "name": "cpname_black_gold_vehicles64_northmain",
        "class": "ControlPoint",
        "name_object": "RU Airbase",
        "team": "1",
        "areavalue1": "0.0",
        "areavalue2": "0.0",
        "cpid": "1",
        "sgid": "-999",
        "uncap": "true",
        "ttgc": "0.0",
        "ttlc": "0.0"
      }
    },
    {
      "type": "Feature",
      "geometry": {
        "type": "Point",
        "coordinates": [356.69104, -2996.511],
        "size": [33, 33],
        "radius": "0.0"
      },
      "properties": {
        "iconurl": "icons/flags_map/ch/minimap_cpbase.png",
        "iconrotate": "0",
        "popupContent": "Amazing information about PLA Airbase will be found here!"
      },
      "bf2props": {
        "name": "cpname_black_gold_vehicles64_southmain",
        "class": "ControlPoint",
        "name_object": "PLA Airbase",
        "team": "2",
        "areavalue1": "0.0",
        "areavalue2": "0.0",
        "cpid": "2",
        "sgid": "-999",
        "uncap": "true",
        "ttgc": "0.0",
        "ttlc": "0.0"
      }
    },
    {
      "type": "Feature",
      "geometry": {
        "type": "Point",
        "coordinates": [2764.2979, -564.41504],
        "size": [33, 33],
        "radius": "300.0"
      },
      "properties": {
        "iconurl": "icons/flags_map/ru/minimap_cp.png",
        "iconrotate": "0",
        "popupContent": "Amazing information about RU Firebase will be found here!"
      },
      "bf2props": {
        "name": "cpname_black_gold_vehicles64_1northoutpost",
        "class": "ControlPoint",
        "name_object": "RU Firebase",
        "team": "1",
        "areavalue1": "0.0",
        "areavalue2": "90.0",
        "cpid": "111",
        "sgid": "1",
        "uncap": "false",
        "ttgc": "180.0",
        "ttlc": "180.0"
      }
    },
    {
      "type": "Feature",
      "geometry": {
        "type": "Point",
        "coordinates": [1852.762, -531.45496],
        "size": [33, 33],
        "radius": "200.0"
      },
      "properties": {
        "iconurl": "icons/flags_map/neutral/minimap_cp.png",
        "iconrotate": "0",
        "popupContent": "Amazing information about Tunnel Bunker will be found here!"
      },
      "bf2props": {
        "name": "cpname_black_gold_vehicles64_1tunnelbunker",
        "class": "ControlPoint",
        "name_object": "Tunnel Bunker",
        "team": "0",
        "areavalue1": "0.0",
        "areavalue2": "90.0",
        "cpid": "112",
        "sgid": "201",
        "uncap": "false",
        "ttgc": "180.0",
        "ttlc": "180.0"
      }
    },
    {
      "type": "Feature",
      "geometry": {
        "type": "Point",
        "coordinates": [2833.963, -1385.2219],
        "size": [33, 33],
        "radius": "200.0"
      },
      "properties": {
        "iconurl": "icons/flags_map/neutral/minimap_cp.png",
        "iconrotate": "0",
        "popupContent": "Amazing information about Supply Bunker will be found here!"
      },
      "bf2props": {
        "name": "cpname_black_gold_vehicles64_2supplybunker",
        "class": "ControlPoint",
        "name_object": "Supply Bunker",
        "team": "0",
        "areavalue1": "0.0",
        "areavalue2": "90.0",
        "cpid": "113",
        "sgid": "202",
        "uncap": "false",
        "ttgc": "180.0",
        "ttlc": "180.0"
      }
    },
    {
      "type": "Feature",
      "geometry": {
        "type": "Point",
        "coordinates": [2842.46, -2088.93],
        "size": [33, 33],
        "radius": "200.0"
      },
      "properties": {
        "iconurl": "icons/flags_map/neutral/minimap_cp.png",
        "iconrotate": "0",
        "popupContent": "Amazing information about Control Facility will be found here!"
      },
      "bf2props": {
        "name": "cpname_black_gold_vehicles64_2controlfacility",
        "class": "ControlPoint",
        "name_object": "Control Facility",
        "team": "0",
        "areavalue1": "0.0",
        "areavalue2": "0.0",
        "cpid": "115",
        "sgid": "302",
        "uncap": "false",
        "ttgc": "180.0",
        "ttlc": "180.0"
      }
    },
    {
      "type": "Feature",
      "geometry": {
        "type": "Point",
        "coordinates": [3061.221, -2628.837],
        "size": [33, 33],
        "radius": "200.0"
      },
      "properties": {
        "iconurl": "icons/flags_map/neutral/minimap_cp.png",
        "iconrotate": "0",
        "popupContent": "Amazing information about Oil Refinery will be found here!"
      },
      "bf2props": {
        "name": "cpname_black_gold_vehicles64_2oilrefinery",
        "class": "ControlPoint",
        "name_object": "Oil Refinery",
        "team": "0",
        "areavalue1": "0.0",
        "areavalue2": "0.0",
        "cpid": "120",
        "sgid": "402",
        "uncap": "false",
        "ttgc": "180.0",
        "ttlc": "180.0"
      }
    },
    {
      "type": "Feature",
      "geometry": {
        "type": "Point",
        "coordinates": [1905.465, -1780.4509],
        "size": [33, 33],
        "radius": "200.0"
      },
      "properties": {
        "iconurl": "icons/flags_map/neutral/minimap_cp.png",
        "iconrotate": "0",
        "popupContent": "Amazing information about Oil Storage will be found here!"
      },
      "bf2props": {
        "name": "cpname_black_gold_vehicles64_1oilstorage",
        "class": "ControlPoint",
        "name_object": "Oil Storage",
        "team": "0",
        "areavalue1": "0.0",
        "areavalue2": "0.0",
        "cpid": "122",
        "sgid": "511",
        "uncap": "false",
        "ttgc": "180.0",
        "ttlc": "180.0"
      }
    },
    {
      "type": "Feature",
      "geometry": {
        "type": "Point",
        "coordinates": [1463.442, -1754.541],
        "size": [33, 33],
        "radius": "200.0"
      },
      "properties": {
        "iconurl": "icons/flags_map/neutral/minimap_cp.png",
        "iconrotate": "0",
        "popupContent": "Amazing information about Bridges will be found here!"
      },
      "bf2props": {
        "name": "cpname_black_gold_vehicles64_1bridges",
        "class": "ControlPoint",
        "name_object": "Bridges",
        "team": "0",
        "areavalue1": "0.0",
        "areavalue2": "0.0",
        "cpid": "123",
        "sgid": "511",
        "uncap": "false",
        "ttgc": "180.0",
        "ttlc": "180.0"
      }
    },
    {
      "type": "Feature",
      "geometry": {
        "type": "Point",
        "coordinates": [1572.016, -2177.407],
        "size": [33, 33],
        "radius": "200.0"
      },
      "properties": {
        "iconurl": "icons/flags_map/neutral/minimap_cp.png",
        "iconrotate": "0",
        "popupContent": "Amazing information about Water Pumping Station will be found here!"
      },
      "bf2props": {
        "name": "cpname_black_gold_vehicles64_1waterpumpingstation",
        "class": "ControlPoint",
        "name_object": "Water Pumping Station",
        "team": "0",
        "areavalue1": "0.0",
        "areavalue2": "0.0",
        "cpid": "125",
        "sgid": "601",
        "uncap": "false",
        "ttgc": "180.0",
        "ttlc": "180.0"
      }
    },
    {
      "type": "Feature",
      "geometry": {
        "type": "Point",
        "coordinates": [2365.889, -3352.708],
        "size": [33, 33],
        "radius": "200.0"
      },
      "properties": {
        "iconurl": "icons/flags_map/neutral/minimap_cp.png",
        "iconrotate": "0",
        "popupContent": "Amazing information about Abandoned Farm will be found here!"
      },
      "bf2props": {
        "name": "cpname_black_gold_vehicles64_2abandonedfarm",
        "class": "ControlPoint",
        "name_object": "Abandoned Farm",
        "team": "0",
        "areavalue1": "90.0",
        "areavalue2": "0.0",
        "cpid": "132",
        "sgid": "602",
        "uncap": "false",
        "ttgc": "180.0",
        "ttlc": "180.0"
      }
    },
    {
      "type": "Feature",
      "geometry": {
        "type": "Point",
        "coordinates": [2814.083, -3086.146],
        "size": [33, 33],
        "radius": "200.0"
      },
      "properties": {
        "iconurl": "icons/flags_map/neutral/minimap_cp.png",
        "iconrotate": "0",
        "popupContent": "Amazing information about Old Outpost will be found here!"
      },
      "bf2props": {
        "name": "cpname_black_gold_vehicles64_2oldoutpost",
        "class": "ControlPoint",
        "name_object": "Old Outpost",
        "team": "0",
        "areavalue1": "0.0",
        "areavalue2": "0.0",
        "cpid": "137",
        "sgid": "502",
        "uncap": "false",
        "ttgc": "180.0",
        "ttlc": "180.0"
      }
    },
    {
      "type": "Feature",
      "geometry": {
        "type": "Point",
        "coordinates": [1462.494, -1134.4241],
        "size": [33, 33],
        "radius": "150.0"
      },
      "properties": {
        "iconurl": "icons/flags_map/neutral/minimap_cp.png",
        "iconrotate": "0",
        "popupContent": "Amazing information about North City 150m will be found here!"
      },
      "bf2props": {
        "name": "cpname_black_gold_vehicles64_1northcity",
        "class": "ControlPoint",
        "name_object": "North City 150m",
        "team": "0",
        "areavalue1": "0.0",
        "areavalue2": "90.0",
        "cpid": "140",
        "sgid": "311",
        "uncap": "false",
        "ttgc": "180.0",
        "ttlc": "180.0"
      }
    },
    {
      "type": "Feature",
      "geometry": {
        "type": "Point",
        "coordinates": [1346.656, -1415.2881],
        "size": [33, 33],
        "radius": "150.0"
      },
      "properties": {
        "iconurl": "icons/flags_map/neutral/minimap_cp.png",
        "iconrotate": "0",
        "popupContent": "Amazing information about South City 150m will be found here!"
      },
      "bf2props": {
        "name": "cpname_black_gold_vehicles64_1southcity",
        "class": "ControlPoint",
        "name_object": "South City 150m",
        "team": "0",
        "areavalue1": "0.0",
        "areavalue2": "90.0",
        "cpid": "146",
        "sgid": "411",
        "uncap": "false",
        "ttgc": "180.0",
        "ttlc": "180.0"
      }
    },
    {
      "type": "Feature",
      "geometry": {
        "type": "Point",
        "coordinates": [1589.764, -2984.903],
        "size": [33, 33],
        "radius": "300.0"
      },
      "properties": {
        "iconurl": "icons/flags_map/ch/minimap_cp.png",
        "iconrotate": "0",
        "popupContent": "Amazing information about PLA Firebase will be found here!"
      },
      "bf2props": {
        "name": "cpname_black_gold_vehicles64_1southoutpost",
        "class": "ControlPoint",
        "name_object": "PLA Firebase",
        "team": "2",
        "areavalue1": "90.0",
        "areavalue2": "0.0",
        "cpid": "164",
        "sgid": "6",
        "uncap": "false",
        "ttgc": "180.0",
        "ttlc": "180.0"
      }
    },
    {
      "type": "Feature",
      "geometry": {
        "type": "Polygon",
        "coordinates": [
          [
            [0,0],
            [0,-4096],
            [4096,-4096],
            [4096,0]
          ],[
            [4095.0, -1.0],
            [4095.0, -4095.0],
            [1.0, -4095.0],
            [1.0, -1.0],
            [4095.0, -1.0],
            [4095.0, -4095.0],
            [1.0, -4095.0],
            [1.0, -1.0],
            [4095.0, -1.0],
            [4095.0, -4095.0],
            [1.0, -4095.0],
            [1.0, -1.0]
          ]
        ]
      },
      "bf2props": {
        "code": "combatarea_27_aas_64",
        "class": "CombatArea",
        "team": "0",
        "vehicles": "4",
        "layer": "4",
        "inverted": "false",
        "max": [0.0, 0.0],
        "min": [0.0, 0.0]
      }
    },
    {
      "type": "Feature",
      "geometry": {
        "type": "Polygon",
        "coordinates": [
          [
            [3402.0347, -4.3745117],
            [3416.3247, -98.04443],
            [3394.0127, -194.09766],
            [3488.4622, -263.81665],
            [3489.085, -373.87842],
            [3444.8127, -454.14307],
            [3402.7, -564.9668],
            [3424.7195, -672.7168],
            [3431.6914, -774.37695],
            [3443.529, -858.7825],
            [3512.5789, -896.05884],
            [3519.7034, -974.468],
            [3532.8533, -1082.6475],
            [3548.3125, -1262.5576],
            [3571.331, -1364.6904],
            [3615.6414, -1533.2263],
            [3718.858, -1636.459],
            [3809.8118, -1790.9702],
            [3977.0027, -1840.1509],
            [4095.617, -1852.4341],
            [4095.3835, -0.22460938],
            [3402.0347, -0.37451172],
            [3416.3247, -98.04443],
            [3394.0127, -194.09766],
            [3488.4622, -263.81665],
            [3489.085, -373.87842],
            [3444.8127, -454.14307],
            [3402.7, -564.9668],
            [3424.7195, -672.7168],
            [3431.6914, -774.37695],
            [3443.529, -858.7825],
            [3512.5789, -896.05884],
            [3519.7034, -974.468],
            [3532.8533, -1082.6475],
            [3548.3125, -1262.5576],
            [3571.331, -1364.6904],
            [3615.6414, -1533.2263],
            [3718.858, -1636.459],
            [3809.8118, -1790.9702],
            [3977.0027, -1840.1509],
            [4095.617, -1852.4341],
            [4095.3835, -0.22460938],
            [3402.0347, -0.37451172],
            [3416.3247, -98.04443],
            [3394.0127, -194.09766],
            [3488.4622, -263.81665],
            [3489.085, -373.87842],
            [3444.8127, -454.14307],
            [3402.7, -564.9668],
            [3424.7195, -672.7168],
            [3431.6914, -774.37695],
            [3443.529, -858.7825],
            [3512.5789, -896.05884],
            [3519.7034, -974.468],
            [3532.8533, -1082.6475],
            [3548.3125, -1262.5576],
            [3571.331, -1364.6904],
            [3615.6414, -1533.2263],
            [3718.858, -1636.459],
            [3809.8118, -1790.9702],
            [3977.0027, -1840.1509],
            [4095.617, -1852.4341],
            [4095.3835, -0.22460938]
          ]
        ]
      },
      "bf2props": {
        "code": "combatarea_4_aas_64",
        "class": "CombatArea",
        "team": "2",
        "vehicles": "4",
        "layer": "4",
        "inverted": "true",
        "max": [0.0, 0.0],
        "min": [0.0, 0.0]
      }
    },
    {
      "type": "Feature",
      "geometry": {
        "type": "Polygon",
        "coordinates": [
          [
            [1267.8922, -4099.3047],
            [1212.017, -3941.234],
            [1142.319, -3834.897],
            [1002.95483, -3727.387],
            [825.42676, -3586.7854],
            [798.20276, -3447.4773],
            [837.53174, -3322.9814],
            [834.1874, -3165.8892],
            [840.9365, -3043.9155],
            [818.4553, -2935.4949],
            [784.4197, -2828.625],
            [793.948, -2761.9055],
            [758.9695, -2699.941],
            [704.68787, -2616.4893],
            [605.75195, -2573.225],
            [522.1743, -2523.3042],
            [425.89185, -2341.045],
            [327.45386, -2173.638],
            [136.92639, -1963.5779],
            [-6.071289, -1870.011],
            [0.33862305, -4095.3826],
            [1267.8922, -4099.3047],
            [1212.017, -3941.234],
            [1142.319, -3834.897],
            [1002.95483, -3727.387],
            [825.42676, -3586.7854],
            [798.20276, -3447.4773],
            [837.53174, -3322.9814],
            [834.1874, -3165.8892],
            [840.9365, -3043.9155],
            [818.4553, -2935.4949],
            [784.4197, -2828.625],
            [793.948, -2761.9055],
            [758.9695, -2699.941],
            [704.68787, -2616.4893],
            [605.75195, -2573.225],
            [522.1743, -2523.3042],
            [425.89185, -2341.045],
            [327.45386, -2173.638],
            [136.92639, -1963.5779],
            [-6.071289, -1870.011],
            [0.33862305, -4095.3826],
            [1267.8922, -4099.3047],
            [1212.017, -3941.234],
            [1142.319, -3834.897],
            [1002.95483, -3727.387],
            [825.42676, -3586.7854],
            [798.20276, -3447.4773],
            [837.53174, -3322.9814],
            [834.1874, -3165.8892],
            [840.9365, -3043.9155],
            [818.4553, -2935.4949],
            [784.4197, -2828.625],
            [793.948, -2761.9055],
            [758.9695, -2699.941],
            [704.68787, -2616.4893],
            [605.75195, -2573.225],
            [522.1743, -2523.3042],
            [425.89185, -2341.045],
            [327.45386, -2173.638],
            [136.92639, -1963.5779],
            [-6.071289, -1870.011],
            [0.33862305, -4095.3826]
          ]
        ]
      },
      "bf2props": {
        "code": "combatarea_25_aas_64",
        "class": "CombatArea",
        "team": "1",
        "vehicles": "4",
        "layer": "4",
        "inverted": "true",
        "max": [0.0, 0.0],
        "min": [0.0, 0.0]
      }
    }
  ]
}