{
  "team1":"ru",
  "team2":"ch",
  "team1tickets":"450",
  "team2tickets":"450",
  "mapsize":"4096",
  "viewdistance":"600",
  "combatareause":"true",
  "combatareadamage":"2.5",
  "combatareaallowoutside":"15.0",
  "routes": [
    [
      [
        "cpname_black_gold_aas16_1northoutpost"
      ],
      [
        "cpname_black_gold_aas16_1tunnelbunker"
      ],
      [
        "cpname_black_gold_aas16_northmain",
        "cpname_black_gold_aas16_suburbs"
      ],
      [
        "cpname_black_gold_aas16_mosque",
        "cpname_black_gold_aas16_constructionsite",
        "cpname_black_gold_aas16_hotel"
      ],
      [
        "cpname_black_gold_aas16_southmain",
        "cpname_black_gold_aas16_commericaldistict"
      ],
      [
        "cpname_black_gold_aas16_1waterpumpingstation"
      ],
      [
        "cpname_black_gold_aas16_1southoutpost"
      ]
    ]
  ],
  "type": "FeatureCollection",
  "features": [
    {
      "type": "Feature",
      "geometry": {
        "type": "Point",
        "coordinates": [1563.266, -3033.0571],
        "size": [16, 16]
      },
      "properties": {
        "iconurl": "icons/mini_map/uavtrailer.png",
        "iconrotate": "0",
        "popupContent": "Amazing information about null will be found here!"
      },
      "bf2props": {
        "name": "pla_air_base_ch_command_post",
        "class": "ObjectSpawner",
        "name_object": "UAV Terminal",
        "team": "2",
        "obj1": "null",
        "obj2": "ch_acv_wz551",
        "maxspawn": "0.0",
        "minspawn": "0.0",
        "spawndelay": "false",
        "ttl": "0.0",
        "cpid": "2"
      }
    },
    {
      "type": "Feature",
      "geometry": {
        "type": "Point",
        "coordinates": [2781.605, -563.36206],
        "size": [16, 16]
      },
      "properties": {
        "iconurl": "icons/mini_map/uavtrailer.png",
        "iconrotate": "0",
        "popupContent": "Amazing information about UAV Terminal will be found here!"
      },
      "bf2props": {
        "name": "ru_air_base_ru_command_post",
        "class": "ObjectSpawner",
        "name_object": "UAV Terminal",
        "team": "1",
        "obj1": "ru_acv_btr60pu",
        "obj2": "null",
        "maxspawn": "0.0",
        "minspawn": "0.0",
        "spawndelay": "false",
        "ttl": "0.0",
        "cpid": "1"
      }
    },
    {
      "type": "Feature",
      "geometry": {
        "type": "Point",
        "coordinates": [2743.771, -605.11206],
        "size": [16, 16]
      },
      "properties": {
        "iconurl": "icons/vehicles_map/mini_apc_light.png",
        "iconrotate": "46.506",
        "popupContent": "Amazing information about MT-LBM will be found here!"
      },
      "bf2props": {
        "name": "ru_air_base_ru_apc01",
        "class": "ObjectSpawner",
        "name_object": "MT-LBM",
        "team": "1",
        "obj1": "ru_apc_mtlb_hmg",
        "obj2": "null",
        "maxspawn": "600.0",
        "minspawn": "600.0",
        "spawndelay": "false",
        "ttl": "12000.0",
        "cpid": "1"
      }
    },
    {
      "type": "Feature",
      "geometry": {
        "type": "Point",
        "coordinates": [2746.614, -608.083],
        "size": [16, 16]
      },
      "properties": {
        "iconurl": "icons/vehicles_map/mini_rec_light.png",
        "iconrotate": "46.506",
        "popupContent": "Amazing information about BRDM-2 will be found here!"
      },
      "bf2props": {
        "name": "ru_air_base_ru_apc02",
        "class": "ObjectSpawner",
        "name_object": "BRDM-2",
        "team": "1",
        "obj1": "ru_jep_brdm2",
        "obj2": "null",
        "maxspawn": "600.0",
        "minspawn": "600.0",
        "spawndelay": "false",
        "ttl": "12000.0",
        "cpid": "1"
      }
    },
    {
      "type": "Feature",
      "geometry": {
        "type": "Point",
        "coordinates": [2740.379, -601.766],
        "size": [16, 16]
      },
      "properties": {
        "iconurl": "icons/vehicles_map/mini_apc_light.png",
        "iconrotate": "46.506",
        "popupContent": "Amazing information about MT-LBM will be found here!"
      },
      "bf2props": {
        "name": "ru_air_base_ru_apc03",
        "class": "ObjectSpawner",
        "name_object": "MT-LBM",
        "team": "1",
        "obj1": "ru_apc_mtlb_hmg",
        "obj2": "null",
        "maxspawn": "600.0",
        "minspawn": "600.0",
        "spawndelay": "false",
        "ttl": "12000.0",
        "cpid": "1"
      }
    },
    {
      "type": "Feature",
      "geometry": {
        "type": "Point",
        "coordinates": [2730.226, -590.88196],
        "size": [16, 16]
      },
      "properties": {
        "iconurl": "icons/vehicles_map/mini_trk_support.png",
        "iconrotate": "45.91",
        "popupContent": "Amazing information about Ural-4320 will be found here!"
      },
      "bf2props": {
        "name": "ru_air_base_ru_apc04",
        "class": "ObjectSpawner",
        "name_object": "Ural-4320",
        "team": "1",
        "obj1": "ru_trk_support",
        "obj2": "null",
        "maxspawn": "300.0",
        "minspawn": "300.0",
        "spawndelay": "false",
        "ttl": "12000.0",
        "cpid": "1"
      }
    },
    {
      "type": "Feature",
      "geometry": {
        "type": "Point",
        "coordinates": [2733.0151, -593.89],
        "size": [16, 16]
      },
      "properties": {
        "iconurl": "icons/vehicles_map/mini_trk_support.png",
        "iconrotate": "45.91",
        "popupContent": "Amazing information about Ural-4320 will be found here!"
      },
      "bf2props": {
        "name": "ru_air_base_ru_apc05",
        "class": "ObjectSpawner",
        "name_object": "Ural-4320",
        "team": "1",
        "obj1": "ru_trk_support",
        "obj2": "null",
        "maxspawn": "300.0",
        "minspawn": "300.0",
        "spawndelay": "false",
        "ttl": "12000.0",
        "cpid": "1"
      }
    },
    {
      "type": "Feature",
      "geometry": {
        "type": "Point",
        "coordinates": [2735.647, -596.75806],
        "size": [16, 16]
      },
      "properties": {
        "iconurl": "icons/vehicles_map/mini_trk_support.png",
        "iconrotate": "45.91",
        "popupContent": "Amazing information about Ural-4320 will be found here!"
      },
      "bf2props": {
        "name": "ru_air_base_ru_apc06",
        "class": "ObjectSpawner",
        "name_object": "Ural-4320",
        "team": "1",
        "obj1": "ru_trk_support",
        "obj2": "null",
        "maxspawn": "300.0",
        "minspawn": "300.0",
        "spawndelay": "false",
        "ttl": "12000.0",
        "cpid": "1"
      }
    },
    {
      "type": "Feature",
      "geometry": {
        "type": "Point",
        "coordinates": [2756.052, -607.55396],
        "size": [16, 16]
      },
      "properties": {
        "iconurl": "icons/vehicles_map/mini_trk_support.png",
        "iconrotate": "-44.339",
        "popupContent": "Amazing information about Ural-4320 will be found here!"
      },
      "bf2props": {
        "name": "ru_air_base_ru_tank01",
        "class": "ObjectSpawner",
        "name_object": "Ural-4320",
        "team": "1",
        "obj1": "ru_trk_support",
        "obj2": "null",
        "maxspawn": "300.0",
        "minspawn": "300.0",
        "spawndelay": "false",
        "ttl": "12000.0",
        "cpid": "1"
      }
    },
    {
      "type": "Feature",
      "geometry": {
        "type": "Point",
        "coordinates": [2762.9312, -600.43506],
        "size": [16, 16]
      },
      "properties": {
        "iconurl": "icons/vehicles_map/mini_trk_support.png",
        "iconrotate": "-44.339",
        "popupContent": "Amazing information about Ural-4320 will be found here!"
      },
      "bf2props": {
        "name": "ru_air_base_ru_tank02",
        "class": "ObjectSpawner",
        "name_object": "Ural-4320",
        "team": "1",
        "obj1": "ru_trk_support",
        "obj2": "null",
        "maxspawn": "1200.0",
        "minspawn": "1200.0",
        "spawndelay": "false",
        "ttl": "12000.0",
        "cpid": "1"
      }
    },
    {
      "type": "Feature",
      "geometry": {
        "type": "Point",
        "coordinates": [2759.374, -603.958],
        "size": [16, 16]
      },
      "properties": {
        "iconurl": "icons/vehicles_map/mini_trk_support.png",
        "iconrotate": "-44.339",
        "popupContent": "Amazing information about Ural-4320 will be found here!"
      },
      "bf2props": {
        "name": "ru_air_base_ru_tank03",
        "class": "ObjectSpawner",
        "name_object": "Ural-4320",
        "team": "1",
        "obj1": "ru_trk_support",
        "obj2": "null",
        "maxspawn": "1200.0",
        "minspawn": "1200.0",
        "spawndelay": "false",
        "ttl": "12000.0",
        "cpid": "1"
      }
    },
    {
      "type": "Feature",
      "geometry": {
        "type": "Point",
        "coordinates": [1875.763, -492.53503],
        "size": [16, 16]
      },
      "properties": {
        "iconurl": "icons/vehicles_map/mini_jep_light.png",
        "iconrotate": "-123.148",
        "popupContent": "Amazing information about DShKM Technical will be found here!"
      },
      "bf2props": {
        "name": "ru_air_base_ru_aav01",
        "class": "ObjectSpawner",
        "name_object": "DShKM Technical",
        "team": "1",
        "obj1": "civ_jep_technical2",
        "obj2": "null",
        "maxspawn": "1200.0",
        "minspawn": "1200.0",
        "spawndelay": "false",
        "ttl": "12000.0",
        "cpid": "1"
      }
    },
    {
      "type": "Feature",
      "geometry": {
        "type": "Point",
        "coordinates": [2760.44, -585.406],
        "size": [16, 16]
      },
      "properties": {
        "iconurl": "icons/vehicles_map/mini_apc_heavy.png",
        "iconrotate": "-43.731",
        "popupContent": "Amazing information about BMP-2 will be found here!"
      },
      "bf2props": {
        "name": "ru_air_base_ru_aav02",
        "class": "ObjectSpawner",
        "name_object": "BMP-2",
        "team": "1",
        "obj1": "ru_ifv_bmp2",
        "obj2": "null",
        "maxspawn": "900.0",
        "minspawn": "900.0",
        "spawndelay": "true",
        "ttl": "12000.0",
        "cpid": "1"
      }
    },
    {
      "type": "Feature",
      "geometry": {
        "type": "Point",
        "coordinates": [2717.0688, -577.95996],
        "size": [16, 16]
      },
      "properties": {
        "iconurl": "icons/vehicles_map/mini_trk_logistics.png",
        "iconrotate": "46.496",
        "popupContent": "Amazing information about Ural-4320 Logistics will be found here!"
      },
      "bf2props": {
        "name": "ru_air_base_ru_logi01",
        "class": "ObjectSpawner",
        "name_object": "Ural-4320 Logistics",
        "team": "1",
        "obj1": "ru_trk_logistics",
        "obj2": "null",
        "maxspawn": "300.0",
        "minspawn": "300.0",
        "spawndelay": "false",
        "ttl": "12000.0",
        "cpid": "1"
      }
    },
    {
      "type": "Feature",
      "geometry": {
        "type": "Point",
        "coordinates": [2719.554, -580.703],
        "size": [16, 16]
      },
      "properties": {
        "iconurl": "icons/vehicles_map/mini_trk_logistics.png",
        "iconrotate": "46.496",
        "popupContent": "Amazing information about Ural-4320 Logistics will be found here!"
      },
      "bf2props": {
        "name": "ru_air_base_ru_logi02",
        "class": "ObjectSpawner",
        "name_object": "Ural-4320 Logistics",
        "team": "1",
        "obj1": "ru_trk_logistics",
        "obj2": "null",
        "maxspawn": "300.0",
        "minspawn": "300.0",
        "spawndelay": "false",
        "ttl": "12000.0",
        "cpid": "1"
      }
    },
    {
      "type": "Feature",
      "geometry": {
        "type": "Point",
        "coordinates": [2722.094, -583.292],
        "size": [16, 16]
      },
      "properties": {
        "iconurl": "icons/vehicles_map/mini_trk_logistics.png",
        "iconrotate": "46.496",
        "popupContent": "Amazing information about Ural-4320 Logistics will be found here!"
      },
      "bf2props": {
        "name": "ru_air_base_ru_logi03",
        "class": "ObjectSpawner",
        "name_object": "Ural-4320 Logistics",
        "team": "1",
        "obj1": "ru_trk_logistics",
        "obj2": "null",
        "maxspawn": "300.0",
        "minspawn": "300.0",
        "spawndelay": "false",
        "ttl": "12000.0",
        "cpid": "1"
      }
    },
    {
      "type": "Feature",
      "geometry": {
        "type": "Point",
        "coordinates": [2724.433, -585.81604],
        "size": [16, 16]
      },
      "properties": {
        "iconurl": "icons/vehicles_map/mini_trk_logistics.png",
        "iconrotate": "46.496",
        "popupContent": "Amazing information about Ural-4320 Logistics will be found here!"
      },
      "bf2props": {
        "name": "ru_air_base_ru_logi04",
        "class": "ObjectSpawner",
        "name_object": "Ural-4320 Logistics",
        "team": "1",
        "obj1": "ru_trk_logistics",
        "obj2": "null",
        "maxspawn": "300.0",
        "minspawn": "300.0",
        "spawndelay": "false",
        "ttl": "12000.0",
        "cpid": "1"
      }
    },
    {
      "type": "Feature",
      "geometry": {
        "type": "Point",
        "coordinates": [1612.045, -3009.075],
        "size": [16, 16]
      },
      "properties": {
        "iconurl": "icons/vehicles_map/mini_rec_light.png",
        "iconrotate": "-117.321",
        "popupContent": "Amazing information about null will be found here!"
      },
      "bf2props": {
        "name": "pla_air_base_ch_apc01",
        "class": "ObjectSpawner",
        "name_object": "VN-3",
        "team": "2",
        "obj1": "null",
        "obj2": "ch_jep_vn3",
        "maxspawn": "600.0",
        "minspawn": "600.0",
        "spawndelay": "false",
        "ttl": "12000.0",
        "cpid": "2"
      }
    },
    {
      "type": "Feature",
      "geometry": {
        "type": "Point",
        "coordinates": [1613.989, -3013.052],
        "size": [16, 16]
      },
      "properties": {
        "iconurl": "icons/vehicles_map/mini_apc_light.png",
        "iconrotate": "-117.321",
        "popupContent": "Amazing information about null will be found here!"
      },
      "bf2props": {
        "name": "pla_air_base_ch_apc02",
        "class": "ObjectSpawner",
        "name_object": "ZSL-92A",
        "team": "2",
        "obj1": "null",
        "obj2": "ch_apc_wz551a",
        "maxspawn": "600.0",
        "minspawn": "600.0",
        "spawndelay": "false",
        "ttl": "12000.0",
        "cpid": "2"
      }
    },
    {
      "type": "Feature",
      "geometry": {
        "type": "Point",
        "coordinates": [1616.307, -3016.814],
        "size": [16, 16]
      },
      "properties": {
        "iconurl": "icons/vehicles_map/mini_apc_light.png",
        "iconrotate": "-117.321",
        "popupContent": "Amazing information about null will be found here!"
      },
      "bf2props": {
        "name": "pla_air_base_ch_apc03",
        "class": "ObjectSpawner",
        "name_object": "ZSL-92A",
        "team": "2",
        "obj1": "null",
        "obj2": "ch_apc_wz551a",
        "maxspawn": "600.0",
        "minspawn": "600.0",
        "spawndelay": "false",
        "ttl": "12000.0",
        "cpid": "2"
      }
    },
    {
      "type": "Feature",
      "geometry": {
        "type": "Point",
        "coordinates": [1602.427, -2988.7559],
        "size": [16, 16]
      },
      "properties": {
        "iconurl": "icons/vehicles_map/mini_trk_support.png",
        "iconrotate": "-116.228",
        "popupContent": "Amazing information about null will be found here!"
      },
      "bf2props": {
        "name": "pla_air_base_ch_apc04",
        "class": "ObjectSpawner",
        "name_object": "EQ2080 2.5 Ton",
        "team": "2",
        "obj1": "null",
        "obj2": "ch_trk_support",
        "maxspawn": "300.0",
        "minspawn": "300.0",
        "spawndelay": "false",
        "ttl": "12000.0",
        "cpid": "2"
      }
    },
    {
      "type": "Feature",
      "geometry": {
        "type": "Point",
        "coordinates": [1604.355, -2992.846],
        "size": [16, 16]
      },
      "properties": {
        "iconurl": "icons/vehicles_map/mini_trk_support.png",
        "iconrotate": "-116.228",
        "popupContent": "Amazing information about null will be found here!"
      },
      "bf2props": {
        "name": "pla_air_base_ch_apc05",
        "class": "ObjectSpawner",
        "name_object": "EQ2080 2.5 Ton",
        "team": "2",
        "obj1": "null",
        "obj2": "ch_trk_support",
        "maxspawn": "300.0",
        "minspawn": "300.0",
        "spawndelay": "false",
        "ttl": "12000.0",
        "cpid": "2"
      }
    },
    {
      "type": "Feature",
      "geometry": {
        "type": "Point",
        "coordinates": [1606.405, -2996.562],
        "size": [16, 16]
      },
      "properties": {
        "iconurl": "icons/vehicles_map/mini_trk_support.png",
        "iconrotate": "-116.228",
        "popupContent": "Amazing information about null will be found here!"
      },
      "bf2props": {
        "name": "pla_air_base_ch_apc06",
        "class": "ObjectSpawner",
        "name_object": "EQ2080 2.5 Ton",
        "team": "2",
        "obj1": "null",
        "obj2": "ch_trk_support",
        "maxspawn": "300.0",
        "minspawn": "300.0",
        "spawndelay": "false",
        "ttl": "12000.0",
        "cpid": "2"
      }
    },
    {
      "type": "Feature",
      "geometry": {
        "type": "Point",
        "coordinates": [1607.7109, -3027.491],
        "size": [16, 16]
      },
      "properties": {
        "iconurl": "icons/vehicles_map/mini_trk_support.png",
        "iconrotate": "-26.692",
        "popupContent": "Amazing information about null will be found here!"
      },
      "bf2props": {
        "name": "pla_air_base_ch_tank01",
        "class": "ObjectSpawner",
        "name_object": "EQ2080 2.5 Ton",
        "team": "2",
        "obj1": "null",
        "obj2": "ch_trk_support",
        "maxspawn": "300.0",
        "minspawn": "300.0",
        "spawndelay": "false",
        "ttl": "12000.0",
        "cpid": "2"
      }
    },
    {
      "type": "Feature",
      "geometry": {
        "type": "Point",
        "coordinates": [1603.934, -3029.644],
        "size": [16, 16]
      },
      "properties": {
        "iconurl": "icons/vehicles_map/mini_trk_support.png",
        "iconrotate": "-26.692",
        "popupContent": "Amazing information about null will be found here!"
      },
      "bf2props": {
        "name": "pla_air_base_ch_tank02",
        "class": "ObjectSpawner",
        "name_object": "EQ2080 2.5 Ton",
        "team": "2",
        "obj1": "null",
        "obj2": "ch_trk_support",
        "maxspawn": "300.0",
        "minspawn": "300.0",
        "spawndelay": "false",
        "ttl": "12000.0",
        "cpid": "2"
      }
    },
    {
      "type": "Feature",
      "geometry": {
        "type": "Point",
        "coordinates": [1599.1221, -3032.003],
        "size": [16, 16]
      },
      "properties": {
        "iconurl": "icons/vehicles_map/mini_trk_support.png",
        "iconrotate": "-26.692",
        "popupContent": "Amazing information about null will be found here!"
      },
      "bf2props": {
        "name": "pla_air_base_ch_tank03",
        "class": "ObjectSpawner",
        "name_object": "EQ2080 2.5 Ton",
        "team": "2",
        "obj1": "null",
        "obj2": "ch_trk_support",
        "maxspawn": "300.0",
        "minspawn": "300.0",
        "spawndelay": "false",
        "ttl": "12000.0",
        "cpid": "2"
      }
    },
    {
      "type": "Feature",
      "geometry": {
        "type": "Point",
        "coordinates": [1866.911, -497.64404],
        "size": [16, 16]
      },
      "properties": {
        "iconurl": "icons/vehicles_map/mini_trk_support.png",
        "iconrotate": "-121.193",
        "popupContent": "Amazing information about Ural-4320 will be found here!"
      },
      "bf2props": {
        "name": "ru_outpost_ru_truck01",
        "class": "ObjectSpawner",
        "name_object": "Ural-4320",
        "team": "1",
        "obj1": "ru_trk_support",
        "obj2": "null",
        "maxspawn": "99999.0",
        "minspawn": "99999.0",
        "spawndelay": "false",
        "ttl": "12000.0",
        "cpid": "1"
      }
    },
    {
      "type": "Feature",
      "geometry": {
        "type": "Point",
        "coordinates": [1888.5391, -509.64],
        "size": [16, 16]
      },
      "properties": {
        "iconurl": "icons/player_map/mini_squad.png",
        "iconrotate": "0",
        "popupContent": "Amazing information about Temporary spawnpoint will be found here!"
      },
      "bf2props": {
        "name": "ru_outpost_ru_rallypoint",
        "class": "ObjectSpawner",
        "name_object": "Temporary spawnpoint",
        "team": "1",
        "obj1": "rallypoint_ru_placeable",
        "obj2": "null",
        "maxspawn": "99999.0",
        "minspawn": "99999.0",
        "spawndelay": "false",
        "ttl": "12000.0",
        "cpid": "1"
      }
    },
    {
      "type": "Feature",
      "geometry": {
        "type": "Point",
        "coordinates": [2736.845, -529.912],
        "size": [16, 16]
      },
      "properties": {
        "iconurl": "icons/player_map/mini_squad.png",
        "iconrotate": "0",
        "popupContent": "Amazing information about Permanent spawnpoint will be found here!"
      },
      "bf2props": {
        "name": "ru_outpost_ru_jeep",
        "class": "ObjectSpawner",
        "name_object": "Permanent spawnpoint",
        "team": "1",
        "obj1": "rallypoint_ru_placeable_noexpire",
        "obj2": "null",
        "maxspawn": "1800.0",
        "minspawn": "1800.0",
        "spawndelay": "false",
        "ttl": "12000.0",
        "cpid": "1"
      }
    },
    {
      "type": "Feature",
      "geometry": {
        "type": "Point",
        "coordinates": [1535.131, -2157.057],
        "size": [16, 16]
      },
      "properties": {
        "iconurl": "icons/vehicles_map/mini_trk_support.png",
        "iconrotate": "-80.726",
        "popupContent": "Amazing information about null will be found here!"
      },
      "bf2props": {
        "name": "pla_outpost_ch_truck01",
        "class": "ObjectSpawner",
        "name_object": "EQ2080 2.5 Ton",
        "team": "2",
        "obj1": "null",
        "obj2": "ch_trk_support",
        "maxspawn": "99999.0",
        "minspawn": "99999.0",
        "spawndelay": "false",
        "ttl": "12000.0",
        "cpid": "2"
      }
    },
    {
      "type": "Feature",
      "geometry": {
        "type": "Point",
        "coordinates": [1523.9099, -2195.441],
        "size": [16, 16]
      },
      "properties": {
        "iconurl": "icons/player_map/mini_squad.png",
        "iconrotate": "0",
        "popupContent": "Amazing information about null will be found here!"
      },
      "bf2props": {
        "name": "pla_outpost_ch_rallypoint",
        "class": "ObjectSpawner",
        "name_object": "Temporary spawnpoint",
        "team": "2",
        "obj1": "null",
        "obj2": "rallypoint_ch_placeable",
        "maxspawn": "99999.0",
        "minspawn": "99999.0",
        "spawndelay": "false",
        "ttl": "12000.0",
        "cpid": "2"
      }
    },
    {
      "type": "Feature",
      "geometry": {
        "type": "Point",
        "coordinates": [1539.9, -2966.34],
        "size": [16, 16]
      },
      "properties": {
        "iconurl": "icons/player_map/mini_squad.png",
        "iconrotate": "0",
        "popupContent": "Amazing information about null will be found here!"
      },
      "bf2props": {
        "name": "pla_outpost_ch_jeep",
        "class": "ObjectSpawner",
        "name_object": "Permanent spawnpoint",
        "team": "2",
        "obj1": "null",
        "obj2": "rallypoint_ch_placeable_noexpire",
        "maxspawn": "1800.0",
        "minspawn": "1800.0",
        "spawndelay": "false",
        "ttl": "12000.0",
        "cpid": "2"
      }
    },
    {
      "type": "Feature",
      "geometry": {
        "type": "Point",
        "coordinates": [2723.329, -563.037],
        "size": [16, 16]
      },
      "properties": {
        "iconurl": "icons/mini_map/repairdepot.png",
        "iconrotate": "0",
        "popupContent": "Amazing information about Vehicle Depot will be found here!"
      },
      "bf2props": {
        "name": "ru_air_base_ru_supply_depot",
        "class": "ObjectSpawner",
        "name_object": "Vehicle Depot",
        "team": "1",
        "obj1": "vehicle_depot_ru",
        "obj2": "null",
        "maxspawn": "0.0",
        "minspawn": "0.0",
        "spawndelay": "false",
        "ttl": "0.0",
        "cpid": "1"
      }
    },
    {
      "type": "Feature",
      "geometry": {
        "type": "Point",
        "coordinates": [1580.241, -2965.003],
        "size": [16, 16]
      },
      "properties": {
        "iconurl": "icons/mini_map/repairdepot.png",
        "iconrotate": "0",
        "popupContent": "Amazing information about null will be found here!"
      },
      "bf2props": {
        "name": "pla_air_base_ch_supply_depot",
        "class": "ObjectSpawner",
        "name_object": "Vehicle Depot",
        "team": "2",
        "obj1": "null",
        "obj2": "vehicle_depot_ch",
        "maxspawn": "0.0",
        "minspawn": "0.0",
        "spawndelay": "false",
        "ttl": "0.0",
        "cpid": "2"
      }
    },
    {
      "type": "Feature",
      "geometry": {
        "type": "Point",
        "coordinates": [1587.833, -3036.645],
        "size": [16, 16]
      },
      "properties": {
        "iconurl": "icons/vehicles_map/mini_apc_heavy.png",
        "iconrotate": "-27.69",
        "popupContent": "Amazing information about null will be found here!"
      },
      "bf2props": {
        "name": "pla_air_base_ch_aav01",
        "class": "ObjectSpawner",
        "name_object": "ZSL-92B 30mm",
        "team": "2",
        "obj1": "null",
        "obj2": "ch_ifv_wz551b",
        "maxspawn": "900.0",
        "minspawn": "900.0",
        "spawndelay": "true",
        "ttl": "12000.0",
        "cpid": "2"
      }
    },
    {
      "type": "Feature",
      "geometry": {
        "type": "Point",
        "coordinates": [1536.057, -2153.623],
        "size": [16, 16]
      },
      "properties": {
        "iconurl": "icons/vehicles_map/mini_jep_light.png",
        "iconrotate": "-83.96",
        "popupContent": "Amazing information about null will be found here!"
      },
      "bf2props": {
        "name": "pla_air_base_ch_aav02",
        "class": "ObjectSpawner",
        "name_object": "Norinco FAV",
        "team": "2",
        "obj1": "null",
        "obj2": "ch_jep_paratrooper",
        "maxspawn": "1200.0",
        "minspawn": "1200.0",
        "spawndelay": "false",
        "ttl": "12000.0",
        "cpid": "2"
      }
    },
    {
      "type": "Feature",
      "geometry": {
        "type": "Point",
        "coordinates": [1592.766, -2969.519],
        "size": [16, 16]
      },
      "properties": {
        "iconurl": "icons/vehicles_map/mini_trk_logistics.png",
        "iconrotate": "-116.721",
        "popupContent": "Amazing information about null will be found here!"
      },
      "bf2props": {
        "name": "pla_air_base_ch_logi01",
        "class": "ObjectSpawner",
        "name_object": "EQ2080 Logistics",
        "team": "2",
        "obj1": "null",
        "obj2": "ch_trk_logistics",
        "maxspawn": "300.0",
        "minspawn": "300.0",
        "spawndelay": "false",
        "ttl": "12000.0",
        "cpid": "2"
      }
    },
    {
      "type": "Feature",
      "geometry": {
        "type": "Point",
        "coordinates": [1594.373, -2973.175],
        "size": [16, 16]
      },
      "properties": {
        "iconurl": "icons/vehicles_map/mini_trk_logistics.png",
        "iconrotate": "-116.721",
        "popupContent": "Amazing information about null will be found here!"
      },
      "bf2props": {
        "name": "pla_air_base_ch_logi02",
        "class": "ObjectSpawner",
        "name_object": "EQ2080 Logistics",
        "team": "2",
        "obj1": "null",
        "obj2": "ch_trk_logistics",
        "maxspawn": "300.0",
        "minspawn": "300.0",
        "spawndelay": "false",
        "ttl": "12000.0",
        "cpid": "2"
      }
    },
    {
      "type": "Feature",
      "geometry": {
        "type": "Point",
        "coordinates": [1596.041, -2976.455],
        "size": [16, 16]
      },
      "properties": {
        "iconurl": "icons/vehicles_map/mini_trk_logistics.png",
        "iconrotate": "-116.721",
        "popupContent": "Amazing information about null will be found here!"
      },
      "bf2props": {
        "name": "pla_air_base_ch_logi03",
        "class": "ObjectSpawner",
        "name_object": "EQ2080 Logistics",
        "team": "2",
        "obj1": "null",
        "obj2": "ch_trk_logistics",
        "maxspawn": "300.0",
        "minspawn": "300.0",
        "spawndelay": "false",
        "ttl": "12000.0",
        "cpid": "2"
      }
    },
    {
      "type": "Feature",
      "geometry": {
        "type": "Point",
        "coordinates": [1597.682, -2980.227],
        "size": [16, 16]
      },
      "properties": {
        "iconurl": "icons/vehicles_map/mini_trk_logistics.png",
        "iconrotate": "-119.551",
        "popupContent": "Amazing information about null will be found here!"
      },
      "bf2props": {
        "name": "pla_air_base_ch_logi04",
        "class": "ObjectSpawner",
        "name_object": "EQ2080 Logistics",
        "team": "2",
        "obj1": "null",
        "obj2": "ch_trk_logistics",
        "maxspawn": "300.0",
        "minspawn": "300.0",
        "spawndelay": "false",
        "ttl": "12000.0",
        "cpid": "2"
      }
    },
    {
      "type": "Feature",
      "geometry": {
        "type": "Point",
        "coordinates": [1528.042, -2970.227],
        "size": [16, 16]
      },
      "properties": {
        "iconurl": "icons/vehicles_map/mini_trk_support.png",
        "iconrotate": "27.37",
        "popupContent": "Amazing information about null will be found here!"
      },
      "bf2props": {
        "name": "ch_roadtank_03",
        "class": "ObjectSpawner",
        "name_object": "EQ2080 2.5 Ton",
        "team": "2",
        "obj1": "null",
        "obj2": "ch_trk_support",
        "maxspawn": "99999.0",
        "minspawn": "99999.0",
        "spawndelay": "false",
        "ttl": "12000.0",
        "cpid": "2"
      }
    },
    {
      "type": "Feature",
      "geometry": {
        "type": "Point",
        "coordinates": [1536.135, -2960.57],
        "size": [16, 16]
      },
      "properties": {
        "iconurl": "icons/vehicles_map/mini_trk_support.png",
        "iconrotate": "55.41",
        "popupContent": "Amazing information about null will be found here!"
      },
      "bf2props": {
        "name": "ch_roadtank_04",
        "class": "ObjectSpawner",
        "name_object": "EQ2080 2.5 Ton",
        "team": "2",
        "obj1": "null",
        "obj2": "ch_trk_support",
        "maxspawn": "99999.0",
        "minspawn": "99999.0",
        "spawndelay": "false",
        "ttl": "12000.0",
        "cpid": "2"
      }
    },
    {
      "type": "Feature",
      "geometry": {
        "type": "Point",
        "coordinates": [1546.154, -2953.813],
        "size": [16, 16]
      },
      "properties": {
        "iconurl": "icons/vehicles_map/mini_trk_support.png",
        "iconrotate": "62.632",
        "popupContent": "Amazing information about null will be found here!"
      },
      "bf2props": {
        "name": "ch_roadtank_05",
        "class": "ObjectSpawner",
        "name_object": "EQ2080 2.5 Ton",
        "team": "2",
        "obj1": "null",
        "obj2": "ch_trk_support",
        "maxspawn": "99999.0",
        "minspawn": "99999.0",
        "spawndelay": "false",
        "ttl": "12000.0",
        "cpid": "2"
      }
    },
    {
      "type": "Feature",
      "geometry": {
        "type": "Point",
        "coordinates": [2732.823, -534.42505],
        "size": [16, 16]
      },
      "properties": {
        "iconurl": "icons/vehicles_map/mini_trk_support.png",
        "iconrotate": "-30.597",
        "popupContent": "Amazing information about Ural-4320 will be found here!"
      },
      "bf2props": {
        "name": "ru_roadtank_06_2",
        "class": "ObjectSpawner",
        "name_object": "Ural-4320",
        "team": "1",
        "obj1": "ru_trk_support",
        "obj2": "null",
        "maxspawn": "99999.0",
        "minspawn": "99999.0",
        "spawndelay": "false",
        "ttl": "12000.0",
        "cpid": "1"
      }
    },
    {
      "type": "Feature",
      "geometry": {
        "type": "Point",
        "coordinates": [2726.093, -525.235],
        "size": [16, 16]
      },
      "properties": {
        "iconurl": "icons/vehicles_map/mini_trk_support.png",
        "iconrotate": "-42.921",
        "popupContent": "Amazing information about Ural-4320 will be found here!"
      },
      "bf2props": {
        "name": "ru_roadtank_07_0",
        "class": "ObjectSpawner",
        "name_object": "Ural-4320",
        "team": "1",
        "obj1": "ru_trk_support",
        "obj2": "null",
        "maxspawn": "99999.0",
        "minspawn": "99999.0",
        "spawndelay": "false",
        "ttl": "12000.0",
        "cpid": "1"
      }
    },
    {
      "type": "Feature",
      "geometry": {
        "type": "Point",
        "coordinates": [2716.534, -518.105],
        "size": [16, 16]
      },
      "properties": {
        "iconurl": "icons/vehicles_map/mini_trk_support.png",
        "iconrotate": "-60.179",
        "popupContent": "Amazing information about Ural-4320 will be found here!"
      },
      "bf2props": {
        "name": "ru_roadtank_08",
        "class": "ObjectSpawner",
        "name_object": "Ural-4320",
        "team": "1",
        "obj1": "ru_trk_support",
        "obj2": "null",
        "maxspawn": "99999.0",
        "minspawn": "99999.0",
        "spawndelay": "false",
        "ttl": "12000.0",
        "cpid": "1"
      }
    },
    {
      "type": "Feature",
      "geometry": {
        "type": "Point",
        "coordinates": [-1015.2261, -4834.3057],
        "size": [16, 16]
      },
      "properties": {
        "iconurl": "icons/mini_map/airdef.png",
        "iconrotate": "0",
        "popupContent": "Amazing information about null will be found here!"
      },
      "bf2props": {
        "name": "cpname_black_gold_aas16_southmain_artillery01",
        "class": "ObjectSpawner",
        "name_object": "Artillery Barrage Call-In",
        "team": "2",
        "obj1": "null",
        "obj2": "artillery_team2",
        "maxspawn": "1800.0",
        "minspawn": "1800.0",
        "spawndelay": "true",
        "ttl": "0.0",
        "cpid": "2"
      }
    },
    {
      "type": "Feature",
      "geometry": {
        "type": "Point",
        "coordinates": [-1025.033, -4825.827],
        "size": [16, 16]
      },
      "properties": {
        "iconurl": "icons/mini_map/airdef.png",
        "iconrotate": "0",
        "popupContent": "Amazing information about null will be found here!"
      },
      "bf2props": {
        "name": "cpname_black_gold_aas16_southmain_artillery02",
        "class": "ObjectSpawner",
        "name_object": "Artillery Barrage Call-In",
        "team": "2",
        "obj1": "null",
        "obj2": "artillery_team2",
        "maxspawn": "1800.0",
        "minspawn": "1800.0",
        "spawndelay": "true",
        "ttl": "0.0",
        "cpid": "2"
      }
    },
    {
      "type": "Feature",
      "geometry": {
        "type": "Point",
        "coordinates": [-1019.8679, -4818.575],
        "size": [16, 16]
      },
      "properties": {
        "iconurl": "icons/mini_map/airdef.png",
        "iconrotate": "0",
        "popupContent": "Amazing information about null will be found here!"
      },
      "bf2props": {
        "name": "cpname_black_gold_aas16_southmain_artillery03",
        "class": "ObjectSpawner",
        "name_object": "Artillery Barrage Call-In",
        "team": "2",
        "obj1": "null",
        "obj2": "artillery_team2",
        "maxspawn": "1800.0",
        "minspawn": "1800.0",
        "spawndelay": "true",
        "ttl": "0.0",
        "cpid": "2"
      }
    },
    {
      "type": "Feature",
      "geometry": {
        "type": "Point",
        "coordinates": [-1011.5559, -4826.621],
        "size": [16, 16]
      },
      "properties": {
        "iconurl": "icons/mini_map/airdef.png",
        "iconrotate": "0",
        "popupContent": "Amazing information about null will be found here!"
      },
      "bf2props": {
        "name": "cpname_black_gold_aas16_southmain_artillery04",
        "class": "ObjectSpawner",
        "name_object": "Artillery Barrage Call-In",
        "team": "2",
        "obj1": "null",
        "obj2": "artillery_team2",
        "maxspawn": "1800.0",
        "minspawn": "1800.0",
        "spawndelay": "true",
        "ttl": "0.0",
        "cpid": "2"
      }
    },
    {
      "type": "Feature",
      "geometry": {
        "type": "Point",
        "coordinates": [-1015.292, -4822.038],
        "size": [16, 16]
      },
      "properties": {
        "iconurl": "icons/mini_map/airdef.png",
        "iconrotate": "0",
        "popupContent": "Amazing information about null will be found here!"
      },
      "bf2props": {
        "name": "cpname_black_gold_aas16_southmain_artillery05",
        "class": "ObjectSpawner",
        "name_object": "Artillery Barrage Call-In",
        "team": "2",
        "obj1": "null",
        "obj2": "artillery_team2",
        "maxspawn": "1800.0",
        "minspawn": "1800.0",
        "spawndelay": "true",
        "ttl": "0.0",
        "cpid": "2"
      }
    },
    {
      "type": "Feature",
      "geometry": {
        "type": "Point",
        "coordinates": [-1019.67993, -4827.425],
        "size": [16, 16]
      },
      "properties": {
        "iconurl": "icons/mini_map/airdef.png",
        "iconrotate": "0",
        "popupContent": "Amazing information about null will be found here!"
      },
      "bf2props": {
        "name": "cpname_black_gold_aas16_southmain_artillery06",
        "class": "ObjectSpawner",
        "name_object": "Artillery Barrage Call-In",
        "team": "2",
        "obj1": "null",
        "obj2": "artillery_team2",
        "maxspawn": "1800.0",
        "minspawn": "1800.0",
        "spawndelay": "true",
        "ttl": "0.0",
        "cpid": "2"
      }
    },
    {
      "type": "Feature",
      "geometry": {
        "type": "Point",
        "coordinates": [5165.117, 1800.4241],
        "size": [16, 16]
      },
      "properties": {
        "iconurl": "icons/mini_map/airdef.png",
        "iconrotate": "0",
        "popupContent": "Amazing information about Artillery Barrage Call-In will be found here!"
      },
      "bf2props": {
        "name": "cpname_black_gold_aas16_northmain_artillery01",
        "class": "ObjectSpawner",
        "name_object": "Artillery Barrage Call-In",
        "team": "1",
        "obj1": "artillery_team1",
        "obj2": "null",
        "maxspawn": "1800.0",
        "minspawn": "1800.0",
        "spawndelay": "true",
        "ttl": "0.0",
        "cpid": "1"
      }
    },
    {
      "type": "Feature",
      "geometry": {
        "type": "Point",
        "coordinates": [5160.449, 1789.51],
        "size": [16, 16]
      },
      "properties": {
        "iconurl": "icons/mini_map/airdef.png",
        "iconrotate": "0",
        "popupContent": "Amazing information about Artillery Barrage Call-In will be found here!"
      },
      "bf2props": {
        "name": "cpname_black_gold_aas16_northmain_artillery02",
        "class": "ObjectSpawner",
        "name_object": "Artillery Barrage Call-In",
        "team": "1",
        "obj1": "artillery_team1",
        "obj2": "null",
        "maxspawn": "1800.0",
        "minspawn": "1800.0",
        "spawndelay": "true",
        "ttl": "0.0",
        "cpid": "1"
      }
    },
    {
      "type": "Feature",
      "geometry": {
        "type": "Point",
        "coordinates": [5153.475, 1793.8899],
        "size": [16, 16]
      },
      "properties": {
        "iconurl": "icons/mini_map/airdef.png",
        "iconrotate": "0",
        "popupContent": "Amazing information about Artillery Barrage Call-In will be found here!"
      },
      "bf2props": {
        "name": "cpname_black_gold_aas16_northmain_artillery03",
        "class": "ObjectSpawner",
        "name_object": "Artillery Barrage Call-In",
        "team": "1",
        "obj1": "artillery_team1",
        "obj2": "null",
        "maxspawn": "1800.0",
        "minspawn": "1800.0",
        "spawndelay": "true",
        "ttl": "0.0",
        "cpid": "1"
      }
    },
    {
      "type": "Feature",
      "geometry": {
        "type": "Point",
        "coordinates": [5167.076, 1786.25],
        "size": [16, 16]
      },
      "properties": {
        "iconurl": "icons/mini_map/airdef.png",
        "iconrotate": "0",
        "popupContent": "Amazing information about Artillery Barrage Call-In will be found here!"
      },
      "bf2props": {
        "name": "cpname_black_gold_aas16_northmain_artillery04",
        "class": "ObjectSpawner",
        "name_object": "Artillery Barrage Call-In",
        "team": "1",
        "obj1": "artillery_team1",
        "obj2": "null",
        "maxspawn": "1800.0",
        "minspawn": "1800.0",
        "spawndelay": "true",
        "ttl": "0.0",
        "cpid": "1"
      }
    },
    {
      "type": "Feature",
      "geometry": {
        "type": "Point",
        "coordinates": [5161.3223, 1804.0801],
        "size": [16, 16]
      },
      "properties": {
        "iconurl": "icons/mini_map/airdef.png",
        "iconrotate": "0",
        "popupContent": "Amazing information about Artillery Barrage Call-In will be found here!"
      },
      "bf2props": {
        "name": "cpname_black_gold_aas16_northmain_artillery05",
        "class": "ObjectSpawner",
        "name_object": "Artillery Barrage Call-In",
        "team": "1",
        "obj1": "artillery_team1",
        "obj2": "null",
        "maxspawn": "1800.0",
        "minspawn": "1800.0",
        "spawndelay": "true",
        "ttl": "0.0",
        "cpid": "1"
      }
    },
    {
      "type": "Feature",
      "geometry": {
        "type": "Point",
        "coordinates": [5172.175, 1797.366],
        "size": [16, 16]
      },
      "properties": {
        "iconurl": "icons/mini_map/airdef.png",
        "iconrotate": "0",
        "popupContent": "Amazing information about Artillery Barrage Call-In will be found here!"
      },
      "bf2props": {
        "name": "cpname_black_gold_aas16_northmain_artillery06",
        "class": "ObjectSpawner",
        "name_object": "Artillery Barrage Call-In",
        "team": "1",
        "obj1": "artillery_team1",
        "obj2": "null",
        "maxspawn": "1800.0",
        "minspawn": "1800.0",
        "spawndelay": "true",
        "ttl": "0.0",
        "cpid": "1"
      }
    },
    {
      "type": "Feature",
      "geometry": {
        "type": "Point",
        "coordinates": [2764.2979, -564.41504],
        "size": [33, 33],
        "radius": "75.0"
      },
      "properties": {
        "iconurl": "icons/flags_map/ru/minimap_cpbase.png",
        "iconrotate": "0",
        "popupContent": "Amazing information about RU Forward Outpost will be found here!"
      },
      "bf2props": {
        "name": "cpname_black_gold_aas16_1northoutpost",
        "class": "ControlPoint",
        "name_object": "RU Forward Outpost",
        "team": "1",
        "areavalue1": "0.0",
        "areavalue2": "0.0",
        "cpid": "1",
        "sgid": "1",
        "uncap": "true",
        "ttgc": "0.0",
        "ttlc": "0.0"
      }
    },
    {
      "type": "Feature",
      "geometry": {
        "type": "Point",
        "coordinates": [1852.762, -531.45496],
        "size": [33, 33],
        "radius": "200.0"
      },
      "properties": {
        "iconurl": "icons/flags_map/neutral/minimap_cp.png",
        "iconrotate": "0",
        "popupContent": "Amazing information about Tunnel Bunker 200m will be found here!"
      },
      "bf2props": {
        "name": "cpname_black_gold_aas16_1tunnelbunker",
        "class": "ControlPoint",
        "name_object": "Tunnel Bunker 200m",
        "team": "0",
        "areavalue1": "0.0",
        "areavalue2": "100.0",
        "cpid": "112",
        "sgid": "2",
        "uncap": "false",
        "ttgc": "180.0",
        "ttlc": "180.0"
      }
    },
    {
      "type": "Feature",
      "geometry": {
        "type": "Point",
        "coordinates": [1572.016, -2177.407],
        "size": [33, 33],
        "radius": "125.0"
      },
      "properties": {
        "iconurl": "icons/flags_map/neutral/minimap_cp.png",
        "iconrotate": "0",
        "popupContent": "Amazing information about Water Pumping Station 125m will be found here!"
      },
      "bf2props": {
        "name": "cpname_black_gold_aas16_1waterpumpingstation",
        "class": "ControlPoint",
        "name_object": "Water Pumping Station 125m",
        "team": "0",
        "areavalue1": "100.0",
        "areavalue2": "0.0",
        "cpid": "125",
        "sgid": "6",
        "uncap": "false",
        "ttgc": "180.0",
        "ttlc": "180.0"
      }
    },
    {
      "type": "Feature",
      "geometry": {
        "type": "Point",
        "coordinates": [1589.764, -2984.903],
        "size": [33, 33],
        "radius": "75.0"
      },
      "properties": {
        "iconurl": "icons/flags_map/ch/minimap_cpbase.png",
        "iconrotate": "0",
        "popupContent": "Amazing information about PLA Forward Outpost will be found here!"
      },
      "bf2props": {
        "name": "cpname_black_gold_aas16_1southoutpost",
        "class": "ControlPoint",
        "name_object": "PLA Forward Outpost",
        "team": "2",
        "areavalue1": "0.0",
        "areavalue2": "0.0",
        "cpid": "2",
        "sgid": "7",
        "uncap": "true",
        "ttgc": "0.0",
        "ttlc": "0.0"
      }
    },
    {
      "type": "Feature",
      "geometry": {
        "type": "Point",
        "coordinates": [1197.5339, -1425.614],
        "size": [33, 33],
        "radius": "60.0"
      },
      "properties": {
        "iconurl": "icons/flags_map/neutral/minimap_cp.png",
        "iconrotate": "0",
        "popupContent": "Amazing information about Charlie One 60m will be found here!"
      },
      "bf2props": {
        "name": "cpname_black_gold_aas16_southmain",
        "class": "ControlPoint",
        "name_object": "Charlie One 60m",
        "team": "0",
        "areavalue1": "10.0",
        "areavalue2": "10.0",
        "cpid": "601",
        "sgid": "5",
        "uncap": "false",
        "ttgc": "120.0",
        "ttlc": "120.0"
      }
    },
    {
      "type": "Feature",
      "geometry": {
        "type": "Point",
        "coordinates": [1332.4131, -1045.365],
        "size": [33, 33],
        "radius": "60.0"
      },
      "properties": {
        "iconurl": "icons/flags_map/neutral/minimap_cp.png",
        "iconrotate": "0",
        "popupContent": "Amazing information about Alpha One 60m will be found here!"
      },
      "bf2props": {
        "name": "cpname_black_gold_aas16_northmain",
        "class": "ControlPoint",
        "name_object": "Alpha One 60m",
        "team": "0",
        "areavalue1": "10.0",
        "areavalue2": "10.0",
        "cpid": "602",
        "sgid": "3",
        "uncap": "false",
        "ttgc": "120.0",
        "ttlc": "120.0"
      }
    },
    {
      "type": "Feature",
      "geometry": {
        "type": "Point",
        "coordinates": [1375.457, -1330.8259],
        "size": [33, 33],
        "radius": "50.0"
      },
      "properties": {
        "iconurl": "icons/flags_map/neutral/minimap_cp.png",
        "iconrotate": "0",
        "popupContent": "Amazing information about Bravo One 50m will be found here!"
      },
      "bf2props": {
        "name": "cpname_black_gold_aas16_mosque",
        "class": "ControlPoint",
        "name_object": "Bravo One 50m",
        "team": "0",
        "areavalue1": "10.0",
        "areavalue2": "10.0",
        "cpid": "604",
        "sgid": "4",
        "uncap": "false",
        "ttgc": "120.0",
        "ttlc": "120.0"
      }
    },
    {
      "type": "Feature",
      "geometry": {
        "type": "Point",
        "coordinates": [1497.438, -1285.6631],
        "size": [33, 33],
        "radius": "43.0"
      },
      "properties": {
        "iconurl": "icons/flags_map/neutral/minimap_cp.png",
        "iconrotate": "0",
        "popupContent": "Amazing information about Bravo Two 43m will be found here!"
      },
      "bf2props": {
        "name": "cpname_black_gold_aas16_constructionsite",
        "class": "ControlPoint",
        "name_object": "Bravo Two 43m",
        "team": "0",
        "areavalue1": "10.0",
        "areavalue2": "10.0",
        "cpid": "605",
        "sgid": "4",
        "uncap": "false",
        "ttgc": "120.0",
        "ttlc": "120.0"
      }
    },
    {
      "type": "Feature",
      "geometry": {
        "type": "Point",
        "coordinates": [1416.015, -1196.935],
        "size": [33, 33],
        "radius": "50.0"
      },
      "properties": {
        "iconurl": "icons/flags_map/neutral/minimap_cp.png",
        "iconrotate": "0",
        "popupContent": "Amazing information about Bravo Three 50m will be found here!"
      },
      "bf2props": {
        "name": "cpname_black_gold_aas16_hotel",
        "class": "ControlPoint",
        "name_object": "Bravo Three 50m",
        "team": "0",
        "areavalue1": "10.0",
        "areavalue2": "10.0",
        "cpid": "606",
        "sgid": "4",
        "uncap": "false",
        "ttgc": "120.0",
        "ttlc": "120.0"
      }
    },
    {
      "type": "Feature",
      "geometry": {
        "type": "Point",
        "coordinates": [1475.228, -1478.474],
        "size": [33, 33],
        "radius": "75.0"
      },
      "properties": {
        "iconurl": "icons/flags_map/neutral/minimap_cp.png",
        "iconrotate": "0",
        "popupContent": "Amazing information about Charlie Two District 75m will be found here!"
      },
      "bf2props": {
        "name": "cpname_black_gold_aas16_commericaldistict",
        "class": "ControlPoint",
        "name_object": "Charlie Two District 75m",
        "team": "0",
        "areavalue1": "10.0",
        "areavalue2": "10.0",
        "cpid": "607",
        "sgid": "5",
        "uncap": "false",
        "ttgc": "120.0",
        "ttlc": "120.0"
      }
    },
    {
      "type": "Feature",
      "geometry": {
        "type": "Point",
        "coordinates": [1582.9141, -1062.4761],
        "size": [33, 33],
        "radius": "75.0"
      },
      "properties": {
        "iconurl": "icons/flags_map/neutral/minimap_cp.png",
        "iconrotate": "0",
        "popupContent": "Amazing information about Alpha Two 75m will be found here!"
      },
      "bf2props": {
        "name": "cpname_black_gold_aas16_suburbs",
        "class": "ControlPoint",
        "name_object": "Alpha Two 75m",
        "team": "0",
        "areavalue1": "10.0",
        "areavalue2": "10.0",
        "cpid": "603",
        "sgid": "3",
        "uncap": "false",
        "ttgc": "120.0",
        "ttlc": "120.0"
      }
    },
    {
      "type": "Feature",
      "geometry": {
        "type": "Polygon",
        "coordinates": [
          [
            [0,0],
            [0,-4096],
            [4096,-4096],
            [4096,0]
          ],[
            [0.36865234, 0.0],
            [2505.138, -0.7956543],
            [3249.554, -738.73047],
            [2666.702, -1317.638],
            [2168.8054, -2714.078],
            [1720.0226, -3164.9358],
            [1057.7952, -3164.8154],
            [0.4296875, -2104.8193]
          ]
        ]
      },
      "bf2props": {
        "code": "combatarea_25_aas_64",
        "class": "CombatArea",
        "team": "0",
        "vehicles": "4",
        "layer": "4",
        "inverted": "false",
        "max": [0.0, 0.0],
        "min": [0.0, 0.0]
      }
    },
    {
      "type": "Feature",
      "geometry": {
        "type": "Polygon",
        "coordinates": [
          [
            [2227.4165, 0.77685547],
            [2272.091, -292.729],
            [2373.4797, -626.7173],
            [2671.9912, -901.10986],
            [2847.388, -999.1328],
            [3209.9167, -1067.7522],
            [3557.1694, -1081.3999],
            [3649.1924, -1088.3508],
            [3661.937, 100.009766],
            [2223.7427, 85.11279]
          ]
        ]
      },
      "bf2props": {
        "code": "combatarea_15_aas_64",
        "class": "CombatArea",
        "team": "2",
        "vehicles": "4",
        "layer": "4",
        "inverted": "true",
        "max": [0.0, 0.0],
        "min": [0.0, 0.0]
      }
    },
    {
      "type": "Feature",
      "geometry": {
        "type": "Polygon",
        "coordinates": [
          [
            [1418.0111, -3596.3076],
            [1418.0111, -3648.0],
            [1418.0111, -3596.3076],
            [2094.616, -2860.9663],
            [1867.8661, -2626.1392],
            [1556.7498, -2729.4036],
            [1271.195, -2798.8174],
            [686.24927, -2800.666],
            [642.69434, -2857.897]
          ]
        ]
      },
      "bf2props": {
        "code": "combatarea_17_aas_64",
        "class": "CombatArea",
        "team": "1",
        "vehicles": "4",
        "layer": "4",
        "inverted": "true",
        "max": [0.0, 0.0],
        "min": [0.0, 0.0]
      }
    }
  ]
}