{
  "team1":"ru",
  "team2":"ch",
  "team1tickets":"450",
  "team2tickets":"450",
  "mapsize":"4096",
  "viewdistance":"600",
  "combatareause":"true",
  "combatareadamage":"2.5",
  "combatareaallowoutside":"15.0",
  "routes": [
  ],
  "type": "FeatureCollection",
  "features": [
    {
      "type": "Feature",
      "geometry": {
        "type": "Point",
        "coordinates": [1563.266, -3033.0571],
        "size": [16, 16]
      },
      "properties": {
        "iconurl": "icons/mini_map/uavtrailer.png",
        "iconrotate": "0",
        "popupContent": "Amazing information about null will be found here!"
      },
      "bf2props": {
        "name": "pla_air_base_ch_command_post",
        "class": "ObjectSpawner",
        "name_object": "UAV Terminal",
        "team": "2",
        "obj1": "null",
        "obj2": "ch_acv_wz551",
        "maxspawn": "0.0",
        "minspawn": "0.0",
        "spawndelay": "false",
        "ttl": "0.0",
        "cpid": "2"
      }
    },
    {
      "type": "Feature",
      "geometry": {
        "type": "Point",
        "coordinates": [2781.605, -563.36206],
        "size": [16, 16]
      },
      "properties": {
        "iconurl": "icons/mini_map/uavtrailer.png",
        "iconrotate": "0",
        "popupContent": "Amazing information about UAV Terminal will be found here!"
      },
      "bf2props": {
        "name": "ru_air_base_ru_command_post",
        "class": "ObjectSpawner",
        "name_object": "UAV Terminal",
        "team": "1",
        "obj1": "ru_acv_btr60pu",
        "obj2": "null",
        "maxspawn": "0.0",
        "minspawn": "0.0",
        "spawndelay": "false",
        "ttl": "0.0",
        "cpid": "1"
      }
    },
    {
      "type": "Feature",
      "geometry": {
        "type": "Point",
        "coordinates": [2743.771, -605.11206],
        "size": [16, 16]
      },
      "properties": {
        "iconurl": "icons/vehicles_map/mini_apc_light.png",
        "iconrotate": "46.506",
        "popupContent": "Amazing information about MT-LBM will be found here!"
      },
      "bf2props": {
        "name": "ru_air_base_ru_apc01",
        "class": "ObjectSpawner",
        "name_object": "MT-LBM",
        "team": "1",
        "obj1": "ru_apc_mtlb_hmg",
        "obj2": "null",
        "maxspawn": "600.0",
        "minspawn": "600.0",
        "spawndelay": "false",
        "ttl": "12000.0",
        "cpid": "1"
      }
    },
    {
      "type": "Feature",
      "geometry": {
        "type": "Point",
        "coordinates": [2746.614, -608.083],
        "size": [16, 16]
      },
      "properties": {
        "iconurl": "icons/vehicles_map/mini_rec_light.png",
        "iconrotate": "46.506",
        "popupContent": "Amazing information about BRDM-2 will be found here!"
      },
      "bf2props": {
        "name": "ru_air_base_ru_apc02",
        "class": "ObjectSpawner",
        "name_object": "BRDM-2",
        "team": "1",
        "obj1": "ru_jep_brdm2",
        "obj2": "null",
        "maxspawn": "600.0",
        "minspawn": "600.0",
        "spawndelay": "false",
        "ttl": "12000.0",
        "cpid": "1"
      }
    },
    {
      "type": "Feature",
      "geometry": {
        "type": "Point",
        "coordinates": [2740.379, -601.766],
        "size": [16, 16]
      },
      "properties": {
        "iconurl": "icons/vehicles_map/mini_apc_light.png",
        "iconrotate": "46.506",
        "popupContent": "Amazing information about MT-LBM will be found here!"
      },
      "bf2props": {
        "name": "ru_air_base_ru_apc03",
        "class": "ObjectSpawner",
        "name_object": "MT-LBM",
        "team": "1",
        "obj1": "ru_apc_mtlb_hmg",
        "obj2": "null",
        "maxspawn": "600.0",
        "minspawn": "600.0",
        "spawndelay": "false",
        "ttl": "12000.0",
        "cpid": "1"
      }
    },
    {
      "type": "Feature",
      "geometry": {
        "type": "Point",
        "coordinates": [2730.226, -590.88196],
        "size": [16, 16]
      },
      "properties": {
        "iconurl": "icons/vehicles_map/mini_trk_support.png",
        "iconrotate": "45.91",
        "popupContent": "Amazing information about Ural-4320 will be found here!"
      },
      "bf2props": {
        "name": "ru_air_base_ru_apc04",
        "class": "ObjectSpawner",
        "name_object": "Ural-4320",
        "team": "1",
        "obj1": "ru_trk_support",
        "obj2": "null",
        "maxspawn": "600.0",
        "minspawn": "600.0",
        "spawndelay": "false",
        "ttl": "12000.0",
        "cpid": "1"
      }
    },
    {
      "type": "Feature",
      "geometry": {
        "type": "Point",
        "coordinates": [2733.0151, -593.89],
        "size": [16, 16]
      },
      "properties": {
        "iconurl": "icons/vehicles_map/mini_trk_support.png",
        "iconrotate": "45.91",
        "popupContent": "Amazing information about Ural-4320 will be found here!"
      },
      "bf2props": {
        "name": "ru_air_base_ru_apc05",
        "class": "ObjectSpawner",
        "name_object": "Ural-4320",
        "team": "1",
        "obj1": "ru_trk_support",
        "obj2": "null",
        "maxspawn": "600.0",
        "minspawn": "600.0",
        "spawndelay": "false",
        "ttl": "12000.0",
        "cpid": "1"
      }
    },
    {
      "type": "Feature",
      "geometry": {
        "type": "Point",
        "coordinates": [2735.647, -596.75806],
        "size": [16, 16]
      },
      "properties": {
        "iconurl": "icons/vehicles_map/mini_trk_support.png",
        "iconrotate": "45.91",
        "popupContent": "Amazing information about Ural-4320 will be found here!"
      },
      "bf2props": {
        "name": "ru_air_base_ru_apc06",
        "class": "ObjectSpawner",
        "name_object": "Ural-4320",
        "team": "1",
        "obj1": "ru_trk_support",
        "obj2": "null",
        "maxspawn": "600.0",
        "minspawn": "600.0",
        "spawndelay": "false",
        "ttl": "12000.0",
        "cpid": "1"
      }
    },
    {
      "type": "Feature",
      "geometry": {
        "type": "Point",
        "coordinates": [2756.052, -607.55396],
        "size": [16, 16]
      },
      "properties": {
        "iconurl": "icons/vehicles_map/mini_trk_support.png",
        "iconrotate": "-44.339",
        "popupContent": "Amazing information about Ural-4320 will be found here!"
      },
      "bf2props": {
        "name": "ru_air_base_ru_tank01",
        "class": "ObjectSpawner",
        "name_object": "Ural-4320",
        "team": "1",
        "obj1": "ru_trk_support",
        "obj2": "null",
        "maxspawn": "1200.0",
        "minspawn": "1200.0",
        "spawndelay": "true",
        "ttl": "12000.0",
        "cpid": "1"
      }
    },
    {
      "type": "Feature",
      "geometry": {
        "type": "Point",
        "coordinates": [2762.9312, -600.43506],
        "size": [16, 16]
      },
      "properties": {
        "iconurl": "icons/vehicles_map/mini_trk_support.png",
        "iconrotate": "-44.339",
        "popupContent": "Amazing information about Ural-4320 will be found here!"
      },
      "bf2props": {
        "name": "ru_air_base_ru_tank02",
        "class": "ObjectSpawner",
        "name_object": "Ural-4320",
        "team": "1",
        "obj1": "ru_trk_support",
        "obj2": "null",
        "maxspawn": "1200.0",
        "minspawn": "1200.0",
        "spawndelay": "true",
        "ttl": "12000.0",
        "cpid": "1"
      }
    },
    {
      "type": "Feature",
      "geometry": {
        "type": "Point",
        "coordinates": [2759.374, -603.958],
        "size": [16, 16]
      },
      "properties": {
        "iconurl": "icons/vehicles_map/mini_trk_support.png",
        "iconrotate": "-44.339",
        "popupContent": "Amazing information about Ural-4320 will be found here!"
      },
      "bf2props": {
        "name": "ru_air_base_ru_tank03",
        "class": "ObjectSpawner",
        "name_object": "Ural-4320",
        "team": "1",
        "obj1": "ru_trk_support",
        "obj2": "null",
        "maxspawn": "1200.0",
        "minspawn": "1200.0",
        "spawndelay": "true",
        "ttl": "12000.0",
        "cpid": "1"
      }
    },
    {
      "type": "Feature",
      "geometry": {
        "type": "Point",
        "coordinates": [1875.763, -492.53503],
        "size": [16, 16]
      },
      "properties": {
        "iconurl": "icons/vehicles_map/mini_jep_light.png",
        "iconrotate": "-123.148",
        "popupContent": "Amazing information about DShKM Technical will be found here!"
      },
      "bf2props": {
        "name": "ru_air_base_ru_aav01",
        "class": "ObjectSpawner",
        "name_object": "DShKM Technical",
        "team": "1",
        "obj1": "civ_jep_technical2",
        "obj2": "null",
        "maxspawn": "1200.0",
        "minspawn": "1200.0",
        "spawndelay": "true",
        "ttl": "12000.0",
        "cpid": "1"
      }
    },
    {
      "type": "Feature",
      "geometry": {
        "type": "Point",
        "coordinates": [2760.44, -585.406],
        "size": [16, 16]
      },
      "properties": {
        "iconurl": "icons/vehicles_map/mini_apc_heavy.png",
        "iconrotate": "-43.731",
        "popupContent": "Amazing information about BMP-2 will be found here!"
      },
      "bf2props": {
        "name": "ru_air_base_ru_aav02",
        "class": "ObjectSpawner",
        "name_object": "BMP-2",
        "team": "1",
        "obj1": "ru_ifv_bmp2",
        "obj2": "null",
        "maxspawn": "1200.0",
        "minspawn": "1200.0",
        "spawndelay": "false",
        "ttl": "12000.0",
        "cpid": "1"
      }
    },
    {
      "type": "Feature",
      "geometry": {
        "type": "Point",
        "coordinates": [2717.0688, -577.95996],
        "size": [16, 16]
      },
      "properties": {
        "iconurl": "icons/vehicles_map/mini_trk_logistics.png",
        "iconrotate": "46.496",
        "popupContent": "Amazing information about Ural-4320 Logistics will be found here!"
      },
      "bf2props": {
        "name": "ru_air_base_ru_logi01",
        "class": "ObjectSpawner",
        "name_object": "Ural-4320 Logistics",
        "team": "1",
        "obj1": "ru_trk_logistics",
        "obj2": "null",
        "maxspawn": "300.0",
        "minspawn": "300.0",
        "spawndelay": "false",
        "ttl": "12000.0",
        "cpid": "1"
      }
    },
    {
      "type": "Feature",
      "geometry": {
        "type": "Point",
        "coordinates": [2719.554, -580.703],
        "size": [16, 16]
      },
      "properties": {
        "iconurl": "icons/vehicles_map/mini_trk_logistics.png",
        "iconrotate": "46.496",
        "popupContent": "Amazing information about Ural-4320 Logistics will be found here!"
      },
      "bf2props": {
        "name": "ru_air_base_ru_logi02",
        "class": "ObjectSpawner",
        "name_object": "Ural-4320 Logistics",
        "team": "1",
        "obj1": "ru_trk_logistics",
        "obj2": "null",
        "maxspawn": "300.0",
        "minspawn": "300.0",
        "spawndelay": "false",
        "ttl": "12000.0",
        "cpid": "1"
      }
    },
    {
      "type": "Feature",
      "geometry": {
        "type": "Point",
        "coordinates": [2722.094, -583.292],
        "size": [16, 16]
      },
      "properties": {
        "iconurl": "icons/vehicles_map/mini_trk_logistics.png",
        "iconrotate": "46.496",
        "popupContent": "Amazing information about Ural-4320 Logistics will be found here!"
      },
      "bf2props": {
        "name": "ru_air_base_ru_logi03",
        "class": "ObjectSpawner",
        "name_object": "Ural-4320 Logistics",
        "team": "1",
        "obj1": "ru_trk_logistics",
        "obj2": "null",
        "maxspawn": "300.0",
        "minspawn": "300.0",
        "spawndelay": "false",
        "ttl": "12000.0",
        "cpid": "1"
      }
    },
    {
      "type": "Feature",
      "geometry": {
        "type": "Point",
        "coordinates": [2724.433, -585.81604],
        "size": [16, 16]
      },
      "properties": {
        "iconurl": "icons/vehicles_map/mini_trk_logistics.png",
        "iconrotate": "46.496",
        "popupContent": "Amazing information about Ural-4320 Logistics will be found here!"
      },
      "bf2props": {
        "name": "ru_air_base_ru_logi04",
        "class": "ObjectSpawner",
        "name_object": "Ural-4320 Logistics",
        "team": "1",
        "obj1": "ru_trk_logistics",
        "obj2": "null",
        "maxspawn": "300.0",
        "minspawn": "300.0",
        "spawndelay": "false",
        "ttl": "12000.0",
        "cpid": "1"
      }
    },
    {
      "type": "Feature",
      "geometry": {
        "type": "Point",
        "coordinates": [1612.045, -3009.075],
        "size": [16, 16]
      },
      "properties": {
        "iconurl": "icons/vehicles_map/mini_rec_light.png",
        "iconrotate": "-117.321",
        "popupContent": "Amazing information about null will be found here!"
      },
      "bf2props": {
        "name": "pla_air_base_ch_apc01",
        "class": "ObjectSpawner",
        "name_object": "VN-3",
        "team": "2",
        "obj1": "null",
        "obj2": "ch_jep_vn3",
        "maxspawn": "600.0",
        "minspawn": "600.0",
        "spawndelay": "false",
        "ttl": "12000.0",
        "cpid": "2"
      }
    },
    {
      "type": "Feature",
      "geometry": {
        "type": "Point",
        "coordinates": [1613.989, -3013.052],
        "size": [16, 16]
      },
      "properties": {
        "iconurl": "icons/vehicles_map/mini_apc_light.png",
        "iconrotate": "-117.321",
        "popupContent": "Amazing information about null will be found here!"
      },
      "bf2props": {
        "name": "pla_air_base_ch_apc02",
        "class": "ObjectSpawner",
        "name_object": "ZSL-92A",
        "team": "2",
        "obj1": "null",
        "obj2": "ch_apc_wz551a",
        "maxspawn": "600.0",
        "minspawn": "600.0",
        "spawndelay": "false",
        "ttl": "12000.0",
        "cpid": "2"
      }
    },
    {
      "type": "Feature",
      "geometry": {
        "type": "Point",
        "coordinates": [1616.307, -3016.814],
        "size": [16, 16]
      },
      "properties": {
        "iconurl": "icons/vehicles_map/mini_apc_light.png",
        "iconrotate": "-117.321",
        "popupContent": "Amazing information about null will be found here!"
      },
      "bf2props": {
        "name": "pla_air_base_ch_apc03",
        "class": "ObjectSpawner",
        "name_object": "ZSL-92A",
        "team": "2",
        "obj1": "null",
        "obj2": "ch_apc_wz551a",
        "maxspawn": "600.0",
        "minspawn": "600.0",
        "spawndelay": "false",
        "ttl": "12000.0",
        "cpid": "2"
      }
    },
    {
      "type": "Feature",
      "geometry": {
        "type": "Point",
        "coordinates": [1602.427, -2988.7559],
        "size": [16, 16]
      },
      "properties": {
        "iconurl": "icons/vehicles_map/mini_trk_support.png",
        "iconrotate": "-116.228",
        "popupContent": "Amazing information about null will be found here!"
      },
      "bf2props": {
        "name": "pla_air_base_ch_apc04",
        "class": "ObjectSpawner",
        "name_object": "EQ2080 2.5 Ton",
        "team": "2",
        "obj1": "null",
        "obj2": "ch_trk_support",
        "maxspawn": "600.0",
        "minspawn": "600.0",
        "spawndelay": "false",
        "ttl": "12000.0",
        "cpid": "2"
      }
    },
    {
      "type": "Feature",
      "geometry": {
        "type": "Point",
        "coordinates": [1604.355, -2992.846],
        "size": [16, 16]
      },
      "properties": {
        "iconurl": "icons/vehicles_map/mini_trk_support.png",
        "iconrotate": "-116.228",
        "popupContent": "Amazing information about null will be found here!"
      },
      "bf2props": {
        "name": "pla_air_base_ch_apc05",
        "class": "ObjectSpawner",
        "name_object": "EQ2080 2.5 Ton",
        "team": "2",
        "obj1": "null",
        "obj2": "ch_trk_support",
        "maxspawn": "600.0",
        "minspawn": "600.0",
        "spawndelay": "false",
        "ttl": "12000.0",
        "cpid": "2"
      }
    },
    {
      "type": "Feature",
      "geometry": {
        "type": "Point",
        "coordinates": [1606.405, -2996.562],
        "size": [16, 16]
      },
      "properties": {
        "iconurl": "icons/vehicles_map/mini_trk_support.png",
        "iconrotate": "-116.228",
        "popupContent": "Amazing information about null will be found here!"
      },
      "bf2props": {
        "name": "pla_air_base_ch_apc06",
        "class": "ObjectSpawner",
        "name_object": "EQ2080 2.5 Ton",
        "team": "2",
        "obj1": "null",
        "obj2": "ch_trk_support",
        "maxspawn": "0.0",
        "minspawn": "0.0",
        "spawndelay": "false",
        "ttl": "0.0",
        "cpid": "2"
      }
    },
    {
      "type": "Feature",
      "geometry": {
        "type": "Point",
        "coordinates": [1607.7109, -3027.491],
        "size": [16, 16]
      },
      "properties": {
        "iconurl": "icons/vehicles_map/mini_trk_support.png",
        "iconrotate": "-26.692",
        "popupContent": "Amazing information about null will be found here!"
      },
      "bf2props": {
        "name": "pla_air_base_ch_tank01",
        "class": "ObjectSpawner",
        "name_object": "EQ2080 2.5 Ton",
        "team": "2",
        "obj1": "null",
        "obj2": "ch_trk_support",
        "maxspawn": "1200.0",
        "minspawn": "1200.0",
        "spawndelay": "true",
        "ttl": "12000.0",
        "cpid": "2"
      }
    },
    {
      "type": "Feature",
      "geometry": {
        "type": "Point",
        "coordinates": [1603.934, -3029.644],
        "size": [16, 16]
      },
      "properties": {
        "iconurl": "icons/vehicles_map/mini_trk_support.png",
        "iconrotate": "-26.692",
        "popupContent": "Amazing information about null will be found here!"
      },
      "bf2props": {
        "name": "pla_air_base_ch_tank02",
        "class": "ObjectSpawner",
        "name_object": "EQ2080 2.5 Ton",
        "team": "2",
        "obj1": "null",
        "obj2": "ch_trk_support",
        "maxspawn": "1200.0",
        "minspawn": "1200.0",
        "spawndelay": "true",
        "ttl": "12000.0",
        "cpid": "2"
      }
    },
    {
      "type": "Feature",
      "geometry": {
        "type": "Point",
        "coordinates": [1599.1221, -3032.003],
        "size": [16, 16]
      },
      "properties": {
        "iconurl": "icons/vehicles_map/mini_trk_support.png",
        "iconrotate": "-26.692",
        "popupContent": "Amazing information about null will be found here!"
      },
      "bf2props": {
        "name": "pla_air_base_ch_tank03",
        "class": "ObjectSpawner",
        "name_object": "EQ2080 2.5 Ton",
        "team": "2",
        "obj1": "null",
        "obj2": "ch_trk_support",
        "maxspawn": "1200.0",
        "minspawn": "1200.0",
        "spawndelay": "true",
        "ttl": "12000.0",
        "cpid": "2"
      }
    },
    {
      "type": "Feature",
      "geometry": {
        "type": "Point",
        "coordinates": [1866.911, -497.64404],
        "size": [16, 16]
      },
      "properties": {
        "iconurl": "icons/vehicles_map/mini_trk_support.png",
        "iconrotate": "-121.193",
        "popupContent": "Amazing information about Ural-4320 will be found here!"
      },
      "bf2props": {
        "name": "ru_outpost_ru_truck01",
        "class": "ObjectSpawner",
        "name_object": "Ural-4320",
        "team": "1",
        "obj1": "ru_trk_support",
        "obj2": "null",
        "maxspawn": "99999.0",
        "minspawn": "99999.0",
        "spawndelay": "false",
        "ttl": "12000.0",
        "cpid": "1"
      }
    },
    {
      "type": "Feature",
      "geometry": {
        "type": "Point",
        "coordinates": [1888.5391, -509.64],
        "size": [16, 16]
      },
      "properties": {
        "iconurl": "icons/player_map/mini_squad.png",
        "iconrotate": "0",
        "popupContent": "Amazing information about Temporary spawnpoint will be found here!"
      },
      "bf2props": {
        "name": "ru_outpost_ru_rallypoint",
        "class": "ObjectSpawner",
        "name_object": "Temporary spawnpoint",
        "team": "1",
        "obj1": "rallypoint_ru_placeable",
        "obj2": "null",
        "maxspawn": "99999.0",
        "minspawn": "99999.0",
        "spawndelay": "false",
        "ttl": "12000.0",
        "cpid": "1"
      }
    },
    {
      "type": "Feature",
      "geometry": {
        "type": "Point",
        "coordinates": [2732.483, -521.52795],
        "size": [16, 16]
      },
      "properties": {
        "iconurl": "icons/player_map/mini_squad.png",
        "iconrotate": "0",
        "popupContent": "Amazing information about Permanent spawnpoint will be found here!"
      },
      "bf2props": {
        "name": "ru_outpost_ru_jeep",
        "class": "ObjectSpawner",
        "name_object": "Permanent spawnpoint",
        "team": "1",
        "obj1": "rallypoint_ru_placeable_noexpire",
        "obj2": "null",
        "maxspawn": "1800.0",
        "minspawn": "1800.0",
        "spawndelay": "false",
        "ttl": "12000.0",
        "cpid": "1"
      }
    },
    {
      "type": "Feature",
      "geometry": {
        "type": "Point",
        "coordinates": [1535.131, -2157.057],
        "size": [16, 16]
      },
      "properties": {
        "iconurl": "icons/vehicles_map/mini_trk_support.png",
        "iconrotate": "-80.726",
        "popupContent": "Amazing information about null will be found here!"
      },
      "bf2props": {
        "name": "pla_outpost_ch_truck01",
        "class": "ObjectSpawner",
        "name_object": "EQ2080 2.5 Ton",
        "team": "2",
        "obj1": "null",
        "obj2": "ch_trk_support",
        "maxspawn": "99999.0",
        "minspawn": "99999.0",
        "spawndelay": "false",
        "ttl": "12000.0",
        "cpid": "2"
      }
    },
    {
      "type": "Feature",
      "geometry": {
        "type": "Point",
        "coordinates": [1523.9099, -2195.441],
        "size": [16, 16]
      },
      "properties": {
        "iconurl": "icons/player_map/mini_squad.png",
        "iconrotate": "0",
        "popupContent": "Amazing information about null will be found here!"
      },
      "bf2props": {
        "name": "pla_outpost_ch_rallypoint",
        "class": "ObjectSpawner",
        "name_object": "Temporary spawnpoint",
        "team": "2",
        "obj1": "null",
        "obj2": "rallypoint_ch_placeable",
        "maxspawn": "99999.0",
        "minspawn": "99999.0",
        "spawndelay": "false",
        "ttl": "12000.0",
        "cpid": "2"
      }
    },
    {
      "type": "Feature",
      "geometry": {
        "type": "Point",
        "coordinates": [1539.9, -2966.34],
        "size": [16, 16]
      },
      "properties": {
        "iconurl": "icons/player_map/mini_squad.png",
        "iconrotate": "0",
        "popupContent": "Amazing information about null will be found here!"
      },
      "bf2props": {
        "name": "pla_outpost_ch_jeep",
        "class": "ObjectSpawner",
        "name_object": "Permanent spawnpoint",
        "team": "2",
        "obj1": "null",
        "obj2": "rallypoint_ch_placeable_noexpire",
        "maxspawn": "1800.0",
        "minspawn": "1800.0",
        "spawndelay": "false",
        "ttl": "12000.0",
        "cpid": "2"
      }
    },
    {
      "type": "Feature",
      "geometry": {
        "type": "Point",
        "coordinates": [2723.329, -563.037],
        "size": [16, 16]
      },
      "properties": {
        "iconurl": "icons/mini_map/repairdepot.png",
        "iconrotate": "0",
        "popupContent": "Amazing information about Vehicle Depot will be found here!"
      },
      "bf2props": {
        "name": "ru_air_base_ru_supply_depot",
        "class": "ObjectSpawner",
        "name_object": "Vehicle Depot",
        "team": "1",
        "obj1": "vehicle_depot_ru",
        "obj2": "null",
        "maxspawn": "0.0",
        "minspawn": "0.0",
        "spawndelay": "false",
        "ttl": "0.0",
        "cpid": "1"
      }
    },
    {
      "type": "Feature",
      "geometry": {
        "type": "Point",
        "coordinates": [1580.241, -2965.003],
        "size": [16, 16]
      },
      "properties": {
        "iconurl": "icons/mini_map/repairdepot.png",
        "iconrotate": "0",
        "popupContent": "Amazing information about null will be found here!"
      },
      "bf2props": {
        "name": "pla_air_base_ch_supply_depot",
        "class": "ObjectSpawner",
        "name_object": "Vehicle Depot",
        "team": "2",
        "obj1": "null",
        "obj2": "vehicle_depot_ch",
        "maxspawn": "0.0",
        "minspawn": "0.0",
        "spawndelay": "false",
        "ttl": "0.0",
        "cpid": "2"
      }
    },
    {
      "type": "Feature",
      "geometry": {
        "type": "Point",
        "coordinates": [1587.833, -3036.645],
        "size": [16, 16]
      },
      "properties": {
        "iconurl": "icons/vehicles_map/mini_apc_heavy.png",
        "iconrotate": "-27.69",
        "popupContent": "Amazing information about null will be found here!"
      },
      "bf2props": {
        "name": "pla_air_base_ch_aav01",
        "class": "ObjectSpawner",
        "name_object": "ZSL-92B 30mm",
        "team": "2",
        "obj1": "null",
        "obj2": "ch_ifv_wz551b",
        "maxspawn": "1200.0",
        "minspawn": "1200.0",
        "spawndelay": "true",
        "ttl": "12000.0",
        "cpid": "2"
      }
    },
    {
      "type": "Feature",
      "geometry": {
        "type": "Point",
        "coordinates": [1536.057, -2153.623],
        "size": [16, 16]
      },
      "properties": {
        "iconurl": "icons/vehicles_map/mini_jep_light.png",
        "iconrotate": "-83.96",
        "popupContent": "Amazing information about null will be found here!"
      },
      "bf2props": {
        "name": "pla_air_base_ch_aav02",
        "class": "ObjectSpawner",
        "name_object": "Norinco FAV",
        "team": "2",
        "obj1": "null",
        "obj2": "ch_jep_paratrooper",
        "maxspawn": "1200.0",
        "minspawn": "1200.0",
        "spawndelay": "false",
        "ttl": "12000.0",
        "cpid": "2"
      }
    },
    {
      "type": "Feature",
      "geometry": {
        "type": "Point",
        "coordinates": [1592.766, -2969.519],
        "size": [16, 16]
      },
      "properties": {
        "iconurl": "icons/vehicles_map/mini_trk_logistics.png",
        "iconrotate": "-116.721",
        "popupContent": "Amazing information about null will be found here!"
      },
      "bf2props": {
        "name": "pla_air_base_ch_logi01",
        "class": "ObjectSpawner",
        "name_object": "EQ2080 Logistics",
        "team": "2",
        "obj1": "null",
        "obj2": "ch_trk_logistics",
        "maxspawn": "300.0",
        "minspawn": "300.0",
        "spawndelay": "false",
        "ttl": "12000.0",
        "cpid": "2"
      }
    },
    {
      "type": "Feature",
      "geometry": {
        "type": "Point",
        "coordinates": [1594.373, -2973.175],
        "size": [16, 16]
      },
      "properties": {
        "iconurl": "icons/vehicles_map/mini_trk_logistics.png",
        "iconrotate": "-116.721",
        "popupContent": "Amazing information about null will be found here!"
      },
      "bf2props": {
        "name": "pla_air_base_ch_logi02",
        "class": "ObjectSpawner",
        "name_object": "EQ2080 Logistics",
        "team": "2",
        "obj1": "null",
        "obj2": "ch_trk_logistics",
        "maxspawn": "300.0",
        "minspawn": "300.0",
        "spawndelay": "false",
        "ttl": "12000.0",
        "cpid": "2"
      }
    },
    {
      "type": "Feature",
      "geometry": {
        "type": "Point",
        "coordinates": [1596.041, -2976.455],
        "size": [16, 16]
      },
      "properties": {
        "iconurl": "icons/vehicles_map/mini_trk_logistics.png",
        "iconrotate": "-116.721",
        "popupContent": "Amazing information about null will be found here!"
      },
      "bf2props": {
        "name": "pla_air_base_ch_logi03",
        "class": "ObjectSpawner",
        "name_object": "EQ2080 Logistics",
        "team": "2",
        "obj1": "null",
        "obj2": "ch_trk_logistics",
        "maxspawn": "300.0",
        "minspawn": "300.0",
        "spawndelay": "false",
        "ttl": "12000.0",
        "cpid": "2"
      }
    },
    {
      "type": "Feature",
      "geometry": {
        "type": "Point",
        "coordinates": [1597.682, -2980.227],
        "size": [16, 16]
      },
      "properties": {
        "iconurl": "icons/vehicles_map/mini_trk_logistics.png",
        "iconrotate": "-119.551",
        "popupContent": "Amazing information about null will be found here!"
      },
      "bf2props": {
        "name": "pla_air_base_ch_logi04",
        "class": "ObjectSpawner",
        "name_object": "EQ2080 Logistics",
        "team": "2",
        "obj1": "null",
        "obj2": "ch_trk_logistics",
        "maxspawn": "300.0",
        "minspawn": "300.0",
        "spawndelay": "false",
        "ttl": "12000.0",
        "cpid": "2"
      }
    },
    {
      "type": "Feature",
      "geometry": {
        "type": "Point",
        "coordinates": [1528.042, -2970.227],
        "size": [16, 16]
      },
      "properties": {
        "iconurl": "icons/vehicles_map/mini_trk_support.png",
        "iconrotate": "27.37",
        "popupContent": "Amazing information about null will be found here!"
      },
      "bf2props": {
        "name": "ch_roadtank_03",
        "class": "ObjectSpawner",
        "name_object": "EQ2080 2.5 Ton",
        "team": "2",
        "obj1": "null",
        "obj2": "ch_trk_support",
        "maxspawn": "99999.0",
        "minspawn": "99999.0",
        "spawndelay": "false",
        "ttl": "12000.0",
        "cpid": "2"
      }
    },
    {
      "type": "Feature",
      "geometry": {
        "type": "Point",
        "coordinates": [1536.135, -2960.57],
        "size": [16, 16]
      },
      "properties": {
        "iconurl": "icons/vehicles_map/mini_trk_support.png",
        "iconrotate": "55.41",
        "popupContent": "Amazing information about null will be found here!"
      },
      "bf2props": {
        "name": "ch_roadtank_04",
        "class": "ObjectSpawner",
        "name_object": "EQ2080 2.5 Ton",
        "team": "2",
        "obj1": "null",
        "obj2": "ch_trk_support",
        "maxspawn": "99999.0",
        "minspawn": "99999.0",
        "spawndelay": "false",
        "ttl": "12000.0",
        "cpid": "2"
      }
    },
    {
      "type": "Feature",
      "geometry": {
        "type": "Point",
        "coordinates": [1546.154, -2953.813],
        "size": [16, 16]
      },
      "properties": {
        "iconurl": "icons/vehicles_map/mini_trk_support.png",
        "iconrotate": "62.632",
        "popupContent": "Amazing information about null will be found here!"
      },
      "bf2props": {
        "name": "ch_roadtank_05",
        "class": "ObjectSpawner",
        "name_object": "EQ2080 2.5 Ton",
        "team": "2",
        "obj1": "null",
        "obj2": "ch_trk_support",
        "maxspawn": "99999.0",
        "minspawn": "99999.0",
        "spawndelay": "false",
        "ttl": "12000.0",
        "cpid": "2"
      }
    },
    {
      "type": "Feature",
      "geometry": {
        "type": "Point",
        "coordinates": [2732.823, -534.42505],
        "size": [16, 16]
      },
      "properties": {
        "iconurl": "icons/vehicles_map/mini_trk_support.png",
        "iconrotate": "-30.597",
        "popupContent": "Amazing information about Ural-4320 will be found here!"
      },
      "bf2props": {
        "name": "ru_roadtank_06_2",
        "class": "ObjectSpawner",
        "name_object": "Ural-4320",
        "team": "1",
        "obj1": "ru_trk_support",
        "obj2": "null",
        "maxspawn": "99999.0",
        "minspawn": "99999.0",
        "spawndelay": "false",
        "ttl": "12000.0",
        "cpid": "1"
      }
    },
    {
      "type": "Feature",
      "geometry": {
        "type": "Point",
        "coordinates": [2726.093, -525.235],
        "size": [16, 16]
      },
      "properties": {
        "iconurl": "icons/vehicles_map/mini_trk_support.png",
        "iconrotate": "-42.921",
        "popupContent": "Amazing information about Ural-4320 will be found here!"
      },
      "bf2props": {
        "name": "ru_roadtank_07_0",
        "class": "ObjectSpawner",
        "name_object": "Ural-4320",
        "team": "1",
        "obj1": "ru_trk_support",
        "obj2": "null",
        "maxspawn": "99999.0",
        "minspawn": "99999.0",
        "spawndelay": "false",
        "ttl": "12000.0",
        "cpid": "1"
      }
    },
    {
      "type": "Feature",
      "geometry": {
        "type": "Point",
        "coordinates": [2716.534, -518.105],
        "size": [16, 16]
      },
      "properties": {
        "iconurl": "icons/vehicles_map/mini_trk_support.png",
        "iconrotate": "-60.179",
        "popupContent": "Amazing information about Ural-4320 will be found here!"
      },
      "bf2props": {
        "name": "ru_roadtank_08",
        "class": "ObjectSpawner",
        "name_object": "Ural-4320",
        "team": "1",
        "obj1": "ru_trk_support",
        "obj2": "null",
        "maxspawn": "99999.0",
        "minspawn": "99999.0",
        "spawndelay": "false",
        "ttl": "12000.0",
        "cpid": "1"
      }
    },
    {
      "type": "Feature",
      "geometry": {
        "type": "Point",
        "coordinates": [2764.2979, -564.41504],
        "size": [33, 33],
        "radius": "75.0"
      },
      "properties": {
        "iconurl": "icons/flags_map/ru/minimap_cpbase.png",
        "iconrotate": "0",
        "popupContent": "Amazing information about RU Forward Outpost will be found here!"
      },
      "bf2props": {
        "name": "cpname_black_gold_cnc16_1northoutpost",
        "class": "ControlPoint",
        "name_object": "RU Forward Outpost",
        "team": "1",
        "areavalue1": "0.0",
        "areavalue2": "0.0",
        "cpid": "1",
        "sgid": "1",
        "uncap": "true",
        "ttgc": "180.0",
        "ttlc": "180.0"
      }
    },
    {
      "type": "Feature",
      "geometry": {
        "type": "Point",
        "coordinates": [1589.764, -2984.903],
        "size": [33, 33],
        "radius": "75.0"
      },
      "properties": {
        "iconurl": "icons/flags_map/ch/minimap_cpbase.png",
        "iconrotate": "0",
        "popupContent": "Amazing information about PLA Forward Outpost will be found here!"
      },
      "bf2props": {
        "name": "cpname_black_gold_cnc16_1southoutpost",
        "class": "ControlPoint",
        "name_object": "PLA Forward Outpost",
        "team": "2",
        "areavalue1": "0.0",
        "areavalue2": "0.0",
        "cpid": "2",
        "sgid": "2",
        "uncap": "true",
        "ttgc": "180.0",
        "ttlc": "180.0"
      }
    },
    {
      "type": "Feature",
      "geometry": {
        "type": "Polygon",
        "coordinates": [
          [
            [0,0],
            [0,-4096],
            [4096,-4096],
            [4096,0]
          ],[
            [4095.0, -1.0],
            [4095.0, -4095.0],
            [1.0, -4095.0],
            [1.0, -1.0],
            [4095.0, -1.0],
            [4095.0, -4095.0],
            [1.0, -4095.0],
            [1.0, -1.0],
            [4095.0, -1.0],
            [4095.0, -4095.0],
            [1.0, -4095.0],
            [1.0, -1.0]
          ]
        ]
      },
      "bf2props": {
        "code": "combatarea_27_aas_64",
        "class": "CombatArea",
        "team": "0",
        "vehicles": "4",
        "layer": "4",
        "inverted": "false",
        "max": [0.0, 0.0],
        "min": [0.0, 0.0]
      }
    },
    {
      "type": "Feature",
      "geometry": {
        "type": "Polygon",
        "coordinates": [
          [
            [3402.0347, -4.3745117],
            [3416.3247, -98.04443],
            [3394.0127, -194.09766],
            [3488.4622, -263.81665],
            [3489.085, -373.87842],
            [3444.8127, -454.14307],
            [3402.7, -564.9668],
            [3424.7195, -672.7168],
            [3431.6914, -774.37695],
            [3443.529, -858.7825],
            [3512.5789, -896.05884],
            [3519.7034, -974.468],
            [3532.8533, -1082.6475],
            [3548.3125, -1262.5576],
            [3571.331, -1364.6904],
            [3615.6414, -1533.2263],
            [3718.858, -1636.459],
            [3809.8118, -1790.9702],
            [3977.0027, -1840.1509],
            [4095.617, -1852.4341],
            [4095.3835, -0.22460938],
            [3402.0347, -0.37451172],
            [3416.3247, -98.04443],
            [3394.0127, -194.09766],
            [3488.4622, -263.81665],
            [3489.085, -373.87842],
            [3444.8127, -454.14307],
            [3402.7, -564.9668],
            [3424.7195, -672.7168],
            [3431.6914, -774.37695],
            [3443.529, -858.7825],
            [3512.5789, -896.05884],
            [3519.7034, -974.468],
            [3532.8533, -1082.6475],
            [3548.3125, -1262.5576],
            [3571.331, -1364.6904],
            [3615.6414, -1533.2263],
            [3718.858, -1636.459],
            [3809.8118, -1790.9702],
            [3977.0027, -1840.1509],
            [4095.617, -1852.4341],
            [4095.3835, -0.22460938],
            [3402.0347, -0.37451172],
            [3416.3247, -98.04443],
            [3394.0127, -194.09766],
            [3488.4622, -263.81665],
            [3489.085, -373.87842],
            [3444.8127, -454.14307],
            [3402.7, -564.9668],
            [3424.7195, -672.7168],
            [3431.6914, -774.37695],
            [3443.529, -858.7825],
            [3512.5789, -896.05884],
            [3519.7034, -974.468],
            [3532.8533, -1082.6475],
            [3548.3125, -1262.5576],
            [3571.331, -1364.6904],
            [3615.6414, -1533.2263],
            [3718.858, -1636.459],
            [3809.8118, -1790.9702],
            [3977.0027, -1840.1509],
            [4095.617, -1852.4341],
            [4095.3835, -0.22460938]
          ]
        ]
      },
      "bf2props": {
        "code": "combatarea_4_aas_64",
        "class": "CombatArea",
        "team": "2",
        "vehicles": "4",
        "layer": "4",
        "inverted": "true",
        "max": [0.0, 0.0],
        "min": [0.0, 0.0]
      }
    },
    {
      "type": "Feature",
      "geometry": {
        "type": "Polygon",
        "coordinates": [
          [
            [1267.8922, -4099.3047],
            [1212.017, -3941.234],
            [1142.319, -3834.897],
            [1002.95483, -3727.387],
            [825.42676, -3586.7854],
            [798.20276, -3447.4773],
            [837.53174, -3322.9814],
            [834.1874, -3165.8892],
            [840.9365, -3043.9155],
            [818.4553, -2935.4949],
            [784.4197, -2828.625],
            [793.948, -2761.9055],
            [758.9695, -2699.941],
            [704.68787, -2616.4893],
            [605.75195, -2573.225],
            [522.1743, -2523.3042],
            [425.89185, -2341.045],
            [327.45386, -2173.638],
            [136.92639, -1963.5779],
            [-6.071289, -1870.011],
            [0.33862305, -4095.3826],
            [1267.8922, -4099.3047],
            [1212.017, -3941.234],
            [1142.319, -3834.897],
            [1002.95483, -3727.387],
            [825.42676, -3586.7854],
            [798.20276, -3447.4773],
            [837.53174, -3322.9814],
            [834.1874, -3165.8892],
            [840.9365, -3043.9155],
            [818.4553, -2935.4949],
            [784.4197, -2828.625],
            [793.948, -2761.9055],
            [758.9695, -2699.941],
            [704.68787, -2616.4893],
            [605.75195, -2573.225],
            [522.1743, -2523.3042],
            [425.89185, -2341.045],
            [327.45386, -2173.638],
            [136.92639, -1963.5779],
            [-6.071289, -1870.011],
            [0.33862305, -4095.3826],
            [1267.8922, -4099.3047],
            [1212.017, -3941.234],
            [1142.319, -3834.897],
            [1002.95483, -3727.387],
            [825.42676, -3586.7854],
            [798.20276, -3447.4773],
            [837.53174, -3322.9814],
            [834.1874, -3165.8892],
            [840.9365, -3043.9155],
            [818.4553, -2935.4949],
            [784.4197, -2828.625],
            [793.948, -2761.9055],
            [758.9695, -2699.941],
            [704.68787, -2616.4893],
            [605.75195, -2573.225],
            [522.1743, -2523.3042],
            [425.89185, -2341.045],
            [327.45386, -2173.638],
            [136.92639, -1963.5779],
            [-6.071289, -1870.011],
            [0.33862305, -4095.3826]
          ]
        ]
      },
      "bf2props": {
        "code": "combatarea_25_aas_64",
        "class": "CombatArea",
        "team": "1",
        "vehicles": "4",
        "layer": "4",
        "inverted": "true",
        "max": [0.0, 0.0],
        "min": [0.0, 0.0]
      }
    }
  ]
}