{
  "team1":"ru",
  "team2":"ch",
  "team1tickets":"650",
  "team2tickets":"650",
  "mapsize":"4096",
  "viewdistance":"1000",
  "combatareause":"true",
  "combatareadamage":"2.5",
  "combatareaallowoutside":"15.0",
  "routes": [
    [
      [
        "cpname_black_gold_aas32_1northoutpost"
      ],
      [
        "cpname_black_gold_aas32_1tunnelbunker"
      ],
      [
        "cpname_black_gold_aas32_1northernsuburbs",
        "cpname_black_gold_aas32_1northwestsuburbs",
        "cpname_black_gold_aas32_1citycenter",
        "cpname_black_gold_aas32_1constructionsite"
      ],
      [
        "cpname_black_gold_aas32_1westcity",
        "cpname_black_gold_aas32_1commercialdistrict",
        "cpname_black_gold_aas32_1militarybase",
        "cpname_black_gold_aas32_1mosque"
      ],
      [
        "cpname_black_gold_aas32_1oilstorage",
        "cpname_black_gold_aas32_1bridges"
      ],
      [
        "cpname_black_gold_aas32_1waterpumpingstation"
      ],
      [
        "cpname_black_gold_aas32_1southoutpost"
      ],
      [
        "cpname_black_gold_aas32_southmain"
      ]
    ],
    [
      [
        "cpname_black_gold_aas32_1northoutpost"
      ],
      [
        "cpname_black_gold_aas32_2supplybunker"
      ],
      [
        "cpname_black_gold_aas32_2controlfacility"
      ],
      [
        "cpname_black_gold_aas32_2oilrefinery"
      ],
      [
        "cpname_black_gold_aas32_2oldoutpost"
      ],
      [
        "cpname_black_gold_aas32_2abandonedfarm"
      ],
      [
        "cpname_black_gold_aas32_1southoutpost"
      ],
      [
        "cpname_black_gold_aas32_southmain"
      ]
    ]
  ],
  "type": "FeatureCollection",
  "features": [
    {
      "type": "Feature",
      "geometry": {
        "type": "Point",
        "coordinates": [3989.6392, -262.19104],
        "size": [16, 16]
      },
      "properties": {
        "iconurl": "icons/vehicles_map/mini_the_medium.png",
        "iconrotate": "90.0",
        "popupContent": "Amazing information about Mi-8MT Hip-C will be found here!"
      },
      "bf2props": {
        "name": "ru_air_base_ru_transheli01",
        "class": "ObjectSpawner",
        "name_object": "Mi-8MT Hip-C",
        "team": "1",
        "obj1": "ru_the_mi8",
        "obj2": "null",
        "maxspawn": "300.0",
        "minspawn": "300.0",
        "spawndelay": "false",
        "ttl": "12000.0",
        "cpid": "1"
      }
    },
    {
      "type": "Feature",
      "geometry": {
        "type": "Point",
        "coordinates": [3989.979, -299.18396],
        "size": [16, 16]
      },
      "properties": {
        "iconurl": "icons/vehicles_map/mini_the_medium.png",
        "iconrotate": "90.0",
        "popupContent": "Amazing information about Mi-8MT Hip-C will be found here!"
      },
      "bf2props": {
        "name": "ru_air_base_ru_transheli02",
        "class": "ObjectSpawner",
        "name_object": "Mi-8MT Hip-C",
        "team": "1",
        "obj1": "ru_the_mi8",
        "obj2": "null",
        "maxspawn": "300.0",
        "minspawn": "300.0",
        "spawndelay": "false",
        "ttl": "12000.0",
        "cpid": "1"
      }
    },
    {
      "type": "Feature",
      "geometry": {
        "type": "Point",
        "coordinates": [3989.97, -223.14099],
        "size": [16, 16]
      },
      "properties": {
        "iconurl": "icons/vehicles_map/mini_ahe_medium.png",
        "iconrotate": "90.0",
        "popupContent": "Amazing information about Mi-24P Hind-F will be found here!"
      },
      "bf2props": {
        "name": "ru_air_base_ru_lightheli",
        "class": "ObjectSpawner",
        "name_object": "Mi-24P Hind-F",
        "team": "1",
        "obj1": "ru_ahe_mi24",
        "obj2": "null",
        "maxspawn": "1200.0",
        "minspawn": "1200.0",
        "spawndelay": "true",
        "ttl": "12000.0",
        "cpid": "1"
      }
    },
    {
      "type": "Feature",
      "geometry": {
        "type": "Point",
        "coordinates": [92.277954, -3345.252],
        "size": [16, 16]
      },
      "properties": {
        "iconurl": "icons/vehicles_map/mini_ahe_light.png",
        "iconrotate": "-90.0",
        "popupContent": "Amazing information about null will be found here!"
      },
      "bf2props": {
        "name": "pla_air_base_ch_lightheli",
        "class": "ObjectSpawner",
        "name_object": "Z-9WA Haitun HF-25",
        "team": "2",
        "obj1": "null",
        "obj2": "ch_ahe_z9wa_hf25",
        "maxspawn": "1200.0",
        "minspawn": "1200.0",
        "spawndelay": "true",
        "ttl": "12000.0",
        "cpid": "2"
      }
    },
    {
      "type": "Feature",
      "geometry": {
        "type": "Point",
        "coordinates": [92.65698, -3382.177],
        "size": [16, 16]
      },
      "properties": {
        "iconurl": "icons/vehicles_map/mini_the_light.png",
        "iconrotate": "-90.0",
        "popupContent": "Amazing information about null will be found here!"
      },
      "bf2props": {
        "name": "pla_air_base_ch_transheli01",
        "class": "ObjectSpawner",
        "name_object": "Zhi-9B",
        "team": "2",
        "obj1": "null",
        "obj2": "ch_the_z9b",
        "maxspawn": "300.0",
        "minspawn": "300.0",
        "spawndelay": "false",
        "ttl": "12000.0",
        "cpid": "2"
      }
    },
    {
      "type": "Feature",
      "geometry": {
        "type": "Point",
        "coordinates": [91.93396, -3420.217],
        "size": [16, 16]
      },
      "properties": {
        "iconurl": "icons/vehicles_map/mini_the_heavy.png",
        "iconrotate": "-90.0",
        "popupContent": "Amazing information about null will be found here!"
      },
      "bf2props": {
        "name": "pla_air_base_ch_transheli02",
        "class": "ObjectSpawner",
        "name_object": "Z-8KA",
        "team": "2",
        "obj1": "null",
        "obj2": "ch_the_z8",
        "maxspawn": "300.0",
        "minspawn": "300.0",
        "spawndelay": "false",
        "ttl": "12000.0",
        "cpid": "2"
      }
    },
    {
      "type": "Feature",
      "geometry": {
        "type": "Point",
        "coordinates": [206.85901, -3487.7349],
        "size": [16, 16]
      },
      "properties": {
        "iconurl": "icons/mini_map/uavtrailer.png",
        "iconrotate": "0",
        "popupContent": "Amazing information about null will be found here!"
      },
      "bf2props": {
        "name": "pla_air_base_ch_command_post",
        "class": "ObjectSpawner",
        "name_object": "UAV Terminal",
        "team": "2",
        "obj1": "null",
        "obj2": "ch_acv_wz551",
        "maxspawn": "0.0",
        "minspawn": "0.0",
        "spawndelay": "false",
        "ttl": "0.0",
        "cpid": "2"
      }
    },
    {
      "type": "Feature",
      "geometry": {
        "type": "Point",
        "coordinates": [3889.8818, -496.82898],
        "size": [16, 16]
      },
      "properties": {
        "iconurl": "icons/mini_map/uavtrailer.png",
        "iconrotate": "0",
        "popupContent": "Amazing information about UAV Terminal will be found here!"
      },
      "bf2props": {
        "name": "ru_air_base_ru_command_post",
        "class": "ObjectSpawner",
        "name_object": "UAV Terminal",
        "team": "1",
        "obj1": "ru_acv_btr60pu",
        "obj2": "null",
        "maxspawn": "0.0",
        "minspawn": "0.0",
        "spawndelay": "false",
        "ttl": "0.0",
        "cpid": "1"
      }
    },
    {
      "type": "Feature",
      "geometry": {
        "type": "Point",
        "coordinates": [3890.865, -477.26196],
        "size": [16, 16]
      },
      "properties": {
        "iconurl": "icons/vehicles_map/mini_apc_light.png",
        "iconrotate": "90.0",
        "popupContent": "Amazing information about MT-LBM will be found here!"
      },
      "bf2props": {
        "name": "ru_air_base_ru_apc01",
        "class": "ObjectSpawner",
        "name_object": "MT-LBM",
        "team": "1",
        "obj1": "ru_apc_mtlb_hmg",
        "obj2": "null",
        "maxspawn": "600.0",
        "minspawn": "600.0",
        "spawndelay": "false",
        "ttl": "12000.0",
        "cpid": "1"
      }
    },
    {
      "type": "Feature",
      "geometry": {
        "type": "Point",
        "coordinates": [3890.8818, -481.37402],
        "size": [16, 16]
      },
      "properties": {
        "iconurl": "icons/vehicles_map/mini_rec_light.png",
        "iconrotate": "90.0",
        "popupContent": "Amazing information about BRDM-2 will be found here!"
      },
      "bf2props": {
        "name": "ru_air_base_ru_apc02",
        "class": "ObjectSpawner",
        "name_object": "BRDM-2",
        "team": "1",
        "obj1": "ru_jep_brdm2",
        "obj2": "null",
        "maxspawn": "600.0",
        "minspawn": "600.0",
        "spawndelay": "false",
        "ttl": "12000.0",
        "cpid": "1"
      }
    },
    {
      "type": "Feature",
      "geometry": {
        "type": "Point",
        "coordinates": [3890.707, -472.5],
        "size": [16, 16]
      },
      "properties": {
        "iconurl": "icons/vehicles_map/mini_apc_light.png",
        "iconrotate": "90.0",
        "popupContent": "Amazing information about MT-LBM will be found here!"
      },
      "bf2props": {
        "name": "ru_air_base_ru_apc03",
        "class": "ObjectSpawner",
        "name_object": "MT-LBM",
        "team": "1",
        "obj1": "ru_apc_mtlb_hmg",
        "obj2": "null",
        "maxspawn": "600.0",
        "minspawn": "600.0",
        "spawndelay": "false",
        "ttl": "12000.0",
        "cpid": "1"
      }
    },
    {
      "type": "Feature",
      "geometry": {
        "type": "Point",
        "coordinates": [3907.8, -496.375],
        "size": [16, 16]
      },
      "properties": {
        "iconurl": "icons/vehicles_map/mini_tank_heavy.png",
        "iconrotate": "0.0",
        "popupContent": "Amazing information about T-90A will be found here!"
      },
      "bf2props": {
        "name": "ru_air_base_ru_tank01",
        "class": "ObjectSpawner",
        "name_object": "T-90A",
        "team": "1",
        "obj1": "ru_tnk_t90",
        "obj2": "null",
        "maxspawn": "1200.0",
        "minspawn": "1200.0",
        "spawndelay": "true",
        "ttl": "12000.0",
        "cpid": "1"
      }
    },
    {
      "type": "Feature",
      "geometry": {
        "type": "Point",
        "coordinates": [3917.696, -496.09094],
        "size": [16, 16]
      },
      "properties": {
        "iconurl": "icons/vehicles_map/mini_apc_heavy.png",
        "iconrotate": "0.0",
        "popupContent": "Amazing information about BMP-3 will be found here!"
      },
      "bf2props": {
        "name": "ru_air_base_ru_tank02",
        "class": "ObjectSpawner",
        "name_object": "BMP-3",
        "team": "1",
        "obj1": "ru_ifv_bmp3",
        "obj2": "null",
        "maxspawn": "900.0",
        "minspawn": "900.0",
        "spawndelay": "true",
        "ttl": "12000.0",
        "cpid": "1"
      }
    },
    {
      "type": "Feature",
      "geometry": {
        "type": "Point",
        "coordinates": [3912.689, -496.125],
        "size": [16, 16]
      },
      "properties": {
        "iconurl": "icons/vehicles_map/mini_tank_heavy.png",
        "iconrotate": "0.0",
        "popupContent": "Amazing information about T-90A will be found here!"
      },
      "bf2props": {
        "name": "ru_air_base_ru_tank03",
        "class": "ObjectSpawner",
        "name_object": "T-90A",
        "team": "1",
        "obj1": "ru_tnk_t90",
        "obj2": "null",
        "maxspawn": "1200.0",
        "minspawn": "1200.0",
        "spawndelay": "true",
        "ttl": "12000.0",
        "cpid": "1"
      }
    },
    {
      "type": "Feature",
      "geometry": {
        "type": "Point",
        "coordinates": [3932.2852, -496.911],
        "size": [16, 16]
      },
      "properties": {
        "iconurl": "icons/vehicles_map/mini_rec_atgm.png",
        "iconrotate": "0.0",
        "popupContent": "Amazing information about 9P149 Shturm-S will be found here!"
      },
      "bf2props": {
        "name": "ru_air_base_ru_aav02",
        "class": "ObjectSpawner",
        "name_object": "9P149 Shturm-S",
        "team": "1",
        "obj1": "ru_atm_shturm",
        "obj2": "null",
        "maxspawn": "900.0",
        "minspawn": "900.0",
        "spawndelay": "true",
        "ttl": "12000.0",
        "cpid": "1"
      }
    },
    {
      "type": "Feature",
      "geometry": {
        "type": "Point",
        "coordinates": [3889.148, -435.526],
        "size": [16, 16]
      },
      "properties": {
        "iconurl": "icons/vehicles_map/mini_trk_logistics.png",
        "iconrotate": "90.0",
        "popupContent": "Amazing information about Ural-4320 Logistics will be found here!"
      },
      "bf2props": {
        "name": "ru_air_base_ru_logi01",
        "class": "ObjectSpawner",
        "name_object": "Ural-4320 Logistics",
        "team": "1",
        "obj1": "ru_trk_logistics",
        "obj2": "null",
        "maxspawn": "300.0",
        "minspawn": "300.0",
        "spawndelay": "false",
        "ttl": "12000.0",
        "cpid": "1"
      }
    },
    {
      "type": "Feature",
      "geometry": {
        "type": "Point",
        "coordinates": [3889.062, -439.22705],
        "size": [16, 16]
      },
      "properties": {
        "iconurl": "icons/vehicles_map/mini_trk_support.png",
        "iconrotate": "90.0",
        "popupContent": "Amazing information about Ural-4320 will be found here!"
      },
      "bf2props": {
        "name": "ru_air_base_ru_logi02",
        "class": "ObjectSpawner",
        "name_object": "Ural-4320",
        "team": "1",
        "obj1": "ru_trk_support",
        "obj2": "null",
        "maxspawn": "300.0",
        "minspawn": "300.0",
        "spawndelay": "false",
        "ttl": "12000.0",
        "cpid": "1"
      }
    },
    {
      "type": "Feature",
      "geometry": {
        "type": "Point",
        "coordinates": [3889.02, -443.13098],
        "size": [16, 16]
      },
      "properties": {
        "iconurl": "icons/vehicles_map/mini_trk_support.png",
        "iconrotate": "90.0",
        "popupContent": "Amazing information about Ural-4320 will be found here!"
      },
      "bf2props": {
        "name": "ru_air_base_ru_logi03",
        "class": "ObjectSpawner",
        "name_object": "Ural-4320",
        "team": "1",
        "obj1": "ru_trk_support",
        "obj2": "null",
        "maxspawn": "300.0",
        "minspawn": "300.0",
        "spawndelay": "false",
        "ttl": "12000.0",
        "cpid": "1"
      }
    },
    {
      "type": "Feature",
      "geometry": {
        "type": "Point",
        "coordinates": [3889.081, -446.29297],
        "size": [16, 16]
      },
      "properties": {
        "iconurl": "icons/vehicles_map/mini_trk_support.png",
        "iconrotate": "90.0",
        "popupContent": "Amazing information about Ural-4320 will be found here!"
      },
      "bf2props": {
        "name": "ru_air_base_ru_logi04",
        "class": "ObjectSpawner",
        "name_object": "Ural-4320",
        "team": "1",
        "obj1": "ru_trk_support",
        "obj2": "null",
        "maxspawn": "300.0",
        "minspawn": "300.0",
        "spawndelay": "false",
        "ttl": "12000.0",
        "cpid": "1"
      }
    },
    {
      "type": "Feature",
      "geometry": {
        "type": "Point",
        "coordinates": [211.17603, -3409.073],
        "size": [16, 16]
      },
      "properties": {
        "iconurl": "icons/vehicles_map/mini_rec_light.png",
        "iconrotate": "-90.0",
        "popupContent": "Amazing information about null will be found here!"
      },
      "bf2props": {
        "name": "pla_air_base_ch_apc01",
        "class": "ObjectSpawner",
        "name_object": "VN-3",
        "team": "2",
        "obj1": "null",
        "obj2": "ch_jep_vn3",
        "maxspawn": "600.0",
        "minspawn": "600.0",
        "spawndelay": "false",
        "ttl": "12000.0",
        "cpid": "2"
      }
    },
    {
      "type": "Feature",
      "geometry": {
        "type": "Point",
        "coordinates": [211.078, -3413.499],
        "size": [16, 16]
      },
      "properties": {
        "iconurl": "icons/vehicles_map/mini_apc_light.png",
        "iconrotate": "-90.0",
        "popupContent": "Amazing information about null will be found here!"
      },
      "bf2props": {
        "name": "pla_air_base_ch_apc02",
        "class": "ObjectSpawner",
        "name_object": "ZSL-92A",
        "team": "2",
        "obj1": "null",
        "obj2": "ch_apc_wz551a",
        "maxspawn": "600.0",
        "minspawn": "600.0",
        "spawndelay": "false",
        "ttl": "12000.0",
        "cpid": "2"
      }
    },
    {
      "type": "Feature",
      "geometry": {
        "type": "Point",
        "coordinates": [211.41101, -3417.905],
        "size": [16, 16]
      },
      "properties": {
        "iconurl": "icons/vehicles_map/mini_apc_light.png",
        "iconrotate": "-90.0",
        "popupContent": "Amazing information about null will be found here!"
      },
      "bf2props": {
        "name": "pla_air_base_ch_apc03",
        "class": "ObjectSpawner",
        "name_object": "ZSL-92A",
        "team": "2",
        "obj1": "null",
        "obj2": "ch_apc_wz551a",
        "maxspawn": "600.0",
        "minspawn": "600.0",
        "spawndelay": "false",
        "ttl": "12000.0",
        "cpid": "2"
      }
    },
    {
      "type": "Feature",
      "geometry": {
        "type": "Point",
        "coordinates": [211.57397, -3428.393],
        "size": [16, 16]
      },
      "properties": {
        "iconurl": "icons/vehicles_map/mini_apc_heavy.png",
        "iconrotate": "-90.0",
        "popupContent": "Amazing information about null will be found here!"
      },
      "bf2props": {
        "name": "pla_air_base_ch_tank01",
        "class": "ObjectSpawner",
        "name_object": "ZSL-92B 30mm",
        "team": "2",
        "obj1": "null",
        "obj2": "ch_ifv_wz551b",
        "maxspawn": "900.0",
        "minspawn": "900.0",
        "spawndelay": "true",
        "ttl": "12000.0",
        "cpid": "2"
      }
    },
    {
      "type": "Feature",
      "geometry": {
        "type": "Point",
        "coordinates": [211.80103, -3432.7349],
        "size": [16, 16]
      },
      "properties": {
        "iconurl": "icons/vehicles_map/mini_tank_heavy.png",
        "iconrotate": "-90.0",
        "popupContent": "Amazing information about null will be found here!"
      },
      "bf2props": {
        "name": "pla_air_base_ch_tank02",
        "class": "ObjectSpawner",
        "name_object": "ZTZ-99A2",
        "team": "2",
        "obj1": "null",
        "obj2": "ch_tnk_ztz99",
        "maxspawn": "1200.0",
        "minspawn": "1200.0",
        "spawndelay": "true",
        "ttl": "12000.0",
        "cpid": "2"
      }
    },
    {
      "type": "Feature",
      "geometry": {
        "type": "Point",
        "coordinates": [211.74695, -3438.094],
        "size": [16, 16]
      },
      "properties": {
        "iconurl": "icons/vehicles_map/mini_tank_heavy.png",
        "iconrotate": "-90.0",
        "popupContent": "Amazing information about null will be found here!"
      },
      "bf2props": {
        "name": "pla_air_base_ch_tank03",
        "class": "ObjectSpawner",
        "name_object": "ZTZ-99A2",
        "team": "2",
        "obj1": "null",
        "obj2": "ch_tnk_ztz99",
        "maxspawn": "1200.0",
        "minspawn": "1200.0",
        "spawndelay": "true",
        "ttl": "12000.0",
        "cpid": "2"
      }
    },
    {
      "type": "Feature",
      "geometry": {
        "type": "Point",
        "coordinates": [2759.496, -584.79395],
        "size": [16, 16]
      },
      "properties": {
        "iconurl": "icons/vehicles_map/mini_trk_support.png",
        "iconrotate": "-47.037",
        "popupContent": "Amazing information about Ural-4320 will be found here!"
      },
      "bf2props": {
        "name": "ru_outpost_ru_truck01",
        "class": "ObjectSpawner",
        "name_object": "Ural-4320",
        "team": "1",
        "obj1": "ru_trk_support",
        "obj2": "null",
        "maxspawn": "99999.0",
        "minspawn": "99999.0",
        "spawndelay": "false",
        "ttl": "12000.0",
        "cpid": "1"
      }
    },
    {
      "type": "Feature",
      "geometry": {
        "type": "Point",
        "coordinates": [2780.287, -546.45703],
        "size": [16, 16]
      },
      "properties": {
        "iconurl": "icons/player_map/mini_squad.png",
        "iconrotate": "0",
        "popupContent": "Amazing information about Temporary spawnpoint will be found here!"
      },
      "bf2props": {
        "name": "ru_outpost_ru_rallypoint",
        "class": "ObjectSpawner",
        "name_object": "Temporary spawnpoint",
        "team": "1",
        "obj1": "rallypoint_ru_placeable",
        "obj2": "null",
        "maxspawn": "99999.0",
        "minspawn": "99999.0",
        "spawndelay": "false",
        "ttl": "12000.0",
        "cpid": "1"
      }
    },
    {
      "type": "Feature",
      "geometry": {
        "type": "Point",
        "coordinates": [2735.45, -590.54297],
        "size": [16, 16]
      },
      "properties": {
        "iconurl": "icons/vehicles_map/mini_stw_aa_medium.png",
        "iconrotate": "-136.477",
        "popupContent": "Amazing information about zpu4 will be found here!"
      },
      "bf2props": {
        "name": "ru_outpost_ru_jeep",
        "class": "ObjectSpawner",
        "name_object": "zpu4",
        "team": "1",
        "obj1": "zpu4",
        "obj2": "null",
        "maxspawn": "1800.0",
        "minspawn": "1800.0",
        "spawndelay": "false",
        "ttl": "12000.0",
        "cpid": "1"
      }
    },
    {
      "type": "Feature",
      "geometry": {
        "type": "Point",
        "coordinates": [1584.5759, -3009.042],
        "size": [16, 16]
      },
      "properties": {
        "iconurl": "icons/vehicles_map/mini_trk_support.png",
        "iconrotate": "-27.297",
        "popupContent": "Amazing information about null will be found here!"
      },
      "bf2props": {
        "name": "pla_outpost_ch_truck01",
        "class": "ObjectSpawner",
        "name_object": "EQ2080 2.5 Ton",
        "team": "2",
        "obj1": "null",
        "obj2": "ch_trk_support",
        "maxspawn": "99999.0",
        "minspawn": "99999.0",
        "spawndelay": "false",
        "ttl": "12000.0",
        "cpid": "2"
      }
    },
    {
      "type": "Feature",
      "geometry": {
        "type": "Point",
        "coordinates": [1544.0759, -2999.108],
        "size": [16, 16]
      },
      "properties": {
        "iconurl": "icons/player_map/mini_squad.png",
        "iconrotate": "0",
        "popupContent": "Amazing information about null will be found here!"
      },
      "bf2props": {
        "name": "pla_outpost_ch_rallypoint",
        "class": "ObjectSpawner",
        "name_object": "Temporary spawnpoint",
        "team": "2",
        "obj1": "null",
        "obj2": "rallypoint_ch_placeable",
        "maxspawn": "99999.0",
        "minspawn": "99999.0",
        "spawndelay": "false",
        "ttl": "12000.0",
        "cpid": "2"
      }
    },
    {
      "type": "Feature",
      "geometry": {
        "type": "Point",
        "coordinates": [1608.624, -3003.707],
        "size": [16, 16]
      },
      "properties": {
        "iconurl": "icons/vehicles_map/mini_stw_aa_medium.png",
        "iconrotate": "60.269",
        "popupContent": "Amazing information about null will be found here!"
      },
      "bf2props": {
        "name": "pla_outpost_ch_jeep",
        "class": "ObjectSpawner",
        "name_object": "zpu4",
        "team": "2",
        "obj1": "null",
        "obj2": "zpu4",
        "maxspawn": "1800.0",
        "minspawn": "1800.0",
        "spawndelay": "false",
        "ttl": "12000.0",
        "cpid": "2"
      }
    },
    {
      "type": "Feature",
      "geometry": {
        "type": "Point",
        "coordinates": [3888.709, -422.135],
        "size": [16, 16]
      },
      "properties": {
        "iconurl": "icons/mini_map/repairdepot.png",
        "iconrotate": "0",
        "popupContent": "Amazing information about Vehicle Depot will be found here!"
      },
      "bf2props": {
        "name": "ru_air_base_ru_supply_depot",
        "class": "ObjectSpawner",
        "name_object": "Vehicle Depot",
        "team": "1",
        "obj1": "vehicle_depot_ru",
        "obj2": "null",
        "maxspawn": "0.0",
        "minspawn": "0.0",
        "spawndelay": "false",
        "ttl": "0.0",
        "cpid": "1"
      }
    },
    {
      "type": "Feature",
      "geometry": {
        "type": "Point",
        "coordinates": [212.01001, -3364.1738],
        "size": [16, 16]
      },
      "properties": {
        "iconurl": "icons/mini_map/repairdepot.png",
        "iconrotate": "0",
        "popupContent": "Amazing information about null will be found here!"
      },
      "bf2props": {
        "name": "pla_air_base_ch_supply_depot",
        "class": "ObjectSpawner",
        "name_object": "Vehicle Depot",
        "team": "2",
        "obj1": "null",
        "obj2": "vehicle_depot_ch",
        "maxspawn": "0.0",
        "minspawn": "0.0",
        "spawndelay": "false",
        "ttl": "0.0",
        "cpid": "2"
      }
    },
    {
      "type": "Feature",
      "geometry": {
        "type": "Point",
        "coordinates": [210.93298, -3452.329],
        "size": [16, 16]
      },
      "properties": {
        "iconurl": "icons/vehicles_map/mini_rec_atgm.png",
        "iconrotate": "-90.0",
        "popupContent": "Amazing information about null will be found here!"
      },
      "bf2props": {
        "name": "pla_air_base_ch_aav02",
        "class": "ObjectSpawner",
        "name_object": "WZ550",
        "team": "2",
        "obj1": "null",
        "obj2": "ch_atm_wz550",
        "maxspawn": "900.0",
        "minspawn": "900.0",
        "spawndelay": "true",
        "ttl": "12000.0",
        "cpid": "2"
      }
    },
    {
      "type": "Feature",
      "geometry": {
        "type": "Point",
        "coordinates": [211.39697, -3371.95],
        "size": [16, 16]
      },
      "properties": {
        "iconurl": "icons/vehicles_map/mini_trk_logistics.png",
        "iconrotate": "-90.0",
        "popupContent": "Amazing information about null will be found here!"
      },
      "bf2props": {
        "name": "pla_air_base_ch_logi01",
        "class": "ObjectSpawner",
        "name_object": "EQ2080 Logistics",
        "team": "2",
        "obj1": "null",
        "obj2": "ch_trk_logistics",
        "maxspawn": "300.0",
        "minspawn": "300.0",
        "spawndelay": "false",
        "ttl": "12000.0",
        "cpid": "2"
      }
    },
    {
      "type": "Feature",
      "geometry": {
        "type": "Point",
        "coordinates": [211.18799, -3375.938],
        "size": [16, 16]
      },
      "properties": {
        "iconurl": "icons/vehicles_map/mini_trk_support.png",
        "iconrotate": "-90.0",
        "popupContent": "Amazing information about null will be found here!"
      },
      "bf2props": {
        "name": "pla_air_base_ch_logi02",
        "class": "ObjectSpawner",
        "name_object": "EQ2080 2.5 Ton",
        "team": "2",
        "obj1": "null",
        "obj2": "ch_trk_support",
        "maxspawn": "300.0",
        "minspawn": "300.0",
        "spawndelay": "false",
        "ttl": "12000.0",
        "cpid": "2"
      }
    },
    {
      "type": "Feature",
      "geometry": {
        "type": "Point",
        "coordinates": [211.203, -3379.617],
        "size": [16, 16]
      },
      "properties": {
        "iconurl": "icons/vehicles_map/mini_trk_support.png",
        "iconrotate": "-90.0",
        "popupContent": "Amazing information about null will be found here!"
      },
      "bf2props": {
        "name": "pla_air_base_ch_logi03",
        "class": "ObjectSpawner",
        "name_object": "EQ2080 2.5 Ton",
        "team": "2",
        "obj1": "null",
        "obj2": "ch_trk_support",
        "maxspawn": "300.0",
        "minspawn": "300.0",
        "spawndelay": "false",
        "ttl": "12000.0",
        "cpid": "2"
      }
    },
    {
      "type": "Feature",
      "geometry": {
        "type": "Point",
        "coordinates": [211.04004, -3383.49],
        "size": [16, 16]
      },
      "properties": {
        "iconurl": "icons/vehicles_map/mini_trk_support.png",
        "iconrotate": "-90.0",
        "popupContent": "Amazing information about null will be found here!"
      },
      "bf2props": {
        "name": "pla_air_base_ch_logi04",
        "class": "ObjectSpawner",
        "name_object": "EQ2080 2.5 Ton",
        "team": "2",
        "obj1": "null",
        "obj2": "ch_trk_support",
        "maxspawn": "300.0",
        "minspawn": "300.0",
        "spawndelay": "false",
        "ttl": "12000.0",
        "cpid": "2"
      }
    },
    {
      "type": "Feature",
      "geometry": {
        "type": "Point",
        "coordinates": [3936.992, -548.996],
        "size": [16, 16]
      },
      "properties": {
        "iconurl": "icons/vehicles_map/mini_stw_atgm.png",
        "iconrotate": "-90.025",
        "popupContent": "Amazing information about deployable_spg9_sp will be found here!"
      },
      "bf2props": {
        "name": "cpname_black_gold_aas32_northmain_spg",
        "class": "ObjectSpawner",
        "name_object": "deployable_spg9_sp",
        "team": "1",
        "obj1": "deployable_spg9_sp",
        "obj2": "null",
        "maxspawn": "300.0",
        "minspawn": "300.0",
        "spawndelay": "false",
        "ttl": "12000.0",
        "cpid": "1"
      }
    },
    {
      "type": "Feature",
      "geometry": {
        "type": "Point",
        "coordinates": [-1015.2261, -4834.3057],
        "size": [16, 16]
      },
      "properties": {
        "iconurl": "icons/mini_map/airdef.png",
        "iconrotate": "0",
        "popupContent": "Amazing information about null will be found here!"
      },
      "bf2props": {
        "name": "cpname_black_gold_aas32_southmain_artillery01",
        "class": "ObjectSpawner",
        "name_object": "Artillery Barrage Call-In",
        "team": "2",
        "obj1": "null",
        "obj2": "artillery_team2",
        "maxspawn": "1800.0",
        "minspawn": "1800.0",
        "spawndelay": "true",
        "ttl": "0.0",
        "cpid": "2"
      }
    },
    {
      "type": "Feature",
      "geometry": {
        "type": "Point",
        "coordinates": [-1025.033, -4825.827],
        "size": [16, 16]
      },
      "properties": {
        "iconurl": "icons/mini_map/airdef.png",
        "iconrotate": "0",
        "popupContent": "Amazing information about null will be found here!"
      },
      "bf2props": {
        "name": "cpname_black_gold_aas32_southmain_artillery02",
        "class": "ObjectSpawner",
        "name_object": "Artillery Barrage Call-In",
        "team": "2",
        "obj1": "null",
        "obj2": "artillery_team2",
        "maxspawn": "1800.0",
        "minspawn": "1800.0",
        "spawndelay": "true",
        "ttl": "0.0",
        "cpid": "2"
      }
    },
    {
      "type": "Feature",
      "geometry": {
        "type": "Point",
        "coordinates": [-1019.8679, -4818.575],
        "size": [16, 16]
      },
      "properties": {
        "iconurl": "icons/mini_map/airdef.png",
        "iconrotate": "0",
        "popupContent": "Amazing information about null will be found here!"
      },
      "bf2props": {
        "name": "cpname_black_gold_aas32_southmain_artillery03",
        "class": "ObjectSpawner",
        "name_object": "Artillery Barrage Call-In",
        "team": "2",
        "obj1": "null",
        "obj2": "artillery_team2",
        "maxspawn": "1800.0",
        "minspawn": "1800.0",
        "spawndelay": "true",
        "ttl": "0.0",
        "cpid": "2"
      }
    },
    {
      "type": "Feature",
      "geometry": {
        "type": "Point",
        "coordinates": [-1011.5559, -4826.621],
        "size": [16, 16]
      },
      "properties": {
        "iconurl": "icons/mini_map/airdef.png",
        "iconrotate": "0",
        "popupContent": "Amazing information about null will be found here!"
      },
      "bf2props": {
        "name": "cpname_black_gold_aas32_southmain_artillery04",
        "class": "ObjectSpawner",
        "name_object": "Artillery Barrage Call-In",
        "team": "2",
        "obj1": "null",
        "obj2": "artillery_team2",
        "maxspawn": "1800.0",
        "minspawn": "1800.0",
        "spawndelay": "true",
        "ttl": "0.0",
        "cpid": "2"
      }
    },
    {
      "type": "Feature",
      "geometry": {
        "type": "Point",
        "coordinates": [-1015.292, -4822.038],
        "size": [16, 16]
      },
      "properties": {
        "iconurl": "icons/mini_map/airdef.png",
        "iconrotate": "0",
        "popupContent": "Amazing information about null will be found here!"
      },
      "bf2props": {
        "name": "cpname_black_gold_aas32_southmain_artillery05",
        "class": "ObjectSpawner",
        "name_object": "Artillery Barrage Call-In",
        "team": "2",
        "obj1": "null",
        "obj2": "artillery_team2",
        "maxspawn": "1800.0",
        "minspawn": "1800.0",
        "spawndelay": "true",
        "ttl": "0.0",
        "cpid": "2"
      }
    },
    {
      "type": "Feature",
      "geometry": {
        "type": "Point",
        "coordinates": [-1019.67993, -4827.425],
        "size": [16, 16]
      },
      "properties": {
        "iconurl": "icons/mini_map/airdef.png",
        "iconrotate": "0",
        "popupContent": "Amazing information about null will be found here!"
      },
      "bf2props": {
        "name": "cpname_black_gold_aas32_southmain_artillery06",
        "class": "ObjectSpawner",
        "name_object": "Artillery Barrage Call-In",
        "team": "2",
        "obj1": "null",
        "obj2": "artillery_team2",
        "maxspawn": "1800.0",
        "minspawn": "1800.0",
        "spawndelay": "true",
        "ttl": "0.0",
        "cpid": "2"
      }
    },
    {
      "type": "Feature",
      "geometry": {
        "type": "Point",
        "coordinates": [5165.117, 1800.4241],
        "size": [16, 16]
      },
      "properties": {
        "iconurl": "icons/mini_map/airdef.png",
        "iconrotate": "0",
        "popupContent": "Amazing information about Artillery Barrage Call-In will be found here!"
      },
      "bf2props": {
        "name": "cpname_black_gold_aas32_northmain_artillery01",
        "class": "ObjectSpawner",
        "name_object": "Artillery Barrage Call-In",
        "team": "1",
        "obj1": "artillery_team1",
        "obj2": "null",
        "maxspawn": "1800.0",
        "minspawn": "1800.0",
        "spawndelay": "true",
        "ttl": "0.0",
        "cpid": "1"
      }
    },
    {
      "type": "Feature",
      "geometry": {
        "type": "Point",
        "coordinates": [5160.449, 1789.51],
        "size": [16, 16]
      },
      "properties": {
        "iconurl": "icons/mini_map/airdef.png",
        "iconrotate": "0",
        "popupContent": "Amazing information about Artillery Barrage Call-In will be found here!"
      },
      "bf2props": {
        "name": "cpname_black_gold_aas32_northmain_artillery02",
        "class": "ObjectSpawner",
        "name_object": "Artillery Barrage Call-In",
        "team": "1",
        "obj1": "artillery_team1",
        "obj2": "null",
        "maxspawn": "1800.0",
        "minspawn": "1800.0",
        "spawndelay": "true",
        "ttl": "0.0",
        "cpid": "1"
      }
    },
    {
      "type": "Feature",
      "geometry": {
        "type": "Point",
        "coordinates": [5153.475, 1793.8899],
        "size": [16, 16]
      },
      "properties": {
        "iconurl": "icons/mini_map/airdef.png",
        "iconrotate": "0",
        "popupContent": "Amazing information about Artillery Barrage Call-In will be found here!"
      },
      "bf2props": {
        "name": "cpname_black_gold_aas32_northmain_artillery03",
        "class": "ObjectSpawner",
        "name_object": "Artillery Barrage Call-In",
        "team": "1",
        "obj1": "artillery_team1",
        "obj2": "null",
        "maxspawn": "1800.0",
        "minspawn": "1800.0",
        "spawndelay": "true",
        "ttl": "0.0",
        "cpid": "1"
      }
    },
    {
      "type": "Feature",
      "geometry": {
        "type": "Point",
        "coordinates": [5167.076, 1786.25],
        "size": [16, 16]
      },
      "properties": {
        "iconurl": "icons/mini_map/airdef.png",
        "iconrotate": "0",
        "popupContent": "Amazing information about Artillery Barrage Call-In will be found here!"
      },
      "bf2props": {
        "name": "cpname_black_gold_aas32_northmain_artillery04",
        "class": "ObjectSpawner",
        "name_object": "Artillery Barrage Call-In",
        "team": "1",
        "obj1": "artillery_team1",
        "obj2": "null",
        "maxspawn": "1800.0",
        "minspawn": "1800.0",
        "spawndelay": "true",
        "ttl": "0.0",
        "cpid": "1"
      }
    },
    {
      "type": "Feature",
      "geometry": {
        "type": "Point",
        "coordinates": [5161.3223, 1804.0801],
        "size": [16, 16]
      },
      "properties": {
        "iconurl": "icons/mini_map/airdef.png",
        "iconrotate": "0",
        "popupContent": "Amazing information about Artillery Barrage Call-In will be found here!"
      },
      "bf2props": {
        "name": "cpname_black_gold_aas32_northmain_artillery05",
        "class": "ObjectSpawner",
        "name_object": "Artillery Barrage Call-In",
        "team": "1",
        "obj1": "artillery_team1",
        "obj2": "null",
        "maxspawn": "1800.0",
        "minspawn": "1800.0",
        "spawndelay": "true",
        "ttl": "0.0",
        "cpid": "1"
      }
    },
    {
      "type": "Feature",
      "geometry": {
        "type": "Point",
        "coordinates": [5172.175, 1797.366],
        "size": [16, 16]
      },
      "properties": {
        "iconurl": "icons/mini_map/airdef.png",
        "iconrotate": "0",
        "popupContent": "Amazing information about Artillery Barrage Call-In will be found here!"
      },
      "bf2props": {
        "name": "cpname_black_gold_aas32_northmain_artillery06",
        "class": "ObjectSpawner",
        "name_object": "Artillery Barrage Call-In",
        "team": "1",
        "obj1": "artillery_team1",
        "obj2": "null",
        "maxspawn": "1800.0",
        "minspawn": "1800.0",
        "spawndelay": "true",
        "ttl": "0.0",
        "cpid": "1"
      }
    },
    {
      "type": "Feature",
      "geometry": {
        "type": "Point",
        "coordinates": [92.53296, -3304.2852],
        "size": [16, 16]
      },
      "properties": {
        "iconurl": "icons/vehicles_map/mini_ahe_light.png",
        "iconrotate": "-90.0",
        "popupContent": "Amazing information about null will be found here!"
      },
      "bf2props": {
        "name": "cpname_black_gold_aas32_southmain_lightheli_2",
        "class": "ObjectSpawner",
        "name_object": "Z-9WA Haitun HJ-8",
        "team": "2",
        "obj1": "null",
        "obj2": "ch_ahe_z9wa_hj8",
        "maxspawn": "1200.0",
        "minspawn": "1200.0",
        "spawndelay": "true",
        "ttl": "12000.0",
        "cpid": "2"
      }
    },
    {
      "type": "Feature",
      "geometry": {
        "type": "Point",
        "coordinates": [3749.9019, -776.728],
        "size": [33, 33],
        "radius": "0.0"
      },
      "properties": {
        "iconurl": "icons/flags_map/ru/minimap_cpbase.png",
        "iconrotate": "0",
        "popupContent": "Amazing information about RU Airbase will be found here!"
      },
      "bf2props": {
        "name": "cpname_black_gold_aas32_northmain",
        "class": "ControlPoint",
        "name_object": "RU Airbase",
        "team": "1",
        "areavalue1": "0.0",
        "areavalue2": "0.0",
        "cpid": "1",
        "sgid": "-999",
        "uncap": "true",
        "ttgc": "0.0",
        "ttlc": "0.0"
      }
    },
    {
      "type": "Feature",
      "geometry": {
        "type": "Point",
        "coordinates": [356.69104, -2996.511],
        "size": [33, 33],
        "radius": "0.0"
      },
      "properties": {
        "iconurl": "icons/flags_map/ch/minimap_cpbase.png",
        "iconrotate": "0",
        "popupContent": "Amazing information about PLA Airbase will be found here!"
      },
      "bf2props": {
        "name": "cpname_black_gold_aas32_southmain",
        "class": "ControlPoint",
        "name_object": "PLA Airbase",
        "team": "2",
        "areavalue1": "0.0",
        "areavalue2": "0.0",
        "cpid": "2",
        "sgid": "-999",
        "uncap": "true",
        "ttgc": "0.0",
        "ttlc": "0.0"
      }
    },
    {
      "type": "Feature",
      "geometry": {
        "type": "Point",
        "coordinates": [2764.2979, -564.41504],
        "size": [33, 33],
        "radius": "75.0"
      },
      "properties": {
        "iconurl": "icons/flags_map/ru/minimap_cp.png",
        "iconrotate": "0",
        "popupContent": "Amazing information about RU Firebase 75m will be found here!"
      },
      "bf2props": {
        "name": "cpname_black_gold_aas32_1northoutpost",
        "class": "ControlPoint",
        "name_object": "RU Firebase 75m",
        "team": "1",
        "areavalue1": "0.0",
        "areavalue2": "1000.0",
        "cpid": "111",
        "sgid": "1",
        "uncap": "false",
        "ttgc": "180.0",
        "ttlc": "180.0"
      }
    },
    {
      "type": "Feature",
      "geometry": {
        "type": "Point",
        "coordinates": [1852.762, -531.45496],
        "size": [33, 33],
        "radius": "200.0"
      },
      "properties": {
        "iconurl": "icons/flags_map/neutral/minimap_cp.png",
        "iconrotate": "0",
        "popupContent": "Amazing information about Tunnel Bunker 200m will be found here!"
      },
      "bf2props": {
        "name": "cpname_black_gold_aas32_1tunnelbunker",
        "class": "ControlPoint",
        "name_object": "Tunnel Bunker 200m",
        "team": "0",
        "areavalue1": "0.0",
        "areavalue2": "90.0",
        "cpid": "112",
        "sgid": "201",
        "uncap": "false",
        "ttgc": "180.0",
        "ttlc": "180.0"
      }
    },
    {
      "type": "Feature",
      "geometry": {
        "type": "Point",
        "coordinates": [2833.963, -1385.2219],
        "size": [33, 33],
        "radius": "150.0"
      },
      "properties": {
        "iconurl": "icons/flags_map/neutral/minimap_cp.png",
        "iconrotate": "0",
        "popupContent": "Amazing information about Supply Bunker 150m will be found here!"
      },
      "bf2props": {
        "name": "cpname_black_gold_aas32_2supplybunker",
        "class": "ControlPoint",
        "name_object": "Supply Bunker 150m",
        "team": "0",
        "areavalue1": "0.0",
        "areavalue2": "90.0",
        "cpid": "113",
        "sgid": "202",
        "uncap": "false",
        "ttgc": "180.0",
        "ttlc": "180.0"
      }
    },
    {
      "type": "Feature",
      "geometry": {
        "type": "Point",
        "coordinates": [2842.46, -2088.93],
        "size": [33, 33],
        "radius": "150.0"
      },
      "properties": {
        "iconurl": "icons/flags_map/neutral/minimap_cp.png",
        "iconrotate": "0",
        "popupContent": "Amazing information about Control Facility 150m will be found here!"
      },
      "bf2props": {
        "name": "cpname_black_gold_aas32_2controlfacility",
        "class": "ControlPoint",
        "name_object": "Control Facility 150m",
        "team": "0",
        "areavalue1": "0.0",
        "areavalue2": "0.0",
        "cpid": "115",
        "sgid": "302",
        "uncap": "false",
        "ttgc": "180.0",
        "ttlc": "180.0"
      }
    },
    {
      "type": "Feature",
      "geometry": {
        "type": "Point",
        "coordinates": [3061.221, -2628.837],
        "size": [33, 33],
        "radius": "150.0"
      },
      "properties": {
        "iconurl": "icons/flags_map/neutral/minimap_cp.png",
        "iconrotate": "0",
        "popupContent": "Amazing information about Oil Refinery 150m will be found here!"
      },
      "bf2props": {
        "name": "cpname_black_gold_aas32_2oilrefinery",
        "class": "ControlPoint",
        "name_object": "Oil Refinery 150m",
        "team": "0",
        "areavalue1": "0.0",
        "areavalue2": "0.0",
        "cpid": "120",
        "sgid": "402",
        "uncap": "false",
        "ttgc": "180.0",
        "ttlc": "180.0"
      }
    },
    {
      "type": "Feature",
      "geometry": {
        "type": "Point",
        "coordinates": [1905.465, -1780.4509],
        "size": [33, 33],
        "radius": "175.0"
      },
      "properties": {
        "iconurl": "icons/flags_map/neutral/minimap_cp.png",
        "iconrotate": "0",
        "popupContent": "Amazing information about Oil Storage 175m will be found here!"
      },
      "bf2props": {
        "name": "cpname_black_gold_aas32_1oilstorage",
        "class": "ControlPoint",
        "name_object": "Oil Storage 175m",
        "team": "0",
        "areavalue1": "0.0",
        "areavalue2": "0.0",
        "cpid": "122",
        "sgid": "511",
        "uncap": "false",
        "ttgc": "180.0",
        "ttlc": "180.0"
      }
    },
    {
      "type": "Feature",
      "geometry": {
        "type": "Point",
        "coordinates": [1463.442, -1754.541],
        "size": [33, 33],
        "radius": "175.0"
      },
      "properties": {
        "iconurl": "icons/flags_map/neutral/minimap_cp.png",
        "iconrotate": "0",
        "popupContent": "Amazing information about Bridges 175m will be found here!"
      },
      "bf2props": {
        "name": "cpname_black_gold_aas32_1bridges",
        "class": "ControlPoint",
        "name_object": "Bridges 175m",
        "team": "0",
        "areavalue1": "0.0",
        "areavalue2": "0.0",
        "cpid": "123",
        "sgid": "511",
        "uncap": "false",
        "ttgc": "180.0",
        "ttlc": "180.0"
      }
    },
    {
      "type": "Feature",
      "geometry": {
        "type": "Point",
        "coordinates": [1572.016, -2177.407],
        "size": [33, 33],
        "radius": "125.0"
      },
      "properties": {
        "iconurl": "icons/flags_map/neutral/minimap_cp.png",
        "iconrotate": "0",
        "popupContent": "Amazing information about Water Pumping Station 125m will be found here!"
      },
      "bf2props": {
        "name": "cpname_black_gold_aas32_1waterpumpingstation",
        "class": "ControlPoint",
        "name_object": "Water Pumping Station 125m",
        "team": "0",
        "areavalue1": "0.0",
        "areavalue2": "0.0",
        "cpid": "125",
        "sgid": "601",
        "uncap": "false",
        "ttgc": "180.0",
        "ttlc": "180.0"
      }
    },
    {
      "type": "Feature",
      "geometry": {
        "type": "Point",
        "coordinates": [2318.716, -3321.9658],
        "size": [33, 33],
        "radius": "200.0"
      },
      "properties": {
        "iconurl": "icons/flags_map/neutral/minimap_cp.png",
        "iconrotate": "0",
        "popupContent": "Amazing information about Abandoned Farm 200m will be found here!"
      },
      "bf2props": {
        "name": "cpname_black_gold_aas32_2abandonedfarm",
        "class": "ControlPoint",
        "name_object": "Abandoned Farm 200m",
        "team": "0",
        "areavalue1": "90.0",
        "areavalue2": "0.0",
        "cpid": "132",
        "sgid": "602",
        "uncap": "false",
        "ttgc": "180.0",
        "ttlc": "180.0"
      }
    },
    {
      "type": "Feature",
      "geometry": {
        "type": "Point",
        "coordinates": [2814.083, -3086.146],
        "size": [33, 33],
        "radius": "150.0"
      },
      "properties": {
        "iconurl": "icons/flags_map/neutral/minimap_cp.png",
        "iconrotate": "0",
        "popupContent": "Amazing information about Old Outpost 150m will be found here!"
      },
      "bf2props": {
        "name": "cpname_black_gold_aas32_2oldoutpost",
        "class": "ControlPoint",
        "name_object": "Old Outpost 150m",
        "team": "0",
        "areavalue1": "0.0",
        "areavalue2": "0.0",
        "cpid": "137",
        "sgid": "502",
        "uncap": "false",
        "ttgc": "180.0",
        "ttlc": "180.0"
      }
    },
    {
      "type": "Feature",
      "geometry": {
        "type": "Point",
        "coordinates": [1555.255, -1147.602],
        "size": [33, 33],
        "radius": "100.0"
      },
      "properties": {
        "iconurl": "icons/flags_map/neutral/minimap_cp.png",
        "iconrotate": "0",
        "popupContent": "Amazing information about Northern Suburbs 100m will be found here!"
      },
      "bf2props": {
        "name": "cpname_black_gold_aas32_1northernsuburbs",
        "class": "ControlPoint",
        "name_object": "Northern Suburbs 100m",
        "team": "0",
        "areavalue1": "0.0",
        "areavalue2": "90.0",
        "cpid": "140",
        "sgid": "311",
        "uncap": "false",
        "ttgc": "180.0",
        "ttlc": "180.0"
      }
    },
    {
      "type": "Feature",
      "geometry": {
        "type": "Point",
        "coordinates": [1333.438, -1042.578],
        "size": [33, 33],
        "radius": "100.0"
      },
      "properties": {
        "iconurl": "icons/flags_map/neutral/minimap_cp.png",
        "iconrotate": "0",
        "popupContent": "Amazing information about North West Suburbs 100m will be found here!"
      },
      "bf2props": {
        "name": "cpname_black_gold_aas32_1northwestsuburbs",
        "class": "ControlPoint",
        "name_object": "North West Suburbs 100m",
        "team": "0",
        "areavalue1": "0.0",
        "areavalue2": "90.0",
        "cpid": "143",
        "sgid": "311",
        "uncap": "false",
        "ttgc": "180.0",
        "ttlc": "180.0"
      }
    },
    {
      "type": "Feature",
      "geometry": {
        "type": "Point",
        "coordinates": [1293.494, -1418.807],
        "size": [33, 33],
        "radius": "100.0"
      },
      "properties": {
        "iconurl": "icons/flags_map/neutral/minimap_cp.png",
        "iconrotate": "0",
        "popupContent": "Amazing information about South City 100m will be found here!"
      },
      "bf2props": {
        "name": "cpname_black_gold_aas32_1westcity",
        "class": "ControlPoint",
        "name_object": "South City 100m",
        "team": "0",
        "areavalue1": "0.0",
        "areavalue2": "90.0",
        "cpid": "146",
        "sgid": "411",
        "uncap": "false",
        "ttgc": "180.0",
        "ttlc": "180.0"
      }
    },
    {
      "type": "Feature",
      "geometry": {
        "type": "Point",
        "coordinates": [1471.583, -1431.568],
        "size": [33, 33],
        "radius": "75.0"
      },
      "properties": {
        "iconurl": "icons/flags_map/neutral/minimap_cp.png",
        "iconrotate": "0",
        "popupContent": "Amazing information about Commercial District 75m will be found here!"
      },
      "bf2props": {
        "name": "cpname_black_gold_aas32_1commercialdistrict",
        "class": "ControlPoint",
        "name_object": "Commercial District 75m",
        "team": "0",
        "areavalue1": "0.0",
        "areavalue2": "90.0",
        "cpid": "149",
        "sgid": "411",
        "uncap": "false",
        "ttgc": "180.0",
        "ttlc": "180.0"
      }
    },
    {
      "type": "Feature",
      "geometry": {
        "type": "Point",
        "coordinates": [1255.189, -1318.728],
        "size": [33, 33],
        "radius": "75.0"
      },
      "properties": {
        "iconurl": "icons/flags_map/neutral/minimap_cp.png",
        "iconrotate": "0",
        "popupContent": "Amazing information about Military Base 75m will be found here!"
      },
      "bf2props": {
        "name": "cpname_black_gold_aas32_1militarybase",
        "class": "ControlPoint",
        "name_object": "Military Base 75m",
        "team": "0",
        "areavalue1": "0.0",
        "areavalue2": "90.0",
        "cpid": "152",
        "sgid": "411",
        "uncap": "false",
        "ttgc": "180.0",
        "ttlc": "180.0"
      }
    },
    {
      "type": "Feature",
      "geometry": {
        "type": "Point",
        "coordinates": [1373.8259, -1329.281],
        "size": [33, 33],
        "radius": "50.0"
      },
      "properties": {
        "iconurl": "icons/flags_map/neutral/minimap_cp.png",
        "iconrotate": "0",
        "popupContent": "Amazing information about Mosque 50m will be found here!"
      },
      "bf2props": {
        "name": "cpname_black_gold_aas32_1mosque",
        "class": "ControlPoint",
        "name_object": "Mosque 50m",
        "team": "0",
        "areavalue1": "0.0",
        "areavalue2": "90.0",
        "cpid": "155",
        "sgid": "411",
        "uncap": "false",
        "ttgc": "180.0",
        "ttlc": "180.0"
      }
    },
    {
      "type": "Feature",
      "geometry": {
        "type": "Point",
        "coordinates": [1385.46, -1170.971],
        "size": [33, 33],
        "radius": "100.0"
      },
      "properties": {
        "iconurl": "icons/flags_map/neutral/minimap_cp.png",
        "iconrotate": "0",
        "popupContent": "Amazing information about City Center 100m will be found here!"
      },
      "bf2props": {
        "name": "cpname_black_gold_aas32_1citycenter",
        "class": "ControlPoint",
        "name_object": "City Center 100m",
        "team": "0",
        "areavalue1": "0.0",
        "areavalue2": "90.0",
        "cpid": "158",
        "sgid": "311",
        "uncap": "false",
        "ttgc": "180.0",
        "ttlc": "180.0"
      }
    },
    {
      "type": "Feature",
      "geometry": {
        "type": "Point",
        "coordinates": [1491.6599, -1278.574],
        "size": [33, 33],
        "radius": "50.0"
      },
      "properties": {
        "iconurl": "icons/flags_map/neutral/minimap_cp.png",
        "iconrotate": "0",
        "popupContent": "Amazing information about Construction Site 50m will be found here!"
      },
      "bf2props": {
        "name": "cpname_black_gold_aas32_1constructionsite",
        "class": "ControlPoint",
        "name_object": "Construction Site 50m",
        "team": "0",
        "areavalue1": "0.0",
        "areavalue2": "0.0",
        "cpid": "161",
        "sgid": "311",
        "uncap": "false",
        "ttgc": "180.0",
        "ttlc": "180.0"
      }
    },
    {
      "type": "Feature",
      "geometry": {
        "type": "Point",
        "coordinates": [1589.764, -2984.903],
        "size": [33, 33],
        "radius": "75.0"
      },
      "properties": {
        "iconurl": "icons/flags_map/ch/minimap_cp.png",
        "iconrotate": "0",
        "popupContent": "Amazing information about PLA Firebase 75m will be found here!"
      },
      "bf2props": {
        "name": "cpname_black_gold_aas32_1southoutpost",
        "class": "ControlPoint",
        "name_object": "PLA Firebase 75m",
        "team": "2",
        "areavalue1": "1000.0",
        "areavalue2": "0.0",
        "cpid": "164",
        "sgid": "7",
        "uncap": "false",
        "ttgc": "180.0",
        "ttlc": "180.0"
      }
    },
    {
      "type": "Feature",
      "geometry": {
        "type": "Polygon",
        "coordinates": [
          [
            [0,0],
            [0,-4096],
            [4096,-4096],
            [4096,0]
          ],[
            [4095.0, -1.0],
            [4095.0, -4095.0],
            [1.0, -4095.0],
            [1.0, -1.0],
            [4095.0, -1.0],
            [4095.0, -4095.0],
            [1.0, -4095.0],
            [1.0, -1.0],
            [4095.0, -1.0],
            [4095.0, -4095.0],
            [1.0, -4095.0],
            [1.0, -1.0]
          ]
        ]
      },
      "bf2props": {
        "code": "combatarea_27_aas_64",
        "class": "CombatArea",
        "team": "0",
        "vehicles": "4",
        "layer": "4",
        "inverted": "false",
        "max": [0.0, 0.0],
        "min": [0.0, 0.0]
      }
    },
    {
      "type": "Feature",
      "geometry": {
        "type": "Polygon",
        "coordinates": [
          [
            [3402.0347, -4.3745117],
            [3416.3247, -98.04443],
            [3394.0127, -194.09766],
            [3488.4622, -263.81665],
            [3489.085, -373.87842],
            [3444.8127, -454.14307],
            [3402.7, -564.9668],
            [3424.7195, -672.7168],
            [3431.6914, -774.37695],
            [3443.529, -858.7825],
            [3512.5789, -896.05884],
            [3519.7034, -974.468],
            [3532.8533, -1082.6475],
            [3548.3125, -1262.5576],
            [3571.331, -1364.6904],
            [3615.6414, -1533.2263],
            [3718.858, -1636.459],
            [3809.8118, -1790.9702],
            [3977.0027, -1840.1509],
            [4095.617, -1852.4341],
            [4095.3835, -0.22460938],
            [3402.0347, -0.37451172],
            [3416.3247, -98.04443],
            [3394.0127, -194.09766],
            [3488.4622, -263.81665],
            [3489.085, -373.87842],
            [3444.8127, -454.14307],
            [3402.7, -564.9668],
            [3424.7195, -672.7168],
            [3431.6914, -774.37695],
            [3443.529, -858.7825],
            [3512.5789, -896.05884],
            [3519.7034, -974.468],
            [3532.8533, -1082.6475],
            [3548.3125, -1262.5576],
            [3571.331, -1364.6904],
            [3615.6414, -1533.2263],
            [3718.858, -1636.459],
            [3809.8118, -1790.9702],
            [3977.0027, -1840.1509],
            [4095.617, -1852.4341],
            [4095.3835, -0.22460938],
            [3402.0347, -0.37451172],
            [3416.3247, -98.04443],
            [3394.0127, -194.09766],
            [3488.4622, -263.81665],
            [3489.085, -373.87842],
            [3444.8127, -454.14307],
            [3402.7, -564.9668],
            [3424.7195, -672.7168],
            [3431.6914, -774.37695],
            [3443.529, -858.7825],
            [3512.5789, -896.05884],
            [3519.7034, -974.468],
            [3532.8533, -1082.6475],
            [3548.3125, -1262.5576],
            [3571.331, -1364.6904],
            [3615.6414, -1533.2263],
            [3718.858, -1636.459],
            [3809.8118, -1790.9702],
            [3977.0027, -1840.1509],
            [4095.617, -1852.4341],
            [4095.3835, -0.22460938]
          ]
        ]
      },
      "bf2props": {
        "code": "combatarea_4_aas_64",
        "class": "CombatArea",
        "team": "2",
        "vehicles": "4",
        "layer": "4",
        "inverted": "true",
        "max": [0.0, 0.0],
        "min": [0.0, 0.0]
      }
    },
    {
      "type": "Feature",
      "geometry": {
        "type": "Polygon",
        "coordinates": [
          [
            [1267.8922, -4099.3047],
            [1212.017, -3941.234],
            [1142.319, -3834.897],
            [1002.95483, -3727.387],
            [825.42676, -3586.7854],
            [798.20276, -3447.4773],
            [837.53174, -3322.9814],
            [834.1874, -3165.8892],
            [840.9365, -3043.9155],
            [818.4553, -2935.4949],
            [784.4197, -2828.625],
            [793.948, -2761.9055],
            [758.9695, -2699.941],
            [704.68787, -2616.4893],
            [605.75195, -2573.225],
            [522.1743, -2523.3042],
            [425.89185, -2341.045],
            [327.45386, -2173.638],
            [136.92639, -1963.5779],
            [-6.071289, -1870.011],
            [0.33862305, -4095.3826],
            [1267.8922, -4099.3047],
            [1212.017, -3941.234],
            [1142.319, -3834.897],
            [1002.95483, -3727.387],
            [825.42676, -3586.7854],
            [798.20276, -3447.4773],
            [837.53174, -3322.9814],
            [834.1874, -3165.8892],
            [840.9365, -3043.9155],
            [818.4553, -2935.4949],
            [784.4197, -2828.625],
            [793.948, -2761.9055],
            [758.9695, -2699.941],
            [704.68787, -2616.4893],
            [605.75195, -2573.225],
            [522.1743, -2523.3042],
            [425.89185, -2341.045],
            [327.45386, -2173.638],
            [136.92639, -1963.5779],
            [-6.071289, -1870.011],
            [0.33862305, -4095.3826],
            [1267.8922, -4099.3047],
            [1212.017, -3941.234],
            [1142.319, -3834.897],
            [1002.95483, -3727.387],
            [825.42676, -3586.7854],
            [798.20276, -3447.4773],
            [837.53174, -3322.9814],
            [834.1874, -3165.8892],
            [840.9365, -3043.9155],
            [818.4553, -2935.4949],
            [784.4197, -2828.625],
            [793.948, -2761.9055],
            [758.9695, -2699.941],
            [704.68787, -2616.4893],
            [605.75195, -2573.225],
            [522.1743, -2523.3042],
            [425.89185, -2341.045],
            [327.45386, -2173.638],
            [136.92639, -1963.5779],
            [-6.071289, -1870.011],
            [0.33862305, -4095.3826]
          ]
        ]
      },
      "bf2props": {
        "code": "combatarea_25_aas_64",
        "class": "CombatArea",
        "team": "1",
        "vehicles": "4",
        "layer": "4",
        "inverted": "true",
        "max": [0.0, 0.0],
        "min": [0.0, 0.0]
      }
    }
  ]
}