{
  "team1":"mec",
  "team2":"us",
  "team1tickets":"400",
  "team2tickets":"400",
  "mapsize":"2048",
  "viewdistance":"700",
  "combatareause":"true",
  "combatareadamage":"20.0",
  "combatareaallowoutside":"10.0",
  "routes": [
    [
      [
        "cpname_muttrah_city_2_coop16_fort"
      ],
      [
        "cpname_muttrah_city_2_coop16_southcity"
      ],
      [
        "cpname_muttrah_city_2_coop16_suburbs",
        "cpname_muttrah_city_2_coop16_mosque"
      ],
      [
        "cpname_muttrah_city_2_coop16_westcity"
      ],
      [
        "cpname_muttrah_city_2_coop16_northcity"
      ],
      [
        "cpname_muttrah_city_2_coop16_docks"
      ],
      [
        "cpname_muttrah_city_2_coop16_carrier"
      ]
    ]
  ],
  "type": "FeatureCollection",
  "features": [
    {
      "type": "Feature",
      "geometry": {
        "type": "Point",
        "coordinates": [1036.101, -1704.063],
        "size": [16, 16]
      },
      "properties": {
        "iconurl": "icons/vehicles_map/mini_stw_aa_medium.png",
        "iconrotate": "-180.0",
        "popupContent": "Amazing information about zpu4 will be found here!"
      },
      "bf2props": {
        "name": "cpname_muttrah_city_2_coop16_fort_aa",
        "class": "ObjectSpawner",
        "name_object": "zpu4",
        "team": "1",
        "obj1": "zpu4",
        "obj2": "null",
        "maxspawn": "900.0",
        "minspawn": "900.0",
        "spawndelay": "false",
        "ttl": "1200.0",
        "cpid": "1"
      }
    },
    {
      "type": "Feature",
      "geometry": {
        "type": "Point",
        "coordinates": [1751.448, -134.90802],
        "size": [16, 16]
      },
      "properties": {
        "iconurl": "icons/vehicles_map/mini_the_light.png",
        "iconrotate": "-135.0",
        "popupContent": "Amazing information about null will be found here!"
      },
      "bf2props": {
        "name": "cpname_muttrah_city_2_coop16_carrier_trans",
        "class": "ObjectSpawner",
        "name_object": "UH-1N Twin Huey",
        "team": "2",
        "obj1": "null",
        "obj2": "us_the_uh1n_m240d",
        "maxspawn": "300.0",
        "minspawn": "300.0",
        "spawndelay": "false",
        "ttl": "1200.0",
        "cpid": "8"
      }
    },
    {
      "type": "Feature",
      "geometry": {
        "type": "Point",
        "coordinates": [1758.579, -110.70697],
        "size": [16, 16]
      },
      "properties": {
        "iconurl": "icons/vehicles_map/mini_the_light.png",
        "iconrotate": "-135.0",
        "popupContent": "Amazing information about null will be found here!"
      },
      "bf2props": {
        "name": "cpname_muttrah_city_2_coop16_carrier_uh1n",
        "class": "ObjectSpawner",
        "name_object": "UH-1N Twin Huey",
        "team": "2",
        "obj1": "null",
        "obj2": "us_the_uh1n_m240d",
        "maxspawn": "300.0",
        "minspawn": "300.0",
        "spawndelay": "false",
        "ttl": "1200.0",
        "cpid": "8"
      }
    },
    {
      "type": "Feature",
      "geometry": {
        "type": "Point",
        "coordinates": [1790.473, -142.22198],
        "size": [16, 16]
      },
      "properties": {
        "iconurl": "icons/vehicles_map/mini_the_light.png",
        "iconrotate": "-135.0",
        "popupContent": "Amazing information about null will be found here!"
      },
      "bf2props": {
        "name": "cpname_muttrah_city_2_coop16_carrier_uh1n_0",
        "class": "ObjectSpawner",
        "name_object": "UH-1N Twin Huey",
        "team": "2",
        "obj1": "null",
        "obj2": "us_the_uh1n_m240d",
        "maxspawn": "300.0",
        "minspawn": "300.0",
        "spawndelay": "false",
        "ttl": "1200.0",
        "cpid": "8"
      }
    },
    {
      "type": "Feature",
      "geometry": {
        "type": "Point",
        "coordinates": [1899.3411, -271.252],
        "size": [16, 16]
      },
      "properties": {
        "iconurl": "icons/vehicles_map/mini_shp_light.png",
        "iconrotate": "134.0",
        "popupContent": "Amazing information about null will be found here!"
      },
      "bf2props": {
        "name": "cpname_muttrah_city_2_coop16_carrier_boat",
        "class": "ObjectSpawner",
        "name_object": "RHIB",
        "team": "2",
        "obj1": "null",
        "obj2": "boat_rib_gpmg_m240b",
        "maxspawn": "180.0",
        "minspawn": "180.0",
        "spawndelay": "true",
        "ttl": "1200.0",
        "cpid": "8"
      }
    },
    {
      "type": "Feature",
      "geometry": {
        "type": "Point",
        "coordinates": [1912.7319, -288.23297],
        "size": [16, 16]
      },
      "properties": {
        "iconurl": "icons/vehicles_map/mini_shp_light.png",
        "iconrotate": "134.0",
        "popupContent": "Amazing information about null will be found here!"
      },
      "bf2props": {
        "name": "cpname_muttrah_city_2_coop16_carrier_boat_0",
        "class": "ObjectSpawner",
        "name_object": "RHIB",
        "team": "2",
        "obj1": "null",
        "obj2": "boat_rib_gpmg_m240b",
        "maxspawn": "180.0",
        "minspawn": "180.0",
        "spawndelay": "true",
        "ttl": "1200.0",
        "cpid": "8"
      }
    },
    {
      "type": "Feature",
      "geometry": {
        "type": "Point",
        "coordinates": [1925.949, -274.54602],
        "size": [16, 16]
      },
      "properties": {
        "iconurl": "icons/vehicles_map/mini_shp_light.png",
        "iconrotate": "134.0",
        "popupContent": "Amazing information about null will be found here!"
      },
      "bf2props": {
        "name": "cpname_muttrah_city_2_coop16_carrier_boat_1",
        "class": "ObjectSpawner",
        "name_object": "RHIB",
        "team": "2",
        "obj1": "null",
        "obj2": "boat_rib_gpmg_m240b",
        "maxspawn": "180.0",
        "minspawn": "180.0",
        "spawndelay": "true",
        "ttl": "1200.0",
        "cpid": "8"
      }
    },
    {
      "type": "Feature",
      "geometry": {
        "type": "Point",
        "coordinates": [1907.912, -262.378],
        "size": [16, 16]
      },
      "properties": {
        "iconurl": "icons/vehicles_map/mini_shp_light.png",
        "iconrotate": "134.0",
        "popupContent": "Amazing information about null will be found here!"
      },
      "bf2props": {
        "name": "cpname_muttrah_city_2_coop16_carrier_oat",
        "class": "ObjectSpawner",
        "name_object": "RHIB",
        "team": "2",
        "obj1": "null",
        "obj2": "boat_rib_gpmg_m240b",
        "maxspawn": "180.0",
        "minspawn": "180.0",
        "spawndelay": "true",
        "ttl": "1200.0",
        "cpid": "8"
      }
    },
    {
      "type": "Feature",
      "geometry": {
        "type": "Point",
        "coordinates": [1783.0801, -164.56403],
        "size": [16, 16]
      },
      "properties": {
        "iconurl": "icons/vehicles_map/mini_ahe_light.png",
        "iconrotate": "-135.0",
        "popupContent": "Amazing information about null will be found here!"
      },
      "bf2props": {
        "name": "cpname_muttrah_city_2_coop16_carrier_cas",
        "class": "ObjectSpawner",
        "name_object": "UH-1N Twin Huey CAS",
        "team": "2",
        "obj1": "null",
        "obj2": "us_ahe_uh1nrockets",
        "maxspawn": "600.0",
        "minspawn": "600.0",
        "spawndelay": "false",
        "ttl": "1200.0",
        "cpid": "8"
      }
    },
    {
      "type": "Feature",
      "geometry": {
        "type": "Point",
        "coordinates": [985.776, -1696.395],
        "size": [16, 16]
      },
      "properties": {
        "iconurl": "icons/vehicles_map/mini_apc_light.png",
        "iconrotate": "160.0",
        "popupContent": "Amazing information about MT-LB will be found here!"
      },
      "bf2props": {
        "name": "cpname_muttrah_city_2_coop16_fort_lightarmour",
        "class": "ObjectSpawner",
        "name_object": "MT-LB",
        "team": "1",
        "obj1": "mec_apc_mtlb",
        "obj2": "null",
        "maxspawn": "600.0",
        "minspawn": "600.0",
        "spawndelay": "false",
        "ttl": "1200.0",
        "cpid": "1"
      }
    },
    {
      "type": "Feature",
      "geometry": {
        "type": "Point",
        "coordinates": [980.922, -1698.162],
        "size": [16, 16]
      },
      "properties": {
        "iconurl": "icons/vehicles_map/mini_apc_light.png",
        "iconrotate": "160.0",
        "popupContent": "Amazing information about MT-LB will be found here!"
      },
      "bf2props": {
        "name": "cpname_muttrah_city_2_coop16_fort_mtlb",
        "class": "ObjectSpawner",
        "name_object": "MT-LB",
        "team": "1",
        "obj1": "mec_apc_mtlb",
        "obj2": "null",
        "maxspawn": "600.0",
        "minspawn": "600.0",
        "spawndelay": "false",
        "ttl": "1200.0",
        "cpid": "1"
      }
    },
    {
      "type": "Feature",
      "geometry": {
        "type": "Point",
        "coordinates": [976.166, -1699.8931],
        "size": [16, 16]
      },
      "properties": {
        "iconurl": "icons/vehicles_map/mini_apc_light.png",
        "iconrotate": "160.0",
        "popupContent": "Amazing information about MT-LB 6M will be found here!"
      },
      "bf2props": {
        "name": "cpname_muttrah_city_2_coop16_fort_mtlb_0",
        "class": "ObjectSpawner",
        "name_object": "MT-LB 6M",
        "team": "1",
        "obj1": "mec_apc_mtlb_hmg",
        "obj2": "null",
        "maxspawn": "600.0",
        "minspawn": "600.0",
        "spawndelay": "false",
        "ttl": "1200.0",
        "cpid": "1"
      }
    },
    {
      "type": "Feature",
      "geometry": {
        "type": "Point",
        "coordinates": [1106.575, -1898.3779],
        "size": [16, 16]
      },
      "properties": {
        "iconurl": "icons/mini_map/repairdepot.png",
        "iconrotate": "0",
        "popupContent": "Amazing information about Vehicle Depot will be found here!"
      },
      "bf2props": {
        "name": "cpname_muttrah_city_2_coop16_fort_depot",
        "class": "ObjectSpawner",
        "name_object": "Vehicle Depot",
        "team": "1",
        "obj1": "vehicle_depot_mec",
        "obj2": "null",
        "maxspawn": "0.0",
        "minspawn": "0.0",
        "spawndelay": "false",
        "ttl": "0.0",
        "cpid": "1"
      }
    },
    {
      "type": "Feature",
      "geometry": {
        "type": "Point",
        "coordinates": [1094.505, -1925.727],
        "size": [16, 16]
      },
      "properties": {
        "iconurl": "icons/vehicles_map/mini_trk_logistics.png",
        "iconrotate": "-30.0",
        "popupContent": "Amazing information about Ural-4320 Logistics will be found here!"
      },
      "bf2props": {
        "name": "cpname_muttrah_city_2_coop16_fort_truck",
        "class": "ObjectSpawner",
        "name_object": "Ural-4320 Logistics",
        "team": "1",
        "obj1": "mec_trk_logistics",
        "obj2": "null",
        "maxspawn": "300.0",
        "minspawn": "300.0",
        "spawndelay": "false",
        "ttl": "1200.0",
        "cpid": "1"
      }
    },
    {
      "type": "Feature",
      "geometry": {
        "type": "Point",
        "coordinates": [1077.226, -1898.605],
        "size": [16, 16]
      },
      "properties": {
        "iconurl": "icons/vehicles_map/mini_trk_support.png",
        "iconrotate": "-35.0",
        "popupContent": "Amazing information about Ural-4320 will be found here!"
      },
      "bf2props": {
        "name": "cpname_muttrah_city_2_coop16_fort_truck_0",
        "class": "ObjectSpawner",
        "name_object": "Ural-4320",
        "team": "1",
        "obj1": "mec_trk_support",
        "obj2": "null",
        "maxspawn": "300.0",
        "minspawn": "300.0",
        "spawndelay": "false",
        "ttl": "1200.0",
        "cpid": "1"
      }
    },
    {
      "type": "Feature",
      "geometry": {
        "type": "Point",
        "coordinates": [1082.944, -1906.771],
        "size": [16, 16]
      },
      "properties": {
        "iconurl": "icons/vehicles_map/mini_trk_support.png",
        "iconrotate": "-35.0",
        "popupContent": "Amazing information about Ural-4320 will be found here!"
      },
      "bf2props": {
        "name": "cpname_muttrah_city_2_coop16_fort_truck_1",
        "class": "ObjectSpawner",
        "name_object": "Ural-4320",
        "team": "1",
        "obj1": "mec_trk_support",
        "obj2": "null",
        "maxspawn": "300.0",
        "minspawn": "300.0",
        "spawndelay": "false",
        "ttl": "1200.0",
        "cpid": "1"
      }
    },
    {
      "type": "Feature",
      "geometry": {
        "type": "Point",
        "coordinates": [1089.195, -1916.53],
        "size": [16, 16]
      },
      "properties": {
        "iconurl": "icons/vehicles_map/mini_trk_logistics.png",
        "iconrotate": "-30.0",
        "popupContent": "Amazing information about Ural-4320 Logistics will be found here!"
      },
      "bf2props": {
        "name": "cpname_muttrah_city_2_coop16_fort_truck_2",
        "class": "ObjectSpawner",
        "name_object": "Ural-4320 Logistics",
        "team": "1",
        "obj1": "mec_trk_logistics",
        "obj2": "null",
        "maxspawn": "300.0",
        "minspawn": "300.0",
        "spawndelay": "false",
        "ttl": "1200.0",
        "cpid": "1"
      }
    },
    {
      "type": "Feature",
      "geometry": {
        "type": "Point",
        "coordinates": [1852.31, -205.805],
        "size": [16, 16]
      },
      "properties": {
        "iconurl": "icons/vehicles_map/firebase_mini_white.png",
        "iconrotate": "0",
        "popupContent": "Amazing information about null will be found here!"
      },
      "bf2props": {
        "name": "cpname_muttrah_city_2_coop16_carrier_acv",
        "class": "ObjectSpawner",
        "name_object": "Command Post",
        "team": "2",
        "obj1": "null",
        "obj2": "deployable_commandpost_us",
        "maxspawn": "0.0",
        "minspawn": "0.0",
        "spawndelay": "false",
        "ttl": "0.0",
        "cpid": "8"
      }
    },
    {
      "type": "Feature",
      "geometry": {
        "type": "Point",
        "coordinates": [1877.652, -253.89502],
        "size": [16, 16]
      },
      "properties": {
        "iconurl": "icons/vehicles_map/mini_ahe_light.png",
        "iconrotate": "-135.0",
        "popupContent": "Amazing information about null will be found here!"
      },
      "bf2props": {
        "name": "cpname_muttrah_city_2_coop16_carrier_cas_sp",
        "class": "ObjectSpawner",
        "name_object": "UH-1N Twin Huey CAS",
        "team": "2",
        "obj1": "null",
        "obj2": "us_ahe_uh1nrockets_sp",
        "maxspawn": "600.0",
        "minspawn": "600.0",
        "spawndelay": "false",
        "ttl": "1200.0",
        "cpid": "8"
      }
    },
    {
      "type": "Feature",
      "geometry": {
        "type": "Point",
        "coordinates": [1908.161, -284.404],
        "size": [16, 16]
      },
      "properties": {
        "iconurl": "icons/vehicles_map/mini_the_light.png",
        "iconrotate": "-135.0",
        "popupContent": "Amazing information about null will be found here!"
      },
      "bf2props": {
        "name": "cpname_muttrah_city_2_coop16_carrier_trans_sp",
        "class": "ObjectSpawner",
        "name_object": "UH-1N Twin Huey",
        "team": "2",
        "obj1": "null",
        "obj2": "us_the_uh1n_sp",
        "maxspawn": "600.0",
        "minspawn": "600.0",
        "spawndelay": "false",
        "ttl": "1200.0",
        "cpid": "8"
      }
    },
    {
      "type": "Feature",
      "geometry": {
        "type": "Point",
        "coordinates": [1004.831, -1640.286],
        "size": [33, 33],
        "radius": "60.0"
      },
      "properties": {
        "iconurl": "icons/flags_map/mec/minimap_cp.png",
        "iconrotate": "0",
        "popupContent": "Amazing information about Muttrah Fortress will be found here!"
      },
      "bf2props": {
        "name": "cpname_muttrah_city_2_coop16_fort",
        "class": "ControlPoint",
        "name_object": "Muttrah Fortress",
        "team": "1",
        "areavalue1": "20.0",
        "areavalue2": "99999.0",
        "cpid": "1",
        "sgid": "1",
        "uncap": "false",
        "ttgc": "120.0",
        "ttlc": "120.0"
      }
    },
    {
      "type": "Feature",
      "geometry": {
        "type": "Point",
        "coordinates": [711.091, -1853.396],
        "size": [33, 33],
        "radius": "60.0"
      },
      "properties": {
        "iconurl": "icons/flags_map/mec/minimap_cp.png",
        "iconrotate": "0",
        "popupContent": "Amazing information about South City 60m will be found here!"
      },
      "bf2props": {
        "name": "cpname_muttrah_city_2_coop16_southcity",
        "class": "ControlPoint",
        "name_object": "South City 60m",
        "team": "1",
        "areavalue1": "20.0",
        "areavalue2": "20.0",
        "cpid": "2",
        "sgid": "2",
        "uncap": "false",
        "ttgc": "120.0",
        "ttlc": "120.0"
      }
    },
    {
      "type": "Feature",
      "geometry": {
        "type": "Point",
        "coordinates": [365.11603, -1700.612],
        "size": [33, 33],
        "radius": "60.0"
      },
      "properties": {
        "iconurl": "icons/flags_map/neutral/minimap_cp.png",
        "iconrotate": "0",
        "popupContent": "Amazing information about Suburbs 60m will be found here!"
      },
      "bf2props": {
        "name": "cpname_muttrah_city_2_coop16_suburbs",
        "class": "ControlPoint",
        "name_object": "Suburbs 60m",
        "team": "0",
        "areavalue1": "20.0",
        "areavalue2": "20.0",
        "cpid": "4",
        "sgid": "3",
        "uncap": "false",
        "ttgc": "120.0",
        "ttlc": "120.0"
      }
    },
    {
      "type": "Feature",
      "geometry": {
        "type": "Point",
        "coordinates": [499.672, -1478.084],
        "size": [33, 33],
        "radius": "60.0"
      },
      "properties": {
        "iconurl": "icons/flags_map/neutral/minimap_cp.png",
        "iconrotate": "0",
        "popupContent": "Amazing information about Mosque 60m will be found here!"
      },
      "bf2props": {
        "name": "cpname_muttrah_city_2_coop16_mosque",
        "class": "ControlPoint",
        "name_object": "Mosque 60m",
        "team": "0",
        "areavalue1": "20.0",
        "areavalue2": "20.0",
        "cpid": "5",
        "sgid": "3",
        "uncap": "false",
        "ttgc": "120.0",
        "ttlc": "120.0"
      }
    },
    {
      "type": "Feature",
      "geometry": {
        "type": "Point",
        "coordinates": [273.69897, -1259.487],
        "size": [33, 33],
        "radius": "40.0"
      },
      "properties": {
        "iconurl": "icons/flags_map/neutral/minimap_cp.png",
        "iconrotate": "0",
        "popupContent": "Amazing information about West City 40m will be found here!"
      },
      "bf2props": {
        "name": "cpname_muttrah_city_2_coop16_westcity",
        "class": "ControlPoint",
        "name_object": "West City 40m",
        "team": "0",
        "areavalue1": "20.0",
        "areavalue2": "20.0",
        "cpid": "3",
        "sgid": "4",
        "uncap": "false",
        "ttgc": "120.0",
        "ttlc": "120.0"
      }
    },
    {
      "type": "Feature",
      "geometry": {
        "type": "Point",
        "coordinates": [306.13098, -890.323],
        "size": [33, 33],
        "radius": "60.0"
      },
      "properties": {
        "iconurl": "icons/flags_map/neutral/minimap_cp.png",
        "iconrotate": "0",
        "popupContent": "Amazing information about North City 60m will be found here!"
      },
      "bf2props": {
        "name": "cpname_muttrah_city_2_coop16_northcity",
        "class": "ControlPoint",
        "name_object": "North City 60m",
        "team": "0",
        "areavalue1": "20.0",
        "areavalue2": "20.0",
        "cpid": "6",
        "sgid": "5",
        "uncap": "false",
        "ttgc": "120.0",
        "ttlc": "120.0"
      }
    },
    {
      "type": "Feature",
      "geometry": {
        "type": "Point",
        "coordinates": [532.985, -752.029],
        "size": [33, 33],
        "radius": "80.0"
      },
      "properties": {
        "iconurl": "icons/flags_map/neutral/minimap_cp.png",
        "iconrotate": "0",
        "popupContent": "Amazing information about Muttrah Docks 80m will be found here!"
      },
      "bf2props": {
        "name": "cpname_muttrah_city_2_coop16_docks",
        "class": "ControlPoint",
        "name_object": "Muttrah Docks 80m",
        "team": "0",
        "areavalue1": "300.0",
        "areavalue2": "20.0",
        "cpid": "7",
        "sgid": "6",
        "uncap": "false",
        "ttgc": "180.0",
        "ttlc": "180.0"
      }
    },
    {
      "type": "Feature",
      "geometry": {
        "type": "Point",
        "coordinates": [1836.592, -202.81299],
        "size": [33, 33],
        "radius": "10.0"
      },
      "properties": {
        "iconurl": "icons/flags_map/us/minimap_cpbase.png",
        "iconrotate": "0",
        "popupContent": "Amazing information about USS Essex will be found here!"
      },
      "bf2props": {
        "name": "cpname_muttrah_city_2_coop16_carrier",
        "class": "ControlPoint",
        "name_object": "USS Essex",
        "team": "2",
        "areavalue1": "0.0",
        "areavalue2": "0.0",
        "cpid": "8",
        "sgid": "7",
        "uncap": "true",
        "ttgc": "0.0",
        "ttlc": "0.0"
      }
    },
    {
      "type": "Feature",
      "geometry": {
        "type": "Polygon",
        "coordinates": [
          [
            [0,0],
            [0,-2048],
            [2048,-2048],
            [2048,0]
          ],[
            [2016.0638, -37.845947],
            [1051.261, -31.439941],
            [919.56647, -324.2826],
            [310.48303, -721.70764],
            [219.8208, -787.016],
            [132.32184, -907.29626],
            [86.34009, -1143.4255],
            [54.798035, -1200.5322],
            [55.81897, -1233.185],
            [83.27173, -1254.6259],
            [105.282715, -1353.388],
            [7.027588, -1352.7493],
            [7.168335, -1400.5479],
            [73.92102, -1399.3738],
            [113.405945, -1424.5901],
            [89.35626, -1470.7074],
            [101.5697, -1488.477],
            [92.184204, -1517.2971],
            [164.00415, -1559.7877],
            [221.11365, -1517.7397],
            [286.28235, -1540.9663],
            [295.71143, -1569.098],
            [277.20398, -1614.5508],
            [273.13275, -1646.7473],
            [283.07385, -1723.479],
            [297.8166, -1772.4695],
            [362.57758, -1758.8668],
            [382.85126, -1813.8414],
            [425.72412, -1803.4014],
            [415.98206, -1931.0829],
            [345.07373, -1951.617],
            [341.35327, -2012.6035],
            [497.1239, -2008.3823],
            [558.261, -1998.8229],
            [603.7809, -2016.8523],
            [692.5044, -2013.8367],
            [701.1106, -1998.0193],
            [787.9957, -1997.8628],
            [800.3307, -1963.706],
            [1116.7087, -2034.5148],
            [1147.6313, -2004.0786],
            [1164.8389, -1917.9768],
            [1165.2627, -1869.4978],
            [1117.2408, -1704.3242],
            [1175.2275, -1660.9923],
            [1241.2345, -1560.32],
            [1343.881, -1390.8405],
            [1392.165, -1357.8208],
            [1461.4906, -1344.9181],
            [1525.7102, -1355.3357],
            [1602.5963, -1374.682],
            [1789.4222, -1440.2678],
            [1868.8342, -1464.0623],
            [1930.8927, -1460.3989],
            [2026.639, -1413.061]
          ]
        ]
      },
      "bf2props": {
        "code": "combatarea_0_64",
        "class": "CombatArea",
        "team": "0",
        "vehicles": "4",
        "layer": "2",
        "inverted": "false",
        "max": [0.0, 0.0],
        "min": [0.0, 0.0]
      }
    },
    {
      "type": "Feature",
      "geometry": {
        "type": "Polygon",
        "coordinates": [
          [
            [0,0],
            [0,-2048],
            [2048,-2048],
            [2048,0]
          ],[
            [2048.0, 0.0],
            [0.0, 0.0],
            [0.0, -2048.0],
            [2048.0, -2048.0]
          ]
        ]
      },
      "bf2props": {
        "code": "combatarea_30_64",
        "class": "CombatArea",
        "team": "0",
        "vehicles": "3",
        "layer": "2",
        "inverted": "false",
        "max": [0.0, 0.0],
        "min": [0.0, 0.0]
      }
    }
  ]
}