{
  "team1":"chinsurgent",
  "team2":"ru",
  "team1tickets":"5",
  "team2tickets":"650",
  "mapsize":"2048",
  "viewdistance":"450",
  "combatareause":"true",
  "combatareadamage":"20.0",
  "combatareaallowoutside":"10.0",
  "routes": [
  ],
  "type": "FeatureCollection",
  "features": [
    {
      "type": "Feature",
      "geometry": {
        "type": "Point",
        "coordinates": [1345.731, -1305.074],
        "size": [16, 16]
      },
      "properties": {
        "iconurl": "icons/vehicles_map/mini_stw_aa_medium.png",
        "iconrotate": "-154.353",
        "popupContent": "Amazing information about zpu4 will be found here!"
      },
      "bf2props": {
        "name": "cpname_kozelsk_insurgency64_militiamainbase_apc",
        "class": "ObjectSpawner",
        "name_object": "zpu4",
        "team": "1",
        "obj1": "zpu4",
        "obj2": "null",
        "maxspawn": "99999.0",
        "minspawn": "99999.0",
        "spawndelay": "false",
        "ttl": "0.0",
        "cpid": "106"
      }
    },
    {
      "type": "Feature",
      "geometry": {
        "type": "Point",
        "coordinates": [715.48804, -622.431],
        "size": [16, 16]
      },
      "properties": {
        "iconurl": "icons/vehicles_map/mini_stw_aa_medium.png",
        "iconrotate": "88.842",
        "popupContent": "Amazing information about zpu4 will be found here!"
      },
      "bf2props": {
        "name": "cpname_kozelsk_insurgency64_militiamainbase_aav",
        "class": "ObjectSpawner",
        "name_object": "zpu4",
        "team": "1",
        "obj1": "zpu4",
        "obj2": "null",
        "maxspawn": "99999.0",
        "minspawn": "99999.0",
        "spawndelay": "false",
        "ttl": "0.0",
        "cpid": "106"
      }
    },
    {
      "type": "Feature",
      "geometry": {
        "type": "Point",
        "coordinates": [828.672, -87.41498],
        "size": [16, 16]
      },
      "properties": {
        "iconurl": "icons/vehicles_map/mini_jep_light.png",
        "iconrotate": "173.976",
        "popupContent": "Amazing information about DShKM Technical will be found here!"
      },
      "bf2props": {
        "name": "cpname_kozelsk_insurgency64_militiamainbase_smg",
        "class": "ObjectSpawner",
        "name_object": "DShKM Technical",
        "team": "1",
        "obj1": "civ_jep_technical_militia",
        "obj2": "null",
        "maxspawn": "600.0",
        "minspawn": "600.0",
        "spawndelay": "false",
        "ttl": "12000.0",
        "cpid": "106"
      }
    },
    {
      "type": "Feature",
      "geometry": {
        "type": "Point",
        "coordinates": [1671.954, -564.338],
        "size": [16, 16]
      },
      "properties": {
        "iconurl": "icons/player_map/mini_squad.png",
        "iconrotate": "0",
        "popupContent": "Amazing information about Temporary spawnpoint will be found here!"
      },
      "bf2props": {
        "name": "cpname_kozelsk_insurgency64_militiamainbase_heavytank",
        "class": "ObjectSpawner",
        "name_object": "Temporary spawnpoint",
        "team": "1",
        "obj1": "rallypoint_chinsurgent_placeable",
        "obj2": "null",
        "maxspawn": "99999.0",
        "minspawn": "99999.0",
        "spawndelay": "false",
        "ttl": "0.0",
        "cpid": "106"
      }
    },
    {
      "type": "Feature",
      "geometry": {
        "type": "Point",
        "coordinates": [1880.546, -558.833],
        "size": [16, 16]
      },
      "properties": {
        "iconurl": "icons/vehicles_map/mini_civ_dirtbike.png",
        "iconrotate": "0.0",
        "popupContent": "Amazing information about Dirtbike will be found here!"
      },
      "bf2props": {
        "name": "cpname_kozelsk_insurgency64_militiamainbase_dirtbike",
        "class": "ObjectSpawner",
        "name_object": "Dirtbike",
        "team": "1",
        "obj1": "civ_bik_dirtbike",
        "obj2": "null",
        "maxspawn": "99999.0",
        "minspawn": "99999.0",
        "spawndelay": "false",
        "ttl": "12000.0",
        "cpid": "106"
      }
    },
    {
      "type": "Feature",
      "geometry": {
        "type": "Point",
        "coordinates": [1885.0969, -559.005],
        "size": [16, 16]
      },
      "properties": {
        "iconurl": "icons/vehicles_map/mini_civ_dirtbike.png",
        "iconrotate": "0.0",
        "popupContent": "Amazing information about Dirtbike will be found here!"
      },
      "bf2props": {
        "name": "cpname_kozelsk_insurgency64_militiamainbase_atv",
        "class": "ObjectSpawner",
        "name_object": "Dirtbike",
        "team": "1",
        "obj1": "civ_bik_dirtbike",
        "obj2": "null",
        "maxspawn": "99999.0",
        "minspawn": "99999.0",
        "spawndelay": "false",
        "ttl": "12000.0",
        "cpid": "106"
      }
    },
    {
      "type": "Feature",
      "geometry": {
        "type": "Point",
        "coordinates": [1920.8721, -1113.472],
        "size": [16, 16]
      },
      "properties": {
        "iconurl": "icons/player_map/mini_squad.png",
        "iconrotate": "0",
        "popupContent": "Amazing information about Temporary spawnpoint will be found here!"
      },
      "bf2props": {
        "name": "cpname_kozelsk_insurgency64_militiamainbase_militiarallypoint",
        "class": "ObjectSpawner",
        "name_object": "Temporary spawnpoint",
        "team": "1",
        "obj1": "rallypoint_chinsurgent_placeable",
        "obj2": "null",
        "maxspawn": "99999.0",
        "minspawn": "99999.0",
        "spawndelay": "false",
        "ttl": "50.0",
        "cpid": "106"
      }
    },
    {
      "type": "Feature",
      "geometry": {
        "type": "Point",
        "coordinates": [832.911, -86.98901],
        "size": [16, 16]
      },
      "properties": {
        "iconurl": "icons/vehicles_map/mini_jep_support.png",
        "iconrotate": "173.976",
        "popupContent": "Amazing information about Support Technical will be found here!"
      },
      "bf2props": {
        "name": "cpname_kozelsk_insurgency64_militiamainbase_jeep",
        "class": "ObjectSpawner",
        "name_object": "Support Technical",
        "team": "1",
        "obj1": "civ_jep_support_militia",
        "obj2": "null",
        "maxspawn": "300.0",
        "minspawn": "300.0",
        "spawndelay": "false",
        "ttl": "12000.0",
        "cpid": "106"
      }
    },
    {
      "type": "Feature",
      "geometry": {
        "type": "Point",
        "coordinates": [771.72, -105.778015],
        "size": [16, 16]
      },
      "properties": {
        "iconurl": "icons/mini_map/uavtrailer.png",
        "iconrotate": "0",
        "popupContent": "Amazing information about UAV Terminal will be found here!"
      },
      "bf2props": {
        "name": "cpname_kozelsk_insurgency64_militiamainbase_0",
        "class": "ObjectSpawner",
        "name_object": "UAV Terminal",
        "team": "1",
        "obj1": "mil_acv_technical",
        "obj2": "null",
        "maxspawn": "0.0",
        "minspawn": "0.0",
        "spawndelay": "false",
        "ttl": "0.0",
        "cpid": "106"
      }
    },
    {
      "type": "Feature",
      "geometry": {
        "type": "Point",
        "coordinates": [-634.829, -2061.0571],
        "size": [16, 16]
      },
      "properties": {
        "iconurl": "icons/mini_map/airdef.png",
        "iconrotate": "0",
        "popupContent": "Amazing information about null will be found here!"
      },
      "bf2props": {
        "name": "cpname_kozelsk_insurgency64_reinforcementshq_0",
        "class": "ObjectSpawner",
        "name_object": "Artillery Barrage Call-In",
        "team": "2",
        "obj1": "null",
        "obj2": "artillery_team2",
        "maxspawn": "2400.0",
        "minspawn": "2400.0",
        "spawndelay": "true",
        "ttl": "0.0",
        "cpid": "1"
      }
    },
    {
      "type": "Feature",
      "geometry": {
        "type": "Point",
        "coordinates": [1915.901, -1413.952],
        "size": [16, 16]
      },
      "properties": {
        "iconurl": "icons/vehicles_map/mini_stw_atgun.png",
        "iconrotate": "-168.14",
        "popupContent": "Amazing information about ZiS-3 Field Gun will be found here!"
      },
      "bf2props": {
        "name": "cpname_kozelsk_insurgency64_militiamainbase_zis",
        "class": "ObjectSpawner",
        "name_object": "ZiS-3 Field Gun",
        "team": "1",
        "obj1": "zis3",
        "obj2": "null",
        "maxspawn": "99999.0",
        "minspawn": "99999.0",
        "spawndelay": "false",
        "ttl": "0.0",
        "cpid": "106"
      }
    },
    {
      "type": "Feature",
      "geometry": {
        "type": "Point",
        "coordinates": [1414.62, -1548.2161],
        "size": [16, 16]
      },
      "properties": {
        "iconurl": "icons/vehicles_map/mini_stw_atgun.png",
        "iconrotate": "-168.139",
        "popupContent": "Amazing information about ZiS-3 Field Gun will be found here!"
      },
      "bf2props": {
        "name": "cpname_kozelsk_insurgency64_militiamainbase_0_0",
        "class": "ObjectSpawner",
        "name_object": "ZiS-3 Field Gun",
        "team": "1",
        "obj1": "zis3",
        "obj2": "null",
        "maxspawn": "99999.0",
        "minspawn": "99999.0",
        "spawndelay": "false",
        "ttl": "0.0",
        "cpid": "106"
      }
    },
    {
      "type": "Feature",
      "geometry": {
        "type": "Point",
        "coordinates": [931.234, -1120.293],
        "size": [16, 16]
      },
      "properties": {
        "iconurl": "icons/vehicles_map/mini_stw_atgun.png",
        "iconrotate": "138.571",
        "popupContent": "Amazing information about ZiS-3 Field Gun will be found here!"
      },
      "bf2props": {
        "name": "cpname_kozelsk_insurgency64_militiamainbase_1",
        "class": "ObjectSpawner",
        "name_object": "ZiS-3 Field Gun",
        "team": "1",
        "obj1": "zis3",
        "obj2": "null",
        "maxspawn": "99999.0",
        "minspawn": "99999.0",
        "spawndelay": "false",
        "ttl": "0.0",
        "cpid": "106"
      }
    },
    {
      "type": "Feature",
      "geometry": {
        "type": "Point",
        "coordinates": [824.135, -86.83801],
        "size": [16, 16]
      },
      "properties": {
        "iconurl": "icons/vehicles_map/mini_jep_light.png",
        "iconrotate": "173.976",
        "popupContent": "Amazing information about DShKM Technical will be found here!"
      },
      "bf2props": {
        "name": "cpname_kozelsk_insurgency64_militiamainbase_car",
        "class": "ObjectSpawner",
        "name_object": "DShKM Technical",
        "team": "1",
        "obj1": "civ_jep_technical_militia",
        "obj2": "null",
        "maxspawn": "600.0",
        "minspawn": "600.0",
        "spawndelay": "false",
        "ttl": "12000.0",
        "cpid": "106"
      }
    },
    {
      "type": "Feature",
      "geometry": {
        "type": "Point",
        "coordinates": [819.931, -86.890015],
        "size": [16, 16]
      },
      "properties": {
        "iconurl": "icons/vehicles_map/mini_jep_light.png",
        "iconrotate": "173.976",
        "popupContent": "Amazing information about DShKM Technical will be found here!"
      },
      "bf2props": {
        "name": "cpname_kozelsk_insurgency64_militiamainbase_0_1",
        "class": "ObjectSpawner",
        "name_object": "DShKM Technical",
        "team": "1",
        "obj1": "civ_jep_technical_militia",
        "obj2": "null",
        "maxspawn": "600.0",
        "minspawn": "600.0",
        "spawndelay": "false",
        "ttl": "12000.0",
        "cpid": "106"
      }
    },
    {
      "type": "Feature",
      "geometry": {
        "type": "Point",
        "coordinates": [785.478, -89.284],
        "size": [16, 16]
      },
      "properties": {
        "iconurl": "icons/vehicles_map/mini_trk_logistics.png",
        "iconrotate": "173.976",
        "popupContent": "Amazing information about Ural-4320 Logistics will be found here!"
      },
      "bf2props": {
        "name": "cpname_kozelsk_insurgency64_militiamainbase_0_2",
        "class": "ObjectSpawner",
        "name_object": "Ural-4320 Logistics",
        "team": "1",
        "obj1": "mil_trk_logistics",
        "obj2": "null",
        "maxspawn": "300.0",
        "minspawn": "300.0",
        "spawndelay": "false",
        "ttl": "12000.0",
        "cpid": "106"
      }
    },
    {
      "type": "Feature",
      "geometry": {
        "type": "Point",
        "coordinates": [779.047, -88.78497],
        "size": [16, 16]
      },
      "properties": {
        "iconurl": "icons/vehicles_map/mini_trk_logistics.png",
        "iconrotate": "173.976",
        "popupContent": "Amazing information about Ural-4320 Logistics will be found here!"
      },
      "bf2props": {
        "name": "cpname_kozelsk_insurgency64_militiamainbase_1_0",
        "class": "ObjectSpawner",
        "name_object": "Ural-4320 Logistics",
        "team": "1",
        "obj1": "mil_trk_logistics",
        "obj2": "null",
        "maxspawn": "300.0",
        "minspawn": "300.0",
        "spawndelay": "false",
        "ttl": "12000.0",
        "cpid": "106"
      }
    },
    {
      "type": "Feature",
      "geometry": {
        "type": "Point",
        "coordinates": [796.479, -88.708984],
        "size": [16, 16]
      },
      "properties": {
        "iconurl": "icons/vehicles_map/mini_trk_support.png",
        "iconrotate": "179.201",
        "popupContent": "Amazing information about Ural-4320 will be found here!"
      },
      "bf2props": {
        "name": "cpname_kozelsk_insurgency64_militiamainbase_2_1",
        "class": "ObjectSpawner",
        "name_object": "Ural-4320",
        "team": "1",
        "obj1": "mil_trk_support",
        "obj2": "null",
        "maxspawn": "300.0",
        "minspawn": "300.0",
        "spawndelay": "false",
        "ttl": "12000.0",
        "cpid": "106"
      }
    },
    {
      "type": "Feature",
      "geometry": {
        "type": "Point",
        "coordinates": [801.148, -89.140015],
        "size": [16, 16]
      },
      "properties": {
        "iconurl": "icons/vehicles_map/mini_trk_support.png",
        "iconrotate": "179.201",
        "popupContent": "Amazing information about Ural-4320 will be found here!"
      },
      "bf2props": {
        "name": "cpname_kozelsk_insurgency64_militiamainbase_3_1",
        "class": "ObjectSpawner",
        "name_object": "Ural-4320",
        "team": "1",
        "obj1": "mil_trk_support",
        "obj2": "null",
        "maxspawn": "300.0",
        "minspawn": "300.0",
        "spawndelay": "false",
        "ttl": "12000.0",
        "cpid": "106"
      }
    },
    {
      "type": "Feature",
      "geometry": {
        "type": "Point",
        "coordinates": [806.181, -89.29498],
        "size": [16, 16]
      },
      "properties": {
        "iconurl": "icons/vehicles_map/mini_trk_support.png",
        "iconrotate": "179.201",
        "popupContent": "Amazing information about Ural-4320 will be found here!"
      },
      "bf2props": {
        "name": "cpname_kozelsk_insurgency64_militiamainbase_4_1",
        "class": "ObjectSpawner",
        "name_object": "Ural-4320",
        "team": "1",
        "obj1": "mil_trk_support",
        "obj2": "null",
        "maxspawn": "300.0",
        "minspawn": "300.0",
        "spawndelay": "false",
        "ttl": "12000.0",
        "cpid": "106"
      }
    },
    {
      "type": "Feature",
      "geometry": {
        "type": "Point",
        "coordinates": [811.756, -89.94098],
        "size": [16, 16]
      },
      "properties": {
        "iconurl": "icons/vehicles_map/mini_trk_support.png",
        "iconrotate": "179.201",
        "popupContent": "Amazing information about Ural-4320 will be found here!"
      },
      "bf2props": {
        "name": "cpname_kozelsk_insurgency64_militiamainbase_5_1",
        "class": "ObjectSpawner",
        "name_object": "Ural-4320",
        "team": "1",
        "obj1": "mil_trk_support",
        "obj2": "null",
        "maxspawn": "99999.0",
        "minspawn": "99999.0",
        "spawndelay": "false",
        "ttl": "12000.0",
        "cpid": "106"
      }
    },
    {
      "type": "Feature",
      "geometry": {
        "type": "Point",
        "coordinates": [1663.928, -558.251],
        "size": [16, 16]
      },
      "properties": {
        "iconurl": "icons/vehicles_map/mini_trk_logistics.png",
        "iconrotate": "173.976",
        "popupContent": "Amazing information about Ural-4320 Logistics will be found here!"
      },
      "bf2props": {
        "name": "cpname_kozelsk_insurgency64_militiamainbase_6",
        "class": "ObjectSpawner",
        "name_object": "Ural-4320 Logistics",
        "team": "1",
        "obj1": "mil_trk_logistics",
        "obj2": "null",
        "maxspawn": "99999.0",
        "minspawn": "99999.0",
        "spawndelay": "false",
        "ttl": "12000.0",
        "cpid": "106"
      }
    },
    {
      "type": "Feature",
      "geometry": {
        "type": "Point",
        "coordinates": [1522.245, -1560.533],
        "size": [16, 16]
      },
      "properties": {
        "iconurl": "icons/player_map/mini_squad.png",
        "iconrotate": "0",
        "popupContent": "Amazing information about Temporary spawnpoint will be found here!"
      },
      "bf2props": {
        "name": "cpname_kozelsk_insurgency64_militiamainbase_rp",
        "class": "ObjectSpawner",
        "name_object": "Temporary spawnpoint",
        "team": "1",
        "obj1": "rallypoint_chinsurgent_placeable",
        "obj2": "null",
        "maxspawn": "99999.0",
        "minspawn": "99999.0",
        "spawndelay": "false",
        "ttl": "0.0",
        "cpid": "106"
      }
    },
    {
      "type": "Feature",
      "geometry": {
        "type": "Point",
        "coordinates": [1172.729, -1096.678],
        "size": [16, 16]
      },
      "properties": {
        "iconurl": "icons/player_map/mini_squad.png",
        "iconrotate": "0",
        "popupContent": "Amazing information about Temporary spawnpoint will be found here!"
      },
      "bf2props": {
        "name": "cpname_kozelsk_insurgency64_militiamainbase_0_3",
        "class": "ObjectSpawner",
        "name_object": "Temporary spawnpoint",
        "team": "1",
        "obj1": "rallypoint_chinsurgent_placeable",
        "obj2": "null",
        "maxspawn": "99999.0",
        "minspawn": "99999.0",
        "spawndelay": "false",
        "ttl": "0.0",
        "cpid": "106"
      }
    },
    {
      "type": "Feature",
      "geometry": {
        "type": "Point",
        "coordinates": [940.805, -1922.9971],
        "size": [16, 16]
      },
      "properties": {
        "iconurl": "icons/vehicles_map/mini_rec_light.png",
        "iconrotate": "90.0",
        "popupContent": "Amazing information about null will be found here!"
      },
      "bf2props": {
        "name": "cpname_kozelsk_insurgency64_reinforcementshq_brdm",
        "class": "ObjectSpawner",
        "name_object": "BRDM-2",
        "team": "2",
        "obj1": "null",
        "obj2": "ru_jep_brdm2",
        "maxspawn": "600.0",
        "minspawn": "600.0",
        "spawndelay": "true",
        "ttl": "12000.0",
        "cpid": "1"
      }
    },
    {
      "type": "Feature",
      "geometry": {
        "type": "Point",
        "coordinates": [630.862, -1289.636],
        "size": [16, 16]
      },
      "properties": {
        "iconurl": "icons/vehicles_map/mini_stw_atgun.png",
        "iconrotate": "169.339",
        "popupContent": "Amazing information about ZiS-3 Field Gun will be found here!"
      },
      "bf2props": {
        "name": "cpname_kozelsk_insurgency64_militiamainbase_zi",
        "class": "ObjectSpawner",
        "name_object": "ZiS-3 Field Gun",
        "team": "1",
        "obj1": "zis3",
        "obj2": "null",
        "maxspawn": "99999.0",
        "minspawn": "99999.0",
        "spawndelay": "false",
        "ttl": "0.0",
        "cpid": "106"
      }
    },
    {
      "type": "Feature",
      "geometry": {
        "type": "Point",
        "coordinates": [1853.362, -669.603],
        "size": [16, 16]
      },
      "properties": {
        "iconurl": "icons/vehicles_map/mini_stw_atgun.png",
        "iconrotate": "155.687",
        "popupContent": "Amazing information about ZiS-3 Field Gun will be found here!"
      },
      "bf2props": {
        "name": "cpname_kozelsk_insurgency64_militiamainbase_2_2",
        "class": "ObjectSpawner",
        "name_object": "ZiS-3 Field Gun",
        "team": "1",
        "obj1": "zis3",
        "obj2": "null",
        "maxspawn": "99999.0",
        "minspawn": "99999.0",
        "spawndelay": "false",
        "ttl": "0.0",
        "cpid": "106"
      }
    },
    {
      "type": "Feature",
      "geometry": {
        "type": "Point",
        "coordinates": [1534.3411, -1529.6641],
        "size": [16, 16]
      },
      "properties": {
        "iconurl": "icons/player_map/mini_squad.png",
        "iconrotate": "0",
        "popupContent": "Amazing information about Temporary spawnpoint will be found here!"
      },
      "bf2props": {
        "name": "cpname_kozelsk_insurgency64_militiamainbase_1_1",
        "class": "ObjectSpawner",
        "name_object": "Temporary spawnpoint",
        "team": "1",
        "obj1": "rallypoint_chinsurgent_placeable",
        "obj2": "null",
        "maxspawn": "99999.0",
        "minspawn": "99999.0",
        "spawndelay": "false",
        "ttl": "0.0",
        "cpid": "102"
      }
    },
    {
      "type": "Feature",
      "geometry": {
        "type": "Point",
        "coordinates": [1511.499, -1553.698],
        "size": [16, 16]
      },
      "properties": {
        "iconurl": "icons/vehicles_map/mini_trk_logistics.png",
        "iconrotate": "93.24",
        "popupContent": "Amazing information about Ural-4320 Logistics will be found here!"
      },
      "bf2props": {
        "name": "cpname_kozelsk_insurgency64_militiamainbase_1_2",
        "class": "ObjectSpawner",
        "name_object": "Ural-4320 Logistics",
        "team": "1",
        "obj1": "mil_trk_logistics",
        "obj2": "null",
        "maxspawn": "99999.0",
        "minspawn": "99999.0",
        "spawndelay": "false",
        "ttl": "12000.0",
        "cpid": "106"
      }
    },
    {
      "type": "Feature",
      "geometry": {
        "type": "Point",
        "coordinates": [785.874, -118.77698],
        "size": [16, 16]
      },
      "properties": {
        "iconurl": "icons/mini_map/repairdepot.png",
        "iconrotate": "0",
        "popupContent": "Amazing information about Vehicle Depot will be found here!"
      },
      "bf2props": {
        "name": "cpname_kozelsk_insurgency64_militiamainbase_vehicledeport",
        "class": "ObjectSpawner",
        "name_object": "Vehicle Depot",
        "team": "1",
        "obj1": "vehicle_depot_mil",
        "obj2": "null",
        "maxspawn": "0.0",
        "minspawn": "0.0",
        "spawndelay": "false",
        "ttl": "0.0",
        "cpid": "106"
      }
    },
    {
      "type": "Feature",
      "geometry": {
        "type": "Point",
        "coordinates": [-635.223, -2054.592],
        "size": [16, 16]
      },
      "properties": {
        "iconurl": "icons/mini_map/airdef.png",
        "iconrotate": "0",
        "popupContent": "Amazing information about null will be found here!"
      },
      "bf2props": {
        "name": "cpname_kozelsk_insurgency64_reinforcementshq_1_3",
        "class": "ObjectSpawner",
        "name_object": "Artillery Barrage Call-In",
        "team": "2",
        "obj1": "null",
        "obj2": "artillery_team2",
        "maxspawn": "2400.0",
        "minspawn": "2400.0",
        "spawndelay": "true",
        "ttl": "0.0",
        "cpid": "1"
      }
    },
    {
      "type": "Feature",
      "geometry": {
        "type": "Point",
        "coordinates": [-635.60095, -2047.773],
        "size": [16, 16]
      },
      "properties": {
        "iconurl": "icons/mini_map/airdef.png",
        "iconrotate": "0",
        "popupContent": "Amazing information about null will be found here!"
      },
      "bf2props": {
        "name": "cpname_kozelsk_insurgency64_reinforcementshq_2_1",
        "class": "ObjectSpawner",
        "name_object": "Artillery Barrage Call-In",
        "team": "2",
        "obj1": "null",
        "obj2": "artillery_team2",
        "maxspawn": "2400.0",
        "minspawn": "2400.0",
        "spawndelay": "true",
        "ttl": "0.0",
        "cpid": "1"
      }
    },
    {
      "type": "Feature",
      "geometry": {
        "type": "Point",
        "coordinates": [-635.74304, -2041.0349],
        "size": [16, 16]
      },
      "properties": {
        "iconurl": "icons/mini_map/airdef.png",
        "iconrotate": "0",
        "popupContent": "Amazing information about null will be found here!"
      },
      "bf2props": {
        "name": "cpname_kozelsk_insurgency64_reinforcementshq_3",
        "class": "ObjectSpawner",
        "name_object": "Artillery Barrage Call-In",
        "team": "2",
        "obj1": "null",
        "obj2": "artillery_team2",
        "maxspawn": "2400.0",
        "minspawn": "2400.0",
        "spawndelay": "true",
        "ttl": "0.0",
        "cpid": "1"
      }
    },
    {
      "type": "Feature",
      "geometry": {
        "type": "Point",
        "coordinates": [1022.95703, -1932.2],
        "size": [16, 16]
      },
      "properties": {
        "iconurl": "icons/player_map/mini_squad.png",
        "iconrotate": "0",
        "popupContent": "Amazing information about null will be found here!"
      },
      "bf2props": {
        "name": "cpname_kozelsk_insurgency64_reinforcementshq_mainbaserallypoint",
        "class": "ObjectSpawner",
        "name_object": "Permanent spawnpoint",
        "team": "2",
        "obj1": "null",
        "obj2": "rallypoint_ru_placeable_noexpire",
        "maxspawn": "0.0",
        "minspawn": "0.0",
        "spawndelay": "false",
        "ttl": "0.0",
        "cpid": "1"
      }
    },
    {
      "type": "Feature",
      "geometry": {
        "type": "Point",
        "coordinates": [798.927, -75.48999],
        "size": [16, 16]
      },
      "properties": {
        "iconurl": "icons/player_map/mini_squad.png",
        "iconrotate": "0",
        "popupContent": "Amazing information about Permanent spawnpoint will be found here!"
      },
      "bf2props": {
        "name": "cpname_kozelsk_insurgency64_militiamainbase_mainbaserallypoint",
        "class": "ObjectSpawner",
        "name_object": "Permanent spawnpoint",
        "team": "1",
        "obj1": "rallypoint_chinsurgent_placeable_noexpire",
        "obj2": "null",
        "maxspawn": "0.0",
        "minspawn": "0.0",
        "spawndelay": "false",
        "ttl": "0.0",
        "cpid": "106"
      }
    },
    {
      "type": "Feature",
      "geometry": {
        "type": "Point",
        "coordinates": [1918.5701, -1096.619],
        "size": [16, 16]
      },
      "properties": {
        "iconurl": "icons/vehicles_map/mini_civ_dirtbike.png",
        "iconrotate": "-128.689",
        "popupContent": "Amazing information about Dirtbike will be found here!"
      },
      "bf2props": {
        "name": "cpname_kozelsk_insurgency64_militiamainbase_bike",
        "class": "ObjectSpawner",
        "name_object": "Dirtbike",
        "team": "1",
        "obj1": "civ_bik_dirtbike",
        "obj2": "null",
        "maxspawn": "99999.0",
        "minspawn": "99999.0",
        "spawndelay": "false",
        "ttl": "12000.0",
        "cpid": "106"
      }
    },
    {
      "type": "Feature",
      "geometry": {
        "type": "Point",
        "coordinates": [1920.433, -1098.936],
        "size": [16, 16]
      },
      "properties": {
        "iconurl": "icons/vehicles_map/mini_civ_dirtbike.png",
        "iconrotate": "-128.689",
        "popupContent": "Amazing information about Dirtbike will be found here!"
      },
      "bf2props": {
        "name": "cpname_kozelsk_insurgency64_militiamainbase_0_6",
        "class": "ObjectSpawner",
        "name_object": "Dirtbike",
        "team": "1",
        "obj1": "civ_bik_dirtbike",
        "obj2": "null",
        "maxspawn": "99999.0",
        "minspawn": "99999.0",
        "spawndelay": "false",
        "ttl": "12000.0",
        "cpid": "106"
      }
    },
    {
      "type": "Feature",
      "geometry": {
        "type": "Point",
        "coordinates": [1924.1321, -1095.46],
        "size": [16, 16]
      },
      "properties": {
        "iconurl": "icons/vehicles_map/mini_civ_dirtbike.png",
        "iconrotate": "-128.689",
        "popupContent": "Amazing information about Dirtbike will be found here!"
      },
      "bf2props": {
        "name": "cpname_kozelsk_insurgency64_militiamainbase_1_3",
        "class": "ObjectSpawner",
        "name_object": "Dirtbike",
        "team": "1",
        "obj1": "civ_bik_dirtbike",
        "obj2": "null",
        "maxspawn": "99999.0",
        "minspawn": "99999.0",
        "spawndelay": "false",
        "ttl": "12000.0",
        "cpid": "106"
      }
    },
    {
      "type": "Feature",
      "geometry": {
        "type": "Point",
        "coordinates": [1922.084, -1092.604],
        "size": [16, 16]
      },
      "properties": {
        "iconurl": "icons/vehicles_map/mini_civ_dirtbike.png",
        "iconrotate": "-128.689",
        "popupContent": "Amazing information about Dirtbike will be found here!"
      },
      "bf2props": {
        "name": "cpname_kozelsk_insurgency64_militiamainbase_2_4",
        "class": "ObjectSpawner",
        "name_object": "Dirtbike",
        "team": "1",
        "obj1": "civ_bik_dirtbike",
        "obj2": "null",
        "maxspawn": "99999.0",
        "minspawn": "99999.0",
        "spawndelay": "false",
        "ttl": "12000.0",
        "cpid": "106"
      }
    },
    {
      "type": "Feature",
      "geometry": {
        "type": "Point",
        "coordinates": [1674.032, -558.968],
        "size": [16, 16]
      },
      "properties": {
        "iconurl": "icons/vehicles_map/mini_civ_dirtbike.png",
        "iconrotate": "-89.493",
        "popupContent": "Amazing information about Dirtbike will be found here!"
      },
      "bf2props": {
        "name": "cpname_kozelsk_insurgency64_militiamainbase_3_3",
        "class": "ObjectSpawner",
        "name_object": "Dirtbike",
        "team": "1",
        "obj1": "civ_bik_dirtbike",
        "obj2": "null",
        "maxspawn": "99999.0",
        "minspawn": "99999.0",
        "spawndelay": "false",
        "ttl": "12000.0",
        "cpid": "106"
      }
    },
    {
      "type": "Feature",
      "geometry": {
        "type": "Point",
        "coordinates": [1674.175, -561.02],
        "size": [16, 16]
      },
      "properties": {
        "iconurl": "icons/vehicles_map/mini_civ_dirtbike.png",
        "iconrotate": "-81.716",
        "popupContent": "Amazing information about Dirtbike will be found here!"
      },
      "bf2props": {
        "name": "cpname_kozelsk_insurgency64_militiamainbase_4_3",
        "class": "ObjectSpawner",
        "name_object": "Dirtbike",
        "team": "1",
        "obj1": "civ_bik_dirtbike",
        "obj2": "null",
        "maxspawn": "99999.0",
        "minspawn": "99999.0",
        "spawndelay": "false",
        "ttl": "12000.0",
        "cpid": "106"
      }
    },
    {
      "type": "Feature",
      "geometry": {
        "type": "Point",
        "coordinates": [1908.2571, -1106.773],
        "size": [16, 16]
      },
      "properties": {
        "iconurl": "icons/vehicles_map/mini_trk_logistics.png",
        "iconrotate": "-125.211",
        "popupContent": "Amazing information about Ural-4320 Logistics will be found here!"
      },
      "bf2props": {
        "name": "cpname_kozelsk_insurgency64_militiamainbase_militiatruck",
        "class": "ObjectSpawner",
        "name_object": "Ural-4320 Logistics",
        "team": "1",
        "obj1": "mil_trk_logistics",
        "obj2": "null",
        "maxspawn": "99999.0",
        "minspawn": "99999.0",
        "spawndelay": "false",
        "ttl": "12000.0",
        "cpid": "106"
      }
    },
    {
      "type": "Feature",
      "geometry": {
        "type": "Point",
        "coordinates": [814.191, -124.612976],
        "size": [16, 16]
      },
      "properties": {
        "iconurl": "icons/vehicles_map/mini_trk_support.png",
        "iconrotate": "0.0",
        "popupContent": "Amazing information about Ural-4320 will be found here!"
      },
      "bf2props": {
        "name": "cpname_kozelsk_insurgency64_militiamainbase_9",
        "class": "ObjectSpawner",
        "name_object": "Ural-4320",
        "team": "1",
        "obj1": "mil_trk_support",
        "obj2": "null",
        "maxspawn": "300.0",
        "minspawn": "300.0",
        "spawndelay": "false",
        "ttl": "12000.0",
        "cpid": "106"
      }
    },
    {
      "type": "Feature",
      "geometry": {
        "type": "Point",
        "coordinates": [820.159, -124.656006],
        "size": [16, 16]
      },
      "properties": {
        "iconurl": "icons/vehicles_map/mini_trk_support.png",
        "iconrotate": "0.0",
        "popupContent": "Amazing information about Ural-4320 will be found here!"
      },
      "bf2props": {
        "name": "cpname_kozelsk_insurgency64_militiamainbase_10",
        "class": "ObjectSpawner",
        "name_object": "Ural-4320",
        "team": "1",
        "obj1": "mil_trk_support",
        "obj2": "null",
        "maxspawn": "300.0",
        "minspawn": "300.0",
        "spawndelay": "false",
        "ttl": "12000.0",
        "cpid": "106"
      }
    },
    {
      "type": "Feature",
      "geometry": {
        "type": "Point",
        "coordinates": [837.935, -86.09802],
        "size": [16, 16]
      },
      "properties": {
        "iconurl": "icons/vehicles_map/mini_civ_dirtbike.png",
        "iconrotate": "-178.073",
        "popupContent": "Amazing information about Dirtbike will be found here!"
      },
      "bf2props": {
        "name": "bike",
        "class": "ObjectSpawner",
        "name_object": "Dirtbike",
        "team": "1",
        "obj1": "civ_bik_dirtbike",
        "obj2": "null",
        "maxspawn": "300.0",
        "minspawn": "300.0",
        "spawndelay": "false",
        "ttl": "12000.0",
        "cpid": "106"
      }
    },
    {
      "type": "Feature",
      "geometry": {
        "type": "Point",
        "coordinates": [841.052, -86.24402],
        "size": [16, 16]
      },
      "properties": {
        "iconurl": "icons/vehicles_map/mini_civ_dirtbike.png",
        "iconrotate": "-178.073",
        "popupContent": "Amazing information about Dirtbike will be found here!"
      },
      "bf2props": {
        "name": "bike_2",
        "class": "ObjectSpawner",
        "name_object": "Dirtbike",
        "team": "1",
        "obj1": "civ_bik_dirtbike",
        "obj2": "null",
        "maxspawn": "300.0",
        "minspawn": "300.0",
        "spawndelay": "false",
        "ttl": "12000.0",
        "cpid": "106"
      }
    },
    {
      "type": "Feature",
      "geometry": {
        "type": "Point",
        "coordinates": [773.143, -89.36603],
        "size": [16, 16]
      },
      "properties": {
        "iconurl": "icons/vehicles_map/mini_trk_logistics.png",
        "iconrotate": "173.976",
        "popupContent": "Amazing information about Ural-4320 Logistics will be found here!"
      },
      "bf2props": {
        "name": "truck",
        "class": "ObjectSpawner",
        "name_object": "Ural-4320 Logistics",
        "team": "1",
        "obj1": "mil_trk_logistics",
        "obj2": "null",
        "maxspawn": "300.0",
        "minspawn": "300.0",
        "spawndelay": "false",
        "ttl": "12000.0",
        "cpid": "106"
      }
    },
    {
      "type": "Feature",
      "geometry": {
        "type": "Point",
        "coordinates": [792.619, -121.65503],
        "size": [16, 16]
      },
      "properties": {
        "iconurl": "icons/vehicles_map/mini_jep_support.png",
        "iconrotate": "37.43",
        "popupContent": "Amazing information about Support Technical will be found here!"
      },
      "bf2props": {
        "name": "militiaammocar",
        "class": "ObjectSpawner",
        "name_object": "Support Technical",
        "team": "1",
        "obj1": "civ_jep_support_militia",
        "obj2": "null",
        "maxspawn": "300.0",
        "minspawn": "300.0",
        "spawndelay": "false",
        "ttl": "12000.0",
        "cpid": "106"
      }
    },
    {
      "type": "Feature",
      "geometry": {
        "type": "Point",
        "coordinates": [768.248, -89.75],
        "size": [16, 16]
      },
      "properties": {
        "iconurl": "icons/vehicles_map/mini_jep_light.png",
        "iconrotate": "180.0",
        "popupContent": "Amazing information about DShKM Technical will be found here!"
      },
      "bf2props": {
        "name": "militiatowtechnical",
        "class": "ObjectSpawner",
        "name_object": "DShKM Technical",
        "team": "1",
        "obj1": "civ_jep_technical2",
        "obj2": "null",
        "maxspawn": "1200.0",
        "minspawn": "1200.0",
        "spawndelay": "false",
        "ttl": "12000.0",
        "cpid": "106"
      }
    },
    {
      "type": "Feature",
      "geometry": {
        "type": "Point",
        "coordinates": [762.88696, -89.698975],
        "size": [16, 16]
      },
      "properties": {
        "iconurl": "icons/vehicles_map/mini_rec_light.png",
        "iconrotate": "180.0",
        "popupContent": "Amazing information about BRDM-2 will be found here!"
      },
      "bf2props": {
        "name": "militiabrdm",
        "class": "ObjectSpawner",
        "name_object": "BRDM-2",
        "team": "1",
        "obj1": "mec_jep_brdm2",
        "obj2": "null",
        "maxspawn": "99999.0",
        "minspawn": "99999.0",
        "spawndelay": "false",
        "ttl": "12000.0",
        "cpid": "106"
      }
    },
    {
      "type": "Feature",
      "geometry": {
        "type": "Point",
        "coordinates": [529.802, -1172.2839],
        "size": [16, 16]
      },
      "properties": {
        "iconurl": "icons/vehicles_map/mini_stw_atgun.png",
        "iconrotate": "-75.447",
        "popupContent": "Amazing information about ZiS-3 Field Gun will be found here!"
      },
      "bf2props": {
        "name": "atgun",
        "class": "ObjectSpawner",
        "name_object": "ZiS-3 Field Gun",
        "team": "1",
        "obj1": "zis3",
        "obj2": "null",
        "maxspawn": "99999.0",
        "minspawn": "99999.0",
        "spawndelay": "false",
        "ttl": "0.0",
        "cpid": "106"
      }
    },
    {
      "type": "Feature",
      "geometry": {
        "type": "Point",
        "coordinates": [527.76904, -1136.432],
        "size": [16, 16]
      },
      "properties": {
        "iconurl": "icons/vehicles_map/mini_stw_atgun.png",
        "iconrotate": "-98.186",
        "popupContent": "Amazing information about ZiS-3 Field Gun will be found here!"
      },
      "bf2props": {
        "name": "atgun_0",
        "class": "ObjectSpawner",
        "name_object": "ZiS-3 Field Gun",
        "team": "1",
        "obj1": "zis3",
        "obj2": "null",
        "maxspawn": "99999.0",
        "minspawn": "99999.0",
        "spawndelay": "false",
        "ttl": "0.0",
        "cpid": "106"
      }
    },
    {
      "type": "Feature",
      "geometry": {
        "type": "Point",
        "coordinates": [1817.823, -617.53296],
        "size": [16, 16]
      },
      "properties": {
        "iconurl": "icons/vehicles_map/mini_stw_atgun.png",
        "iconrotate": "142.321",
        "popupContent": "Amazing information about ZiS-3 Field Gun will be found here!"
      },
      "bf2props": {
        "name": "atgun_1",
        "class": "ObjectSpawner",
        "name_object": "ZiS-3 Field Gun",
        "team": "1",
        "obj1": "zis3",
        "obj2": "null",
        "maxspawn": "99999.0",
        "minspawn": "99999.0",
        "spawndelay": "false",
        "ttl": "0.0",
        "cpid": "106"
      }
    },
    {
      "type": "Feature",
      "geometry": {
        "type": "Point",
        "coordinates": [1967.844, -1322.719],
        "size": [16, 16]
      },
      "properties": {
        "iconurl": "icons/player_map/mini_squad.png",
        "iconrotate": "0",
        "popupContent": "Amazing information about Temporary spawnpoint will be found here!"
      },
      "bf2props": {
        "name": "militiarally",
        "class": "ObjectSpawner",
        "name_object": "Temporary spawnpoint",
        "team": "1",
        "obj1": "rallypoint_chinsurgent_placeable",
        "obj2": "null",
        "maxspawn": "99999.0",
        "minspawn": "99999.0",
        "spawndelay": "false",
        "ttl": "50.0",
        "cpid": "3"
      }
    },
    {
      "type": "Feature",
      "geometry": {
        "type": "Point",
        "coordinates": [1981.6079, -1304.512],
        "size": [16, 16]
      },
      "properties": {
        "iconurl": "icons/vehicles_map/mini_rec_light.png",
        "iconrotate": "-109.502",
        "popupContent": "Amazing information about BRDM-2 will be found here!"
      },
      "bf2props": {
        "name": "militiabrdm_0",
        "class": "ObjectSpawner",
        "name_object": "BRDM-2",
        "team": "1",
        "obj1": "mec_jep_brdm2",
        "obj2": "null",
        "maxspawn": "99999.0",
        "minspawn": "99999.0",
        "spawndelay": "false",
        "ttl": "12000.0",
        "cpid": "106"
      }
    },
    {
      "type": "Feature",
      "geometry": {
        "type": "Point",
        "coordinates": [575.787, -1260.21],
        "size": [16, 16]
      },
      "properties": {
        "iconurl": "icons/vehicles_map/mini_jep_light.png",
        "iconrotate": "-64.358",
        "popupContent": "Amazing information about DShKM Technical will be found here!"
      },
      "bf2props": {
        "name": "militiatechnical",
        "class": "ObjectSpawner",
        "name_object": "DShKM Technical",
        "team": "1",
        "obj1": "civ_jep_technical2",
        "obj2": "null",
        "maxspawn": "99999.0",
        "minspawn": "99999.0",
        "spawndelay": "false",
        "ttl": "12000.0",
        "cpid": "106"
      }
    },
    {
      "type": "Feature",
      "geometry": {
        "type": "Point",
        "coordinates": [1016.53894, -1955.842],
        "size": [16, 16]
      },
      "properties": {
        "iconurl": "icons/mini_map/repairdepot.png",
        "iconrotate": "0",
        "popupContent": "Amazing information about null will be found here!"
      },
      "bf2props": {
        "name": "cpname_kozelsk_insurgency64_reinforcementshq_vehicledeport",
        "class": "ObjectSpawner",
        "name_object": "Vehicle Depot",
        "team": "2",
        "obj1": "null",
        "obj2": "vehicle_depot_ru",
        "maxspawn": "0.0",
        "minspawn": "0.0",
        "spawndelay": "false",
        "ttl": "0.0",
        "cpid": "1"
      }
    },
    {
      "type": "Feature",
      "geometry": {
        "type": "Point",
        "coordinates": [1010.474, -1990.178],
        "size": [16, 16]
      },
      "properties": {
        "iconurl": "icons/vehicles_map/mini_trk_logistics.png",
        "iconrotate": "-40.734",
        "popupContent": "Amazing information about null will be found here!"
      },
      "bf2props": {
        "name": "cpname_kozelsk_insurgency64_russiagarage_1",
        "class": "ObjectSpawner",
        "name_object": "Ural-4320 Logistics",
        "team": "2",
        "obj1": "null",
        "obj2": "ru_trk_logistics",
        "maxspawn": "600.0",
        "minspawn": "600.0",
        "spawndelay": "false",
        "ttl": "12000.0",
        "cpid": "1"
      }
    },
    {
      "type": "Feature",
      "geometry": {
        "type": "Point",
        "coordinates": [1012.041, -1973.2681],
        "size": [16, 16]
      },
      "properties": {
        "iconurl": "icons/vehicles_map/mini_trk_logistics.png",
        "iconrotate": "-53.884",
        "popupContent": "Amazing information about null will be found here!"
      },
      "bf2props": {
        "name": "cpname_kozelsk_insurgency64_russiagarage_2",
        "class": "ObjectSpawner",
        "name_object": "Ural-4320 Logistics",
        "team": "2",
        "obj1": "null",
        "obj2": "ru_trk_logistics",
        "maxspawn": "600.0",
        "minspawn": "600.0",
        "spawndelay": "false",
        "ttl": "12000.0",
        "cpid": "1"
      }
    },
    {
      "type": "Feature",
      "geometry": {
        "type": "Point",
        "coordinates": [1011.635, -1977.9661],
        "size": [16, 16]
      },
      "properties": {
        "iconurl": "icons/vehicles_map/mini_trk_logistics.png",
        "iconrotate": "-48.732",
        "popupContent": "Amazing information about null will be found here!"
      },
      "bf2props": {
        "name": "cpname_kozelsk_insurgency64_russiagarage_3",
        "class": "ObjectSpawner",
        "name_object": "Ural-4320 Logistics",
        "team": "2",
        "obj1": "null",
        "obj2": "ru_trk_logistics",
        "maxspawn": "600.0",
        "minspawn": "600.0",
        "spawndelay": "false",
        "ttl": "12000.0",
        "cpid": "1"
      }
    },
    {
      "type": "Feature",
      "geometry": {
        "type": "Point",
        "coordinates": [1011.866, -1985.1631],
        "size": [16, 16]
      },
      "properties": {
        "iconurl": "icons/vehicles_map/mini_trk_logistics.png",
        "iconrotate": "-43.883",
        "popupContent": "Amazing information about null will be found here!"
      },
      "bf2props": {
        "name": "cpname_kozelsk_insurgency64_russiagarage_4",
        "class": "ObjectSpawner",
        "name_object": "Ural-4320 Logistics",
        "team": "2",
        "obj1": "null",
        "obj2": "ru_trk_logistics",
        "maxspawn": "600.0",
        "minspawn": "600.0",
        "spawndelay": "false",
        "ttl": "12000.0",
        "cpid": "1"
      }
    },
    {
      "type": "Feature",
      "geometry": {
        "type": "Point",
        "coordinates": [997.301, -1989.793],
        "size": [16, 16]
      },
      "properties": {
        "iconurl": "icons/vehicles_map/mini_trk_support.png",
        "iconrotate": "33.17",
        "popupContent": "Amazing information about null will be found here!"
      },
      "bf2props": {
        "name": "cpname_kozelsk_insurgency64_russiagarage_5",
        "class": "ObjectSpawner",
        "name_object": "Ural-4320",
        "team": "2",
        "obj1": "null",
        "obj2": "ru_trk_support",
        "maxspawn": "600.0",
        "minspawn": "600.0",
        "spawndelay": "false",
        "ttl": "12000.0",
        "cpid": "1"
      }
    },
    {
      "type": "Feature",
      "geometry": {
        "type": "Point",
        "coordinates": [993.926, -1973.449],
        "size": [16, 16]
      },
      "properties": {
        "iconurl": "icons/vehicles_map/mini_trk_support.png",
        "iconrotate": "41.842",
        "popupContent": "Amazing information about null will be found here!"
      },
      "bf2props": {
        "name": "cpname_kozelsk_insurgency64_russiagarage_6",
        "class": "ObjectSpawner",
        "name_object": "Ural-4320",
        "team": "2",
        "obj1": "null",
        "obj2": "ru_trk_support",
        "maxspawn": "600.0",
        "minspawn": "600.0",
        "spawndelay": "false",
        "ttl": "12000.0",
        "cpid": "1"
      }
    },
    {
      "type": "Feature",
      "geometry": {
        "type": "Point",
        "coordinates": [994.589, -1979.762],
        "size": [16, 16]
      },
      "properties": {
        "iconurl": "icons/vehicles_map/mini_trk_support.png",
        "iconrotate": "37.866",
        "popupContent": "Amazing information about null will be found here!"
      },
      "bf2props": {
        "name": "cpname_kozelsk_insurgency64_russiagarage_7",
        "class": "ObjectSpawner",
        "name_object": "Ural-4320",
        "team": "2",
        "obj1": "null",
        "obj2": "ru_trk_support",
        "maxspawn": "600.0",
        "minspawn": "600.0",
        "spawndelay": "false",
        "ttl": "12000.0",
        "cpid": "1"
      }
    },
    {
      "type": "Feature",
      "geometry": {
        "type": "Point",
        "coordinates": [995.66, -1985.192],
        "size": [16, 16]
      },
      "properties": {
        "iconurl": "icons/vehicles_map/mini_trk_support.png",
        "iconrotate": "33.17",
        "popupContent": "Amazing information about null will be found here!"
      },
      "bf2props": {
        "name": "cpname_kozelsk_insurgency64_russiagarage_8",
        "class": "ObjectSpawner",
        "name_object": "Ural-4320",
        "team": "2",
        "obj1": "null",
        "obj2": "ru_trk_support",
        "maxspawn": "600.0",
        "minspawn": "600.0",
        "spawndelay": "false",
        "ttl": "12000.0",
        "cpid": "1"
      }
    },
    {
      "type": "Feature",
      "geometry": {
        "type": "Point",
        "coordinates": [963.376, -1983.765],
        "size": [16, 16]
      },
      "properties": {
        "iconurl": "icons/vehicles_map/mini_apc_medium.png",
        "iconrotate": "-10.656",
        "popupContent": "Amazing information about null will be found here!"
      },
      "bf2props": {
        "name": "russia_btr_no_respawn",
        "class": "ObjectSpawner",
        "name_object": "BTR-80A",
        "team": "2",
        "obj1": "null",
        "obj2": "ru_apc_btr80a",
        "maxspawn": "99999.0",
        "minspawn": "99999.0",
        "spawndelay": "false",
        "ttl": "12000.0",
        "cpid": "1"
      }
    },
    {
      "type": "Feature",
      "geometry": {
        "type": "Point",
        "coordinates": [954.663, -1984.0],
        "size": [16, 16]
      },
      "properties": {
        "iconurl": "icons/vehicles_map/mini_apc_medium.png",
        "iconrotate": "0.0",
        "popupContent": "Amazing information about null will be found here!"
      },
      "bf2props": {
        "name": "russia_btr_respawn",
        "class": "ObjectSpawner",
        "name_object": "BTR-80A",
        "team": "2",
        "obj1": "null",
        "obj2": "ru_apc_btr80a",
        "maxspawn": "1200.0",
        "minspawn": "1200.0",
        "spawndelay": "false",
        "ttl": "12000.0",
        "cpid": "1"
      }
    },
    {
      "type": "Feature",
      "geometry": {
        "type": "Point",
        "coordinates": [830.226, -1953.158],
        "size": [16, 16]
      },
      "properties": {
        "iconurl": "icons/vehicles_map/mini_shp_light.png",
        "iconrotate": "-75.0",
        "popupContent": "Amazing information about null will be found here!"
      },
      "bf2props": {
        "name": "russia_boat_1",
        "class": "ObjectSpawner",
        "name_object": "RHIB",
        "team": "2",
        "obj1": "null",
        "obj2": "boat_rib_gpmg_pkp",
        "maxspawn": "600.0",
        "minspawn": "600.0",
        "spawndelay": "false",
        "ttl": "12000.0",
        "cpid": "1"
      }
    },
    {
      "type": "Feature",
      "geometry": {
        "type": "Point",
        "coordinates": [830.0, -1962.0],
        "size": [16, 16]
      },
      "properties": {
        "iconurl": "icons/vehicles_map/mini_shp_light.png",
        "iconrotate": "-75.0",
        "popupContent": "Amazing information about null will be found here!"
      },
      "bf2props": {
        "name": "russia_boat_2",
        "class": "ObjectSpawner",
        "name_object": "RHIB",
        "team": "2",
        "obj1": "null",
        "obj2": "boat_rib_gpmg_pkp",
        "maxspawn": "99999.0",
        "minspawn": "99999.0",
        "spawndelay": "false",
        "ttl": "12000.0",
        "cpid": "1"
      }
    },
    {
      "type": "Feature",
      "geometry": {
        "type": "Point",
        "coordinates": [926.0, -1981.0],
        "size": [16, 16]
      },
      "properties": {
        "iconurl": "icons/vehicles_map/mini_the_medium.png",
        "iconrotate": "0.0",
        "popupContent": "Amazing information about null will be found here!"
      },
      "bf2props": {
        "name": "cpname_kozelsk_insurgency64_reinforcementshq_heli1",
        "class": "ObjectSpawner",
        "name_object": "Mi-8MT Hip-C",
        "team": "2",
        "obj1": "null",
        "obj2": "ru_the_mi8",
        "maxspawn": "600.0",
        "minspawn": "600.0",
        "spawndelay": "false",
        "ttl": "12000.0",
        "cpid": "1"
      }
    },
    {
      "type": "Feature",
      "geometry": {
        "type": "Point",
        "coordinates": [979.917, -1894.585],
        "size": [33, 33],
        "radius": "0.0"
      },
      "properties": {
        "iconurl": "icons/flags_map/ru/minimap_cpbase.png",
        "iconrotate": "0",
        "popupContent": "Amazing information about Russian Operations Base will be found here!"
      },
      "bf2props": {
        "name": "cpname_kozelsk_insurgency64_reinforcementshq",
        "class": "ControlPoint",
        "name_object": "Russian Operations Base",
        "team": "2",
        "areavalue1": "0.0",
        "areavalue2": "66.0",
        "cpid": "1",
        "sgid": "2",
        "uncap": "true",
        "ttgc": "0.0",
        "ttlc": "0.0"
      }
    },
    {
      "type": "Feature",
      "geometry": {
        "type": "Point",
        "coordinates": [849.722, -113.426025],
        "size": [33, 33],
        "radius": "0.0"
      },
      "properties": {
        "iconurl": "icons/flags_map/chinsurgent/minimap_cpbase.png",
        "iconrotate": "0",
        "popupContent": "Amazing information about Militia Operations Base will be found here!"
      },
      "bf2props": {
        "name": "cpname_kozelsk_insurgency64_militiamainbase",
        "class": "ControlPoint",
        "name_object": "Militia Operations Base",
        "team": "1",
        "areavalue1": "0.0",
        "areavalue2": "0.0",
        "cpid": "106",
        "sgid": "1",
        "uncap": "true",
        "ttgc": "0.0",
        "ttlc": "0.0"
      }
    },
    {
      "type": "Feature",
      "geometry": {
        "type": "Polygon",
        "coordinates": [
          [
            [0,0],
            [0,-2048],
            [2048,-2048],
            [2048,0]
          ],[
            [4.8131104, -1073.165],
            [24.44757, -32.40674],
            [1.8944092, -1.9899902],
            [25.023499, -31.524048],
            [364.38116, -45.306274],
            [770.2695, -20.413696],
            [1178.7308, -35.546997],
            [1324.0071, -3.911499],
            [1709.4271, -24.963379],
            [1911.8129, -37.300293],
            [1986.9099, -41.126343],
            [2028.1405, -90.78943],
            [2043.8844, -138.31567],
            [2043.921, -386.62598],
            [2044.1196, -568.96985],
            [2044.0717, -1126.1969],
            [2042.0697, -1343.89],
            [2041.9596, -2041.988],
            [877.8553, -2039.9713],
            [2.069519, -2046.021]
          ]
        ]
      },
      "bf2props": {
        "code": "combatarea_0_aas32",
        "class": "CombatArea",
        "team": "0",
        "vehicles": "4",
        "layer": "2",
        "inverted": "false",
        "max": [0.0, 0.0],
        "min": [0.0, 0.0]
      }
    },
    {
      "type": "Feature",
      "geometry": {
        "type": "Polygon",
        "coordinates": [
          [
            [868.3141, -2046.0566],
            [1385.8601, -2046.0415],
            [1338.6285, -1859.8816],
            [1276.0886, -1763.7135],
            [1189.8544, -1701.7725],
            [1080.1136, -1605.898],
            [595.68787, -1621.6924],
            [521.9874, -2045.9702]
          ]
        ]
      },
      "bf2props": {
        "code": "combatarea_20_aas32",
        "class": "CombatArea",
        "team": "1",
        "vehicles": "4",
        "layer": "2",
        "inverted": "true",
        "max": [0.0, 0.0],
        "min": [0.0, 0.0]
      }
    },
    {
      "type": "Feature",
      "geometry": {
        "type": "Polygon",
        "coordinates": [
          [
            [323.8794, -43.118774],
            [530.8481, -219.5116],
            [683.6489, -319.33142],
            [779.14636, -326.55334],
            [931.0336, -385.28174],
            [1176.0148, -376.36548],
            [1251.7811, -238.50647],
            [1266.5835, -5.3044434],
            [333.07916, -25.550049]
          ]
        ]
      },
      "bf2props": {
        "code": "combatarea_28_aas32",
        "class": "CombatArea",
        "team": "2",
        "vehicles": "4",
        "layer": "2",
        "inverted": "true",
        "max": [0.0, 0.0],
        "min": [0.0, 0.0]
      }
    }
  ]
}