{
  "team1":"chinsurgent",
  "team2":"ru",
  "team1tickets":"400",
  "team2tickets":"400",
  "mapsize":"2048",
  "viewdistance":"450",
  "combatareause":"true",
  "combatareadamage":"20.0",
  "combatareaallowoutside":"10.0",
  "routes": [
    [
      [
        "cpname_kozelsk_coop16_chechenmain"
      ],
      [
        "cpname_kozelsk_coop16_depot",
        "cpname_kozelsk_coop16_vehicleoutpost",
        "cpname_kozelsk_coop16_launchfacility"
      ],
      [
        "cpname_kozelsk_coop16_bunker",
        "cpname_kozelsk_coop16_outpost"
      ],
      [
        "cpname_kozelsk_coop16_russianmain"
      ]
    ]
  ],
  "type": "FeatureCollection",
  "features": [
    {
      "type": "Feature",
      "geometry": {
        "type": "Point",
        "coordinates": [1010.171, -1058.121],
        "size": [16, 16]
      },
      "properties": {
        "iconurl": "icons/mini_map/uavtrailer.png",
        "iconrotate": "0",
        "popupContent": "Amazing information about null will be found here!"
      },
      "bf2props": {
        "name": "russian_rally_gb_commandpost",
        "class": "ObjectSpawner",
        "name_object": "UAV Terminal",
        "team": "2",
        "obj1": "null",
        "obj2": "ru_acv_btr60pu",
        "maxspawn": "0.0",
        "minspawn": "0.0",
        "spawndelay": "false",
        "ttl": "100.0",
        "cpid": "1"
      }
    },
    {
      "type": "Feature",
      "geometry": {
        "type": "Point",
        "coordinates": [534.501, -516.263],
        "size": [16, 16]
      },
      "properties": {
        "iconurl": "icons/vehicles_map/firebase_mini_white.png",
        "iconrotate": "0",
        "popupContent": "Amazing information about Command Post will be found here!"
      },
      "bf2props": {
        "name": "chechen_hq_ch_commandpost",
        "class": "ObjectSpawner",
        "name_object": "Command Post",
        "team": "1",
        "obj1": "deployable_commandpost_chins",
        "obj2": "null",
        "maxspawn": "0.0",
        "minspawn": "0.0",
        "spawndelay": "false",
        "ttl": "100.0",
        "cpid": "2"
      }
    },
    {
      "type": "Feature",
      "geometry": {
        "type": "Point",
        "coordinates": [710.911, -805.796],
        "size": [16, 16]
      },
      "properties": {
        "iconurl": "icons/vehicles_map/mini_smgsmall.png",
        "iconrotate": "-175.711",
        "popupContent": "Amazing information about Stationary PKM will be found here!"
      },
      "bf2props": {
        "name": "vehicle_park_mil_mg",
        "class": "ObjectSpawner",
        "name_object": "Stationary PKM",
        "team": "1",
        "obj1": "ru_bipod",
        "obj2": "null",
        "maxspawn": "0.0",
        "minspawn": "0.0",
        "spawndelay": "false",
        "ttl": "0.0",
        "cpid": "5"
      }
    },
    {
      "type": "Feature",
      "geometry": {
        "type": "Point",
        "coordinates": [978.41797, -1068.74],
        "size": [33, 33],
        "radius": "10.0"
      },
      "properties": {
        "iconurl": "icons/flags_map/ru/minimap_cp.png",
        "iconrotate": "0",
        "popupContent": "Amazing information about Russian Deployment Area will be found here!"
      },
      "bf2props": {
        "name": "cpname_kozelsk_coop16_russianmain",
        "class": "ControlPoint",
        "name_object": "Russian Deployment Area",
        "team": "2",
        "areavalue1": "0.0",
        "areavalue2": "0.0",
        "cpid": "1",
        "sgid": "4",
        "uncap": "false",
        "ttgc": "60.0",
        "ttlc": "60.0"
      }
    },
    {
      "type": "Feature",
      "geometry": {
        "type": "Point",
        "coordinates": [559.947, -546.49],
        "size": [33, 33],
        "radius": "10.0"
      },
      "properties": {
        "iconurl": "icons/flags_map/chinsurgent/minimap_cp.png",
        "iconrotate": "0",
        "popupContent": "Amazing information about Militia Operations Base will be found here!"
      },
      "bf2props": {
        "name": "cpname_kozelsk_coop16_chechenmain",
        "class": "ControlPoint",
        "name_object": "Militia Operations Base",
        "team": "1",
        "areavalue1": "0.0",
        "areavalue2": "0.0",
        "cpid": "2",
        "sgid": "1",
        "uncap": "false",
        "ttgc": "60.0",
        "ttlc": "60.0"
      }
    },
    {
      "type": "Feature",
      "geometry": {
        "type": "Point",
        "coordinates": [628.527, -1151.48],
        "size": [33, 33],
        "radius": "10.0"
      },
      "properties": {
        "iconurl": "icons/flags_map/ru/minimap_cp.png",
        "iconrotate": "0",
        "popupContent": "Amazing information about Bunker will be found here!"
      },
      "bf2props": {
        "name": "cpname_kozelsk_coop16_bunker",
        "class": "ControlPoint",
        "name_object": "Bunker",
        "team": "2",
        "areavalue1": "0.0",
        "areavalue2": "0.0",
        "cpid": "3",
        "sgid": "3",
        "uncap": "false",
        "ttgc": "20.0",
        "ttlc": "30.0"
      }
    },
    {
      "type": "Feature",
      "geometry": {
        "type": "Point",
        "coordinates": [517.977, -932.211],
        "size": [33, 33],
        "radius": "10.0"
      },
      "properties": {
        "iconurl": "icons/flags_map/neutral/minimap_cp.png",
        "iconrotate": "0",
        "popupContent": "Amazing information about Depot will be found here!"
      },
      "bf2props": {
        "name": "cpname_kozelsk_coop16_depot",
        "class": "ControlPoint",
        "name_object": "Depot",
        "team": "0",
        "areavalue1": "0.0",
        "areavalue2": "0.0",
        "cpid": "4",
        "sgid": "2",
        "uncap": "false",
        "ttgc": "20.0",
        "ttlc": "30.0"
      }
    },
    {
      "type": "Feature",
      "geometry": {
        "type": "Point",
        "coordinates": [857.735, -739.001],
        "size": [33, 33],
        "radius": "18.0"
      },
      "properties": {
        "iconurl": "icons/flags_map/neutral/minimap_cp.png",
        "iconrotate": "0",
        "popupContent": "Amazing information about Vehicle Outpost will be found here!"
      },
      "bf2props": {
        "name": "cpname_kozelsk_coop16_vehicleoutpost",
        "class": "ControlPoint",
        "name_object": "Vehicle Outpost",
        "team": "0",
        "areavalue1": "0.0",
        "areavalue2": "0.0",
        "cpid": "5",
        "sgid": "2",
        "uncap": "false",
        "ttgc": "20.0",
        "ttlc": "30.0"
      }
    },
    {
      "type": "Feature",
      "geometry": {
        "type": "Point",
        "coordinates": [790.08704, -1002.061],
        "size": [33, 33],
        "radius": "10.0"
      },
      "properties": {
        "iconurl": "icons/flags_map/neutral/minimap_cp.png",
        "iconrotate": "0",
        "popupContent": "Amazing information about Outpost will be found here!"
      },
      "bf2props": {
        "name": "cpname_kozelsk_coop16_outpost",
        "class": "ControlPoint",
        "name_object": "Outpost",
        "team": "0",
        "areavalue1": "0.0",
        "areavalue2": "0.0",
        "cpid": "6",
        "sgid": "3",
        "uncap": "false",
        "ttgc": "20.0",
        "ttlc": "30.0"
      }
    },
    {
      "type": "Feature",
      "geometry": {
        "type": "Point",
        "coordinates": [657.381, -613.742],
        "size": [33, 33],
        "radius": "20.0"
      },
      "properties": {
        "iconurl": "icons/flags_map/chinsurgent/minimap_cp.png",
        "iconrotate": "0",
        "popupContent": "Amazing information about Launch Facility will be found here!"
      },
      "bf2props": {
        "name": "cpname_kozelsk_coop16_launchfacility",
        "class": "ControlPoint",
        "name_object": "Launch Facility",
        "team": "1",
        "areavalue1": "0.0",
        "areavalue2": "0.0",
        "cpid": "7",
        "sgid": "2",
        "uncap": "false",
        "ttgc": "20.0",
        "ttlc": "30.0"
      }
    },
    {
      "type": "Feature",
      "geometry": {
        "type": "Polygon",
        "coordinates": [
          [
            [0,0],
            [0,-2048],
            [2048,-2048],
            [2048,0]
          ],[
            [799.29126, -1220.9236],
            [675.4131, -1264.4635],
            [613.5625, -1266.7163],
            [587.74475, -1278.2883],
            [499.9018, -1274.1982],
            [497.48975, -1198.4929],
            [462.70087, -1188.3677],
            [456.50726, -916.60645],
            [482.89648, -457.83923],
            [801.3238, -474.92822],
            [887.44965, -564.103],
            [901.2344, -805.58374],
            [1050.7026, -1033.7476],
            [949.6331, -1273.3223],
            [856.8056, -1244.0691]
          ]
        ]
      },
      "bf2props": {
        "code": "combatarea_0_default",
        "class": "CombatArea",
        "team": "0",
        "vehicles": "4",
        "layer": "7",
        "inverted": "false",
        "max": [0.0, 0.0],
        "min": [0.0, 0.0]
      }
    }
  ]
}