{
  "team1":"ch",
  "team2":"ger",
  "team1tickets":"500",
  "team2tickets":"500",
  "mapsize":"4096",
  "viewdistance":"800",
  "combatareause":"true",
  "combatareadamage":"20.0",
  "combatareaallowoutside":"10.0",
  "routes": [
    [
      [
        "cpname_wanda_shan_skirmish32_plamain"
      ],
      [
        "cpname_wanda_shan_skirmish32_villagesouth"
      ],
      [
        "cpname_wanda_shan_skirmish32_villagenorth"
      ],
      [
        "cpname_wanda_shan_skirmish32_rumain"
      ]
    ]
  ],
  "type": "FeatureCollection",
  "features": [
    {
      "type": "Feature",
      "geometry": {
        "type": "Point",
        "coordinates": [2912.085, -2762.137],
        "size": [16, 16]
      },
      "properties": {
        "iconurl": "icons/mini_map/icon_supply.png",
        "iconrotate": "0",
        "popupContent": "Amazing information about Permanent supply crate will be found here!"
      },
      "bf2props": {
        "name": "cpname_wanda_shan_skirmish32_plamain_ch_supply_crate",
        "class": "ObjectSpawner",
        "name_object": "Permanent supply crate | Permanent supply crate",
        "team": "1",
        "obj1": "fixed_supply_crate",
        "obj2": "fixed_supply_crate",
        "maxspawn": "0.0",
        "minspawn": "0.0",
        "spawndelay": "false",
        "ttl": "0.0",
        "cpid": "401"
      }
    },
    {
      "type": "Feature",
      "geometry": {
        "type": "Point",
        "coordinates": [2810.0, -2602.0],
        "size": [16, 16]
      },
      "properties": {
        "iconurl": "icons/mini_map/icon_supply.png",
        "iconrotate": "0",
        "popupContent": "Amazing information about Permanent supply crate will be found here!"
      },
      "bf2props": {
        "name": "cpname_wanda_shan_skirmish32_plamain_",
        "class": "ObjectSpawner",
        "name_object": "Permanent supply crate | Permanent supply crate",
        "team": "1",
        "obj1": "fixed_supply_crate",
        "obj2": "fixed_supply_crate",
        "maxspawn": "0.0",
        "minspawn": "0.0",
        "spawndelay": "false",
        "ttl": "0.0",
        "cpid": "401"
      }
    },
    {
      "type": "Feature",
      "geometry": {
        "type": "Point",
        "coordinates": [2662.0, -2346.0],
        "size": [16, 16]
      },
      "properties": {
        "iconurl": "icons/mini_map/icon_supply.png",
        "iconrotate": "0",
        "popupContent": "Amazing information about Permanent supply crate will be found here!"
      },
      "bf2props": {
        "name": "cpname_wanda_shan_skirmish32_villagesouth_",
        "class": "ObjectSpawner",
        "name_object": "Permanent supply crate | Permanent supply crate",
        "team": "0",
        "obj1": "fixed_supply_crate",
        "obj2": "fixed_supply_crate",
        "maxspawn": "0.0",
        "minspawn": "0.0",
        "spawndelay": "false",
        "ttl": "0.0",
        "cpid": "402"
      }
    },
    {
      "type": "Feature",
      "geometry": {
        "type": "Point",
        "coordinates": [2700.0, -2233.905],
        "size": [16, 16]
      },
      "properties": {
        "iconurl": "icons/mini_map/icon_supply.png",
        "iconrotate": "0",
        "popupContent": "Amazing information about Permanent supply crate will be found here!"
      },
      "bf2props": {
        "name": "cpname_wanda_shan_skirmish32_villagenorth_",
        "class": "ObjectSpawner",
        "name_object": "Permanent supply crate | Permanent supply crate",
        "team": "0",
        "obj1": "fixed_supply_crate",
        "obj2": "fixed_supply_crate",
        "maxspawn": "0.0",
        "minspawn": "0.0",
        "spawndelay": "false",
        "ttl": "0.0",
        "cpid": "403"
      }
    },
    {
      "type": "Feature",
      "geometry": {
        "type": "Point",
        "coordinates": [2770.0, -2006.0],
        "size": [16, 16]
      },
      "properties": {
        "iconurl": "icons/mini_map/icon_supply.png",
        "iconrotate": "0",
        "popupContent": "Amazing information about Permanent supply crate will be found here!"
      },
      "bf2props": {
        "name": "cpname_wanda_shan_skirmish32_rumain_",
        "class": "ObjectSpawner",
        "name_object": "Permanent supply crate | Permanent supply crate",
        "team": "2",
        "obj1": "fixed_supply_crate",
        "obj2": "fixed_supply_crate",
        "maxspawn": "0.0",
        "minspawn": "0.0",
        "spawndelay": "false",
        "ttl": "0.0",
        "cpid": "404"
      }
    },
    {
      "type": "Feature",
      "geometry": {
        "type": "Point",
        "coordinates": [2850.0, -1846.0],
        "size": [16, 16]
      },
      "properties": {
        "iconurl": "icons/mini_map/icon_supply.png",
        "iconrotate": "0",
        "popupContent": "Amazing information about Permanent supply crate will be found here!"
      },
      "bf2props": {
        "name": "cpname_wanda_shan_skirmish32_rumain__0",
        "class": "ObjectSpawner",
        "name_object": "Permanent supply crate | Permanent supply crate",
        "team": "2",
        "obj1": "fixed_supply_crate",
        "obj2": "fixed_supply_crate",
        "maxspawn": "0.0",
        "minspawn": "0.0",
        "spawndelay": "false",
        "ttl": "0.0",
        "cpid": "404"
      }
    },
    {
      "type": "Feature",
      "geometry": {
        "type": "Point",
        "coordinates": [2812.0, -2580.0],
        "size": [33, 33],
        "radius": "25.0"
      },
      "properties": {
        "iconurl": "icons/flags_map/ch/minimap_cp.png",
        "iconrotate": "0",
        "popupContent": "Amazing information about Hill 25m will be found here!"
      },
      "bf2props": {
        "name": "cpname_wanda_shan_skirmish32_plamain",
        "class": "ControlPoint",
        "name_object": "Hill 25m",
        "team": "1",
        "areavalue1": "0.0",
        "areavalue2": "100.0",
        "cpid": "401",
        "sgid": "1",
        "uncap": "false",
        "ttgc": "45.0",
        "ttlc": "45.0"
      }
    },
    {
      "type": "Feature",
      "geometry": {
        "type": "Point",
        "coordinates": [2662.0, -2338.0],
        "size": [33, 33],
        "radius": "35.0"
      },
      "properties": {
        "iconurl": "icons/flags_map/neutral/minimap_cp.png",
        "iconrotate": "0",
        "popupContent": "Amazing information about Village South 35m will be found here!"
      },
      "bf2props": {
        "name": "cpname_wanda_shan_skirmish32_villagesouth",
        "class": "ControlPoint",
        "name_object": "Village South 35m",
        "team": "0",
        "areavalue1": "0.0",
        "areavalue2": "0.0",
        "cpid": "402",
        "sgid": "2",
        "uncap": "false",
        "ttgc": "45.0",
        "ttlc": "45.0"
      }
    },
    {
      "type": "Feature",
      "geometry": {
        "type": "Point",
        "coordinates": [2700.0, -2228.0],
        "size": [33, 33],
        "radius": "35.0"
      },
      "properties": {
        "iconurl": "icons/flags_map/neutral/minimap_cp.png",
        "iconrotate": "0",
        "popupContent": "Amazing information about Village North 35m will be found here!"
      },
      "bf2props": {
        "name": "cpname_wanda_shan_skirmish32_villagenorth",
        "class": "ControlPoint",
        "name_object": "Village North 35m",
        "team": "0",
        "areavalue1": "0.0",
        "areavalue2": "0.0",
        "cpid": "403",
        "sgid": "3",
        "uncap": "false",
        "ttgc": "45.0",
        "ttlc": "45.0"
      }
    },
    {
      "type": "Feature",
      "geometry": {
        "type": "Point",
        "coordinates": [2776.0, -2018.0],
        "size": [33, 33],
        "radius": "25.0"
      },
      "properties": {
        "iconurl": "icons/flags_map/ger/minimap_cp.png",
        "iconrotate": "0",
        "popupContent": "Amazing information about Forest 25m will be found here!"
      },
      "bf2props": {
        "name": "cpname_wanda_shan_skirmish32_rumain",
        "class": "ControlPoint",
        "name_object": "Forest 25m",
        "team": "2",
        "areavalue1": "100.0",
        "areavalue2": "0.0",
        "cpid": "404",
        "sgid": "4",
        "uncap": "false",
        "ttgc": "45.0",
        "ttlc": "45.0"
      }
    },
    {
      "type": "Feature",
      "geometry": {
        "type": "Polygon",
        "coordinates": [
          [
            [0,0],
            [0,-4096],
            [4096,-4096],
            [4096,0]
          ],[
            [2962.8232, -2763.5251],
            [3017.0703, -2551.6753],
            [3027.315, -2305.7656],
            [3008.5566, -1927.2546],
            [2951.6748, -1718.3696],
            [2739.4639, -1666.9541],
            [2499.6707, -1860.6958],
            [2424.6455, -2073.3022],
            [2333.8708, -2255.934],
            [2310.467, -2392.6309],
            [2471.5264, -2644.024],
            [2601.6755, -2822.7886],
            [2829.0303, -2830.5781],
            [2963.1536, -2765.492]
          ]
        ]
      },
      "bf2props": {
        "code": "combatarea_0_skirmish",
        "class": "CombatArea",
        "team": "0",
        "vehicles": "4",
        "layer": "6",
        "inverted": "false",
        "max": [0.0, 0.0],
        "min": [0.0, 0.0]
      }
    },
    {
      "type": "Feature",
      "geometry": {
        "type": "Polygon",
        "coordinates": [
          [
            [2990.964, -2790.861],
            [3024.25, -2643.579],
            [2858.4639, -2626.5073],
            [2734.7524, -2692.015],
            [2717.6995, -2837.444],
            [2956.379, -2814.3435],
            [2989.971, -2793.8433]
          ]
        ]
      },
      "bf2props": {
        "code": "combatarea_14_skirmish",
        "class": "CombatArea",
        "team": "2",
        "vehicles": "4",
        "layer": "6",
        "inverted": "true",
        "max": [0.0, 0.0],
        "min": [0.0, 0.0]
      }
    },
    {
      "type": "Feature",
      "geometry": {
        "type": "Polygon",
        "coordinates": [
          [
            [2803.1345, -1894.3738],
            [3017.9392, -1933.988],
            [3016.763, -1820.5779],
            [2946.5593, -1672.3818],
            [2699.1194, -1634.2439],
            [2608.6997, -1766.5273],
            [2704.2556, -1850.8765],
            [2801.2024, -1891.773]
          ]
        ]
      },
      "bf2props": {
        "code": "combatarea_21_skirmish",
        "class": "CombatArea",
        "team": "1",
        "vehicles": "4",
        "layer": "6",
        "inverted": "true",
        "max": [0.0, 0.0],
        "min": [0.0, 0.0]
      }
    }
  ]
}