{
  "team1":"mec",
  "team2":"usa",
  "team1tickets":"200",
  "team2tickets":"200",
  "mapsize":"4096",
  "viewdistance":"1300",
  "combatareause":"true",
  "combatareadamage":"20.0",
  "combatareaallowoutside":"10.0",
  "routes": [
    [
      [
        "cpname_khamisiyah_coop16_southkhamisiyah"
      ],
      [
        "cpname_khamisiyah_coop16_construction",
        "cpname_khamisiyah_coop16_mosque"
      ],
      [
        "cpname_khamisiyah_coop16_waterplant",
        "cpname_khamisiyah_coop16_slums"
      ],
      [
        "cpname_khamisiyah_coop16_northkhamisiyah"
      ],
      [
        "cpname_khamisiyah_coop16_village"
      ]
    ]
  ],
  "type": "FeatureCollection",
  "features": [
    {
      "type": "Feature",
      "geometry": {
        "type": "Point",
        "coordinates": [1495.463, -668.251],
        "size": [16, 16]
      },
      "properties": {
        "iconurl": "icons/vehicles_map/mini_jep_medium.png",
        "iconrotate": "113.57",
        "popupContent": "Amazing information about null will be found here!"
      },
      "bf2props": {
        "name": "cpname_khamisiyah_coop16_village_hmmwv",
        "class": "ObjectSpawner",
        "name_object": "M1151 Up-Armored HMMWV MK19",
        "team": "2",
        "obj1": "null",
        "obj2": "us_jep_hmmwv_uparmored_mk19",
        "maxspawn": "450.0",
        "minspawn": "450.0",
        "spawndelay": "false",
        "ttl": "1200.0",
        "cpid": "1"
      }
    },
    {
      "type": "Feature",
      "geometry": {
        "type": "Point",
        "coordinates": [1501.332, -687.99],
        "size": [33, 33],
        "radius": "30.0"
      },
      "properties": {
        "iconurl": "icons/flags_map/us/minimap_cp.png",
        "iconrotate": "0",
        "popupContent": "Amazing information about US Village will be found here!"
      },
      "bf2props": {
        "name": "cpname_khamisiyah_coop16_village",
        "class": "ControlPoint",
        "name_object": "US Village",
        "team": "2",
        "areavalue1": "20.0",
        "areavalue2": "20.0",
        "cpid": "1",
        "sgid": "5",
        "uncap": "false",
        "ttgc": "60.0",
        "ttlc": "30.0"
      }
    },
    {
      "type": "Feature",
      "geometry": {
        "type": "Point",
        "coordinates": [1066.251, -857.11304],
        "size": [33, 33],
        "radius": "30.0"
      },
      "properties": {
        "iconurl": "icons/flags_map/neutral/minimap_cp.png",
        "iconrotate": "0",
        "popupContent": "Amazing information about North Al Khidhir will be found here!"
      },
      "bf2props": {
        "name": "cpname_khamisiyah_coop16_northkhamisiyah",
        "class": "ControlPoint",
        "name_object": "North Al Khidhir",
        "team": "0",
        "areavalue1": "20.0",
        "areavalue2": "20.0",
        "cpid": "2",
        "sgid": "4",
        "uncap": "false",
        "ttgc": "60.0",
        "ttlc": "60.0"
      }
    },
    {
      "type": "Feature",
      "geometry": {
        "type": "Point",
        "coordinates": [1124.9, -1097.1641],
        "size": [33, 33],
        "radius": "30.0"
      },
      "properties": {
        "iconurl": "icons/flags_map/neutral/minimap_cp.png",
        "iconrotate": "0",
        "popupContent": "Amazing information about Water Plant will be found here!"
      },
      "bf2props": {
        "name": "cpname_khamisiyah_coop16_waterplant",
        "class": "ControlPoint",
        "name_object": "Water Plant",
        "team": "0",
        "areavalue1": "20.0",
        "areavalue2": "20.0",
        "cpid": "3",
        "sgid": "3",
        "uncap": "false",
        "ttgc": "60.0",
        "ttlc": "60.0"
      }
    },
    {
      "type": "Feature",
      "geometry": {
        "type": "Point",
        "coordinates": [987.39795, -1133.335],
        "size": [33, 33],
        "radius": "30.0"
      },
      "properties": {
        "iconurl": "icons/flags_map/neutral/minimap_cp.png",
        "iconrotate": "0",
        "popupContent": "Amazing information about Slums will be found here!"
      },
      "bf2props": {
        "name": "cpname_khamisiyah_coop16_slums",
        "class": "ControlPoint",
        "name_object": "Slums",
        "team": "0",
        "areavalue1": "20.0",
        "areavalue2": "20.0",
        "cpid": "4",
        "sgid": "3",
        "uncap": "false",
        "ttgc": "45.0",
        "ttlc": "60.0"
      }
    },
    {
      "type": "Feature",
      "geometry": {
        "type": "Point",
        "coordinates": [1042.568, -1349.9929],
        "size": [33, 33],
        "radius": "30.0"
      },
      "properties": {
        "iconurl": "icons/flags_map/mec/minimap_cp.png",
        "iconrotate": "0",
        "popupContent": "Amazing information about Construction Site will be found here!"
      },
      "bf2props": {
        "name": "cpname_khamisiyah_coop16_construction",
        "class": "ControlPoint",
        "name_object": "Construction Site",
        "team": "1",
        "areavalue1": "20.0",
        "areavalue2": "20.0",
        "cpid": "5",
        "sgid": "2",
        "uncap": "false",
        "ttgc": "60.0",
        "ttlc": "60.0"
      }
    },
    {
      "type": "Feature",
      "geometry": {
        "type": "Point",
        "coordinates": [1197.141, -1304.567],
        "size": [33, 33],
        "radius": "30.0"
      },
      "properties": {
        "iconurl": "icons/flags_map/mec/minimap_cp.png",
        "iconrotate": "0",
        "popupContent": "Amazing information about Mosque will be found here!"
      },
      "bf2props": {
        "name": "cpname_khamisiyah_coop16_mosque",
        "class": "ControlPoint",
        "name_object": "Mosque",
        "team": "1",
        "areavalue1": "20.0",
        "areavalue2": "20.0",
        "cpid": "6",
        "sgid": "2",
        "uncap": "false",
        "ttgc": "30.0",
        "ttlc": "60.0"
      }
    },
    {
      "type": "Feature",
      "geometry": {
        "type": "Point",
        "coordinates": [1181.5071, -1469.521],
        "size": [33, 33],
        "radius": "30.0"
      },
      "properties": {
        "iconurl": "icons/flags_map/mec/minimap_cp.png",
        "iconrotate": "0",
        "popupContent": "Amazing information about South Al Khidhir will be found here!"
      },
      "bf2props": {
        "name": "cpname_khamisiyah_coop16_southkhamisiyah",
        "class": "ControlPoint",
        "name_object": "South Al Khidhir",
        "team": "1",
        "areavalue1": "20.0",
        "areavalue2": "20.0",
        "cpid": "7",
        "sgid": "1",
        "uncap": "false",
        "ttgc": "45.0",
        "ttlc": "45.0"
      }
    },
    {
      "type": "Feature",
      "geometry": {
        "type": "Polygon",
        "coordinates": [
          [
            [0,0],
            [0,-4096],
            [4096,-4096],
            [4096,0]
          ],[
            [1030.0874, -727.9553],
            [867.5127, -883.5984],
            [858.6572, -1161.2549],
            [890.8467, -1384.7175],
            [1053.2297, -1604.6375],
            [1392.5562, -1672.5803],
            [1501.6962, -1636.072],
            [1517.7463, -1497.1738],
            [1557.9089, -1044.2917],
            [1691.6174, -895.8633],
            [1734.3647, -779.49243],
            [1659.5271, -664.3281],
            [1503.0198, -596.3108],
            [1340.0348, -611.49414],
            [1027.8702, -727.9773]
          ]
        ]
      },
      "bf2props": {
        "code": "combatarea_17_default",
        "class": "CombatArea",
        "team": "0",
        "vehicles": "4",
        "layer": "1",
        "inverted": "false",
        "max": [0.0, 0.0],
        "min": [0.0, 0.0]
      }
    }
  ]
}