[
  "gpm_cq_16",
  "gpm_cq_32",
  "gpm_cq_64",
  "gpm_cq_128",
  "gpm_skirmish_16",
  "gpm_coop_16",
  "gpm_coop_32",
  "gpm_coop_64",
  "gpm_coop_128",
  "gpm_insurgency_64",
  "gpm_cnc_16",
  "gpm_cnc_32",
  "gpm_cnc_64",
  "gpm_vehicles_16",
  "gpm_vehicles_64"
]