{
  "team1":"ru",
  "team2":"gb",
  "team1tickets":"900",
  "team2tickets":"850",
  "mapsize":"4096",
  "viewdistance":"1025",
  "combatareause":"true",
  "combatareadamage":"20.0",
  "combatareaallowoutside":"30.0",
  "routes": [
    [
      [
        "cpname_hades_peak_aas128_rumain"
      ],
      [
        "cpname_hades_peak_aas128_ruvillage",
        "cpname_hades_peak_aas128_oldmine"
      ],
      [
        "cpname_hades_peak_aas128_northtrench",
        "cpname_hades_peak_aas128_westrench",
        "cpname_hades_peak_aas128_commandtrench",
        "cpname_hades_peak_aas128_oldmonastery"
      ],
      [
        "cpname_hades_peak_aas128_fob",
        "cpname_hades_peak_aas128_lumber"
      ],
      [
        "cpname_hades_peak_aas128_britmain"
      ]
    ]
  ],
  "type": "FeatureCollection",
  "features": [
    {
      "type": "Feature",
      "geometry": {
        "type": "Point",
        "coordinates": [-1229.5049, 459.708],
        "size": [16, 16]
      },
      "properties": {
        "iconurl": "icons/mini_map/airdef.png",
        "iconrotate": "0",
        "popupContent": "Amazing information about Artillery Barrage Call-In will be found here!"
      },
      "bf2props": {
        "name": "team1arty",
        "class": "ObjectSpawner",
        "name_object": "Artillery Barrage Call-In",
        "team": "1",
        "obj1": "artillery_team1",
        "obj2": "null",
        "maxspawn": "1800.0",
        "minspawn": "1800.0",
        "spawndelay": "true",
        "ttl": "0.0",
        "cpid": "2"
      }
    },
    {
      "type": "Feature",
      "geometry": {
        "type": "Point",
        "coordinates": [-1205.041, 469.38208],
        "size": [16, 16]
      },
      "properties": {
        "iconurl": "icons/mini_map/airdef.png",
        "iconrotate": "0",
        "popupContent": "Amazing information about Artillery Barrage Call-In will be found here!"
      },
      "bf2props": {
        "name": "team1arty_0",
        "class": "ObjectSpawner",
        "name_object": "Artillery Barrage Call-In",
        "team": "1",
        "obj1": "artillery_team1",
        "obj2": "null",
        "maxspawn": "1800.0",
        "minspawn": "1800.0",
        "spawndelay": "true",
        "ttl": "0.0",
        "cpid": "2"
      }
    },
    {
      "type": "Feature",
      "geometry": {
        "type": "Point",
        "coordinates": [-1214.9609, 498.15503],
        "size": [16, 16]
      },
      "properties": {
        "iconurl": "icons/mini_map/airdef.png",
        "iconrotate": "0",
        "popupContent": "Amazing information about Artillery Barrage Call-In will be found here!"
      },
      "bf2props": {
        "name": "team1arty_1",
        "class": "ObjectSpawner",
        "name_object": "Artillery Barrage Call-In",
        "team": "1",
        "obj1": "artillery_team1",
        "obj2": "null",
        "maxspawn": "1800.0",
        "minspawn": "1800.0",
        "spawndelay": "true",
        "ttl": "0.0",
        "cpid": "2"
      }
    },
    {
      "type": "Feature",
      "geometry": {
        "type": "Point",
        "coordinates": [3837.758, -3284.4],
        "size": [16, 16]
      },
      "properties": {
        "iconurl": "icons/mini_map/uavtrailer.png",
        "iconrotate": "0",
        "popupContent": "Amazing information about null will be found here!"
      },
      "bf2props": {
        "name": "gbacv",
        "class": "ObjectSpawner",
        "name_object": "UAV Terminal",
        "team": "2",
        "obj1": "null",
        "obj2": "gb_acv_sultan",
        "maxspawn": "600.0",
        "minspawn": "600.0",
        "spawndelay": "false",
        "ttl": "12000.0",
        "cpid": "1"
      }
    },
    {
      "type": "Feature",
      "geometry": {
        "type": "Point",
        "coordinates": [3879.3179, -3347.349],
        "size": [16, 16]
      },
      "properties": {
        "iconurl": "icons/vehicles_map/mini_jep_support.png",
        "iconrotate": "-90.0",
        "popupContent": "Amazing information about null will be found here!"
      },
      "bf2props": {
        "name": "gbapc",
        "class": "ObjectSpawner",
        "name_object": "Land Rover Support",
        "team": "2",
        "obj1": "null",
        "obj2": "gb_jep_landrover_support",
        "maxspawn": "300.0",
        "minspawn": "300.0",
        "spawndelay": "true",
        "ttl": "12000.0",
        "cpid": "1"
      }
    },
    {
      "type": "Feature",
      "geometry": {
        "type": "Point",
        "coordinates": [3879.242, -3343.449],
        "size": [16, 16]
      },
      "properties": {
        "iconurl": "icons/vehicles_map/mini_jep_support.png",
        "iconrotate": "-90.0",
        "popupContent": "Amazing information about null will be found here!"
      },
      "bf2props": {
        "name": "gbapc_0",
        "class": "ObjectSpawner",
        "name_object": "Land Rover Support",
        "team": "2",
        "obj1": "null",
        "obj2": "gb_jep_landrover_support",
        "maxspawn": "300.0",
        "minspawn": "300.0",
        "spawndelay": "true",
        "ttl": "12000.0",
        "cpid": "1"
      }
    },
    {
      "type": "Feature",
      "geometry": {
        "type": "Point",
        "coordinates": [3878.296, -3268.976],
        "size": [16, 16]
      },
      "properties": {
        "iconurl": "icons/vehicles_map/mini_jep_light.png",
        "iconrotate": "-90.0",
        "popupContent": "Amazing information about null will be found here!"
      },
      "bf2props": {
        "name": "gbjep",
        "class": "ObjectSpawner",
        "name_object": "Land Rover",
        "team": "2",
        "obj1": "null",
        "obj2": "gb_jep_landrover",
        "maxspawn": "600.0",
        "minspawn": "600.0",
        "spawndelay": "false",
        "ttl": "12000.0",
        "cpid": "1"
      }
    },
    {
      "type": "Feature",
      "geometry": {
        "type": "Point",
        "coordinates": [3882.852, -3287.719],
        "size": [16, 16]
      },
      "properties": {
        "iconurl": "icons/vehicles_map/mini_apc_medium.png",
        "iconrotate": "-90.0",
        "popupContent": "Amazing information about null will be found here!"
      },
      "bf2props": {
        "name": "gbjep_1",
        "class": "ObjectSpawner",
        "name_object": "FV 510 Warrior",
        "team": "2",
        "obj1": "null",
        "obj2": "gb_apc_warrior",
        "maxspawn": "600.0",
        "minspawn": "600.0",
        "spawndelay": "true",
        "ttl": "12000.0",
        "cpid": "1"
      }
    },
    {
      "type": "Feature",
      "geometry": {
        "type": "Point",
        "coordinates": [3878.018, -3273.2979],
        "size": [16, 16]
      },
      "properties": {
        "iconurl": "icons/vehicles_map/mini_jep_medium.png",
        "iconrotate": "-90.0",
        "popupContent": "Amazing information about null will be found here!"
      },
      "bf2props": {
        "name": "gbjep_2",
        "class": "ObjectSpawner",
        "name_object": "Panther CLV",
        "team": "2",
        "obj1": "null",
        "obj2": "gb_jep_panther_alt",
        "maxspawn": "600.0",
        "minspawn": "600.0",
        "spawndelay": "true",
        "ttl": "12000.0",
        "cpid": "1"
      }
    },
    {
      "type": "Feature",
      "geometry": {
        "type": "Point",
        "coordinates": [3882.658, -3295.9438],
        "size": [16, 16]
      },
      "properties": {
        "iconurl": "icons/vehicles_map/mini_rec_medium.png",
        "iconrotate": "-90.0",
        "popupContent": "Amazing information about null will be found here!"
      },
      "bf2props": {
        "name": "gbjep_4",
        "class": "ObjectSpawner",
        "name_object": "FV 107 Scimitar",
        "team": "2",
        "obj1": "null",
        "obj2": "gb_ifv_scimitar",
        "maxspawn": "600.0",
        "minspawn": "600.0",
        "spawndelay": "true",
        "ttl": "12000.0",
        "cpid": "1"
      }
    },
    {
      "type": "Feature",
      "geometry": {
        "type": "Point",
        "coordinates": [3878.115, -3264.8262],
        "size": [16, 16]
      },
      "properties": {
        "iconurl": "icons/vehicles_map/mini_jep_light.png",
        "iconrotate": "-90.0",
        "popupContent": "Amazing information about null will be found here!"
      },
      "bf2props": {
        "name": "gbjep_6",
        "class": "ObjectSpawner",
        "name_object": "Land Rover GMG",
        "team": "2",
        "obj1": "null",
        "obj2": "gb_jep_landrover_gmg",
        "maxspawn": "600.0",
        "minspawn": "600.0",
        "spawndelay": "false",
        "ttl": "12000.0",
        "cpid": "1"
      }
    },
    {
      "type": "Feature",
      "geometry": {
        "type": "Point",
        "coordinates": [3872.209, -3226.087],
        "size": [16, 16]
      },
      "properties": {
        "iconurl": "icons/vehicles_map/mini_trk_logistics.png",
        "iconrotate": "135.0",
        "popupContent": "Amazing information about null will be found here!"
      },
      "bf2props": {
        "name": "gblog",
        "class": "ObjectSpawner",
        "name_object": "MAN SV Logistics",
        "team": "2",
        "obj1": "null",
        "obj2": "gb_trk_logistics",
        "maxspawn": "300.0",
        "minspawn": "300.0",
        "spawndelay": "false",
        "ttl": "12000.0",
        "cpid": "1"
      }
    },
    {
      "type": "Feature",
      "geometry": {
        "type": "Point",
        "coordinates": [3880.601, -3225.44],
        "size": [16, 16]
      },
      "properties": {
        "iconurl": "icons/vehicles_map/mini_trk_logistics.png",
        "iconrotate": "-180.0",
        "popupContent": "Amazing information about null will be found here!"
      },
      "bf2props": {
        "name": "gblog_0",
        "class": "ObjectSpawner",
        "name_object": "MAN SV Logistics",
        "team": "2",
        "obj1": "null",
        "obj2": "gb_trk_logistics",
        "maxspawn": "300.0",
        "minspawn": "300.0",
        "spawndelay": "false",
        "ttl": "12000.0",
        "cpid": "1"
      }
    },
    {
      "type": "Feature",
      "geometry": {
        "type": "Point",
        "coordinates": [3860.002, -3229.095],
        "size": [16, 16]
      },
      "properties": {
        "iconurl": "icons/vehicles_map/mini_trk_support.png",
        "iconrotate": "135.0",
        "popupContent": "Amazing information about null will be found here!"
      },
      "bf2props": {
        "name": "gbtrk",
        "class": "ObjectSpawner",
        "name_object": "MAN Support Vehicle",
        "team": "2",
        "obj1": "null",
        "obj2": "gb_trk_support",
        "maxspawn": "300.0",
        "minspawn": "300.0",
        "spawndelay": "false",
        "ttl": "12000.0",
        "cpid": "1"
      }
    },
    {
      "type": "Feature",
      "geometry": {
        "type": "Point",
        "coordinates": [3843.81, -3224.383],
        "size": [16, 16]
      },
      "properties": {
        "iconurl": "icons/mini_map/repairdepot.png",
        "iconrotate": "0",
        "popupContent": "Amazing information about null will be found here!"
      },
      "bf2props": {
        "name": "gbdepot",
        "class": "ObjectSpawner",
        "name_object": "Vehicle Depot",
        "team": "2",
        "obj1": "null",
        "obj2": "vehicle_depot_gb",
        "maxspawn": "600.0",
        "minspawn": "600.0",
        "spawndelay": "false",
        "ttl": "12000.0",
        "cpid": "1"
      }
    },
    {
      "type": "Feature",
      "geometry": {
        "type": "Point",
        "coordinates": [5542.868, -4891.2],
        "size": [16, 16]
      },
      "properties": {
        "iconurl": "icons/mini_map/airdef.png",
        "iconrotate": "0",
        "popupContent": "Amazing information about null will be found here!"
      },
      "bf2props": {
        "name": "gbarty",
        "class": "ObjectSpawner",
        "name_object": "Artillery Barrage Call-In",
        "team": "2",
        "obj1": "null",
        "obj2": "artillery_team2",
        "maxspawn": "1800.0",
        "minspawn": "1800.0",
        "spawndelay": "true",
        "ttl": "0.0",
        "cpid": "1"
      }
    },
    {
      "type": "Feature",
      "geometry": {
        "type": "Point",
        "coordinates": [5561.868, -4893.8877],
        "size": [16, 16]
      },
      "properties": {
        "iconurl": "icons/mini_map/airdef.png",
        "iconrotate": "0",
        "popupContent": "Amazing information about null will be found here!"
      },
      "bf2props": {
        "name": "gbarty_0",
        "class": "ObjectSpawner",
        "name_object": "Artillery Barrage Call-In",
        "team": "2",
        "obj1": "null",
        "obj2": "artillery_team2",
        "maxspawn": "1800.0",
        "minspawn": "1800.0",
        "spawndelay": "true",
        "ttl": "0.0",
        "cpid": "1"
      }
    },
    {
      "type": "Feature",
      "geometry": {
        "type": "Point",
        "coordinates": [5551.4297, -4872.257],
        "size": [16, 16]
      },
      "properties": {
        "iconurl": "icons/mini_map/airdef.png",
        "iconrotate": "0",
        "popupContent": "Amazing information about null will be found here!"
      },
      "bf2props": {
        "name": "gbarty_1",
        "class": "ObjectSpawner",
        "name_object": "Artillery Barrage Call-In",
        "team": "2",
        "obj1": "null",
        "obj2": "artillery_team2",
        "maxspawn": "1800.0",
        "minspawn": "1800.0",
        "spawndelay": "true",
        "ttl": "0.0",
        "cpid": "1"
      }
    },
    {
      "type": "Feature",
      "geometry": {
        "type": "Point",
        "coordinates": [3879.317, -3339.196],
        "size": [16, 16]
      },
      "properties": {
        "iconurl": "icons/vehicles_map/mini_jep_support.png",
        "iconrotate": "-90.0",
        "popupContent": "Amazing information about null will be found here!"
      },
      "bf2props": {
        "name": "apc_0",
        "class": "ObjectSpawner",
        "name_object": "Land Rover Support",
        "team": "2",
        "obj1": "null",
        "obj2": "gb_jep_landrover_support",
        "maxspawn": "300.0",
        "minspawn": "300.0",
        "spawndelay": "false",
        "ttl": "12000.0",
        "cpid": "1"
      }
    },
    {
      "type": "Feature",
      "geometry": {
        "type": "Point",
        "coordinates": [3855.489, -3290.999],
        "size": [16, 16]
      },
      "properties": {
        "iconurl": "icons/vehicles_map/mini_jep_light.png",
        "iconrotate": "0.0",
        "popupContent": "Amazing information about null will be found here!"
      },
      "bf2props": {
        "name": "trknonresp",
        "class": "ObjectSpawner",
        "name_object": "Land Rover",
        "team": "2",
        "obj1": "null",
        "obj2": "gb_jep_landrover",
        "maxspawn": "999999.0",
        "minspawn": "999999.0",
        "spawndelay": "false",
        "ttl": "12000.0",
        "cpid": "1"
      }
    },
    {
      "type": "Feature",
      "geometry": {
        "type": "Point",
        "coordinates": [3855.6592, -3299.635],
        "size": [16, 16]
      },
      "properties": {
        "iconurl": "icons/vehicles_map/mini_jep_support.png",
        "iconrotate": "0.0",
        "popupContent": "Amazing information about null will be found here!"
      },
      "bf2props": {
        "name": "gbjep_0",
        "class": "ObjectSpawner",
        "name_object": "Land Rover Support",
        "team": "2",
        "obj1": "null",
        "obj2": "gb_jep_landrover_support",
        "maxspawn": "999999.0",
        "minspawn": "999999.0",
        "spawndelay": "false",
        "ttl": "12000.0",
        "cpid": "1"
      }
    },
    {
      "type": "Feature",
      "geometry": {
        "type": "Point",
        "coordinates": [3855.148, -3317.836],
        "size": [16, 16]
      },
      "properties": {
        "iconurl": "icons/vehicles_map/mini_trk_support.png",
        "iconrotate": "0.0",
        "popupContent": "Amazing information about null will be found here!"
      },
      "bf2props": {
        "name": "gbjep_3",
        "class": "ObjectSpawner",
        "name_object": "MAN Support Vehicle",
        "team": "2",
        "obj1": "null",
        "obj2": "gb_trk_support",
        "maxspawn": "999999.0",
        "minspawn": "999999.0",
        "spawndelay": "false",
        "ttl": "12000.0",
        "cpid": "1"
      }
    },
    {
      "type": "Feature",
      "geometry": {
        "type": "Point",
        "coordinates": [3855.275, -3308.199],
        "size": [16, 16]
      },
      "properties": {
        "iconurl": "icons/vehicles_map/mini_apc_medium.png",
        "iconrotate": "0.0",
        "popupContent": "Amazing information about null will be found here!"
      },
      "bf2props": {
        "name": "jep",
        "class": "ObjectSpawner",
        "name_object": "FV 510 Warrior",
        "team": "2",
        "obj1": "null",
        "obj2": "gb_apc_warrior",
        "maxspawn": "999999.0",
        "minspawn": "999999.0",
        "spawndelay": "false",
        "ttl": "12000.0",
        "cpid": "1"
      }
    },
    {
      "type": "Feature",
      "geometry": {
        "type": "Point",
        "coordinates": [3880.399, -3319.115],
        "size": [16, 16]
      },
      "properties": {
        "iconurl": "icons/vehicles_map/mini_tank_heavy.png",
        "iconrotate": "-90.0",
        "popupContent": "Amazing information about null will be found here!"
      },
      "bf2props": {
        "name": "gbtnk",
        "class": "ObjectSpawner",
        "name_object": "FV4034 Challenger 2",
        "team": "2",
        "obj1": "null",
        "obj2": "gb_tnk_challenger_alt",
        "maxspawn": "1200.0",
        "minspawn": "1200.0",
        "spawndelay": "true",
        "ttl": "12000.0",
        "cpid": "1"
      }
    },
    {
      "type": "Feature",
      "geometry": {
        "type": "Point",
        "coordinates": [217.21802, -808.44495],
        "size": [16, 16]
      },
      "properties": {
        "iconurl": "icons/vehicles_map/mini_tank_heavy.png",
        "iconrotate": "0.0",
        "popupContent": "Amazing information about T-90A will be found here!"
      },
      "bf2props": {
        "name": "rutnk",
        "class": "ObjectSpawner",
        "name_object": "T-90A",
        "team": "1",
        "obj1": "ru_tnk_t90_alt",
        "obj2": "null",
        "maxspawn": "1200.0",
        "minspawn": "1200.0",
        "spawndelay": "true",
        "ttl": "12000.0",
        "cpid": "2"
      }
    },
    {
      "type": "Feature",
      "geometry": {
        "type": "Point",
        "coordinates": [224.29102, -807.96594],
        "size": [16, 16]
      },
      "properties": {
        "iconurl": "icons/vehicles_map/mini_apc_medium.png",
        "iconrotate": "0.0",
        "popupContent": "Amazing information about BTR-80A will be found here!"
      },
      "bf2props": {
        "name": "ruapc",
        "class": "ObjectSpawner",
        "name_object": "BTR-80A",
        "team": "1",
        "obj1": "ru_apc_btr80a",
        "obj2": "null",
        "maxspawn": "600.0",
        "minspawn": "600.0",
        "spawndelay": "true",
        "ttl": "12000.0",
        "cpid": "2"
      }
    },
    {
      "type": "Feature",
      "geometry": {
        "type": "Point",
        "coordinates": [237.99597, -808.4],
        "size": [16, 16]
      },
      "properties": {
        "iconurl": "icons/vehicles_map/mini_apc_medium.png",
        "iconrotate": "0.0",
        "popupContent": "Amazing information about BTR-80 will be found here!"
      },
      "bf2props": {
        "name": "ruapc_0",
        "class": "ObjectSpawner",
        "name_object": "BTR-80",
        "team": "1",
        "obj1": "ru_apc_btr80",
        "obj2": "null",
        "maxspawn": "600.0",
        "minspawn": "600.0",
        "spawndelay": "false",
        "ttl": "12000.0",
        "cpid": "2"
      }
    },
    {
      "type": "Feature",
      "geometry": {
        "type": "Point",
        "coordinates": [257.22595, -760.932],
        "size": [16, 16]
      },
      "properties": {
        "iconurl": "icons/vehicles_map/mini_trk_support.png",
        "iconrotate": "0.0",
        "popupContent": "Amazing information about Ural-4320 will be found here!"
      },
      "bf2props": {
        "name": "rutrk",
        "class": "ObjectSpawner",
        "name_object": "Ural-4320",
        "team": "1",
        "obj1": "ru_trk_support",
        "obj2": "null",
        "maxspawn": "999999.0",
        "minspawn": "999999.0",
        "spawndelay": "false",
        "ttl": "12000.0",
        "cpid": "2"
      }
    },
    {
      "type": "Feature",
      "geometry": {
        "type": "Point",
        "coordinates": [225.97803, -769.135],
        "size": [16, 16]
      },
      "properties": {
        "iconurl": "icons/vehicles_map/mini_trk_support.png",
        "iconrotate": "90.0",
        "popupContent": "Amazing information about Ural-4320 will be found here!"
      },
      "bf2props": {
        "name": "rutrk_0",
        "class": "ObjectSpawner",
        "name_object": "Ural-4320",
        "team": "1",
        "obj1": "ru_trk_support",
        "obj2": "null",
        "maxspawn": "300.0",
        "minspawn": "300.0",
        "spawndelay": "true",
        "ttl": "12000.0",
        "cpid": "2"
      }
    },
    {
      "type": "Feature",
      "geometry": {
        "type": "Point",
        "coordinates": [225.92896, -772.25195],
        "size": [16, 16]
      },
      "properties": {
        "iconurl": "icons/vehicles_map/mini_trk_support.png",
        "iconrotate": "90.0",
        "popupContent": "Amazing information about Ural-4320 will be found here!"
      },
      "bf2props": {
        "name": "rutrk_1",
        "class": "ObjectSpawner",
        "name_object": "Ural-4320",
        "team": "1",
        "obj1": "ru_trk_support",
        "obj2": "null",
        "maxspawn": "300.0",
        "minspawn": "300.0",
        "spawndelay": "true",
        "ttl": "12000.0",
        "cpid": "2"
      }
    },
    {
      "type": "Feature",
      "geometry": {
        "type": "Point",
        "coordinates": [225.81702, -775.605],
        "size": [16, 16]
      },
      "properties": {
        "iconurl": "icons/vehicles_map/mini_trk_support.png",
        "iconrotate": "90.0",
        "popupContent": "Amazing information about Ural-4320 will be found here!"
      },
      "bf2props": {
        "name": "rutrk_2",
        "class": "ObjectSpawner",
        "name_object": "Ural-4320",
        "team": "1",
        "obj1": "ru_trk_support",
        "obj2": "null",
        "maxspawn": "300.0",
        "minspawn": "300.0",
        "spawndelay": "true",
        "ttl": "12000.0",
        "cpid": "2"
      }
    },
    {
      "type": "Feature",
      "geometry": {
        "type": "Point",
        "coordinates": [225.95898, -765.765],
        "size": [16, 16]
      },
      "properties": {
        "iconurl": "icons/vehicles_map/mini_trk_support.png",
        "iconrotate": "90.0",
        "popupContent": "Amazing information about Ural-4320 will be found here!"
      },
      "bf2props": {
        "name": "rutrk_3",
        "class": "ObjectSpawner",
        "name_object": "Ural-4320",
        "team": "1",
        "obj1": "ru_trk_support",
        "obj2": "null",
        "maxspawn": "300.0",
        "minspawn": "300.0",
        "spawndelay": "true",
        "ttl": "12000.0",
        "cpid": "2"
      }
    },
    {
      "type": "Feature",
      "geometry": {
        "type": "Point",
        "coordinates": [229.20203, -755.442],
        "size": [16, 16]
      },
      "properties": {
        "iconurl": "icons/vehicles_map/mini_trk_logistics.png",
        "iconrotate": "90.0",
        "popupContent": "Amazing information about Ural-4320 Logistics will be found here!"
      },
      "bf2props": {
        "name": "rulog",
        "class": "ObjectSpawner",
        "name_object": "Ural-4320 Logistics",
        "team": "1",
        "obj1": "ru_trk_logistics",
        "obj2": "null",
        "maxspawn": "300.0",
        "minspawn": "300.0",
        "spawndelay": "false",
        "ttl": "12000.0",
        "cpid": "2"
      }
    },
    {
      "type": "Feature",
      "geometry": {
        "type": "Point",
        "coordinates": [228.505, -750.708],
        "size": [16, 16]
      },
      "properties": {
        "iconurl": "icons/vehicles_map/mini_trk_logistics.png",
        "iconrotate": "90.0",
        "popupContent": "Amazing information about Ural-4320 Logistics will be found here!"
      },
      "bf2props": {
        "name": "rulog_0",
        "class": "ObjectSpawner",
        "name_object": "Ural-4320 Logistics",
        "team": "1",
        "obj1": "ru_trk_logistics",
        "obj2": "null",
        "maxspawn": "300.0",
        "minspawn": "300.0",
        "spawndelay": "false",
        "ttl": "12000.0",
        "cpid": "2"
      }
    },
    {
      "type": "Feature",
      "geometry": {
        "type": "Point",
        "coordinates": [253.92297, -803.65295],
        "size": [16, 16]
      },
      "properties": {
        "iconurl": "icons/mini_map/uavtrailer.png",
        "iconrotate": "0",
        "popupContent": "Amazing information about UAV Terminal will be found here!"
      },
      "bf2props": {
        "name": "acv",
        "class": "ObjectSpawner",
        "name_object": "UAV Terminal",
        "team": "1",
        "obj1": "ru_acv_btr60pu",
        "obj2": "null",
        "maxspawn": "600.0",
        "minspawn": "600.0",
        "spawndelay": "false",
        "ttl": "12000.0",
        "cpid": "2"
      }
    },
    {
      "type": "Feature",
      "geometry": {
        "type": "Point",
        "coordinates": [266.04395, -743.452],
        "size": [16, 16]
      },
      "properties": {
        "iconurl": "icons/mini_map/repairdepot.png",
        "iconrotate": "0",
        "popupContent": "Amazing information about Vehicle Depot will be found here!"
      },
      "bf2props": {
        "name": "depot",
        "class": "ObjectSpawner",
        "name_object": "Vehicle Depot",
        "team": "1",
        "obj1": "vehicle_depot_ru",
        "obj2": "null",
        "maxspawn": "600.0",
        "minspawn": "600.0",
        "spawndelay": "false",
        "ttl": "12000.0",
        "cpid": "2"
      }
    },
    {
      "type": "Feature",
      "geometry": {
        "type": "Point",
        "coordinates": [264.313, -775.469],
        "size": [16, 16]
      },
      "properties": {
        "iconurl": "icons/vehicles_map/mini_adv_medium.png",
        "iconrotate": "-90.0",
        "popupContent": "Amazing information about 9K35 Gopher will be found here!"
      },
      "bf2props": {
        "name": "ruadv",
        "class": "ObjectSpawner",
        "name_object": "9K35 Gopher",
        "team": "1",
        "obj1": "ru_aav_gopher",
        "obj2": "null",
        "maxspawn": "300.0",
        "minspawn": "300.0",
        "spawndelay": "true",
        "ttl": "12000.0",
        "cpid": "2"
      }
    },
    {
      "type": "Feature",
      "geometry": {
        "type": "Point",
        "coordinates": [3879.971, -3314.179],
        "size": [16, 16]
      },
      "properties": {
        "iconurl": "icons/vehicles_map/mini_adv_medium.png",
        "iconrotate": "-90.0",
        "popupContent": "Amazing information about null will be found here!"
      },
      "bf2props": {
        "name": "gbadv",
        "class": "ObjectSpawner",
        "name_object": "Stormer HVM",
        "team": "2",
        "obj1": "null",
        "obj2": "gb_aav_stormer",
        "maxspawn": "300.0",
        "minspawn": "300.0",
        "spawndelay": "true",
        "ttl": "12000.0",
        "cpid": "1"
      }
    },
    {
      "type": "Feature",
      "geometry": {
        "type": "Point",
        "coordinates": [243.37, -808.39],
        "size": [16, 16]
      },
      "properties": {
        "iconurl": "icons/vehicles_map/mini_apc_medium.png",
        "iconrotate": "0.0",
        "popupContent": "Amazing information about BTR-80 will be found here!"
      },
      "bf2props": {
        "name": "apc",
        "class": "ObjectSpawner",
        "name_object": "BTR-80",
        "team": "1",
        "obj1": "ru_apc_btr80",
        "obj2": "null",
        "maxspawn": "600.0",
        "minspawn": "600.0",
        "spawndelay": "false",
        "ttl": "12000.0",
        "cpid": "-1"
      }
    },
    {
      "type": "Feature",
      "geometry": {
        "type": "Point",
        "coordinates": [257.19104, -770.65295],
        "size": [16, 16]
      },
      "properties": {
        "iconurl": "icons/vehicles_map/mini_trk_support.png",
        "iconrotate": "0.0",
        "popupContent": "Amazing information about Ural-4320 will be found here!"
      },
      "bf2props": {
        "name": "trknon",
        "class": "ObjectSpawner",
        "name_object": "Ural-4320",
        "team": "1",
        "obj1": "ru_trk_support",
        "obj2": "null",
        "maxspawn": "999999.0",
        "minspawn": "999999.0",
        "spawndelay": "false",
        "ttl": "12000.0",
        "cpid": "-1"
      }
    },
    {
      "type": "Feature",
      "geometry": {
        "type": "Point",
        "coordinates": [257.62598, -783.095],
        "size": [16, 16]
      },
      "properties": {
        "iconurl": "icons/vehicles_map/mini_trk_support.png",
        "iconrotate": "0.0",
        "popupContent": "Amazing information about Ural-4320 will be found here!"
      },
      "bf2props": {
        "name": "trknon_0",
        "class": "ObjectSpawner",
        "name_object": "Ural-4320",
        "team": "1",
        "obj1": "ru_trk_support",
        "obj2": "null",
        "maxspawn": "999999.0",
        "minspawn": "999999.0",
        "spawndelay": "false",
        "ttl": "12000.0",
        "cpid": "-1"
      }
    },
    {
      "type": "Feature",
      "geometry": {
        "type": "Point",
        "coordinates": [3882.8408, -3292.101],
        "size": [16, 16]
      },
      "properties": {
        "iconurl": "icons/vehicles_map/mini_apc_medium.png",
        "iconrotate": "-90.0",
        "popupContent": "Amazing information about null will be found here!"
      },
      "bf2props": {
        "name": "warrior",
        "class": "ObjectSpawner",
        "name_object": "FV 510 Warrior",
        "team": "2",
        "obj1": "null",
        "obj2": "gb_apc_warrior",
        "maxspawn": "600.0",
        "minspawn": "600.0",
        "spawndelay": "true",
        "ttl": "12000.0",
        "cpid": "-1"
      }
    },
    {
      "type": "Feature",
      "geometry": {
        "type": "Point",
        "coordinates": [3858.607, -3719.707],
        "size": [16, 16]
      },
      "properties": {
        "iconurl": "icons/vehicles_map/mini_jet_figherbomber.png",
        "iconrotate": "90.0",
        "popupContent": "Amazing information about null will be found here!"
      },
      "bf2props": {
        "name": "euro",
        "class": "ObjectSpawner",
        "name_object": "Tornado GR4",
        "team": "2",
        "obj1": "null",
        "obj2": "gb_jet_tornadogr4_mw1",
        "maxspawn": "1200.0",
        "minspawn": "1200.0",
        "spawndelay": "true",
        "ttl": "12000.0",
        "cpid": "1"
      }
    },
    {
      "type": "Feature",
      "geometry": {
        "type": "Point",
        "coordinates": [3858.167, -3578.3892],
        "size": [16, 16]
      },
      "properties": {
        "iconurl": "icons/vehicles_map/mini_jet_strikefighter.png",
        "iconrotate": "90.0",
        "popupContent": "Amazing information about null will be found here!"
      },
      "bf2props": {
        "name": "euro_0",
        "class": "ObjectSpawner",
        "name_object": "Eurofighter Typhoon",
        "team": "2",
        "obj1": "null",
        "obj2": "gb_jet_eurofighter",
        "maxspawn": "1200.0",
        "minspawn": "1200.0",
        "spawndelay": "true",
        "ttl": "12000.0",
        "cpid": "1"
      }
    },
    {
      "type": "Feature",
      "geometry": {
        "type": "Point",
        "coordinates": [194.00403, -520.12],
        "size": [16, 16]
      },
      "properties": {
        "iconurl": "icons/vehicles_map/mini_jet_strikefighter.png",
        "iconrotate": "-180.0",
        "popupContent": "Amazing information about MiG-29S Fulcrum ASF will be found here!"
      },
      "bf2props": {
        "name": "rujet",
        "class": "ObjectSpawner",
        "name_object": "MiG-29S Fulcrum ASF",
        "team": "1",
        "obj1": "ru_jet_mig29_asf",
        "obj2": "null",
        "maxspawn": "1200.0",
        "minspawn": "1200.0",
        "spawndelay": "true",
        "ttl": "12000.0",
        "cpid": "2"
      }
    },
    {
      "type": "Feature",
      "geometry": {
        "type": "Point",
        "coordinates": [193.97705, -612.19495],
        "size": [16, 16]
      },
      "properties": {
        "iconurl": "icons/vehicles_map/mini_jet_strikefighter.png",
        "iconrotate": "0.0",
        "popupContent": "Amazing information about MiG-29S Fulcrum ASF will be found here!"
      },
      "bf2props": {
        "name": "rujet_1",
        "class": "ObjectSpawner",
        "name_object": "MiG-29S Fulcrum ASF",
        "team": "1",
        "obj1": "ru_jet_mig29_asf",
        "obj2": "null",
        "maxspawn": "1200.0",
        "minspawn": "1200.0",
        "spawndelay": "true",
        "ttl": "12000.0",
        "cpid": "2"
      }
    },
    {
      "type": "Feature",
      "geometry": {
        "type": "Point",
        "coordinates": [3861.6309, -3415.918],
        "size": [16, 16]
      },
      "properties": {
        "iconurl": "icons/vehicles_map/mini_the_light.png",
        "iconrotate": "-90.0",
        "popupContent": "Amazing information about null will be found here!"
      },
      "bf2props": {
        "name": "gbheli_2",
        "class": "ObjectSpawner",
        "name_object": "Lynx AH.7",
        "team": "2",
        "obj1": "null",
        "obj2": "gb_the_lynx_l7a2_alt",
        "maxspawn": "600.0",
        "minspawn": "600.0",
        "spawndelay": "false",
        "ttl": "12000.0",
        "cpid": "1"
      }
    },
    {
      "type": "Feature",
      "geometry": {
        "type": "Point",
        "coordinates": [3859.237, -3627.1182],
        "size": [16, 16]
      },
      "properties": {
        "iconurl": "icons/vehicles_map/mini_jet_strikefighter.png",
        "iconrotate": "90.0",
        "popupContent": "Amazing information about null will be found here!"
      },
      "bf2props": {
        "name": "gbjet",
        "class": "ObjectSpawner",
        "name_object": "Eurofighter Typhoon",
        "team": "2",
        "obj1": "null",
        "obj2": "gb_jet_eurofighter",
        "maxspawn": "1200.0",
        "minspawn": "1200.0",
        "spawndelay": "true",
        "ttl": "12000.0",
        "cpid": "1"
      }
    },
    {
      "type": "Feature",
      "geometry": {
        "type": "Point",
        "coordinates": [227.35205, -518.499],
        "size": [16, 16]
      },
      "properties": {
        "iconurl": "icons/vehicles_map/mini_jet_strikefighter.png",
        "iconrotate": "-180.0",
        "popupContent": "Amazing information about Su-27SM Flanker-B will be found here!"
      },
      "bf2props": {
        "name": "mig",
        "class": "ObjectSpawner",
        "name_object": "Su-27SM Flanker-B",
        "team": "1",
        "obj1": "ru_jet_su27",
        "obj2": "null",
        "maxspawn": "1200.0",
        "minspawn": "1200.0",
        "spawndelay": "true",
        "ttl": "12000.0",
        "cpid": "2"
      }
    },
    {
      "type": "Feature",
      "geometry": {
        "type": "Point",
        "coordinates": [179.77295, -751.41296],
        "size": [16, 16]
      },
      "properties": {
        "iconurl": "icons/vehicles_map/mini_the_medium.png",
        "iconrotate": "90.0",
        "popupContent": "Amazing information about Mi-8MT Hip-C will be found here!"
      },
      "bf2props": {
        "name": "ruheli_1",
        "class": "ObjectSpawner",
        "name_object": "Mi-8MT Hip-C",
        "team": "1",
        "obj1": "ru_the_mi8",
        "obj2": "null",
        "maxspawn": "600.0",
        "minspawn": "600.0",
        "spawndelay": "false",
        "ttl": "12000.0",
        "cpid": "2"
      }
    },
    {
      "type": "Feature",
      "geometry": {
        "type": "Point",
        "coordinates": [178.90405, -784.016],
        "size": [16, 16]
      },
      "properties": {
        "iconurl": "icons/vehicles_map/mini_the_medium.png",
        "iconrotate": "90.0",
        "popupContent": "Amazing information about Mi-8MT Hip-C will be found here!"
      },
      "bf2props": {
        "name": "ruheli_2",
        "class": "ObjectSpawner",
        "name_object": "Mi-8MT Hip-C",
        "team": "1",
        "obj1": "ru_the_mi8",
        "obj2": "null",
        "maxspawn": "600.0",
        "minspawn": "600.0",
        "spawndelay": "false",
        "ttl": "12000.0",
        "cpid": "2"
      }
    },
    {
      "type": "Feature",
      "geometry": {
        "type": "Point",
        "coordinates": [176.66101, -687.13696],
        "size": [16, 16]
      },
      "properties": {
        "iconurl": "icons/vehicles_map/mini_the_medium.png",
        "iconrotate": "90.0",
        "popupContent": "Amazing information about Mi-8MT Hip-C will be found here!"
      },
      "bf2props": {
        "name": "ruheli",
        "class": "ObjectSpawner",
        "name_object": "Mi-8MT Hip-C",
        "team": "1",
        "obj1": "ru_the_mi8",
        "obj2": "null",
        "maxspawn": "600.0",
        "minspawn": "600.0",
        "spawndelay": "true",
        "ttl": "12000.0",
        "cpid": "-1"
      }
    },
    {
      "type": "Feature",
      "geometry": {
        "type": "Point",
        "coordinates": [226.93799, -612.30505],
        "size": [16, 16]
      },
      "properties": {
        "iconurl": "icons/vehicles_map/mini_jet_attack_heavy.png",
        "iconrotate": "0.0",
        "popupContent": "Amazing information about Su-25 Frogfoot will be found here!"
      },
      "bf2props": {
        "name": "mig_0",
        "class": "ObjectSpawner",
        "name_object": "Su-25 Frogfoot",
        "team": "1",
        "obj1": "ru_jet_su25a",
        "obj2": "null",
        "maxspawn": "1200.0",
        "minspawn": "1200.0",
        "spawndelay": "true",
        "ttl": "12000.0",
        "cpid": "2"
      }
    },
    {
      "type": "Feature",
      "geometry": {
        "type": "Point",
        "coordinates": [3856.638, -3669.917],
        "size": [16, 16]
      },
      "properties": {
        "iconurl": "icons/vehicles_map/mini_jet_figherbomber.png",
        "iconrotate": "90.0",
        "popupContent": "Amazing information about null will be found here!"
      },
      "bf2props": {
        "name": "tornado",
        "class": "ObjectSpawner",
        "name_object": "Tornado GR4",
        "team": "2",
        "obj1": "null",
        "obj2": "gb_jet_tornadogr4_mw1",
        "maxspawn": "1200.0",
        "minspawn": "1200.0",
        "spawndelay": "true",
        "ttl": "12000.0",
        "cpid": "1"
      }
    },
    {
      "type": "Feature",
      "geometry": {
        "type": "Point",
        "coordinates": [3860.0352, -3451.707],
        "size": [16, 16]
      },
      "properties": {
        "iconurl": "icons/vehicles_map/mini_the_heavy_chinook.png",
        "iconrotate": "-90.0",
        "popupContent": "Amazing information about null will be found here!"
      },
      "bf2props": {
        "name": "cpname_hades_peak_aas128_britmain_gbheli_1",
        "class": "ObjectSpawner",
        "name_object": "Chinook HC.4",
        "team": "2",
        "obj1": "null",
        "obj2": "gb_the_chinook",
        "maxspawn": "600.0",
        "minspawn": "600.0",
        "spawndelay": "true",
        "ttl": "12000.0",
        "cpid": "1"
      }
    },
    {
      "type": "Feature",
      "geometry": {
        "type": "Point",
        "coordinates": [3834.558, -3653.487],
        "size": [33, 33],
        "radius": "0.0"
      },
      "properties": {
        "iconurl": "icons/flags_map/gb/minimap_cpbase.png",
        "iconrotate": "0",
        "popupContent": "Amazing information about Bluefor Airbase will be found here!"
      },
      "bf2props": {
        "name": "cpname_hades_peak_aas128_britmain",
        "class": "ControlPoint",
        "name_object": "Bluefor Airbase",
        "team": "2",
        "areavalue1": "0.0",
        "areavalue2": "0.0",
        "cpid": "1",
        "sgid": "5",
        "uncap": "true",
        "ttgc": "0.0",
        "ttlc": "0.0"
      }
    },
    {
      "type": "Feature",
      "geometry": {
        "type": "Point",
        "coordinates": [251.005, -677.63196],
        "size": [33, 33],
        "radius": "0.0"
      },
      "properties": {
        "iconurl": "icons/flags_map/ru/minimap_cpbase.png",
        "iconrotate": "0",
        "popupContent": "Amazing information about Russian Airbase will be found here!"
      },
      "bf2props": {
        "name": "cpname_hades_peak_aas128_rumain",
        "class": "ControlPoint",
        "name_object": "Russian Airbase",
        "team": "1",
        "areavalue1": "0.0",
        "areavalue2": "0.0",
        "cpid": "2",
        "sgid": "1",
        "uncap": "true",
        "ttgc": "0.0",
        "ttlc": "0.0"
      }
    },
    {
      "type": "Feature",
      "geometry": {
        "type": "Point",
        "coordinates": [1370.406, -1208.541],
        "size": [33, 33],
        "radius": "100.0"
      },
      "properties": {
        "iconurl": "icons/flags_map/neutral/minimap_cp.png",
        "iconrotate": "0",
        "popupContent": "Amazing information about Sursk 100m will be found here!"
      },
      "bf2props": {
        "name": "cpname_hades_peak_aas128_ruvillage",
        "class": "ControlPoint",
        "name_object": "Sursk 100m",
        "team": "0",
        "areavalue1": "0.0",
        "areavalue2": "300.0",
        "cpid": "201",
        "sgid": "211",
        "uncap": "false",
        "ttgc": "180.0",
        "ttlc": "180.0"
      }
    },
    {
      "type": "Feature",
      "geometry": {
        "type": "Point",
        "coordinates": [2079.353, -1551.837],
        "size": [33, 33],
        "radius": "100.0"
      },
      "properties": {
        "iconurl": "icons/flags_map/neutral/minimap_cp.png",
        "iconrotate": "0",
        "popupContent": "Amazing information about North Fort 100m will be found here!"
      },
      "bf2props": {
        "name": "cpname_hades_peak_aas128_northtrench",
        "class": "ControlPoint",
        "name_object": "North Fort 100m",
        "team": "0",
        "areavalue1": "0.0",
        "areavalue2": "0.0",
        "cpid": "202",
        "sgid": "321",
        "uncap": "false",
        "ttgc": "180.0",
        "ttlc": "180.0"
      }
    },
    {
      "type": "Feature",
      "geometry": {
        "type": "Point",
        "coordinates": [1821.356, -1871.502],
        "size": [33, 33],
        "radius": "75.0"
      },
      "properties": {
        "iconurl": "icons/flags_map/neutral/minimap_cp.png",
        "iconrotate": "0",
        "popupContent": "Amazing information about Central Trench 75m will be found here!"
      },
      "bf2props": {
        "name": "cpname_hades_peak_aas128_westrench",
        "class": "ControlPoint",
        "name_object": "Central Trench 75m",
        "team": "0",
        "areavalue1": "0.0",
        "areavalue2": "0.0",
        "cpid": "203",
        "sgid": "321",
        "uncap": "false",
        "ttgc": "180.0",
        "ttlc": "180.0"
      }
    },
    {
      "type": "Feature",
      "geometry": {
        "type": "Point",
        "coordinates": [1625.272, -2294.513],
        "size": [33, 33],
        "radius": "100.0"
      },
      "properties": {
        "iconurl": "icons/flags_map/neutral/minimap_cp.png",
        "iconrotate": "0",
        "popupContent": "Amazing information about Command Trench 100m will be found here!"
      },
      "bf2props": {
        "name": "cpname_hades_peak_aas128_commandtrench",
        "class": "ControlPoint",
        "name_object": "Command Trench 100m",
        "team": "0",
        "areavalue1": "0.0",
        "areavalue2": "0.0",
        "cpid": "204",
        "sgid": "321",
        "uncap": "false",
        "ttgc": "180.0",
        "ttlc": "180.0"
      }
    },
    {
      "type": "Feature",
      "geometry": {
        "type": "Point",
        "coordinates": [3103.896, -1742.724],
        "size": [33, 33],
        "radius": "85.0"
      },
      "properties": {
        "iconurl": "icons/flags_map/neutral/minimap_cp.png",
        "iconrotate": "0",
        "popupContent": "Amazing information about Bluefor FOB 85m will be found here!"
      },
      "bf2props": {
        "name": "cpname_hades_peak_aas128_fob",
        "class": "ControlPoint",
        "name_object": "Bluefor FOB 85m",
        "team": "0",
        "areavalue1": "300.0",
        "areavalue2": "0.0",
        "cpid": "205",
        "sgid": "411",
        "uncap": "false",
        "ttgc": "180.0",
        "ttlc": "180.0"
      }
    },
    {
      "type": "Feature",
      "geometry": {
        "type": "Point",
        "coordinates": [1364.542, -3084.496],
        "size": [33, 33],
        "radius": "50.0"
      },
      "properties": {
        "iconurl": "icons/flags_map/neutral/minimap_cp.png",
        "iconrotate": "0",
        "popupContent": "Amazing information about Old Monastery 50m will be found here!"
      },
      "bf2props": {
        "name": "cpname_hades_peak_aas128_oldmonastery",
        "class": "ControlPoint",
        "name_object": "Old Monastery 50m",
        "team": "0",
        "areavalue1": "0.0",
        "areavalue2": "0.0",
        "cpid": "1101",
        "sgid": "321",
        "uncap": "false",
        "ttgc": "180.0",
        "ttlc": "180.0"
      }
    },
    {
      "type": "Feature",
      "geometry": {
        "type": "Point",
        "coordinates": [2899.033, -2100.541],
        "size": [33, 33],
        "radius": "85.0"
      },
      "properties": {
        "iconurl": "icons/flags_map/neutral/minimap_cp.png",
        "iconrotate": "0",
        "popupContent": "Amazing information about Lumber Mill 85m will be found here!"
      },
      "bf2props": {
        "name": "cpname_hades_peak_aas128_lumber",
        "class": "ControlPoint",
        "name_object": "Lumber Mill 85m",
        "team": "0",
        "areavalue1": "300.0",
        "areavalue2": "0.0",
        "cpid": "1102",
        "sgid": "411",
        "uncap": "false",
        "ttgc": "180.0",
        "ttlc": "180.0"
      }
    },
    {
      "type": "Feature",
      "geometry": {
        "type": "Point",
        "coordinates": [1246.312, -1863.042],
        "size": [33, 33],
        "radius": "135.0"
      },
      "properties": {
        "iconurl": "icons/flags_map/neutral/minimap_cp.png",
        "iconrotate": "0",
        "popupContent": "Amazing information about Old Mine 135m will be found here!"
      },
      "bf2props": {
        "name": "cpname_hades_peak_aas128_oldmine",
        "class": "ControlPoint",
        "name_object": "Old Mine 135m",
        "team": "0",
        "areavalue1": "0.0",
        "areavalue2": "300.0",
        "cpid": "1103",
        "sgid": "211",
        "uncap": "false",
        "ttgc": "180.0",
        "ttlc": "180.0"
      }
    },
    {
      "type": "Feature",
      "geometry": {
        "type": "Polygon",
        "coordinates": [
          [
            [0,0],
            [0,-4096],
            [4096,-4096],
            [4096,0]
          ],[
            [4096.0, -4096.0],
            [4096.0, 0.0],
            [0.0, 0.0],
            [0.0, -4096.0]
          ]
        ]
      },
      "bf2props": {
        "code": "combatarea_0_aas64",
        "class": "CombatArea",
        "team": "0",
        "vehicles": "4",
        "layer": "2",
        "inverted": "false",
        "max": [0.0, 0.0],
        "min": [0.0, 0.0]
      }
    },
    {
      "type": "Feature",
      "geometry": {
        "type": "Polygon",
        "coordinates": [
          [
            [0.0, -1969.5549],
            [457.9005, -2048.7026],
            [693.1008, -1756.3914],
            [923.8268, -1274.2002],
            [1063.1564, -683.2324],
            [1038.1442, 0.0],
            [0.0, 0.0]
          ]
        ]
      },
      "bf2props": {
        "code": "combatarea_28_gb64",
        "class": "CombatArea",
        "team": "2",
        "vehicles": "4",
        "layer": "2",
        "inverted": "true",
        "max": [0.0, 0.0],
        "min": [0.0, 0.0]
      }
    },
    {
      "type": "Feature",
      "geometry": {
        "type": "Polygon",
        "coordinates": [
          [
            [3353.806, -2335.1519],
            [4096.0, -2283.7192],
            [4096.0, -4096.0],
            [3089.6067, -4096.0],
            [3028.2825, -3018.1436]
          ]
        ]
      },
      "bf2props": {
        "code": "combatarea_17_gb64",
        "class": "CombatArea",
        "team": "1",
        "vehicles": "4",
        "layer": "2",
        "inverted": "true",
        "max": [0.0, 0.0],
        "min": [0.0, 0.0]
      }
    }
  ]
}