{
  "team1":"ru",
  "team2":"gb",
  "team1tickets":"200",
  "team2tickets":"200",
  "mapsize":"4096",
  "viewdistance":"1025",
  "combatareause":"true",
  "combatareadamage":"20.0",
  "combatareaallowoutside":"10.0",
  "routes": [
    [
      [
        "cpname_hades_peak_coop16_delta"
      ],
      [
        "cpname_hades_peak_coop16_charlie"
      ],
      [
        "cpname_hades_peak_coop16_bravo"
      ],
      [
        "cpname_hades_peak_coop16_alpha"
      ]
    ]
  ],
  "type": "FeatureCollection",
  "features": [
    {
      "type": "Feature",
      "geometry": {
        "type": "Point",
        "coordinates": [2052.366, -1544.389],
        "size": [33, 33],
        "radius": "30.0"
      },
      "properties": {
        "iconurl": "icons/flags_map/ru/minimap_cp.png",
        "iconrotate": "0",
        "popupContent": "Amazing information about Delta will be found here!"
      },
      "bf2props": {
        "name": "cpname_hades_peak_coop16_delta",
        "class": "ControlPoint",
        "name_object": "Delta",
        "team": "1",
        "areavalue1": "0.0",
        "areavalue2": "0.0",
        "cpid": "2",
        "sgid": "1",
        "uncap": "false",
        "ttgc": "90.0",
        "ttlc": "90.0"
      }
    },
    {
      "type": "Feature",
      "geometry": {
        "type": "Point",
        "coordinates": [1819.817, -1867.783],
        "size": [33, 33],
        "radius": "30.0"
      },
      "properties": {
        "iconurl": "icons/flags_map/neutral/minimap_cp.png",
        "iconrotate": "0",
        "popupContent": "Amazing information about Charlie will be found here!"
      },
      "bf2props": {
        "name": "cpname_hades_peak_coop16_charlie",
        "class": "ControlPoint",
        "name_object": "Charlie",
        "team": "0",
        "areavalue1": "0.0",
        "areavalue2": "0.0",
        "cpid": "3",
        "sgid": "2",
        "uncap": "false",
        "ttgc": "90.0",
        "ttlc": "90.0"
      }
    },
    {
      "type": "Feature",
      "geometry": {
        "type": "Point",
        "coordinates": [1921.0, -2253.036],
        "size": [33, 33],
        "radius": "30.0"
      },
      "properties": {
        "iconurl": "icons/flags_map/neutral/minimap_cp.png",
        "iconrotate": "0",
        "popupContent": "Amazing information about Bravo will be found here!"
      },
      "bf2props": {
        "name": "cpname_hades_peak_coop16_bravo",
        "class": "ControlPoint",
        "name_object": "Bravo",
        "team": "0",
        "areavalue1": "0.0",
        "areavalue2": "0.0",
        "cpid": "4",
        "sgid": "3",
        "uncap": "false",
        "ttgc": "90.0",
        "ttlc": "90.0"
      }
    },
    {
      "type": "Feature",
      "geometry": {
        "type": "Point",
        "coordinates": [1577.8569, -2317.642],
        "size": [33, 33],
        "radius": "30.0"
      },
      "properties": {
        "iconurl": "icons/flags_map/gb/minimap_cp.png",
        "iconrotate": "0",
        "popupContent": "Amazing information about Alpha will be found here!"
      },
      "bf2props": {
        "name": "cpname_hades_peak_coop16_alpha",
        "class": "ControlPoint",
        "name_object": "Alpha",
        "team": "2",
        "areavalue1": "0.0",
        "areavalue2": "0.0",
        "cpid": "5",
        "sgid": "4",
        "uncap": "false",
        "ttgc": "90.0",
        "ttlc": "90.0"
      }
    },
    {
      "type": "Feature",
      "geometry": {
        "type": "Polygon",
        "coordinates": [
          [
            [0,0],
            [0,-4096],
            [4096,-4096],
            [4096,0]
          ],[
            [1465.6448, -2145.3125],
            [1298.4938, -2384.0342],
            [1281.8171, -2603.2007],
            [1550.9556, -2700.939],
            [1913.7926, -2583.2065],
            [2155.015, -2512.6062],
            [2287.5903, -2370.662],
            [2317.8914, -1956.2605],
            [2325.679, -1529.728],
            [2201.8157, -1242.4814],
            [2012.7616, -1159.0491],
            [1811.351, -1222.3218],
            [1597.4221, -1864.5669],
            [1539.9583, -2025.7256],
            [1467.5779, -2144.8464]
          ]
        ]
      },
      "bf2props": {
        "code": "combatarea_0_default",
        "class": "CombatArea",
        "team": "0",
        "vehicles": "4",
        "layer": "1",
        "inverted": "false",
        "max": [0.0, 0.0],
        "min": [0.0, 0.0]
      }
    }
  ]
}