{
  "team1":"chinsurgent",
  "team2":"us",
  "team1tickets":"500",
  "team2tickets":"500",
  "mapsize":"4096",
  "viewdistance":"900",
  "combatareause":"true",
  "combatareadamage":"20.0",
  "combatareaallowoutside":"10.0",
  "routes": [
    [
      [
        "cpname_pavlovsk_bay_aas32_militia_base"
      ],
      [
        "cpname_pavlovsk_bay_aas_comms_relay"
      ],
      [
        "cpname_pavlovsk_bay_aas_derevnya"
      ],
      [
        "cpname_pavlovsk_bay_aas_cargo_area",
        "cpname_pavlovsk_bay_aas_central_base",
        "cpname_pavlovsk_bay_aas_subpen"
      ],
      [
        "cpname_pavlovsk_bay_aas_aaa_battery",
        "cpname_pavlovsk_bay_aas_checkpoint"
      ],
      [
        "cpname_pavlovsk_bay_aas_west_beach_bunker",
        "cpname_pavlovsk_bay_aas_west_beach"
      ],
      [
        "cpname_pavlovsk_bay_aas32_uss_essex"
      ]
    ],
    [
      [
        "cpname_pavlovsk_bay_aas32_militia_base"
      ],
      [
        "cpname_pavlovsk_bay_aas_comms_relay"
      ],
      [
        "cpname_pavlovsk_bay_aas_old_barracks"
      ],
      [
        "cpname_pavlovsk_bay_aas_cargo_area2"
      ],
      [
        "cpname_pavlovsk_bay_aas_subpen2"
      ],
      [
        "cpname_pavlovsk_bay_aas_east_beach"
      ],
      [
        "cpname_pavlovsk_bay_aas32_uss_essex"
      ]
    ]
  ],
  "type": "FeatureCollection",
  "features": [
    {
      "type": "Feature",
      "geometry": {
        "type": "Point",
        "coordinates": [1693.433, -195.58997],
        "size": [16, 16]
      },
      "properties": {
        "iconurl": "icons/mini_map/repairdepot.png",
        "iconrotate": "0",
        "popupContent": "Amazing information about null will be found here!"
      },
      "bf2props": {
        "name": "common_usvd_n",
        "class": "ObjectSpawner",
        "name_object": "Vehicle Depot",
        "team": "2",
        "obj1": "null",
        "obj2": "vehicle_depot_us",
        "maxspawn": "0.0",
        "minspawn": "0.0",
        "spawndelay": "false",
        "ttl": "0.0",
        "cpid": "-1"
      }
    },
    {
      "type": "Feature",
      "geometry": {
        "type": "Point",
        "coordinates": [1706.785, -171.62695],
        "size": [16, 16]
      },
      "properties": {
        "iconurl": "icons/vehicles_map/mini_trk_logistics.png",
        "iconrotate": "-179.0",
        "popupContent": "Amazing information about null will be found here!"
      },
      "bf2props": {
        "name": "common_uslogi_n",
        "class": "ObjectSpawner",
        "name_object": "M35 Logistics",
        "team": "2",
        "obj1": "null",
        "obj2": "us_trk_logistics",
        "maxspawn": "600.0",
        "minspawn": "600.0",
        "spawndelay": "true",
        "ttl": "99999.0",
        "cpid": "-1"
      }
    },
    {
      "type": "Feature",
      "geometry": {
        "type": "Point",
        "coordinates": [3652.845, -2768.679],
        "size": [16, 16]
      },
      "properties": {
        "iconurl": "icons/mini_map/repairdepot.png",
        "iconrotate": "0",
        "popupContent": "Amazing information about null will be found here!"
      },
      "bf2props": {
        "name": "common_usvd_s",
        "class": "ObjectSpawner",
        "name_object": "Vehicle Depot",
        "team": "2",
        "obj1": "null",
        "obj2": "vehicle_depot_us",
        "maxspawn": "0.0",
        "minspawn": "0.0",
        "spawndelay": "false",
        "ttl": "0.0",
        "cpid": "-1"
      }
    },
    {
      "type": "Feature",
      "geometry": {
        "type": "Point",
        "coordinates": [3671.905, -2760.58],
        "size": [16, 16]
      },
      "properties": {
        "iconurl": "icons/vehicles_map/mini_trk_logistics.png",
        "iconrotate": "0.0",
        "popupContent": "Amazing information about null will be found here!"
      },
      "bf2props": {
        "name": "common_uslogi_s",
        "class": "ObjectSpawner",
        "name_object": "M35 Logistics",
        "team": "2",
        "obj1": "null",
        "obj2": "us_trk_logistics",
        "maxspawn": "600.0",
        "minspawn": "600.0",
        "spawndelay": "true",
        "ttl": "99999.0",
        "cpid": "-1"
      }
    },
    {
      "type": "Feature",
      "geometry": {
        "type": "Point",
        "coordinates": [622.06396, -2878.199],
        "size": [16, 16]
      },
      "properties": {
        "iconurl": "icons/vehicles_map/firebase_mini_white.png",
        "iconrotate": "0",
        "popupContent": "Amazing information about null will be found here!"
      },
      "bf2props": {
        "name": "common_usacv",
        "class": "ObjectSpawner",
        "name_object": "Command Post",
        "team": "2",
        "obj1": "null",
        "obj2": "deployable_commandpost_us",
        "maxspawn": "0.0",
        "minspawn": "0.0",
        "spawndelay": "false",
        "ttl": "0.0",
        "cpid": "-1"
      }
    },
    {
      "type": "Feature",
      "geometry": {
        "type": "Point",
        "coordinates": [-739.90796, -3599.845],
        "size": [16, 16]
      },
      "properties": {
        "iconurl": "icons/mini_map/airdef.png",
        "iconrotate": "0",
        "popupContent": "Amazing information about null will be found here!"
      },
      "bf2props": {
        "name": "common_us_area1",
        "class": "ObjectSpawner",
        "name_object": "Artillery Barrage Call-In",
        "team": "2",
        "obj1": "null",
        "obj2": "artillery_team2",
        "maxspawn": "1800.0",
        "minspawn": "1800.0",
        "spawndelay": "true",
        "ttl": "0.0",
        "cpid": "-1"
      }
    },
    {
      "type": "Feature",
      "geometry": {
        "type": "Point",
        "coordinates": [-729.521, -3603.171],
        "size": [16, 16]
      },
      "properties": {
        "iconurl": "icons/mini_map/airdef.png",
        "iconrotate": "0",
        "popupContent": "Amazing information about null will be found here!"
      },
      "bf2props": {
        "name": "common_us_area2",
        "class": "ObjectSpawner",
        "name_object": "Artillery Barrage Call-In",
        "team": "2",
        "obj1": "null",
        "obj2": "artillery_team2",
        "maxspawn": "1800.0",
        "minspawn": "1800.0",
        "spawndelay": "true",
        "ttl": "0.0",
        "cpid": "-1"
      }
    },
    {
      "type": "Feature",
      "geometry": {
        "type": "Point",
        "coordinates": [-739.46704, -3608.954],
        "size": [16, 16]
      },
      "properties": {
        "iconurl": "icons/mini_map/airdef.png",
        "iconrotate": "0",
        "popupContent": "Amazing information about null will be found here!"
      },
      "bf2props": {
        "name": "common_us_area3",
        "class": "ObjectSpawner",
        "name_object": "Artillery Barrage Call-In",
        "team": "2",
        "obj1": "null",
        "obj2": "artillery_team2",
        "maxspawn": "1800.0",
        "minspawn": "1800.0",
        "spawndelay": "true",
        "ttl": "0.0",
        "cpid": "-1"
      }
    },
    {
      "type": "Feature",
      "geometry": {
        "type": "Point",
        "coordinates": [3470.7031, 1120.323],
        "size": [16, 16]
      },
      "properties": {
        "iconurl": "icons/mini_map/airdef.png",
        "iconrotate": "0",
        "popupContent": "Amazing information about Artillery Barrage Call-In will be found here!"
      },
      "bf2props": {
        "name": "common_ru_area1",
        "class": "ObjectSpawner",
        "name_object": "Artillery Barrage Call-In",
        "team": "1",
        "obj1": "artillery_team1",
        "obj2": "null",
        "maxspawn": "1800.0",
        "minspawn": "1800.0",
        "spawndelay": "true",
        "ttl": "0.0",
        "cpid": "-1"
      }
    },
    {
      "type": "Feature",
      "geometry": {
        "type": "Point",
        "coordinates": [3489.933, 1112.135],
        "size": [16, 16]
      },
      "properties": {
        "iconurl": "icons/mini_map/airdef.png",
        "iconrotate": "0",
        "popupContent": "Amazing information about Artillery Barrage Call-In will be found here!"
      },
      "bf2props": {
        "name": "common_ru_area2",
        "class": "ObjectSpawner",
        "name_object": "Artillery Barrage Call-In",
        "team": "1",
        "obj1": "artillery_team1",
        "obj2": "null",
        "maxspawn": "1800.0",
        "minspawn": "1800.0",
        "spawndelay": "true",
        "ttl": "0.0",
        "cpid": "-1"
      }
    },
    {
      "type": "Feature",
      "geometry": {
        "type": "Point",
        "coordinates": [3500.6528, 1109.8611],
        "size": [16, 16]
      },
      "properties": {
        "iconurl": "icons/mini_map/airdef.png",
        "iconrotate": "0",
        "popupContent": "Amazing information about Artillery Barrage Call-In will be found here!"
      },
      "bf2props": {
        "name": "common_ru_area3",
        "class": "ObjectSpawner",
        "name_object": "Artillery Barrage Call-In",
        "team": "1",
        "obj1": "artillery_team1",
        "obj2": "null",
        "maxspawn": "1800.0",
        "minspawn": "1800.0",
        "spawndelay": "true",
        "ttl": "0.0",
        "cpid": "-1"
      }
    },
    {
      "type": "Feature",
      "geometry": {
        "type": "Point",
        "coordinates": [1896.0, -1324.0],
        "size": [16, 16]
      },
      "properties": {
        "iconurl": "icons/vehicles_map/mini_stw_aa_medium.png",
        "iconrotate": "-180.0",
        "popupContent": "Amazing information about zpu4 will be found here!"
      },
      "bf2props": {
        "name": "common_aaa1",
        "class": "ObjectSpawner",
        "name_object": "zpu4",
        "team": "1",
        "obj1": "zpu4",
        "obj2": "null",
        "maxspawn": "99999.0",
        "minspawn": "99999.0",
        "spawndelay": "false",
        "ttl": "0.0",
        "cpid": "-1"
      }
    },
    {
      "type": "Feature",
      "geometry": {
        "type": "Point",
        "coordinates": [1860.0, -1300.0],
        "size": [16, 16]
      },
      "properties": {
        "iconurl": "icons/vehicles_map/mini_stw_aa_medium.png",
        "iconrotate": "-90.0",
        "popupContent": "Amazing information about zpu4 will be found here!"
      },
      "bf2props": {
        "name": "common_aaa2",
        "class": "ObjectSpawner",
        "name_object": "zpu4",
        "team": "1",
        "obj1": "zpu4",
        "obj2": "null",
        "maxspawn": "99999.0",
        "minspawn": "99999.0",
        "spawndelay": "false",
        "ttl": "0.0",
        "cpid": "-1"
      }
    },
    {
      "type": "Feature",
      "geometry": {
        "type": "Point",
        "coordinates": [1924.0, -1284.0],
        "size": [16, 16]
      },
      "properties": {
        "iconurl": "icons/vehicles_map/mini_stw_aa_medium.png",
        "iconrotate": "90.0",
        "popupContent": "Amazing information about zpu4 will be found here!"
      },
      "bf2props": {
        "name": "common_aaa3",
        "class": "ObjectSpawner",
        "name_object": "zpu4",
        "team": "1",
        "obj1": "zpu4",
        "obj2": "null",
        "maxspawn": "99999.0",
        "minspawn": "99999.0",
        "spawndelay": "false",
        "ttl": "0.0",
        "cpid": "-1"
      }
    },
    {
      "type": "Feature",
      "geometry": {
        "type": "Point",
        "coordinates": [2548.0, -1384.0],
        "size": [16, 16]
      },
      "properties": {
        "iconurl": "icons/vehicles_map/mini_stw_aa_medium.png",
        "iconrotate": "-180.0",
        "popupContent": "Amazing information about zpu4 will be found here!"
      },
      "bf2props": {
        "name": "common_aaa4",
        "class": "ObjectSpawner",
        "name_object": "zpu4",
        "team": "1",
        "obj1": "zpu4",
        "obj2": "null",
        "maxspawn": "99999.0",
        "minspawn": "99999.0",
        "spawndelay": "false",
        "ttl": "0.0",
        "cpid": "-1"
      }
    },
    {
      "type": "Feature",
      "geometry": {
        "type": "Point",
        "coordinates": [3166.0, -220.0],
        "size": [16, 16]
      },
      "properties": {
        "iconurl": "icons/vehicles_map/mini_trk_logistics.png",
        "iconrotate": "-50.0",
        "popupContent": "Amazing information about Ural-4320 Logistics will be found here!"
      },
      "bf2props": {
        "name": "cpname_pavlovsk_bay_aas32_militia_base_logi1",
        "class": "ObjectSpawner",
        "name_object": "Ural-4320 Logistics",
        "team": "1",
        "obj1": "mil_trk_logistics",
        "obj2": "null",
        "maxspawn": "300.0",
        "minspawn": "300.0",
        "spawndelay": "false",
        "ttl": "99999.0",
        "cpid": "301"
      }
    },
    {
      "type": "Feature",
      "geometry": {
        "type": "Point",
        "coordinates": [3164.0, -222.0],
        "size": [16, 16]
      },
      "properties": {
        "iconurl": "icons/vehicles_map/mini_trk_logistics.png",
        "iconrotate": "-50.0",
        "popupContent": "Amazing information about Ural-4320 Logistics will be found here!"
      },
      "bf2props": {
        "name": "cpname_pavlovsk_bay_aas32_militia_base_logi2",
        "class": "ObjectSpawner",
        "name_object": "Ural-4320 Logistics",
        "team": "1",
        "obj1": "mil_trk_logistics",
        "obj2": "null",
        "maxspawn": "300.0",
        "minspawn": "300.0",
        "spawndelay": "false",
        "ttl": "99999.0",
        "cpid": "301"
      }
    },
    {
      "type": "Feature",
      "geometry": {
        "type": "Point",
        "coordinates": [3162.0, -224.0],
        "size": [16, 16]
      },
      "properties": {
        "iconurl": "icons/vehicles_map/mini_trk_logistics.png",
        "iconrotate": "-50.0",
        "popupContent": "Amazing information about Ural-4320 Logistics will be found here!"
      },
      "bf2props": {
        "name": "cpname_pavlovsk_bay_aas32_militia_base_logi3",
        "class": "ObjectSpawner",
        "name_object": "Ural-4320 Logistics",
        "team": "1",
        "obj1": "mil_trk_logistics",
        "obj2": "null",
        "maxspawn": "300.0",
        "minspawn": "300.0",
        "spawndelay": "false",
        "ttl": "99999.0",
        "cpid": "301"
      }
    },
    {
      "type": "Feature",
      "geometry": {
        "type": "Point",
        "coordinates": [2552.0, -1296.0],
        "size": [16, 16]
      },
      "properties": {
        "iconurl": "icons/vehicles_map/mini_trk_logistics.png",
        "iconrotate": "-150.0",
        "popupContent": "Amazing information about Ural-4320 Logistics will be found here!"
      },
      "bf2props": {
        "name": "cpname_pavlovsk_bay_aas32_militia_base_logi1nr",
        "class": "ObjectSpawner",
        "name_object": "Ural-4320 Logistics",
        "team": "1",
        "obj1": "mil_trk_logistics",
        "obj2": "null",
        "maxspawn": "99999.0",
        "minspawn": "99999.0",
        "spawndelay": "false",
        "ttl": "99999.0",
        "cpid": "301"
      }
    },
    {
      "type": "Feature",
      "geometry": {
        "type": "Point",
        "coordinates": [2556.0, -1298.0],
        "size": [16, 16]
      },
      "properties": {
        "iconurl": "icons/vehicles_map/mini_trk_logistics.png",
        "iconrotate": "-150.0",
        "popupContent": "Amazing information about Ural-4320 Logistics will be found here!"
      },
      "bf2props": {
        "name": "cpname_pavlovsk_bay_aas32_militia_base_logi2nr",
        "class": "ObjectSpawner",
        "name_object": "Ural-4320 Logistics",
        "team": "1",
        "obj1": "mil_trk_logistics",
        "obj2": "null",
        "maxspawn": "99999.0",
        "minspawn": "99999.0",
        "spawndelay": "false",
        "ttl": "99999.0",
        "cpid": "301"
      }
    },
    {
      "type": "Feature",
      "geometry": {
        "type": "Point",
        "coordinates": [2558.0, -1284.0],
        "size": [16, 16]
      },
      "properties": {
        "iconurl": "icons/player_map/mini_squad.png",
        "iconrotate": "0",
        "popupContent": "Amazing information about Temporary spawnpoint will be found here!"
      },
      "bf2props": {
        "name": "cpname_pavlovsk_bay_aas32_militia_base_rp",
        "class": "ObjectSpawner",
        "name_object": "Temporary spawnpoint",
        "team": "1",
        "obj1": "rallypoint_chinsurgent_placeable",
        "obj2": "null",
        "maxspawn": "99999.0",
        "minspawn": "99999.0",
        "spawndelay": "false",
        "ttl": "0.0",
        "cpid": "301"
      }
    },
    {
      "type": "Feature",
      "geometry": {
        "type": "Point",
        "coordinates": [2544.0, -1292.0],
        "size": [16, 16]
      },
      "properties": {
        "iconurl": "icons/vehicles_map/mini_trk_support.png",
        "iconrotate": "-150.0",
        "popupContent": "Amazing information about Ural-4320 will be found here!"
      },
      "bf2props": {
        "name": "cpname_pavlovsk_bay_aas32_militia_base_trk1nr",
        "class": "ObjectSpawner",
        "name_object": "Ural-4320",
        "team": "1",
        "obj1": "mil_trk_support",
        "obj2": "null",
        "maxspawn": "99999.0",
        "minspawn": "99999.0",
        "spawndelay": "false",
        "ttl": "99999.0",
        "cpid": "301"
      }
    },
    {
      "type": "Feature",
      "geometry": {
        "type": "Point",
        "coordinates": [2548.0, -1294.0],
        "size": [16, 16]
      },
      "properties": {
        "iconurl": "icons/vehicles_map/mini_trk_support.png",
        "iconrotate": "-150.0",
        "popupContent": "Amazing information about Ural-4320 will be found here!"
      },
      "bf2props": {
        "name": "cpname_pavlovsk_bay_aas32_militia_base_trk2nr",
        "class": "ObjectSpawner",
        "name_object": "Ural-4320",
        "team": "1",
        "obj1": "mil_trk_support",
        "obj2": "null",
        "maxspawn": "99999.0",
        "minspawn": "99999.0",
        "spawndelay": "false",
        "ttl": "99999.0",
        "cpid": "301"
      }
    },
    {
      "type": "Feature",
      "geometry": {
        "type": "Point",
        "coordinates": [3174.0, -212.0],
        "size": [16, 16]
      },
      "properties": {
        "iconurl": "icons/vehicles_map/mini_trk_support.png",
        "iconrotate": "-50.0",
        "popupContent": "Amazing information about Ural-4320 will be found here!"
      },
      "bf2props": {
        "name": "cpname_pavlovsk_bay_aas32_militia_base_trk1",
        "class": "ObjectSpawner",
        "name_object": "Ural-4320",
        "team": "1",
        "obj1": "mil_trk_support",
        "obj2": "null",
        "maxspawn": "300.0",
        "minspawn": "300.0",
        "spawndelay": "false",
        "ttl": "99999.0",
        "cpid": "301"
      }
    },
    {
      "type": "Feature",
      "geometry": {
        "type": "Point",
        "coordinates": [3172.0, -214.0],
        "size": [16, 16]
      },
      "properties": {
        "iconurl": "icons/vehicles_map/mini_trk_support.png",
        "iconrotate": "-50.0",
        "popupContent": "Amazing information about Ural-4320 will be found here!"
      },
      "bf2props": {
        "name": "cpname_pavlovsk_bay_aas32_militia_base_trk2",
        "class": "ObjectSpawner",
        "name_object": "Ural-4320",
        "team": "1",
        "obj1": "mil_trk_support",
        "obj2": "null",
        "maxspawn": "300.0",
        "minspawn": "300.0",
        "spawndelay": "false",
        "ttl": "99999.0",
        "cpid": "301"
      }
    },
    {
      "type": "Feature",
      "geometry": {
        "type": "Point",
        "coordinates": [3170.0, -216.0],
        "size": [16, 16]
      },
      "properties": {
        "iconurl": "icons/vehicles_map/mini_trk_support.png",
        "iconrotate": "-50.0",
        "popupContent": "Amazing information about Ural-4320 will be found here!"
      },
      "bf2props": {
        "name": "cpname_pavlovsk_bay_aas32_militia_base_trk3",
        "class": "ObjectSpawner",
        "name_object": "Ural-4320",
        "team": "1",
        "obj1": "mil_trk_support",
        "obj2": "null",
        "maxspawn": "300.0",
        "minspawn": "300.0",
        "spawndelay": "false",
        "ttl": "99999.0",
        "cpid": "301"
      }
    },
    {
      "type": "Feature",
      "geometry": {
        "type": "Point",
        "coordinates": [3178.941, -201.18799],
        "size": [16, 16]
      },
      "properties": {
        "iconurl": "icons/vehicles_map/mini_rec_light.png",
        "iconrotate": "-50.0",
        "popupContent": "Amazing information about BRDM-2 will be found here!"
      },
      "bf2props": {
        "name": "cpname_pavlovsk_bay_aas32_militia_base_brdm",
        "class": "ObjectSpawner",
        "name_object": "BRDM-2",
        "team": "1",
        "obj1": "mec_jep_brdm2",
        "obj2": "null",
        "maxspawn": "600.0",
        "minspawn": "600.0",
        "spawndelay": "true",
        "ttl": "99999.0",
        "cpid": "301"
      }
    },
    {
      "type": "Feature",
      "geometry": {
        "type": "Point",
        "coordinates": [3185.594, -202.47595],
        "size": [16, 16]
      },
      "properties": {
        "iconurl": "icons/vehicles_map/mini_adv_light.png",
        "iconrotate": "-50.0",
        "popupContent": "Amazing information about Ural-4320 ZU-23-2 will be found here!"
      },
      "bf2props": {
        "name": "cpname_pavlovsk_bay_aas32_militia_base_aatrk2",
        "class": "ObjectSpawner",
        "name_object": "Ural-4320 ZU-23-2",
        "team": "1",
        "obj1": "civ_aav_uralzu232",
        "obj2": "null",
        "maxspawn": "600.0",
        "minspawn": "600.0",
        "spawndelay": "true",
        "ttl": "99999.0",
        "cpid": "301"
      }
    },
    {
      "type": "Feature",
      "geometry": {
        "type": "Point",
        "coordinates": [3181.3062, -207.50696],
        "size": [16, 16]
      },
      "properties": {
        "iconurl": "icons/vehicles_map/mini_adv_light.png",
        "iconrotate": "-50.0",
        "popupContent": "Amazing information about Ural-4320 ZU-23-2 will be found here!"
      },
      "bf2props": {
        "name": "cpname_pavlovsk_bay_aas32_militia_base_aatrk1",
        "class": "ObjectSpawner",
        "name_object": "Ural-4320 ZU-23-2",
        "team": "1",
        "obj1": "civ_aav_uralzu232",
        "obj2": "null",
        "maxspawn": "600.0",
        "minspawn": "600.0",
        "spawndelay": "true",
        "ttl": "99999.0",
        "cpid": "301"
      }
    },
    {
      "type": "Feature",
      "geometry": {
        "type": "Point",
        "coordinates": [3189.412, -189.91199],
        "size": [16, 16]
      },
      "properties": {
        "iconurl": "icons/vehicles_map/mini_apc_heavy.png",
        "iconrotate": "-50.0",
        "popupContent": "Amazing information about BMP-1 will be found here!"
      },
      "bf2props": {
        "name": "cpname_pavlovsk_bay_aas32_militia_base_bmp2",
        "class": "ObjectSpawner",
        "name_object": "BMP-1",
        "team": "1",
        "obj1": "mil_ifv_bmp1",
        "obj2": "null",
        "maxspawn": "900.0",
        "minspawn": "900.0",
        "spawndelay": "true",
        "ttl": "99999.0",
        "cpid": "301"
      }
    },
    {
      "type": "Feature",
      "geometry": {
        "type": "Point",
        "coordinates": [3191.428, -195.88696],
        "size": [16, 16]
      },
      "properties": {
        "iconurl": "icons/vehicles_map/mini_jep_atgm.png",
        "iconrotate": "-50.0",
        "popupContent": "Amazing information about SPG-9 Technical will be found here!"
      },
      "bf2props": {
        "name": "cpname_pavlovsk_bay_aas32_militia_base_spg",
        "class": "ObjectSpawner",
        "name_object": "SPG-9 Technical",
        "team": "1",
        "obj1": "civ_atm_technical_militia",
        "obj2": "null",
        "maxspawn": "900.0",
        "minspawn": "900.0",
        "spawndelay": "true",
        "ttl": "99999.0",
        "cpid": "301"
      }
    },
    {
      "type": "Feature",
      "geometry": {
        "type": "Point",
        "coordinates": [3185.3188, -195.505],
        "size": [16, 16]
      },
      "properties": {
        "iconurl": "icons/vehicles_map/mini_apc_heavy.png",
        "iconrotate": "-50.0",
        "popupContent": "Amazing information about BMP-1 will be found here!"
      },
      "bf2props": {
        "name": "cpname_pavlovsk_bay_aas32_militia_base_bmp1",
        "class": "ObjectSpawner",
        "name_object": "BMP-1",
        "team": "1",
        "obj1": "mil_ifv_bmp1",
        "obj2": "null",
        "maxspawn": "900.0",
        "minspawn": "900.0",
        "spawndelay": "true",
        "ttl": "99999.0",
        "cpid": "301"
      }
    },
    {
      "type": "Feature",
      "geometry": {
        "type": "Point",
        "coordinates": [626.0, -2750.0],
        "size": [16, 16]
      },
      "properties": {
        "iconurl": "icons/vehicles_map/mini_ahe_light.png",
        "iconrotate": "90.0",
        "popupContent": "Amazing information about null will be found here!"
      },
      "bf2props": {
        "name": "cpname_pavlovsk_bay_aas32_uss_essex_ahe1",
        "class": "ObjectSpawner",
        "name_object": "UH-1N Twin Huey CAS",
        "team": "2",
        "obj1": "null",
        "obj2": "us_ahe_uh1nrockets",
        "maxspawn": "900.0",
        "minspawn": "900.0",
        "spawndelay": "false",
        "ttl": "99999.0",
        "cpid": "302"
      }
    },
    {
      "type": "Feature",
      "geometry": {
        "type": "Point",
        "coordinates": [626.0, -2772.0],
        "size": [16, 16]
      },
      "properties": {
        "iconurl": "icons/vehicles_map/mini_ahe_light.png",
        "iconrotate": "90.0",
        "popupContent": "Amazing information about null will be found here!"
      },
      "bf2props": {
        "name": "cpname_pavlovsk_bay_aas32_uss_essex_ahe2",
        "class": "ObjectSpawner",
        "name_object": "UH-1N Twin Huey CAS",
        "team": "2",
        "obj1": "null",
        "obj2": "us_ahe_uh1nrockets",
        "maxspawn": "900.0",
        "minspawn": "900.0",
        "spawndelay": "false",
        "ttl": "99999.0",
        "cpid": "302"
      }
    },
    {
      "type": "Feature",
      "geometry": {
        "type": "Point",
        "coordinates": [638.0, -2966.0],
        "size": [16, 16]
      },
      "properties": {
        "iconurl": "icons/vehicles_map/mini_the_light.png",
        "iconrotate": "45.0",
        "popupContent": "Amazing information about null will be found here!"
      },
      "bf2props": {
        "name": "cpname_pavlovsk_bay_aas32_uss_essex_the1",
        "class": "ObjectSpawner",
        "name_object": "UH-1N Twin Huey",
        "team": "2",
        "obj1": "null",
        "obj2": "us_the_uh1n_m240d",
        "maxspawn": "300.0",
        "minspawn": "300.0",
        "spawndelay": "false",
        "ttl": "99999.0",
        "cpid": "302"
      }
    },
    {
      "type": "Feature",
      "geometry": {
        "type": "Point",
        "coordinates": [588.0, -2924.0],
        "size": [16, 16]
      },
      "properties": {
        "iconurl": "icons/vehicles_map/mini_the_light.png",
        "iconrotate": "0.0",
        "popupContent": "Amazing information about null will be found here!"
      },
      "bf2props": {
        "name": "cpname_pavlovsk_bay_aas32_uss_essex_the2",
        "class": "ObjectSpawner",
        "name_object": "UH-1N Twin Huey",
        "team": "2",
        "obj1": "null",
        "obj2": "us_the_uh1n_m240d",
        "maxspawn": "300.0",
        "minspawn": "300.0",
        "spawndelay": "false",
        "ttl": "99999.0",
        "cpid": "302"
      }
    },
    {
      "type": "Feature",
      "geometry": {
        "type": "Point",
        "coordinates": [624.0, -2986.0],
        "size": [16, 16]
      },
      "properties": {
        "iconurl": "icons/vehicles_map/mini_the_heavy_mv22.png",
        "iconrotate": "-30.0",
        "popupContent": "Amazing information about null will be found here!"
      },
      "bf2props": {
        "name": "cpname_pavlovsk_bay_aas32_uss_essex_the3",
        "class": "ObjectSpawner",
        "name_object": "MV-22 Osprey",
        "team": "2",
        "obj1": "null",
        "obj2": "us_the_mv22",
        "maxspawn": "450.0",
        "minspawn": "450.0",
        "spawndelay": "false",
        "ttl": "99999.0",
        "cpid": "302"
      }
    },
    {
      "type": "Feature",
      "geometry": {
        "type": "Point",
        "coordinates": [614.0, -2962.0],
        "size": [16, 16]
      },
      "properties": {
        "iconurl": "icons/vehicles_map/mini_rec_medium.png",
        "iconrotate": "-180.0",
        "popupContent": "Amazing information about null will be found here!"
      },
      "bf2props": {
        "name": "cpname_pavlovsk_bay_aas32_uss_essex_apc1",
        "class": "ObjectSpawner",
        "name_object": "LAV-25",
        "team": "2",
        "obj1": "null",
        "obj2": "us_apc_lav25",
        "maxspawn": "600.0",
        "minspawn": "600.0",
        "spawndelay": "false",
        "ttl": "99999.0",
        "cpid": "302"
      }
    },
    {
      "type": "Feature",
      "geometry": {
        "type": "Point",
        "coordinates": [608.0, -2962.0],
        "size": [16, 16]
      },
      "properties": {
        "iconurl": "icons/vehicles_map/mini_rec_medium.png",
        "iconrotate": "-180.0",
        "popupContent": "Amazing information about null will be found here!"
      },
      "bf2props": {
        "name": "cpname_pavlovsk_bay_aas32_uss_essex_apc2",
        "class": "ObjectSpawner",
        "name_object": "LAV-25",
        "team": "2",
        "obj1": "null",
        "obj2": "us_apc_lav25",
        "maxspawn": "600.0",
        "minspawn": "600.0",
        "spawndelay": "false",
        "ttl": "99999.0",
        "cpid": "302"
      }
    },
    {
      "type": "Feature",
      "geometry": {
        "type": "Point",
        "coordinates": [620.0, -2962.0],
        "size": [16, 16]
      },
      "properties": {
        "iconurl": "icons/vehicles_map/mini_apc_medium_aavp7.png",
        "iconrotate": "-180.0",
        "popupContent": "Amazing information about null will be found here!"
      },
      "bf2props": {
        "name": "cpname_pavlovsk_bay_aas32_uss_essex_apc3",
        "class": "ObjectSpawner",
        "name_object": "AAVP7A1 RAM/RS",
        "team": "2",
        "obj1": "null",
        "obj2": "us_apc_aavp7a1",
        "maxspawn": "600.0",
        "minspawn": "600.0",
        "spawndelay": "false",
        "ttl": "99999.0",
        "cpid": "302"
      }
    },
    {
      "type": "Feature",
      "geometry": {
        "type": "Point",
        "coordinates": [624.0, -2984.0],
        "size": [16, 16]
      },
      "properties": {
        "iconurl": "icons/vehicles_map/mini_shp_light.png",
        "iconrotate": "-180.0",
        "popupContent": "Amazing information about null will be found here!"
      },
      "bf2props": {
        "name": "cpname_pavlovsk_bay_aas32_uss_essex_boat1",
        "class": "ObjectSpawner",
        "name_object": "RHIB",
        "team": "2",
        "obj1": "null",
        "obj2": "boat_rib_gpmg_m240b",
        "maxspawn": "300.0",
        "minspawn": "300.0",
        "spawndelay": "false",
        "ttl": "300.0",
        "cpid": "302"
      }
    },
    {
      "type": "Feature",
      "geometry": {
        "type": "Point",
        "coordinates": [604.0, -2984.0],
        "size": [16, 16]
      },
      "properties": {
        "iconurl": "icons/vehicles_map/mini_shp_light.png",
        "iconrotate": "-180.0",
        "popupContent": "Amazing information about null will be found here!"
      },
      "bf2props": {
        "name": "cpname_pavlovsk_bay_aas32_uss_essex_boat2",
        "class": "ObjectSpawner",
        "name_object": "RHIB",
        "team": "2",
        "obj1": "null",
        "obj2": "boat_rib_gpmg_m240b",
        "maxspawn": "300.0",
        "minspawn": "300.0",
        "spawndelay": "false",
        "ttl": "300.0",
        "cpid": "302"
      }
    },
    {
      "type": "Feature",
      "geometry": {
        "type": "Point",
        "coordinates": [3196.0, -188.0],
        "size": [16, 16]
      },
      "properties": {
        "iconurl": "icons/mini_map/uavtrailer.png",
        "iconrotate": "0",
        "popupContent": "Amazing information about UAV Terminal will be found here!"
      },
      "bf2props": {
        "name": "cpname_pavlovsk_bay_aas32_militia_base_acv",
        "class": "ObjectSpawner",
        "name_object": "UAV Terminal",
        "team": "1",
        "obj1": "mil_acv_technical",
        "obj2": "null",
        "maxspawn": "0.0",
        "minspawn": "0.0",
        "spawndelay": "false",
        "ttl": "0.0",
        "cpid": "301"
      }
    },
    {
      "type": "Feature",
      "geometry": {
        "type": "Point",
        "coordinates": [3156.0, -178.0],
        "size": [16, 16]
      },
      "properties": {
        "iconurl": "icons/mini_map/repairdepot.png",
        "iconrotate": "0",
        "popupContent": "Amazing information about Vehicle Depot will be found here!"
      },
      "bf2props": {
        "name": "cpname_pavlovsk_bay_aas32_militia_base_vd",
        "class": "ObjectSpawner",
        "name_object": "Vehicle Depot",
        "team": "1",
        "obj1": "vehicle_depot_mil",
        "obj2": "null",
        "maxspawn": "0.0",
        "minspawn": "0.0",
        "spawndelay": "false",
        "ttl": "0.0",
        "cpid": "301"
      }
    },
    {
      "type": "Feature",
      "geometry": {
        "type": "Point",
        "coordinates": [3124.0, -216.0],
        "size": [16, 16]
      },
      "properties": {
        "iconurl": "icons/vehicles_map/mini_jep_light.png",
        "iconrotate": "-140.0",
        "popupContent": "Amazing information about DShKM Technical will be found here!"
      },
      "bf2props": {
        "name": "cpname_pavlovsk_bay_aas32_militia_base_jep1",
        "class": "ObjectSpawner",
        "name_object": "DShKM Technical",
        "team": "1",
        "obj1": "civ_jep_technical_militia",
        "obj2": "null",
        "maxspawn": "600.0",
        "minspawn": "600.0",
        "spawndelay": "false",
        "ttl": "99999.0",
        "cpid": "301"
      }
    },
    {
      "type": "Feature",
      "geometry": {
        "type": "Point",
        "coordinates": [3128.0, -218.0],
        "size": [16, 16]
      },
      "properties": {
        "iconurl": "icons/vehicles_map/mini_jep_light.png",
        "iconrotate": "-140.0",
        "popupContent": "Amazing information about DShKM Technical will be found here!"
      },
      "bf2props": {
        "name": "cpname_pavlovsk_bay_aas32_militia_base_jep2",
        "class": "ObjectSpawner",
        "name_object": "DShKM Technical",
        "team": "1",
        "obj1": "civ_jep_technical_militia",
        "obj2": "null",
        "maxspawn": "600.0",
        "minspawn": "600.0",
        "spawndelay": "false",
        "ttl": "99999.0",
        "cpid": "301"
      }
    },
    {
      "type": "Feature",
      "geometry": {
        "type": "Point",
        "coordinates": [3367.655, -769.25696],
        "size": [33, 33],
        "radius": "100.0"
      },
      "properties": {
        "iconurl": "icons/flags_map/chinsurgent/minimap_cp.png",
        "iconrotate": "0",
        "popupContent": "Amazing information about Comms Relay 100m will be found here!"
      },
      "bf2props": {
        "name": "cpname_pavlovsk_bay_aas_comms_relay",
        "class": "ControlPoint",
        "name_object": "Comms Relay 100m",
        "team": "1",
        "areavalue1": "0.0",
        "areavalue2": "1000.0",
        "cpid": "1",
        "sgid": "20",
        "uncap": "false",
        "ttgc": "180.0",
        "ttlc": "180.0"
      }
    },
    {
      "type": "Feature",
      "geometry": {
        "type": "Point",
        "coordinates": [3302.1191, -1862.592],
        "size": [33, 33],
        "radius": "150.0"
      },
      "properties": {
        "iconurl": "icons/flags_map/chinsurgent/minimap_cp.png",
        "iconrotate": "0",
        "popupContent": "Amazing information about Derevnya 150m will be found here!"
      },
      "bf2props": {
        "name": "cpname_pavlovsk_bay_aas_derevnya",
        "class": "ControlPoint",
        "name_object": "Derevnya 150m",
        "team": "1",
        "areavalue1": "0.0",
        "areavalue2": "0.0",
        "cpid": "101",
        "sgid": "301",
        "uncap": "false",
        "ttgc": "180.0",
        "ttlc": "180.0"
      }
    },
    {
      "type": "Feature",
      "geometry": {
        "type": "Point",
        "coordinates": [2536.2651, -1314.624],
        "size": [33, 33],
        "radius": "100.0"
      },
      "properties": {
        "iconurl": "icons/flags_map/chinsurgent/minimap_cp.png",
        "iconrotate": "0",
        "popupContent": "Amazing information about Old Barracks 100m will be found here!"
      },
      "bf2props": {
        "name": "cpname_pavlovsk_bay_aas_old_barracks",
        "class": "ControlPoint",
        "name_object": "Old Barracks 100m",
        "team": "1",
        "areavalue1": "0.0",
        "areavalue2": "0.0",
        "cpid": "102",
        "sgid": "302",
        "uncap": "false",
        "ttgc": "180.0",
        "ttlc": "180.0"
      }
    },
    {
      "type": "Feature",
      "geometry": {
        "type": "Point",
        "coordinates": [2191.321, -1545.561],
        "size": [33, 33],
        "radius": "150.0"
      },
      "properties": {
        "iconurl": "icons/flags_map/neutral/minimap_cp.png",
        "iconrotate": "0",
        "popupContent": "Amazing information about Cargo Area 150m will be found here!"
      },
      "bf2props": {
        "name": "cpname_pavlovsk_bay_aas_cargo_area",
        "class": "ControlPoint",
        "name_object": "Cargo Area 150m",
        "team": "0",
        "areavalue1": "0.0",
        "areavalue2": "0.0",
        "cpid": "103",
        "sgid": "411",
        "uncap": "false",
        "ttgc": "180.0",
        "ttlc": "180.0"
      }
    },
    {
      "type": "Feature",
      "geometry": {
        "type": "Point",
        "coordinates": [2450.813, -1710.498],
        "size": [33, 33],
        "radius": "150.0"
      },
      "properties": {
        "iconurl": "icons/flags_map/neutral/minimap_cp.png",
        "iconrotate": "0",
        "popupContent": "Amazing information about Central Base 150m will be found here!"
      },
      "bf2props": {
        "name": "cpname_pavlovsk_bay_aas_central_base",
        "class": "ControlPoint",
        "name_object": "Central Base 150m",
        "team": "0",
        "areavalue1": "0.0",
        "areavalue2": "0.0",
        "cpid": "104",
        "sgid": "411",
        "uncap": "false",
        "ttgc": "180.0",
        "ttlc": "180.0"
      }
    },
    {
      "type": "Feature",
      "geometry": {
        "type": "Point",
        "coordinates": [1894.661, -1290.398],
        "size": [33, 33],
        "radius": "100.0"
      },
      "properties": {
        "iconurl": "icons/flags_map/neutral/minimap_cp.png",
        "iconrotate": "0",
        "popupContent": "Amazing information about AAA Battery 100m will be found here!"
      },
      "bf2props": {
        "name": "cpname_pavlovsk_bay_aas_aaa_battery",
        "class": "ControlPoint",
        "name_object": "AAA Battery 100m",
        "team": "0",
        "areavalue1": "0.0",
        "areavalue2": "0.0",
        "cpid": "105",
        "sgid": "511",
        "uncap": "false",
        "ttgc": "180.0",
        "ttlc": "180.0"
      }
    },
    {
      "type": "Feature",
      "geometry": {
        "type": "Point",
        "coordinates": [2084.204, -864.147],
        "size": [33, 33],
        "radius": "75.0"
      },
      "properties": {
        "iconurl": "icons/flags_map/neutral/minimap_cp.png",
        "iconrotate": "0",
        "popupContent": "Amazing information about Checkpoint 75m will be found here!"
      },
      "bf2props": {
        "name": "cpname_pavlovsk_bay_aas_checkpoint",
        "class": "ControlPoint",
        "name_object": "Checkpoint 75m",
        "team": "0",
        "areavalue1": "0.0",
        "areavalue2": "0.0",
        "cpid": "106",
        "sgid": "511",
        "uncap": "false",
        "ttgc": "180.0",
        "ttlc": "180.0"
      }
    },
    {
      "type": "Feature",
      "geometry": {
        "type": "Point",
        "coordinates": [1837.145, -680.69604],
        "size": [33, 33],
        "radius": "75.0"
      },
      "properties": {
        "iconurl": "icons/flags_map/neutral/minimap_cp.png",
        "iconrotate": "0",
        "popupContent": "Amazing information about West Beach Bunker 75m will be found here!"
      },
      "bf2props": {
        "name": "cpname_pavlovsk_bay_aas_west_beach_bunker",
        "class": "ControlPoint",
        "name_object": "West Beach Bunker 75m",
        "team": "0",
        "areavalue1": "100.0",
        "areavalue2": "0.0",
        "cpid": "107",
        "sgid": "611",
        "uncap": "false",
        "ttgc": "180.0",
        "ttlc": "180.0"
      }
    },
    {
      "type": "Feature",
      "geometry": {
        "type": "Point",
        "coordinates": [1677.262, -515.688],
        "size": [33, 33],
        "radius": "100.0"
      },
      "properties": {
        "iconurl": "icons/flags_map/neutral/minimap_cp.png",
        "iconrotate": "0",
        "popupContent": "Amazing information about West Beach 100m will be found here!"
      },
      "bf2props": {
        "name": "cpname_pavlovsk_bay_aas_west_beach",
        "class": "ControlPoint",
        "name_object": "West Beach 100m",
        "team": "0",
        "areavalue1": "100.0",
        "areavalue2": "0.0",
        "cpid": "108",
        "sgid": "611",
        "uncap": "false",
        "ttgc": "180.0",
        "ttlc": "180.0"
      }
    },
    {
      "type": "Feature",
      "geometry": {
        "type": "Point",
        "coordinates": [2373.284, -2066.526],
        "size": [33, 33],
        "radius": "150.0"
      },
      "properties": {
        "iconurl": "icons/flags_map/neutral/minimap_cp.png",
        "iconrotate": "0",
        "popupContent": "Amazing information about Subpen 150m will be found here!"
      },
      "bf2props": {
        "name": "cpname_pavlovsk_bay_aas_subpen",
        "class": "ControlPoint",
        "name_object": "Subpen 150m",
        "team": "0",
        "areavalue1": "0.0",
        "areavalue2": "0.0",
        "cpid": "109",
        "sgid": "411",
        "uncap": "false",
        "ttgc": "180.0",
        "ttlc": "180.0"
      }
    },
    {
      "type": "Feature",
      "geometry": {
        "type": "Point",
        "coordinates": [2191.321, -1545.561],
        "size": [33, 33],
        "radius": "150.0"
      },
      "properties": {
        "iconurl": "icons/flags_map/neutral/minimap_cp.png",
        "iconrotate": "0",
        "popupContent": "Amazing information about Cargo Area 150m will be found here!"
      },
      "bf2props": {
        "name": "cpname_pavlovsk_bay_aas_cargo_area2",
        "class": "ControlPoint",
        "name_object": "Cargo Area 150m",
        "team": "0",
        "areavalue1": "0.0",
        "areavalue2": "0.0",
        "cpid": "110",
        "sgid": "402",
        "uncap": "false",
        "ttgc": "180.0",
        "ttlc": "180.0"
      }
    },
    {
      "type": "Feature",
      "geometry": {
        "type": "Point",
        "coordinates": [2373.284, -2066.526],
        "size": [33, 33],
        "radius": "150.0"
      },
      "properties": {
        "iconurl": "icons/flags_map/neutral/minimap_cp.png",
        "iconrotate": "0",
        "popupContent": "Amazing information about Subpen 150m will be found here!"
      },
      "bf2props": {
        "name": "cpname_pavlovsk_bay_aas_subpen2",
        "class": "ControlPoint",
        "name_object": "Subpen 150m",
        "team": "0",
        "areavalue1": "0.0",
        "areavalue2": "0.0",
        "cpid": "112",
        "sgid": "502",
        "uncap": "false",
        "ttgc": "180.0",
        "ttlc": "180.0"
      }
    },
    {
      "type": "Feature",
      "geometry": {
        "type": "Point",
        "coordinates": [3202.832, -2752.646],
        "size": [33, 33],
        "radius": "150.0"
      },
      "properties": {
        "iconurl": "icons/flags_map/neutral/minimap_cp.png",
        "iconrotate": "0",
        "popupContent": "Amazing information about East Beach 150m will be found here!"
      },
      "bf2props": {
        "name": "cpname_pavlovsk_bay_aas_east_beach",
        "class": "ControlPoint",
        "name_object": "East Beach 150m",
        "team": "0",
        "areavalue1": "100.0",
        "areavalue2": "0.0",
        "cpid": "113",
        "sgid": "602",
        "uncap": "false",
        "ttgc": "180.0",
        "ttlc": "180.0"
      }
    },
    {
      "type": "Feature",
      "geometry": {
        "type": "Point",
        "coordinates": [3176.0, -232.0],
        "size": [33, 33],
        "radius": "0.0"
      },
      "properties": {
        "iconurl": "icons/flags_map/chinsurgent/minimap_cpbase.png",
        "iconrotate": "0",
        "popupContent": "Amazing information about Militia Staging Area will be found here!"
      },
      "bf2props": {
        "name": "cpname_pavlovsk_bay_aas32_militia_base",
        "class": "ControlPoint",
        "name_object": "Militia Staging Area",
        "team": "1",
        "areavalue1": "0.0",
        "areavalue2": "0.0",
        "cpid": "301",
        "sgid": "10",
        "uncap": "true",
        "ttgc": "0.0",
        "ttlc": "0.0"
      }
    },
    {
      "type": "Feature",
      "geometry": {
        "type": "Point",
        "coordinates": [630.0, -2888.0],
        "size": [33, 33],
        "radius": "0.0"
      },
      "properties": {
        "iconurl": "icons/flags_map/us/minimap_cpbase.png",
        "iconrotate": "0",
        "popupContent": "Amazing information about USS Essex will be found here!"
      },
      "bf2props": {
        "name": "cpname_pavlovsk_bay_aas32_uss_essex",
        "class": "ControlPoint",
        "name_object": "USS Essex",
        "team": "2",
        "areavalue1": "0.0",
        "areavalue2": "0.0",
        "cpid": "302",
        "sgid": "-999",
        "uncap": "true",
        "ttgc": "0.0",
        "ttlc": "0.0"
      }
    },
    {
      "type": "Feature",
      "geometry": {
        "type": "Polygon",
        "coordinates": [
          [
            [0,0],
            [0,-4096],
            [4096,-4096],
            [4096,0]
          ],[
            [4096.0, 0.0],
            [0.0, 0.0],
            [0.0, -4096.0],
            [4096.0, -4096.0]
          ]
        ]
      },
      "bf2props": {
        "code": "combatarea_0_aas_common",
        "class": "CombatArea",
        "team": "0",
        "vehicles": "4",
        "layer": "2",
        "inverted": "false",
        "max": [0.0, 0.0],
        "min": [0.0, 0.0]
      }
    },
    {
      "type": "Feature",
      "geometry": {
        "type": "Polygon",
        "coordinates": [
          [
            [4096.0, -4096.0],
            [4096.0, -3218.71],
            [3599.8008, -3307.8674],
            [2888.5999, -3098.6367],
            [2110.9653, -2687.2444],
            [1441.4097, -2008.6111],
            [1330.8087, -1378.2334],
            [1620.0739, 0.0],
            [0.0, 0.0],
            [0.0, -4096.0]
          ]
        ]
      },
      "bf2props": {
        "code": "combatarea_4_aas_common",
        "class": "CombatArea",
        "team": "1",
        "vehicles": "4",
        "layer": "2",
        "inverted": "true",
        "max": [0.0, 0.0],
        "min": [0.0, 0.0]
      }
    },
    {
      "type": "Feature",
      "geometry": {
        "type": "Polygon",
        "coordinates": [
          [
            [2910.2983, -476.88403],
            [3017.7847, -518.0532],
            [3126.2173, -478.72925],
            [3205.147, -412.86182],
            [3347.7832, -324.12744],
            [3407.2349, -149.3689],
            [3547.675, -67.97949],
            [3610.14, 0.0],
            [2898.4038, 0.0],
            [2697.8503, -78.94116],
            [2651.1594, -237.6897],
            [2801.6494, -418.81274]
          ]
        ]
      },
      "bf2props": {
        "code": "combatarea_14_aas_common",
        "class": "CombatArea",
        "team": "2",
        "vehicles": "4",
        "layer": "2",
        "inverted": "true",
        "max": [0.0, 0.0],
        "min": [0.0, 0.0]
      }
    }
  ]
}