{
  "team1":"ch",
  "team2":"gb",
  "team1tickets":"400",
  "team2tickets":"400",
  "mapsize":"1024",
  "viewdistance":"325",
  "combatareause":"true",
  "combatareadamage":"20.0",
  "combatareaallowoutside":"5.0",
  "routes": [
    [
      [
        "cpname_operation_ghost_train_aas64_reconpost"
      ],
      [
        "cpname_operation_ghost_train_aas64_trench",
        "cpname_operation_ghost_train_aas64_train"
      ],
      [
        "cpname_operation_ghost_train_aas64_nbridge",
        "cpname_operation_ghost_train_aas64_sbridge"
      ],
      [
        "cpname_operation_ghost_train_aas64_tunnel",
        "cpname_operation_ghost_train_aas64_temple"
      ],
      [
        "cpname_operation_ghost_train_aas64_farm"
      ]
    ]
  ],
  "type": "FeatureCollection",
  "features": [
    {
      "type": "Feature",
      "geometry": {
        "type": "Point",
        "coordinates": [672.092, -820.042],
        "size": [16, 16]
      },
      "properties": {
        "iconurl": "",
        "iconrotate": "-20.523",
        "popupContent": "Amazing information about obj_staticvehicle_type95 will be found here!"
      },
      "bf2props": {
        "name": "cpname_operation_ghost_train_aas64_train_objective_aav",
        "class": "ObjectSpawner",
        "name_object": "obj_staticvehicle_type95 | obj_staticvehicle_type95",
        "team": "1",
        "obj1": "obj_staticvehicle_type95",
        "obj2": "obj_staticvehicle_type95",
        "maxspawn": "999999.0",
        "minspawn": "999999.0",
        "spawndelay": "false",
        "ttl": "999999.0",
        "cpid": "-1"
      }
    },
    {
      "type": "Feature",
      "geometry": {
        "type": "Point",
        "coordinates": [668.885, -811.10803],
        "size": [16, 16]
      },
      "properties": {
        "iconurl": "",
        "iconrotate": "159.74",
        "popupContent": "Amazing information about obj_staticvehicle_type98 will be found here!"
      },
      "bf2props": {
        "name": "cpname_operation_ghost_train_aas64_train_objective_mbt",
        "class": "ObjectSpawner",
        "name_object": "obj_staticvehicle_type98 | obj_staticvehicle_type98",
        "team": "1",
        "obj1": "obj_staticvehicle_type98",
        "obj2": "obj_staticvehicle_type98",
        "maxspawn": "999999.0",
        "minspawn": "999999.0",
        "spawndelay": "false",
        "ttl": "999999.0",
        "cpid": "-1"
      }
    },
    {
      "type": "Feature",
      "geometry": {
        "type": "Point",
        "coordinates": [665.908, -803.05],
        "size": [16, 16]
      },
      "properties": {
        "iconurl": "",
        "iconrotate": "159.74",
        "popupContent": "Amazing information about obj_staticvehicle_type98_2 will be found here!"
      },
      "bf2props": {
        "name": "cpname_operation_ghost_train_aas64_train_objective_mbt2",
        "class": "ObjectSpawner",
        "name_object": "obj_staticvehicle_type98_2 | obj_staticvehicle_type98_2",
        "team": "1",
        "obj1": "obj_staticvehicle_type98_2",
        "obj2": "obj_staticvehicle_type98_2",
        "maxspawn": "999999.0",
        "minspawn": "999999.0",
        "spawndelay": "false",
        "ttl": "999999.0",
        "cpid": "-1"
      }
    },
    {
      "type": "Feature",
      "geometry": {
        "type": "Point",
        "coordinates": [674.806, -827.292],
        "size": [16, 16]
      },
      "properties": {
        "iconurl": "",
        "iconrotate": "-20.523",
        "popupContent": "Amazing information about obj_staticvehicle_type95 will be found here!"
      },
      "bf2props": {
        "name": "cpname_operation_ghost_train_aas64_train_objective_aav2",
        "class": "ObjectSpawner",
        "name_object": "obj_staticvehicle_type95 | obj_staticvehicle_type95",
        "team": "1",
        "obj1": "obj_staticvehicle_type95",
        "obj2": "obj_staticvehicle_type95",
        "maxspawn": "999999.0",
        "minspawn": "999999.0",
        "spawndelay": "false",
        "ttl": "999999.0",
        "cpid": "-1"
      }
    },
    {
      "type": "Feature",
      "geometry": {
        "type": "Point",
        "coordinates": [110.178986, -106.565],
        "size": [16, 16]
      },
      "properties": {
        "iconurl": "icons/vehicles_map/mini_jep_light.png",
        "iconrotate": "154.252",
        "popupContent": "Amazing information about null will be found here!"
      },
      "bf2props": {
        "name": "cpname_operation_ghost_train_aas64_farm_ch_gb_lightjeep",
        "class": "ObjectSpawner",
        "name_object": "Land Rover GMG",
        "team": "2",
        "obj1": "null",
        "obj2": "gb_jep_landrover_gmg",
        "maxspawn": "600.0",
        "minspawn": "600.0",
        "spawndelay": "false",
        "ttl": "300.0",
        "cpid": "401"
      }
    },
    {
      "type": "Feature",
      "geometry": {
        "type": "Point",
        "coordinates": [136.38, -119.76001],
        "size": [16, 16]
      },
      "properties": {
        "iconurl": "icons/vehicles_map/mini_trk_logistics.png",
        "iconrotate": "112.15",
        "popupContent": "Amazing information about null will be found here!"
      },
      "bf2props": {
        "name": "cpname_operation_ghost_train_aas64_farm_ch_gb_heavyjeep",
        "class": "ObjectSpawner",
        "name_object": "MAN SV Logistics",
        "team": "2",
        "obj1": "null",
        "obj2": "gb_trk_logistics",
        "maxspawn": "300.0",
        "minspawn": "300.0",
        "spawndelay": "false",
        "maxnr": "2",
        "ttl": "300.0",
        "cpid": "401"
      }
    },
    {
      "type": "Feature",
      "geometry": {
        "type": "Point",
        "coordinates": [710.47, -272.215],
        "size": [16, 16]
      },
      "properties": {
        "iconurl": "icons/vehicles_map/mini_smgsmall.png",
        "iconrotate": "-62.59",
        "popupContent": "Amazing information about Stationary BIPOD will be found here!"
      },
      "bf2props": {
        "name": "cpname_operation_ghost_train_aas64_nbridge_ch_gb_smg",
        "class": "ObjectSpawner",
        "name_object": "Stationary BIPOD | Stationary BIPOD",
        "team": "0",
        "obj1": "ch_bipod",
        "obj2": "gb_bipod",
        "maxspawn": "300.0",
        "minspawn": "300.0",
        "spawndelay": "false",
        "ttl": "12000.0",
        "cpid": "404"
      }
    },
    {
      "type": "Feature",
      "geometry": {
        "type": "Point",
        "coordinates": [710.11597, -278.64502],
        "size": [16, 16]
      },
      "properties": {
        "iconurl": "icons/vehicles_map/mini_smgsmall.png",
        "iconrotate": "-151.588",
        "popupContent": "Amazing information about Stationary BIPOD will be found here!"
      },
      "bf2props": {
        "name": "cpname_operation_ghost_train_aas64_nbridge_ch_gb_smg_0",
        "class": "ObjectSpawner",
        "name_object": "Stationary BIPOD | Stationary BIPOD",
        "team": "0",
        "obj1": "ch_bipod",
        "obj2": "gb_bipod",
        "maxspawn": "300.0",
        "minspawn": "300.0",
        "spawndelay": "false",
        "ttl": "12000.0",
        "cpid": "404"
      }
    },
    {
      "type": "Feature",
      "geometry": {
        "type": "Point",
        "coordinates": [668.373, -487.365],
        "size": [16, 16]
      },
      "properties": {
        "iconurl": "icons/vehicles_map/mini_smgsmall.png",
        "iconrotate": "0.0",
        "popupContent": "Amazing information about Stationary BIPOD will be found here!"
      },
      "bf2props": {
        "name": "cpname_operation_ghost_train_aas64_sbridge_ch_gb_smg",
        "class": "ObjectSpawner",
        "name_object": "Stationary BIPOD | Stationary BIPOD",
        "team": "0",
        "obj1": "ch_bipod",
        "obj2": "gb_bipod",
        "maxspawn": "300.0",
        "minspawn": "300.0",
        "spawndelay": "false",
        "ttl": "12000.0",
        "cpid": "405"
      }
    },
    {
      "type": "Feature",
      "geometry": {
        "type": "Point",
        "coordinates": [670.71497, -493.448],
        "size": [16, 16]
      },
      "properties": {
        "iconurl": "icons/vehicles_map/mini_smgsmall.png",
        "iconrotate": "90.0",
        "popupContent": "Amazing information about Stationary BIPOD will be found here!"
      },
      "bf2props": {
        "name": "cpname_operation_ghost_train_aas64_sbridge_ch_gb_smg_0",
        "class": "ObjectSpawner",
        "name_object": "Stationary BIPOD | Stationary BIPOD",
        "team": "0",
        "obj1": "ch_bipod",
        "obj2": "gb_bipod",
        "maxspawn": "300.0",
        "minspawn": "300.0",
        "spawndelay": "false",
        "ttl": "12000.0",
        "cpid": "405"
      }
    },
    {
      "type": "Feature",
      "geometry": {
        "type": "Point",
        "coordinates": [639.187, -760.915],
        "size": [16, 16]
      },
      "properties": {
        "iconurl": "icons/vehicles_map/mini_smgsmall.png",
        "iconrotate": "40.592",
        "popupContent": "Amazing information about Stationary BIPOD will be found here!"
      },
      "bf2props": {
        "name": "cpname_operation_ghost_train_aas64_trench_ch_gb_smg",
        "class": "ObjectSpawner",
        "name_object": "Stationary BIPOD | Stationary BIPOD",
        "team": "1",
        "obj1": "ch_bipod",
        "obj2": "gb_bipod",
        "maxspawn": "300.0",
        "minspawn": "300.0",
        "spawndelay": "false",
        "ttl": "12000.0",
        "cpid": "406"
      }
    },
    {
      "type": "Feature",
      "geometry": {
        "type": "Point",
        "coordinates": [637.667, -767.23804],
        "size": [16, 16]
      },
      "properties": {
        "iconurl": "icons/vehicles_map/mini_smgsmall.png",
        "iconrotate": "126.767",
        "popupContent": "Amazing information about Stationary BIPOD will be found here!"
      },
      "bf2props": {
        "name": "cpname_operation_ghost_train_aas64_trench_ch_gb_smg_0",
        "class": "ObjectSpawner",
        "name_object": "Stationary BIPOD | Stationary BIPOD",
        "team": "1",
        "obj1": "ch_bipod",
        "obj2": "gb_bipod",
        "maxspawn": "300.0",
        "minspawn": "300.0",
        "spawndelay": "false",
        "ttl": "12000.0",
        "cpid": "406"
      }
    },
    {
      "type": "Feature",
      "geometry": {
        "type": "Point",
        "coordinates": [381.303, -863.591],
        "size": [16, 16]
      },
      "properties": {
        "iconurl": "icons/vehicles_map/mini_trk_support.png",
        "iconrotate": "7.891",
        "popupContent": "Amazing information about EQ2080 2.5 Ton will be found here!"
      },
      "bf2props": {
        "name": "cpname_operation_ghost_train_aas64_reconpost_ch_gb_lightjeep",
        "class": "ObjectSpawner",
        "name_object": "EQ2080 2.5 Ton",
        "team": "1",
        "obj1": "ch_trk_support",
        "obj2": "null",
        "maxspawn": "300.0",
        "minspawn": "300.0",
        "spawndelay": "false",
        "ttl": "300.0",
        "cpid": "407"
      }
    },
    {
      "type": "Feature",
      "geometry": {
        "type": "Point",
        "coordinates": [164.66101, -757.31396],
        "size": [16, 16]
      },
      "properties": {
        "iconurl": "icons/vehicles_map/mini_shp_light.png",
        "iconrotate": "-48.035",
        "popupContent": "Amazing information about RHIB will be found here!"
      },
      "bf2props": {
        "name": "cpname_operation_ghost_train_aas64_reconpost_ch_gb_spdboat",
        "class": "ObjectSpawner",
        "name_object": "RHIB",
        "team": "1",
        "obj1": "boat_rib_gpmg_pkp",
        "obj2": "null",
        "maxspawn": "300.0",
        "minspawn": "300.0",
        "spawndelay": "false",
        "ttl": "300.0",
        "cpid": "407"
      }
    },
    {
      "type": "Feature",
      "geometry": {
        "type": "Point",
        "coordinates": [385.588, -863.729],
        "size": [16, 16]
      },
      "properties": {
        "iconurl": "icons/vehicles_map/mini_jep_support.png",
        "iconrotate": "0.0",
        "popupContent": "Amazing information about BJ2020 will be found here!"
      },
      "bf2props": {
        "name": "cpname_operation_ghost_train_aas64_reconpost_heavyjeep2",
        "class": "ObjectSpawner",
        "name_object": "BJ2020",
        "team": "1",
        "obj1": "ch_jep_uaz",
        "obj2": "null",
        "maxspawn": "300.0",
        "minspawn": "300.0",
        "spawndelay": "true",
        "ttl": "300.0",
        "cpid": "407"
      }
    },
    {
      "type": "Feature",
      "geometry": {
        "type": "Point",
        "coordinates": [700.109, -892.83203],
        "size": [16, 16]
      },
      "properties": {
        "iconurl": "icons/vehicles_map/mini_smgsmall.png",
        "iconrotate": "72.498",
        "popupContent": "Amazing information about Stationary BIPOD will be found here!"
      },
      "bf2props": {
        "name": "cpname_operation_ghost_train_aas64_trench_ch_gb_smg_1",
        "class": "ObjectSpawner",
        "name_object": "Stationary BIPOD | Stationary BIPOD",
        "team": "1",
        "obj1": "ch_bipod",
        "obj2": "gb_bipod",
        "maxspawn": "300.0",
        "minspawn": "300.0",
        "spawndelay": "false",
        "ttl": "12000.0",
        "cpid": "406"
      }
    },
    {
      "type": "Feature",
      "geometry": {
        "type": "Point",
        "coordinates": [697.348, -893.301],
        "size": [16, 16]
      },
      "properties": {
        "iconurl": "icons/vehicles_map/mini_smgsmall.png",
        "iconrotate": "-113.143",
        "popupContent": "Amazing information about Stationary BIPOD will be found here!"
      },
      "bf2props": {
        "name": "cpname_operation_ghost_train_aas64_trench_ch_gb_smg_2",
        "class": "ObjectSpawner",
        "name_object": "Stationary BIPOD | Stationary BIPOD",
        "team": "1",
        "obj1": "ch_bipod",
        "obj2": "gb_bipod",
        "maxspawn": "300.0",
        "minspawn": "300.0",
        "spawndelay": "false",
        "ttl": "12000.0",
        "cpid": "406"
      }
    },
    {
      "type": "Feature",
      "geometry": {
        "type": "Point",
        "coordinates": [813.232, -774.536],
        "size": [16, 16]
      },
      "properties": {
        "iconurl": "",
        "iconrotate": "-90.0",
        "popupContent": "Amazing information about ars_d30 will be found here!"
      },
      "bf2props": {
        "name": "cpname_operation_ghost_train_aas64_trench_ch_gb_art",
        "class": "ObjectSpawner",
        "name_object": "ars_d30 | ars_d30",
        "team": "1",
        "obj1": "ars_d30",
        "obj2": "ars_d30",
        "maxspawn": "99999.0",
        "minspawn": "99999.0",
        "spawndelay": "false",
        "ttl": "12000.0",
        "cpid": "406"
      }
    },
    {
      "type": "Feature",
      "geometry": {
        "type": "Point",
        "coordinates": [813.327, -768.581],
        "size": [16, 16]
      },
      "properties": {
        "iconurl": "",
        "iconrotate": "-90.0",
        "popupContent": "Amazing information about ars_d30 will be found here!"
      },
      "bf2props": {
        "name": "cpname_operation_ghost_train_aas64_trench_ch_gb_art_0",
        "class": "ObjectSpawner",
        "name_object": "ars_d30 | ars_d30",
        "team": "1",
        "obj1": "ars_d30",
        "obj2": "ars_d30",
        "maxspawn": "99999.0",
        "minspawn": "99999.0",
        "spawndelay": "false",
        "ttl": "12000.0",
        "cpid": "406"
      }
    },
    {
      "type": "Feature",
      "geometry": {
        "type": "Point",
        "coordinates": [98.257996, -114.66901],
        "size": [16, 16]
      },
      "properties": {
        "iconurl": "icons/vehicles_map/mini_jep_light.png",
        "iconrotate": "128.636",
        "popupContent": "Amazing information about null will be found here!"
      },
      "bf2props": {
        "name": "cpname_operation_ghost_train_aas64_farm_ch_uk_lightjeep",
        "class": "ObjectSpawner",
        "name_object": "Land Rover",
        "team": "2",
        "obj1": "null",
        "obj2": "gb_jep_landrover",
        "maxspawn": "600.0",
        "minspawn": "600.0",
        "spawndelay": "false",
        "ttl": "300.0",
        "cpid": "401"
      }
    },
    {
      "type": "Feature",
      "geometry": {
        "type": "Point",
        "coordinates": [386.846, -840.376],
        "size": [16, 16]
      },
      "properties": {
        "iconurl": "icons/vehicles_map/mini_jep_light.png",
        "iconrotate": "95.764",
        "popupContent": "Amazing information about Norinco FAV will be found here!"
      },
      "bf2props": {
        "name": "cpname_operation_ghost_train_aas64_reconpost_ch_uk_lightjeep",
        "class": "ObjectSpawner",
        "name_object": "Norinco FAV",
        "team": "1",
        "obj1": "ch_jep_paratrooper",
        "obj2": "null",
        "maxspawn": "600.0",
        "minspawn": "600.0",
        "spawndelay": "false",
        "ttl": "300.0",
        "cpid": "407"
      }
    },
    {
      "type": "Feature",
      "geometry": {
        "type": "Point",
        "coordinates": [802.683, -803.515],
        "size": [16, 16]
      },
      "properties": {
        "iconurl": "icons/player_map/mini_squad.png",
        "iconrotate": "0",
        "popupContent": "Amazing information about Temporary spawnpoint will be found here!"
      },
      "bf2props": {
        "name": "cpname_operation_ghost_train_aas64_trench_rallypoint",
        "class": "ObjectSpawner",
        "name_object": "Temporary spawnpoint",
        "team": "1",
        "obj1": "rallypoint_ch_placeable",
        "obj2": "null",
        "maxspawn": "99999.0",
        "minspawn": "99999.0",
        "spawndelay": "false",
        "ttl": "12000.0",
        "cpid": "406"
      }
    },
    {
      "type": "Feature",
      "geometry": {
        "type": "Point",
        "coordinates": [399.425, -199.62299],
        "size": [16, 16]
      },
      "properties": {
        "iconurl": "icons/player_map/mini_squad.png",
        "iconrotate": "0",
        "popupContent": "Amazing information about null will be found here!"
      },
      "bf2props": {
        "name": "cpname_operation_ghost_train_aas64_tunnel_rallypoint",
        "class": "ObjectSpawner",
        "name_object": "Temporary spawnpoint",
        "team": "2",
        "obj1": "null",
        "obj2": "rallypoint_gb_placeable",
        "maxspawn": "99999.0",
        "minspawn": "99999.0",
        "spawndelay": "false",
        "ttl": "12000.0",
        "cpid": "402"
      }
    },
    {
      "type": "Feature",
      "geometry": {
        "type": "Point",
        "coordinates": [174.16599, -776.808],
        "size": [16, 16]
      },
      "properties": {
        "iconurl": "icons/player_map/mini_squad.png",
        "iconrotate": "0",
        "popupContent": "Amazing information about Temporary spawnpoint will be found here!"
      },
      "bf2props": {
        "name": "cpname_operation_ghost_train_aas64_reconpost_rallypoint",
        "class": "ObjectSpawner",
        "name_object": "Temporary spawnpoint",
        "team": "1",
        "obj1": "rallypoint_ch_placeable",
        "obj2": "null",
        "maxspawn": "99999.0",
        "minspawn": "99999.0",
        "spawndelay": "false",
        "ttl": "12000.0",
        "cpid": "407"
      }
    },
    {
      "type": "Feature",
      "geometry": {
        "type": "Point",
        "coordinates": [390.502, -863.737],
        "size": [16, 16]
      },
      "properties": {
        "iconurl": "icons/vehicles_map/mini_apc_medium.png",
        "iconrotate": "0.0",
        "popupContent": "Amazing information about ZSL-92 25mm will be found here!"
      },
      "bf2props": {
        "name": "cpname_operation_ghost_train_aas64_reconpost_gb_ch_apc",
        "class": "ObjectSpawner",
        "name_object": "ZSL-92 25mm",
        "team": "1",
        "obj1": "ch_apc_wz551",
        "obj2": "null",
        "maxspawn": "600.0",
        "minspawn": "600.0",
        "spawndelay": "false",
        "ttl": "99999.0",
        "cpid": "407"
      }
    },
    {
      "type": "Feature",
      "geometry": {
        "type": "Point",
        "coordinates": [101.721985, -130.017],
        "size": [16, 16]
      },
      "properties": {
        "iconurl": "icons/vehicles_map/mini_apc_medium.png",
        "iconrotate": "59.003",
        "popupContent": "Amazing information about null will be found here!"
      },
      "bf2props": {
        "name": "cpname_operation_ghost_train_aas64_farm_gb_ch_apc",
        "class": "ObjectSpawner",
        "name_object": "FV 510 Warrior",
        "team": "2",
        "obj1": "null",
        "obj2": "gb_apc_warrior",
        "maxspawn": "600.0",
        "minspawn": "600.0",
        "spawndelay": "false",
        "ttl": "99999.0",
        "cpid": "401"
      }
    },
    {
      "type": "Feature",
      "geometry": {
        "type": "Point",
        "coordinates": [153.50601, -140.32199],
        "size": [16, 16]
      },
      "properties": {
        "iconurl": "icons/vehicles_map/mini_trk_support.png",
        "iconrotate": "9.483",
        "popupContent": "Amazing information about null will be found here!"
      },
      "bf2props": {
        "name": "cpname_operation_ghost_train_aas64_farm_gb_ch_suporttruck",
        "class": "ObjectSpawner",
        "name_object": "MAN Support Vehicle",
        "team": "2",
        "obj1": "null",
        "obj2": "gb_trk_support",
        "maxspawn": "300.0",
        "minspawn": "300.0",
        "spawndelay": "false",
        "ttl": "300.0",
        "cpid": "401"
      }
    },
    {
      "type": "Feature",
      "geometry": {
        "type": "Point",
        "coordinates": [372.659, -858.38],
        "size": [16, 16]
      },
      "properties": {
        "iconurl": "icons/vehicles_map/mini_trk_logistics.png",
        "iconrotate": "50.803",
        "popupContent": "Amazing information about EQ2080 Logistics will be found here!"
      },
      "bf2props": {
        "name": "cpname_operation_ghost_train_aas64_reconpost_gb_ch_suporttruck",
        "class": "ObjectSpawner",
        "name_object": "EQ2080 Logistics",
        "team": "1",
        "obj1": "ch_trk_logistics",
        "obj2": "null",
        "maxspawn": "300.0",
        "minspawn": "300.0",
        "spawndelay": "false",
        "maxnr": "2",
        "ttl": "300.0",
        "cpid": "407"
      }
    },
    {
      "type": "Feature",
      "geometry": {
        "type": "Point",
        "coordinates": [140.906, -96.183014],
        "size": [16, 16]
      },
      "properties": {
        "iconurl": "icons/mini_map/uavtrailer.png",
        "iconrotate": "0",
        "popupContent": "Amazing information about null will be found here!"
      },
      "bf2props": {
        "name": "cpname_operation_ghost_train_aas64_farm_cp",
        "class": "ObjectSpawner",
        "name_object": "UAV Terminal",
        "team": "2",
        "obj1": "null",
        "obj2": "gb_acv_sultan",
        "maxspawn": "300.0",
        "minspawn": "300.0",
        "spawndelay": "false",
        "ttl": "12000.0",
        "cpid": "401"
      }
    },
    {
      "type": "Feature",
      "geometry": {
        "type": "Point",
        "coordinates": [358.663, -856.202],
        "size": [16, 16]
      },
      "properties": {
        "iconurl": "icons/mini_map/uavtrailer.png",
        "iconrotate": "0",
        "popupContent": "Amazing information about UAV Terminal will be found here!"
      },
      "bf2props": {
        "name": "cpname_operation_ghost_train_aas64_reconpost_cp",
        "class": "ObjectSpawner",
        "name_object": "UAV Terminal",
        "team": "1",
        "obj1": "ch_acv_wz551",
        "obj2": "null",
        "maxspawn": "300.0",
        "minspawn": "300.0",
        "spawndelay": "false",
        "ttl": "12000.0",
        "cpid": "407"
      }
    },
    {
      "type": "Feature",
      "geometry": {
        "type": "Point",
        "coordinates": [164.021, -122.82001],
        "size": [16, 16]
      },
      "properties": {
        "iconurl": "icons/mini_map/repairdepot.png",
        "iconrotate": "0",
        "popupContent": "Amazing information about null will be found here!"
      },
      "bf2props": {
        "name": "cpname_operation_ghost_train_aas64_farm_gb_vehicledeport",
        "class": "ObjectSpawner",
        "name_object": "Vehicle Depot",
        "team": "2",
        "obj1": "null",
        "obj2": "vehicle_depot_gb",
        "maxspawn": "300.0",
        "minspawn": "300.0",
        "spawndelay": "false",
        "ttl": "12000.0",
        "cpid": "401"
      }
    },
    {
      "type": "Feature",
      "geometry": {
        "type": "Point",
        "coordinates": [402.681, -859.562],
        "size": [16, 16]
      },
      "properties": {
        "iconurl": "icons/mini_map/repairdepot.png",
        "iconrotate": "0",
        "popupContent": "Amazing information about Vehicle Depot will be found here!"
      },
      "bf2props": {
        "name": "cpname_operation_ghost_train_aas64_reconpost_ch_vehicledeport",
        "class": "ObjectSpawner",
        "name_object": "Vehicle Depot",
        "team": "1",
        "obj1": "vehicle_depot_ch",
        "obj2": "null",
        "maxspawn": "300.0",
        "minspawn": "300.0",
        "spawndelay": "false",
        "ttl": "12000.0",
        "cpid": "407"
      }
    },
    {
      "type": "Feature",
      "geometry": {
        "type": "Point",
        "coordinates": [147.065, -137.315],
        "size": [16, 16]
      },
      "properties": {
        "iconurl": "icons/vehicles_map/mini_jep_support.png",
        "iconrotate": "0.0",
        "popupContent": "Amazing information about null will be found here!"
      },
      "bf2props": {
        "name": "cpname_operation_ghost_train_aas64_farm_gb_jeep_support",
        "class": "ObjectSpawner",
        "name_object": "Land Rover Support",
        "team": "2",
        "obj1": "null",
        "obj2": "gb_jep_landrover_support",
        "maxspawn": "300.0",
        "minspawn": "300.0",
        "spawndelay": "false",
        "ttl": "300.0",
        "cpid": "401"
      }
    },
    {
      "type": "Feature",
      "geometry": {
        "type": "Point",
        "coordinates": [384.86, -845.475],
        "size": [16, 16]
      },
      "properties": {
        "iconurl": "icons/vehicles_map/mini_jep_light.png",
        "iconrotate": "74.734",
        "popupContent": "Amazing information about Norinco FAV will be found here!"
      },
      "bf2props": {
        "name": "cpname_operation_ghost_train_aas64_reconpost_ch_jeep_light",
        "class": "ObjectSpawner",
        "name_object": "Norinco FAV",
        "team": "1",
        "obj1": "ch_jep_paratrooper",
        "obj2": "null",
        "maxspawn": "600.0",
        "minspawn": "600.0",
        "spawndelay": "false",
        "ttl": "300.0",
        "cpid": "407"
      }
    },
    {
      "type": "Feature",
      "geometry": {
        "type": "Point",
        "coordinates": [120.02899, -111.953],
        "size": [33, 33],
        "radius": "30.0"
      },
      "properties": {
        "iconurl": "icons/flags_map/gb/minimap_cpbase.png",
        "iconrotate": "0",
        "popupContent": "Amazing information about British Farm Outpost will be found here!"
      },
      "bf2props": {
        "name": "cpname_operation_ghost_train_aas64_farm",
        "class": "ControlPoint",
        "name_object": "British Farm Outpost",
        "team": "2",
        "areavalue1": "1000.0",
        "areavalue2": "40.0",
        "cpid": "401",
        "sgid": "5",
        "uncap": "true",
        "ttgc": "90.0",
        "ttlc": "90.0"
      }
    },
    {
      "type": "Feature",
      "geometry": {
        "type": "Point",
        "coordinates": [434.367, -297.832],
        "size": [33, 33],
        "radius": "10.0"
      },
      "properties": {
        "iconurl": "icons/flags_map/gb/minimap_cp.png",
        "iconrotate": "0",
        "popupContent": "Amazing information about Tunnel 10m will be found here!"
      },
      "bf2props": {
        "name": "cpname_operation_ghost_train_aas64_tunnel",
        "class": "ControlPoint",
        "name_object": "Tunnel 10m",
        "team": "2",
        "areavalue1": "10.0",
        "areavalue2": "10.0",
        "cpid": "402",
        "sgid": "4",
        "uncap": "false",
        "ttgc": "90.0",
        "ttlc": "90.0"
      }
    },
    {
      "type": "Feature",
      "geometry": {
        "type": "Point",
        "coordinates": [892.395, -192.996],
        "size": [33, 33],
        "radius": "25.0"
      },
      "properties": {
        "iconurl": "icons/flags_map/neutral/minimap_cp.png",
        "iconrotate": "0",
        "popupContent": "Amazing information about Temple 25m will be found here!"
      },
      "bf2props": {
        "name": "cpname_operation_ghost_train_aas64_temple",
        "class": "ControlPoint",
        "name_object": "Temple 25m",
        "team": "0",
        "areavalue1": "10.0",
        "areavalue2": "10.0",
        "cpid": "403",
        "sgid": "4",
        "uncap": "false",
        "ttgc": "90.0",
        "ttlc": "90.0"
      }
    },
    {
      "type": "Feature",
      "geometry": {
        "type": "Point",
        "coordinates": [719.04297, -262.80298],
        "size": [33, 33],
        "radius": "25.0"
      },
      "properties": {
        "iconurl": "icons/flags_map/neutral/minimap_cp.png",
        "iconrotate": "0",
        "popupContent": "Amazing information about North Bridge 25m will be found here!"
      },
      "bf2props": {
        "name": "cpname_operation_ghost_train_aas64_nbridge",
        "class": "ControlPoint",
        "name_object": "North Bridge 25m",
        "team": "0",
        "areavalue1": "10.0",
        "areavalue2": "10.0",
        "cpid": "404",
        "sgid": "3",
        "uncap": "false",
        "ttgc": "90.0",
        "ttlc": "90.0"
      }
    },
    {
      "type": "Feature",
      "geometry": {
        "type": "Point",
        "coordinates": [677.904, -486.213],
        "size": [33, 33],
        "radius": "20.0"
      },
      "properties": {
        "iconurl": "icons/flags_map/neutral/minimap_cp.png",
        "iconrotate": "0",
        "popupContent": "Amazing information about South Bridge 20m will be found here!"
      },
      "bf2props": {
        "name": "cpname_operation_ghost_train_aas64_sbridge",
        "class": "ControlPoint",
        "name_object": "South Bridge 20m",
        "team": "0",
        "areavalue1": "10.0",
        "areavalue2": "10.0",
        "cpid": "405",
        "sgid": "3",
        "uncap": "false",
        "ttgc": "90.0",
        "ttlc": "90.0"
      }
    },
    {
      "type": "Feature",
      "geometry": {
        "type": "Point",
        "coordinates": [804.734, -768.022],
        "size": [33, 33],
        "radius": "25.0"
      },
      "properties": {
        "iconurl": "icons/flags_map/ch/minimap_cp.png",
        "iconrotate": "0",
        "popupContent": "Amazing information about Trenches 25m will be found here!"
      },
      "bf2props": {
        "name": "cpname_operation_ghost_train_aas64_trench",
        "class": "ControlPoint",
        "name_object": "Trenches 25m",
        "team": "1",
        "areavalue1": "10.0",
        "areavalue2": "10.0",
        "cpid": "406",
        "sgid": "2",
        "uncap": "false",
        "ttgc": "90.0",
        "ttlc": "90.0"
      }
    },
    {
      "type": "Feature",
      "geometry": {
        "type": "Point",
        "coordinates": [373.982, -847.174],
        "size": [33, 33],
        "radius": "20.0"
      },
      "properties": {
        "iconurl": "icons/flags_map/ch/minimap_cpbase.png",
        "iconrotate": "0",
        "popupContent": "Amazing information about PLA Recon Outpost will be found here!"
      },
      "bf2props": {
        "name": "cpname_operation_ghost_train_aas64_reconpost",
        "class": "ControlPoint",
        "name_object": "PLA Recon Outpost",
        "team": "1",
        "areavalue1": "40.0",
        "areavalue2": "1000.0",
        "cpid": "407",
        "sgid": "1",
        "uncap": "true",
        "ttgc": "90.0",
        "ttlc": "90.0"
      }
    },
    {
      "type": "Feature",
      "geometry": {
        "type": "Point",
        "coordinates": [703.601, -876.431],
        "size": [33, 33],
        "radius": "25.0"
      },
      "properties": {
        "iconurl": "icons/flags_map/neutral/minimap_cp.png",
        "iconrotate": "0",
        "popupContent": "Amazing information about Supply Train 25m will be found here!"
      },
      "bf2props": {
        "name": "cpname_operation_ghost_train_aas64_train",
        "class": "ControlPoint",
        "name_object": "Supply Train 25m",
        "team": "0",
        "areavalue1": "10.0",
        "areavalue2": "10.0",
        "cpid": "408",
        "sgid": "2",
        "uncap": "false",
        "ttgc": "90.0",
        "ttlc": "90.0"
      }
    },
    {
      "type": "Feature",
      "geometry": {
        "type": "Polygon",
        "coordinates": [
          [
            [0,0],
            [0,-1024],
            [1024,-1024],
            [1024,0]
          ],[
            [52.31656, -355.65796],
            [56.869812, -425.88788],
            [66.249756, -585.9428],
            [68.98367, -611.2416],
            [74.18793, -635.3893],
            [84.071655, -656.30725],
            [177.54181, -826.76306],
            [208.44159, -873.41003],
            [228.7807, -896.54785],
            [254.67053, -913.427],
            [294.15823, -949.9208],
            [306.78854, -955.2034],
            [337.73584, -958.49097],
            [522.6976, -953.3074],
            [789.5705, -931.5387],
            [831.1798, -914.33167],
            [884.23395, -874.2557],
            [1024.0, -1024.0],
            [884.23395, -874.2557],
            [922.8383, -827.4709],
            [935.9488, -789.77167],
            [945.0248, -731.94104],
            [964.1014, -424.7544],
            [972.4592, -221.9516],
            [968.0131, -176.45831],
            [957.1263, -145.6203],
            [944.18866, -126.51239],
            [887.1945, -86.02765],
            [859.6636, -73.60083],
            [705.2206, -41.29486],
            [586.2756, -32.836243],
            [286.2079, -25.397827],
            [201.04947, -27.652039],
            [143.93488, -32.650085],
            [120.50278, -38.783936],
            [84.41632, -56.045776],
            [0.0, 0.0],
            [84.41632, -56.045776],
            [54.3255, -85.66998],
            [44.423553, -102.08716],
            [43.12018, -123.28247],
            [45.661896, -175.61609]
          ]
        ]
      },
      "bf2props": {
        "code": "combatarea_0_aas_aas_64_border",
        "class": "CombatArea",
        "team": "0",
        "vehicles": "4",
        "layer": "8",
        "inverted": "false",
        "max": [0.0, 0.0],
        "min": [0.0, 0.0]
      }
    },
    {
      "type": "Feature",
      "geometry": {
        "type": "Polygon",
        "coordinates": [
          [
            [542.18335, -968.0183],
            [498.25284, -766.4215],
            [439.21954, -728.916],
            [295.03546, -803.711],
            [165.84717, -828.8611],
            [257.57245, -941.1129],
            [321.47052, -983.59845]
          ]
        ]
      },
      "bf2props": {
        "code": "combatarea_38_aas_aas_64_border",
        "class": "CombatArea",
        "team": "2",
        "vehicles": "4",
        "layer": "8",
        "inverted": "true",
        "max": [0.0, 0.0],
        "min": [0.0, 0.0]
      }
    },
    {
      "type": "Feature",
      "geometry": {
        "type": "Polygon",
        "coordinates": [
          [
            [37.978912, -348.4876],
            [87.79468, -301.77643],
            [139.768, -322.50354],
            [254.97968, -228.36444],
            [333.6014, -153.0097],
            [344.74792, -91.83948],
            [330.37894, -1.538269],
            [33.362, -35.5766]
          ]
        ]
      },
      "bf2props": {
        "code": "combatarea_45_aas_aas_64_border",
        "class": "CombatArea",
        "team": "1",
        "vehicles": "4",
        "layer": "8",
        "inverted": "true",
        "max": [0.0, 0.0],
        "min": [0.0, 0.0]
      }
    }
  ]
}