{
  "team1":"ru",
  "team2":"ger",
  "team1tickets":"300",
  "team2tickets":"300",
  "mapsize":"4096",
  "viewdistance":"900",
  "combatareause":"true",
  "combatareadamage":"10.0",
  "combatareaallowoutside":"5.0",
  "routes": [
    [
      [
        "cpname_silent_eagle_coop16_hillobjective"
      ],
      [
        "cpname_silent_eagle_coop16_gasstation",
        "cpname_silent_eagle_coop16_playground",
        "cpname_silent_eagle_coop16_easttown"
      ],
      [
        "cpname_silent_eagle_coop16_southtown",
        "cpname_silent_eagle_coop16_northtown",
        "cpname_silent_eagle_coop16_westtown"
      ],
      [
        "cpname_silent_eagle_coop16_paradrop"
      ]
    ]
  ],
  "type": "FeatureCollection",
  "features": [
    {
      "type": "Feature",
      "geometry": {
        "type": "Point",
        "coordinates": [2295.711, -2343.793],
        "size": [33, 33],
        "radius": "30.0"
      },
      "properties": {
        "iconurl": "icons/flags_map/neutral/minimap_cp.png",
        "iconrotate": "0",
        "popupContent": "Amazing information about South Town will be found here!"
      },
      "bf2props": {
        "name": "cpname_silent_eagle_coop16_southtown",
        "class": "ControlPoint",
        "name_object": "South Town",
        "team": "0",
        "areavalue1": "10.0",
        "areavalue2": "10.0",
        "cpid": "1",
        "sgid": "3",
        "uncap": "false",
        "ttgc": "90.0",
        "ttlc": "60.0"
      }
    },
    {
      "type": "Feature",
      "geometry": {
        "type": "Point",
        "coordinates": [2261.517, -2063.175],
        "size": [33, 33],
        "radius": "25.0"
      },
      "properties": {
        "iconurl": "icons/flags_map/neutral/minimap_cp.png",
        "iconrotate": "0",
        "popupContent": "Amazing information about North Town will be found here!"
      },
      "bf2props": {
        "name": "cpname_silent_eagle_coop16_northtown",
        "class": "ControlPoint",
        "name_object": "North Town",
        "team": "0",
        "areavalue1": "10.0",
        "areavalue2": "10.0",
        "cpid": "2",
        "sgid": "3",
        "uncap": "false",
        "ttgc": "90.0",
        "ttlc": "60.0"
      }
    },
    {
      "type": "Feature",
      "geometry": {
        "type": "Point",
        "coordinates": [2457.063, -2118.764],
        "size": [33, 33],
        "radius": "20.0"
      },
      "properties": {
        "iconurl": "icons/flags_map/neutral/minimap_cp.png",
        "iconrotate": "0",
        "popupContent": "Amazing information about Gas Station will be found here!"
      },
      "bf2props": {
        "name": "cpname_silent_eagle_coop16_gasstation",
        "class": "ControlPoint",
        "name_object": "Gas Station",
        "team": "0",
        "areavalue1": "10.0",
        "areavalue2": "10.0",
        "cpid": "3",
        "sgid": "2",
        "uncap": "false",
        "ttgc": "90.0",
        "ttlc": "60.0"
      }
    },
    {
      "type": "Feature",
      "geometry": {
        "type": "Point",
        "coordinates": [2464.374, -2348.201],
        "size": [33, 33],
        "radius": "20.0"
      },
      "properties": {
        "iconurl": "icons/flags_map/neutral/minimap_cp.png",
        "iconrotate": "0",
        "popupContent": "Amazing information about Playground will be found here!"
      },
      "bf2props": {
        "name": "cpname_silent_eagle_coop16_playground",
        "class": "ControlPoint",
        "name_object": "Playground",
        "team": "0",
        "areavalue1": "10.0",
        "areavalue2": "10.0",
        "cpid": "4",
        "sgid": "2",
        "uncap": "false",
        "ttgc": "90.0",
        "ttlc": "60.0"
      }
    },
    {
      "type": "Feature",
      "geometry": {
        "type": "Point",
        "coordinates": [2694.343, -2165.34],
        "size": [33, 33],
        "radius": "20.0"
      },
      "properties": {
        "iconurl": "icons/flags_map/ru/minimap_cp.png",
        "iconrotate": "0",
        "popupContent": "Amazing information about Hill Objective will be found here!"
      },
      "bf2props": {
        "name": "cpname_silent_eagle_coop16_hillobjective",
        "class": "ControlPoint",
        "name_object": "Hill Objective",
        "team": "1",
        "areavalue1": "10.0",
        "areavalue2": "99999.0",
        "cpid": "5",
        "sgid": "1",
        "uncap": "false",
        "ttgc": "90.0",
        "ttlc": "60.0"
      }
    },
    {
      "type": "Feature",
      "geometry": {
        "type": "Point",
        "coordinates": [2281.988, -2221.356],
        "size": [33, 33],
        "radius": "20.0"
      },
      "properties": {
        "iconurl": "icons/flags_map/neutral/minimap_cp.png",
        "iconrotate": "0",
        "popupContent": "Amazing information about West Town will be found here!"
      },
      "bf2props": {
        "name": "cpname_silent_eagle_coop16_westtown",
        "class": "ControlPoint",
        "name_object": "West Town",
        "team": "0",
        "areavalue1": "10.0",
        "areavalue2": "10.0",
        "cpid": "6",
        "sgid": "3",
        "uncap": "false",
        "ttgc": "90.0",
        "ttlc": "60.0"
      }
    },
    {
      "type": "Feature",
      "geometry": {
        "type": "Point",
        "coordinates": [2462.864, -2229.13],
        "size": [33, 33],
        "radius": "30.0"
      },
      "properties": {
        "iconurl": "icons/flags_map/neutral/minimap_cp.png",
        "iconrotate": "0",
        "popupContent": "Amazing information about East Town will be found here!"
      },
      "bf2props": {
        "name": "cpname_silent_eagle_coop16_easttown",
        "class": "ControlPoint",
        "name_object": "East Town",
        "team": "0",
        "areavalue1": "10.0",
        "areavalue2": "10.0",
        "cpid": "7",
        "sgid": "2",
        "uncap": "false",
        "ttgc": "90.0",
        "ttlc": "60.0"
      }
    },
    {
      "type": "Feature",
      "geometry": {
        "type": "Point",
        "coordinates": [2008.532, -2247.248],
        "size": [33, 33],
        "radius": "5.0"
      },
      "properties": {
        "iconurl": "icons/flags_map/ger/minimap_cpbase.png",
        "iconrotate": "0",
        "popupContent": "Amazing information about Paradrop will be found here!"
      },
      "bf2props": {
        "name": "cpname_silent_eagle_coop16_paradrop",
        "class": "ControlPoint",
        "name_object": "Paradrop",
        "team": "2",
        "areavalue1": "10.0",
        "areavalue2": "10.0",
        "cpid": "8",
        "sgid": "4",
        "uncap": "true",
        "ttgc": "90.0",
        "ttlc": "60.0"
      }
    },
    {
      "type": "Feature",
      "geometry": {
        "type": "Polygon",
        "coordinates": [
          [
            [0,0],
            [0,-4096],
            [4096,-4096],
            [4096,0]
          ],[
            [1964.4182, -1748.552],
            [1800.4044, -1938.3074],
            [1728.7578, -2081.7666],
            [1795.7622, -2377.8286],
            [1929.8048, -2555.0083],
            [2160.009, -2605.763],
            [2576.7017, -2504.3323],
            [2831.3157, -2283.5112],
            [2874.5964, -2094.916],
            [2801.5007, -1980.4661],
            [2497.3806, -1870.488],
            [1962.9152, -1742.3657]
          ]
        ]
      },
      "bf2props": {
        "code": "combatarea_0_default",
        "class": "CombatArea",
        "team": "0",
        "vehicles": "4",
        "layer": "1",
        "inverted": "false",
        "max": [0.0, 0.0],
        "min": [0.0, 0.0]
      }
    }
  ]
}