{
  "team1":"ru",
  "team2":"ger",
  "team1tickets":"300",
  "team2tickets":"350",
  "mapsize":"4096",
  "viewdistance":"900",
  "combatareause":"true",
  "combatareadamage":"20.0",
  "combatareaallowoutside":"30.0",
  "routes": [
    [
      [
        "cpname_silent_eagle_coop64_powerplant"
      ],
      [
        "cpname_silent_eagle_coop64_missilesilo",
        "cpname_silent_eagle_coop64_northlake"
      ],
      [
        "cpname_silent_eagle_coop64_northtown"
      ],
      [
        "cpname_silent_eagle_coop64_southtown"
      ],
      [
        "cpname_silent_eagle_coop64_loggingshack"
      ],
      [
        "cpname_silent_eagle_coop64_airport"
      ]
    ]
  ],
  "type": "FeatureCollection",
  "features": [
    {
      "type": "Feature",
      "geometry": {
        "type": "Point",
        "coordinates": [2233.593, -3492.7988],
        "size": [16, 16]
      },
      "properties": {
        "iconurl": "icons/mini_map/uavtrailer.png",
        "iconrotate": "0",
        "popupContent": "Amazing information about null will be found here!"
      },
      "bf2props": {
        "name": "cpname_silent_eagle_coop64_airport_acv",
        "class": "ObjectSpawner",
        "name_object": "UAV Terminal",
        "team": "2",
        "obj1": "null",
        "obj2": "ger_acv_m557a2",
        "maxspawn": "0.0",
        "minspawn": "0.0",
        "spawndelay": "false",
        "ttl": "0.0",
        "cpid": "8"
      }
    },
    {
      "type": "Feature",
      "geometry": {
        "type": "Point",
        "coordinates": [671.157, -183.75903],
        "size": [16, 16]
      },
      "properties": {
        "iconurl": "icons/mini_map/uavtrailer.png",
        "iconrotate": "0",
        "popupContent": "Amazing information about UAV Terminal will be found here!"
      },
      "bf2props": {
        "name": "cpname_silent_eagle_coop64_airfield_acv",
        "class": "ObjectSpawner",
        "name_object": "UAV Terminal",
        "team": "1",
        "obj1": "ru_acv_btr60pu",
        "obj2": "null",
        "maxspawn": "0.0",
        "minspawn": "0.0",
        "spawndelay": "false",
        "ttl": "0.0",
        "cpid": "1"
      }
    },
    {
      "type": "Feature",
      "geometry": {
        "type": "Point",
        "coordinates": [2372.414, -3378.406],
        "size": [16, 16]
      },
      "properties": {
        "iconurl": "icons/vehicles_map/mini_jet_strikefighter.png",
        "iconrotate": "157.0",
        "popupContent": "Amazing information about null will be found here!"
      },
      "bf2props": {
        "name": "cpname_silent_eagle_coop64_airport_eurofighter",
        "class": "ObjectSpawner",
        "name_object": "Eurofighter Typhoon",
        "team": "2",
        "obj1": "null",
        "obj2": "ger_jet_eurofighter",
        "maxspawn": "300.0",
        "minspawn": "300.0",
        "spawndelay": "false",
        "ttl": "1200.0",
        "cpid": "8"
      }
    },
    {
      "type": "Feature",
      "geometry": {
        "type": "Point",
        "coordinates": [2456.388, -3339.476],
        "size": [16, 16]
      },
      "properties": {
        "iconurl": "icons/vehicles_map/mini_jet_figherbomber.png",
        "iconrotate": "157.0",
        "popupContent": "Amazing information about null will be found here!"
      },
      "bf2props": {
        "name": "cpname_silent_eagle_coop64_airport_typhoon",
        "class": "ObjectSpawner",
        "name_object": "Tornado IDS",
        "team": "2",
        "obj1": "null",
        "obj2": "ger_jet_tornadogr4_mw1",
        "maxspawn": "300.0",
        "minspawn": "300.0",
        "spawndelay": "false",
        "ttl": "1200.0",
        "cpid": "8"
      }
    },
    {
      "type": "Feature",
      "geometry": {
        "type": "Point",
        "coordinates": [2619.156, -3485.018],
        "size": [16, 16]
      },
      "properties": {
        "iconurl": "icons/vehicles_map/mini_jet_strikefighter.png",
        "iconrotate": "-115.0",
        "popupContent": "Amazing information about null will be found here!"
      },
      "bf2props": {
        "name": "cpname_silent_eagle_coop64_airport_ef_sp",
        "class": "ObjectSpawner",
        "name_object": "Eurofighter Typhoon",
        "team": "2",
        "obj1": "null",
        "obj2": "ger_jet_eurofighter_sp",
        "maxspawn": "300.0",
        "minspawn": "300.0",
        "spawndelay": "false",
        "maxnr": "3",
        "ttl": "1200.0",
        "cpid": "8"
      }
    },
    {
      "type": "Feature",
      "geometry": {
        "type": "Point",
        "coordinates": [2263.181, -3398.783],
        "size": [16, 16]
      },
      "properties": {
        "iconurl": "icons/vehicles_map/mini_the_light.png",
        "iconrotate": "156.0",
        "popupContent": "Amazing information about null will be found here!"
      },
      "bf2props": {
        "name": "cpname_silent_eagle_coop64_airport_the_0",
        "class": "ObjectSpawner",
        "name_object": "Bell UH-1D",
        "team": "2",
        "obj1": "null",
        "obj2": "ger_the_uh1d_mg3",
        "maxspawn": "300.0",
        "minspawn": "300.0",
        "spawndelay": "false",
        "ttl": "1200.0",
        "cpid": "8"
      }
    },
    {
      "type": "Feature",
      "geometry": {
        "type": "Point",
        "coordinates": [2279.971, -3391.308],
        "size": [16, 16]
      },
      "properties": {
        "iconurl": "icons/vehicles_map/mini_the_medium.png",
        "iconrotate": "156.0",
        "popupContent": "Amazing information about null will be found here!"
      },
      "bf2props": {
        "name": "cpname_silent_eagle_coop64_airport_the_1",
        "class": "ObjectSpawner",
        "name_object": "NH90 TTH",
        "team": "2",
        "obj1": "null",
        "obj2": "ger_the_nh90",
        "maxspawn": "300.0",
        "minspawn": "300.0",
        "spawndelay": "false",
        "ttl": "1200.0",
        "cpid": "8"
      }
    },
    {
      "type": "Feature",
      "geometry": {
        "type": "Point",
        "coordinates": [2156.524, -3437.603],
        "size": [16, 16]
      },
      "properties": {
        "iconurl": "icons/vehicles_map/mini_tank_heavy.png",
        "iconrotate": "-103.318",
        "popupContent": "Amazing information about null will be found here!"
      },
      "bf2props": {
        "name": "cpname_silent_eagle_coop64_airport_tank",
        "class": "ObjectSpawner",
        "name_object": "Leopard 2A6",
        "team": "2",
        "obj1": "null",
        "obj2": "ger_tnk_leo2a6_bf2",
        "maxspawn": "300.0",
        "minspawn": "300.0",
        "spawndelay": "false",
        "ttl": "1200.0",
        "cpid": "8"
      }
    },
    {
      "type": "Feature",
      "geometry": {
        "type": "Point",
        "coordinates": [2152.857, -3432.564],
        "size": [16, 16]
      },
      "properties": {
        "iconurl": "icons/vehicles_map/mini_tank_heavy.png",
        "iconrotate": "-103.318",
        "popupContent": "Amazing information about null will be found here!"
      },
      "bf2props": {
        "name": "cpname_silent_eagle_coop64_airport_tank_0",
        "class": "ObjectSpawner",
        "name_object": "Leopard 2A6",
        "team": "2",
        "obj1": "null",
        "obj2": "ger_tnk_leo2a6_bf2",
        "maxspawn": "300.0",
        "minspawn": "300.0",
        "spawndelay": "false",
        "ttl": "1200.0",
        "cpid": "8"
      }
    },
    {
      "type": "Feature",
      "geometry": {
        "type": "Point",
        "coordinates": [2165.565, -3447.737],
        "size": [16, 16]
      },
      "properties": {
        "iconurl": "icons/vehicles_map/mini_apc_heavy.png",
        "iconrotate": "-103.318",
        "popupContent": "Amazing information about null will be found here!"
      },
      "bf2props": {
        "name": "cpname_silent_eagle_coop64_airport_puma",
        "class": "ObjectSpawner",
        "name_object": "Puma IFV",
        "team": "2",
        "obj1": "null",
        "obj2": "ger_ifv_puma_bf2",
        "maxspawn": "300.0",
        "minspawn": "300.0",
        "spawndelay": "false",
        "ttl": "1200.0",
        "cpid": "8"
      }
    },
    {
      "type": "Feature",
      "geometry": {
        "type": "Point",
        "coordinates": [2160.369, -3443.362],
        "size": [16, 16]
      },
      "properties": {
        "iconurl": "icons/vehicles_map/mini_apc_heavy.png",
        "iconrotate": "-103.318",
        "popupContent": "Amazing information about null will be found here!"
      },
      "bf2props": {
        "name": "cpname_silent_eagle_coop64_airport_puma_0",
        "class": "ObjectSpawner",
        "name_object": "Puma IFV",
        "team": "2",
        "obj1": "null",
        "obj2": "ger_ifv_puma_bf2",
        "maxspawn": "300.0",
        "minspawn": "300.0",
        "spawndelay": "false",
        "ttl": "1200.0",
        "cpid": "8"
      }
    },
    {
      "type": "Feature",
      "geometry": {
        "type": "Point",
        "coordinates": [2198.281, -3464.545],
        "size": [16, 16]
      },
      "properties": {
        "iconurl": "icons/vehicles_map/mini_tank_heavy.png",
        "iconrotate": "-61.893",
        "popupContent": "Amazing information about null will be found here!"
      },
      "bf2props": {
        "name": "cpname_silent_eagle_coop64_airport_tank_1",
        "class": "ObjectSpawner",
        "name_object": "Leopard 2A6",
        "team": "2",
        "obj1": "null",
        "obj2": "ger_tnk_leo2a6",
        "maxspawn": "300.0",
        "minspawn": "300.0",
        "spawndelay": "false",
        "ttl": "1200.0",
        "cpid": "8"
      }
    },
    {
      "type": "Feature",
      "geometry": {
        "type": "Point",
        "coordinates": [2204.322, -3461.175],
        "size": [16, 16]
      },
      "properties": {
        "iconurl": "icons/vehicles_map/mini_tank_heavy.png",
        "iconrotate": "-61.893",
        "popupContent": "Amazing information about null will be found here!"
      },
      "bf2props": {
        "name": "cpname_silent_eagle_coop64_airport_tank_2",
        "class": "ObjectSpawner",
        "name_object": "Leopard 2A6",
        "team": "2",
        "obj1": "null",
        "obj2": "ger_tnk_leo2a6",
        "maxspawn": "300.0",
        "minspawn": "300.0",
        "spawndelay": "false",
        "ttl": "1200.0",
        "cpid": "8"
      }
    },
    {
      "type": "Feature",
      "geometry": {
        "type": "Point",
        "coordinates": [2213.238, -3458.467],
        "size": [16, 16]
      },
      "properties": {
        "iconurl": "icons/vehicles_map/mini_apc_heavy.png",
        "iconrotate": "-61.893",
        "popupContent": "Amazing information about null will be found here!"
      },
      "bf2props": {
        "name": "cpname_silent_eagle_coop64_airport_apc",
        "class": "ObjectSpawner",
        "name_object": "Puma IFV",
        "team": "2",
        "obj1": "null",
        "obj2": "ger_ifv_puma",
        "maxspawn": "300.0",
        "minspawn": "300.0",
        "spawndelay": "false",
        "ttl": "1200.0",
        "cpid": "8"
      }
    },
    {
      "type": "Feature",
      "geometry": {
        "type": "Point",
        "coordinates": [2218.6929, -3455.145],
        "size": [16, 16]
      },
      "properties": {
        "iconurl": "icons/vehicles_map/mini_apc_heavy.png",
        "iconrotate": "-61.893",
        "popupContent": "Amazing information about null will be found here!"
      },
      "bf2props": {
        "name": "cpname_silent_eagle_coop64_airport_apc_0",
        "class": "ObjectSpawner",
        "name_object": "Puma IFV",
        "team": "2",
        "obj1": "null",
        "obj2": "ger_ifv_puma",
        "maxspawn": "300.0",
        "minspawn": "300.0",
        "spawndelay": "false",
        "ttl": "1200.0",
        "cpid": "8"
      }
    },
    {
      "type": "Feature",
      "geometry": {
        "type": "Point",
        "coordinates": [2153.833, -2488.669],
        "size": [16, 16]
      },
      "properties": {
        "iconurl": "",
        "iconrotate": "0.0",
        "popupContent": "Amazing information about null will be found here!"
      },
      "bf2props": {
        "name": "cpname_silent_eagle_coop64_airport_paradrop",
        "class": "ObjectSpawner",
        "name_object": "paradrop_noexpire",
        "team": "2",
        "obj1": "null",
        "obj2": "paradrop_noexpire",
        "maxspawn": "300.0",
        "minspawn": "300.0",
        "spawndelay": "false",
        "ttl": "1200.0",
        "cpid": "8"
      }
    },
    {
      "type": "Feature",
      "geometry": {
        "type": "Point",
        "coordinates": [435.37305, -1714.265],
        "size": [16, 16]
      },
      "properties": {
        "iconurl": "icons/vehicles_map/mini_tank_heavy.png",
        "iconrotate": "150.0",
        "popupContent": "Amazing information about T-90A will be found here!"
      },
      "bf2props": {
        "name": "cpname_silent_eagle_coop64_powerplant_tank",
        "class": "ObjectSpawner",
        "name_object": "T-90A",
        "team": "1",
        "obj1": "ru_tnk_t90",
        "obj2": "null",
        "maxspawn": "300.0",
        "minspawn": "300.0",
        "spawndelay": "false",
        "ttl": "1200.0",
        "cpid": "2"
      }
    },
    {
      "type": "Feature",
      "geometry": {
        "type": "Point",
        "coordinates": [481.807, -1715.376],
        "size": [16, 16]
      },
      "properties": {
        "iconurl": "icons/vehicles_map/mini_tank_heavy.png",
        "iconrotate": "150.0",
        "popupContent": "Amazing information about T-90A will be found here!"
      },
      "bf2props": {
        "name": "cpname_silent_eagle_coop64_powerplant_tank_0",
        "class": "ObjectSpawner",
        "name_object": "T-90A",
        "team": "1",
        "obj1": "ru_tnk_t90_bf2",
        "obj2": "null",
        "maxspawn": "450.0",
        "minspawn": "450.0",
        "spawndelay": "false",
        "ttl": "1200.0",
        "cpid": "2"
      }
    },
    {
      "type": "Feature",
      "geometry": {
        "type": "Point",
        "coordinates": [475.19495, -1715.262],
        "size": [16, 16]
      },
      "properties": {
        "iconurl": "icons/vehicles_map/mini_tank_heavy.png",
        "iconrotate": "150.0",
        "popupContent": "Amazing information about T-90A will be found here!"
      },
      "bf2props": {
        "name": "cpname_silent_eagle_coop64_powerplant_tank_1",
        "class": "ObjectSpawner",
        "name_object": "T-90A",
        "team": "1",
        "obj1": "ru_tnk_t90_bf2",
        "obj2": "null",
        "maxspawn": "450.0",
        "minspawn": "450.0",
        "spawndelay": "false",
        "ttl": "1200.0",
        "cpid": "2"
      }
    },
    {
      "type": "Feature",
      "geometry": {
        "type": "Point",
        "coordinates": [469.11902, -1715.124],
        "size": [16, 16]
      },
      "properties": {
        "iconurl": "icons/vehicles_map/mini_tank_heavy.png",
        "iconrotate": "150.0",
        "popupContent": "Amazing information about T-90A will be found here!"
      },
      "bf2props": {
        "name": "cpname_silent_eagle_coop64_powerplant_tank_2",
        "class": "ObjectSpawner",
        "name_object": "T-90A",
        "team": "1",
        "obj1": "ru_tnk_t90_bf2",
        "obj2": "null",
        "maxspawn": "450.0",
        "minspawn": "450.0",
        "spawndelay": "false",
        "ttl": "1200.0",
        "cpid": "2"
      }
    },
    {
      "type": "Feature",
      "geometry": {
        "type": "Point",
        "coordinates": [463.45398, -1715.317],
        "size": [16, 16]
      },
      "properties": {
        "iconurl": "icons/vehicles_map/mini_tank_heavy.png",
        "iconrotate": "150.0",
        "popupContent": "Amazing information about T-90A will be found here!"
      },
      "bf2props": {
        "name": "cpname_silent_eagle_coop64_powerplant_tank_3",
        "class": "ObjectSpawner",
        "name_object": "T-90A",
        "team": "1",
        "obj1": "ru_tnk_t90_bf2",
        "obj2": "null",
        "maxspawn": "450.0",
        "minspawn": "450.0",
        "spawndelay": "false",
        "ttl": "1200.0",
        "cpid": "2"
      }
    },
    {
      "type": "Feature",
      "geometry": {
        "type": "Point",
        "coordinates": [441.03406, -1714.379],
        "size": [16, 16]
      },
      "properties": {
        "iconurl": "icons/vehicles_map/mini_tank_heavy.png",
        "iconrotate": "150.0",
        "popupContent": "Amazing information about T-90A will be found here!"
      },
      "bf2props": {
        "name": "cpname_silent_eagle_coop64_powerplant_tank_4",
        "class": "ObjectSpawner",
        "name_object": "T-90A",
        "team": "1",
        "obj1": "ru_tnk_t90",
        "obj2": "null",
        "maxspawn": "300.0",
        "minspawn": "300.0",
        "spawndelay": "false",
        "ttl": "1200.0",
        "cpid": "2"
      }
    },
    {
      "type": "Feature",
      "geometry": {
        "type": "Point",
        "coordinates": [442.64795, -1738.957],
        "size": [16, 16]
      },
      "properties": {
        "iconurl": "icons/vehicles_map/mini_apc_medium.png",
        "iconrotate": "65.959",
        "popupContent": "Amazing information about BTR-80A will be found here!"
      },
      "bf2props": {
        "name": "cpname_silent_eagle_coop64_powerplant_ifv",
        "class": "ObjectSpawner",
        "name_object": "BTR-80A",
        "team": "1",
        "obj1": "ru_apc_btr80a_bf2",
        "obj2": "null",
        "maxspawn": "300.0",
        "minspawn": "300.0",
        "spawndelay": "false",
        "ttl": "1200.0",
        "cpid": "2"
      }
    },
    {
      "type": "Feature",
      "geometry": {
        "type": "Point",
        "coordinates": [442.97205, -1744.365],
        "size": [16, 16]
      },
      "properties": {
        "iconurl": "icons/vehicles_map/mini_apc_medium.png",
        "iconrotate": "65.959",
        "popupContent": "Amazing information about BTR-80A will be found here!"
      },
      "bf2props": {
        "name": "cpname_silent_eagle_coop64_powerplant_ifv_0",
        "class": "ObjectSpawner",
        "name_object": "BTR-80A",
        "team": "1",
        "obj1": "ru_apc_btr80a_bf2",
        "obj2": "null",
        "maxspawn": "300.0",
        "minspawn": "300.0",
        "spawndelay": "false",
        "ttl": "1200.0",
        "cpid": "2"
      }
    },
    {
      "type": "Feature",
      "geometry": {
        "type": "Point",
        "coordinates": [443.46106, -1755.663],
        "size": [16, 16]
      },
      "properties": {
        "iconurl": "icons/vehicles_map/mini_apc_medium.png",
        "iconrotate": "65.959",
        "popupContent": "Amazing information about BTR-80A will be found here!"
      },
      "bf2props": {
        "name": "cpname_silent_eagle_coop64_powerplant_ifv_1",
        "class": "ObjectSpawner",
        "name_object": "BTR-80A",
        "team": "1",
        "obj1": "ru_apc_btr80a",
        "obj2": "null",
        "maxspawn": "300.0",
        "minspawn": "300.0",
        "spawndelay": "false",
        "ttl": "1200.0",
        "cpid": "2"
      }
    },
    {
      "type": "Feature",
      "geometry": {
        "type": "Point",
        "coordinates": [442.71594, -1750.376],
        "size": [16, 16]
      },
      "properties": {
        "iconurl": "icons/vehicles_map/mini_apc_medium.png",
        "iconrotate": "65.959",
        "popupContent": "Amazing information about BTR-80A will be found here!"
      },
      "bf2props": {
        "name": "cpname_silent_eagle_coop64_powerplant_ifv_2",
        "class": "ObjectSpawner",
        "name_object": "BTR-80A",
        "team": "1",
        "obj1": "ru_apc_btr80a",
        "obj2": "null",
        "maxspawn": "300.0",
        "minspawn": "300.0",
        "spawndelay": "false",
        "ttl": "1200.0",
        "cpid": "2"
      }
    },
    {
      "type": "Feature",
      "geometry": {
        "type": "Point",
        "coordinates": [464.77502, -1791.5029],
        "size": [16, 16]
      },
      "properties": {
        "iconurl": "icons/mini_map/repairdepot.png",
        "iconrotate": "0",
        "popupContent": "Amazing information about Vehicle Depot will be found here!"
      },
      "bf2props": {
        "name": "cpname_silent_eagle_coop64_powerplant_depot",
        "class": "ObjectSpawner",
        "name_object": "Vehicle Depot",
        "team": "1",
        "obj1": "vehicle_depot_ru",
        "obj2": "null",
        "maxspawn": "300.0",
        "minspawn": "300.0",
        "spawndelay": "false",
        "ttl": "1200.0",
        "cpid": "2"
      }
    },
    {
      "type": "Feature",
      "geometry": {
        "type": "Point",
        "coordinates": [497.161, -133.60498],
        "size": [16, 16]
      },
      "properties": {
        "iconurl": "icons/vehicles_map/mini_jet_strikefighter.png",
        "iconrotate": "-180.0",
        "popupContent": "Amazing information about MiG-29S Fulcrum will be found here!"
      },
      "bf2props": {
        "name": "cpname_silent_eagle_coop64_airfield_je",
        "class": "ObjectSpawner",
        "name_object": "MiG-29S Fulcrum",
        "team": "1",
        "obj1": "ru_jet_mig29",
        "obj2": "null",
        "maxspawn": "300.0",
        "minspawn": "300.0",
        "spawndelay": "false",
        "ttl": "1200.0",
        "cpid": "1"
      }
    },
    {
      "type": "Feature",
      "geometry": {
        "type": "Point",
        "coordinates": [405.42603, -135.36096],
        "size": [16, 16]
      },
      "properties": {
        "iconurl": "icons/vehicles_map/mini_jet_figherbomber.png",
        "iconrotate": "-180.0",
        "popupContent": "Amazing information about Su-34 Fullback will be found here!"
      },
      "bf2props": {
        "name": "cpname_silent_eagle_coop64_airfield_jet",
        "class": "ObjectSpawner",
        "name_object": "Su-34 Fullback",
        "team": "1",
        "obj1": "ru_jet_su34",
        "obj2": "null",
        "maxspawn": "450.0",
        "minspawn": "450.0",
        "spawndelay": "false",
        "ttl": "1200.0",
        "cpid": "1"
      }
    },
    {
      "type": "Feature",
      "geometry": {
        "type": "Point",
        "coordinates": [637.13306, -113.23096],
        "size": [16, 16]
      },
      "properties": {
        "iconurl": "icons/vehicles_map/mini_the_medium.png",
        "iconrotate": "90.0",
        "popupContent": "Amazing information about Mi-8MT Hip-C will be found here!"
      },
      "bf2props": {
        "name": "cpname_silent_eagle_coop64_airfield_trans",
        "class": "ObjectSpawner",
        "name_object": "Mi-8MT Hip-C",
        "team": "1",
        "obj1": "ru_the_mi8",
        "obj2": "null",
        "maxspawn": "300.0",
        "minspawn": "300.0",
        "spawndelay": "false",
        "ttl": "1200.0",
        "cpid": "1"
      }
    },
    {
      "type": "Feature",
      "geometry": {
        "type": "Point",
        "coordinates": [637.13306, -131.11694],
        "size": [16, 16]
      },
      "properties": {
        "iconurl": "icons/vehicles_map/mini_the_medium.png",
        "iconrotate": "90.0",
        "popupContent": "Amazing information about Mi-8MT Hip-C will be found here!"
      },
      "bf2props": {
        "name": "cpname_silent_eagle_coop64_airfield_mi8",
        "class": "ObjectSpawner",
        "name_object": "Mi-8MT Hip-C",
        "team": "1",
        "obj1": "ru_the_mi8",
        "obj2": "null",
        "maxspawn": "300.0",
        "minspawn": "300.0",
        "spawndelay": "false",
        "ttl": "1200.0",
        "cpid": "1"
      }
    },
    {
      "type": "Feature",
      "geometry": {
        "type": "Point",
        "coordinates": [637.13306, -94.69397],
        "size": [16, 16]
      },
      "properties": {
        "iconurl": "icons/vehicles_map/mini_the_medium.png",
        "iconrotate": "90.0",
        "popupContent": "Amazing information about Mi-8MT Hip-C will be found here!"
      },
      "bf2props": {
        "name": "cpname_silent_eagle_coop64_airfield_trans_0",
        "class": "ObjectSpawner",
        "name_object": "Mi-8MT Hip-C",
        "team": "1",
        "obj1": "ru_the_mi8",
        "obj2": "null",
        "maxspawn": "300.0",
        "minspawn": "300.0",
        "spawndelay": "false",
        "ttl": "1200.0",
        "cpid": "1"
      }
    },
    {
      "type": "Feature",
      "geometry": {
        "type": "Point",
        "coordinates": [186.45398, -244.42798],
        "size": [16, 16]
      },
      "properties": {
        "iconurl": "icons/vehicles_map/mini_jet_attack_heavy.png",
        "iconrotate": "90.0",
        "popupContent": "Amazing information about Su-25 Frogfoot will be found here!"
      },
      "bf2props": {
        "name": "cpname_silent_eagle_coop64_airfield_jet_0",
        "class": "ObjectSpawner",
        "name_object": "Su-25 Frogfoot",
        "team": "1",
        "obj1": "ru_jet_su25a_sp",
        "obj2": "null",
        "maxspawn": "300.0",
        "minspawn": "300.0",
        "spawndelay": "false",
        "ttl": "1200.0",
        "cpid": "1"
      }
    },
    {
      "type": "Feature",
      "geometry": {
        "type": "Point",
        "coordinates": [175.53198, -316.70398],
        "size": [16, 16]
      },
      "properties": {
        "iconurl": "icons/vehicles_map/mini_jet_strikefighter.png",
        "iconrotate": "90.0",
        "popupContent": "Amazing information about MiG-29S Fulcrum will be found here!"
      },
      "bf2props": {
        "name": "cpname_silent_eagle_coop64_airfield_jet_1",
        "class": "ObjectSpawner",
        "name_object": "MiG-29S Fulcrum",
        "team": "1",
        "obj1": "ru_jet_mig29_sp",
        "obj2": "null",
        "maxspawn": "300.0",
        "minspawn": "300.0",
        "spawndelay": "false",
        "ttl": "1200.0",
        "cpid": "1"
      }
    },
    {
      "type": "Feature",
      "geometry": {
        "type": "Point",
        "coordinates": [582.69995, -120.703],
        "size": [16, 16]
      },
      "properties": {
        "iconurl": "icons/mini_map/repairdepot.png",
        "iconrotate": "0",
        "popupContent": "Amazing information about Vehicle Depot will be found here!"
      },
      "bf2props": {
        "name": "cpname_silent_eagle_coop64_airfield_depot",
        "class": "ObjectSpawner",
        "name_object": "Vehicle Depot",
        "team": "1",
        "obj1": "vehicle_depot_ru",
        "obj2": "null",
        "maxspawn": "300.0",
        "minspawn": "300.0",
        "spawndelay": "false",
        "ttl": "1200.0",
        "cpid": "1"
      }
    },
    {
      "type": "Feature",
      "geometry": {
        "type": "Point",
        "coordinates": [592.927, -139.45801],
        "size": [16, 16]
      },
      "properties": {
        "iconurl": "icons/vehicles_map/mini_trk_logistics.png",
        "iconrotate": "-130.0",
        "popupContent": "Amazing information about Ural-4320 Logistics will be found here!"
      },
      "bf2props": {
        "name": "cpname_silent_eagle_coop64_airfield_logi",
        "class": "ObjectSpawner",
        "name_object": "Ural-4320 Logistics",
        "team": "1",
        "obj1": "ru_trk_logistics",
        "obj2": "null",
        "maxspawn": "300.0",
        "minspawn": "300.0",
        "spawndelay": "false",
        "ttl": "1200.0",
        "cpid": "1"
      }
    },
    {
      "type": "Feature",
      "geometry": {
        "type": "Point",
        "coordinates": [591.70605, -129.25903],
        "size": [16, 16]
      },
      "properties": {
        "iconurl": "icons/vehicles_map/mini_trk_logistics.png",
        "iconrotate": "-130.0",
        "popupContent": "Amazing information about Ural-4320 Logistics will be found here!"
      },
      "bf2props": {
        "name": "cpname_silent_eagle_coop64_airfield_logi_0",
        "class": "ObjectSpawner",
        "name_object": "Ural-4320 Logistics",
        "team": "1",
        "obj1": "ru_trk_logistics",
        "obj2": "null",
        "maxspawn": "300.0",
        "minspawn": "300.0",
        "spawndelay": "false",
        "ttl": "1200.0",
        "cpid": "1"
      }
    },
    {
      "type": "Feature",
      "geometry": {
        "type": "Point",
        "coordinates": [592.619, -133.95203],
        "size": [16, 16]
      },
      "properties": {
        "iconurl": "icons/vehicles_map/mini_trk_logistics.png",
        "iconrotate": "-130.0",
        "popupContent": "Amazing information about Ural-4320 Logistics will be found here!"
      },
      "bf2props": {
        "name": "cpname_silent_eagle_coop64_airfield_logi_1",
        "class": "ObjectSpawner",
        "name_object": "Ural-4320 Logistics",
        "team": "1",
        "obj1": "ru_trk_logistics",
        "obj2": "null",
        "maxspawn": "300.0",
        "minspawn": "300.0",
        "spawndelay": "false",
        "ttl": "1200.0",
        "cpid": "1"
      }
    },
    {
      "type": "Feature",
      "geometry": {
        "type": "Point",
        "coordinates": [409.59302, -1744.766],
        "size": [16, 16]
      },
      "properties": {
        "iconurl": "icons/vehicles_map/mini_trk_support.png",
        "iconrotate": "0.0",
        "popupContent": "Amazing information about Ural-4320 will be found here!"
      },
      "bf2props": {
        "name": "cpname_silent_eagle_coop64_powerplant_support",
        "class": "ObjectSpawner",
        "name_object": "Ural-4320",
        "team": "1",
        "obj1": "ru_trk_support",
        "obj2": "null",
        "maxspawn": "300.0",
        "minspawn": "300.0",
        "spawndelay": "false",
        "ttl": "1200.0",
        "cpid": "2"
      }
    },
    {
      "type": "Feature",
      "geometry": {
        "type": "Point",
        "coordinates": [413.29297, -1744.766],
        "size": [16, 16]
      },
      "properties": {
        "iconurl": "icons/vehicles_map/mini_trk_support.png",
        "iconrotate": "0.0",
        "popupContent": "Amazing information about Ural-4320 will be found here!"
      },
      "bf2props": {
        "name": "cpname_silent_eagle_coop64_powerplant_support_0",
        "class": "ObjectSpawner",
        "name_object": "Ural-4320",
        "team": "1",
        "obj1": "ru_trk_support",
        "obj2": "null",
        "maxspawn": "300.0",
        "minspawn": "300.0",
        "spawndelay": "false",
        "ttl": "1200.0",
        "cpid": "2"
      }
    },
    {
      "type": "Feature",
      "geometry": {
        "type": "Point",
        "coordinates": [2247.16, -3405.916],
        "size": [16, 16]
      },
      "properties": {
        "iconurl": "icons/vehicles_map/mini_the_light.png",
        "iconrotate": "156.0",
        "popupContent": "Amazing information about null will be found here!"
      },
      "bf2props": {
        "name": "cpname_silent_eagle_coop64_airport_trans",
        "class": "ObjectSpawner",
        "name_object": "Bell UH-1D",
        "team": "2",
        "obj1": "null",
        "obj2": "ger_the_uh1d_mg3",
        "maxspawn": "300.0",
        "minspawn": "300.0",
        "spawndelay": "false",
        "ttl": "1200.0",
        "cpid": "8"
      }
    },
    {
      "type": "Feature",
      "geometry": {
        "type": "Point",
        "coordinates": [2226.275, -3477.857],
        "size": [16, 16]
      },
      "properties": {
        "iconurl": "icons/mini_map/repairdepot.png",
        "iconrotate": "0",
        "popupContent": "Amazing information about null will be found here!"
      },
      "bf2props": {
        "name": "cpname_silent_eagle_coop64_airport_depot",
        "class": "ObjectSpawner",
        "name_object": "Vehicle Depot",
        "team": "2",
        "obj1": "null",
        "obj2": "vehicle_depot_ger",
        "maxspawn": "300.0",
        "minspawn": "300.0",
        "spawndelay": "false",
        "ttl": "1200.0",
        "cpid": "8"
      }
    },
    {
      "type": "Feature",
      "geometry": {
        "type": "Point",
        "coordinates": [2210.734, -3391.592],
        "size": [16, 16]
      },
      "properties": {
        "iconurl": "icons/vehicles_map/mini_jep_support.png",
        "iconrotate": "155.0",
        "popupContent": "Amazing information about null will be found here!"
      },
      "bf2props": {
        "name": "cpname_silent_eagle_coop64_airport_jeep",
        "class": "ObjectSpawner",
        "name_object": "Mercedes G-Wagen",
        "team": "2",
        "obj1": "null",
        "obj2": "ger_jep_gwagon_support_alt",
        "maxspawn": "300.0",
        "minspawn": "300.0",
        "spawndelay": "false",
        "ttl": "1200.0",
        "cpid": "8"
      }
    },
    {
      "type": "Feature",
      "geometry": {
        "type": "Point",
        "coordinates": [2202.872, -3395.258],
        "size": [16, 16]
      },
      "properties": {
        "iconurl": "icons/vehicles_map/mini_jep_support.png",
        "iconrotate": "155.0",
        "popupContent": "Amazing information about null will be found here!"
      },
      "bf2props": {
        "name": "cpname_silent_eagle_coop64_airport_jeep_0",
        "class": "ObjectSpawner",
        "name_object": "Mercedes G-Wagen",
        "team": "2",
        "obj1": "null",
        "obj2": "ger_jep_gwagon_support_alt",
        "maxspawn": "300.0",
        "minspawn": "300.0",
        "spawndelay": "false",
        "ttl": "1200.0",
        "cpid": "8"
      }
    },
    {
      "type": "Feature",
      "geometry": {
        "type": "Point",
        "coordinates": [2205.316, -3394.1182],
        "size": [16, 16]
      },
      "properties": {
        "iconurl": "icons/vehicles_map/mini_jep_support.png",
        "iconrotate": "155.0",
        "popupContent": "Amazing information about null will be found here!"
      },
      "bf2props": {
        "name": "cpname_silent_eagle_coop64_airport_jeep_1",
        "class": "ObjectSpawner",
        "name_object": "Mercedes G-Wagen",
        "team": "2",
        "obj1": "null",
        "obj2": "ger_jep_gwagon_support_alt",
        "maxspawn": "300.0",
        "minspawn": "300.0",
        "spawndelay": "false",
        "ttl": "1200.0",
        "cpid": "8"
      }
    },
    {
      "type": "Feature",
      "geometry": {
        "type": "Point",
        "coordinates": [2207.878, -3392.9238],
        "size": [16, 16]
      },
      "properties": {
        "iconurl": "icons/vehicles_map/mini_jep_support.png",
        "iconrotate": "155.0",
        "popupContent": "Amazing information about null will be found here!"
      },
      "bf2props": {
        "name": "cpname_silent_eagle_coop64_airport_jeep_2",
        "class": "ObjectSpawner",
        "name_object": "Mercedes G-Wagen",
        "team": "2",
        "obj1": "null",
        "obj2": "ger_jep_gwagon_support_alt",
        "maxspawn": "300.0",
        "minspawn": "300.0",
        "spawndelay": "false",
        "ttl": "1200.0",
        "cpid": "8"
      }
    },
    {
      "type": "Feature",
      "geometry": {
        "type": "Point",
        "coordinates": [2221.308, -3386.997],
        "size": [16, 16]
      },
      "properties": {
        "iconurl": "icons/vehicles_map/mini_trk_logistics.png",
        "iconrotate": "155.0",
        "popupContent": "Amazing information about null will be found here!"
      },
      "bf2props": {
        "name": "cpname_silent_eagle_coop64_airport_logi",
        "class": "ObjectSpawner",
        "name_object": "MAN SV Logistics",
        "team": "2",
        "obj1": "null",
        "obj2": "ger_trk_logistics",
        "maxspawn": "300.0",
        "minspawn": "300.0",
        "spawndelay": "false",
        "ttl": "1200.0",
        "cpid": "8"
      }
    },
    {
      "type": "Feature",
      "geometry": {
        "type": "Point",
        "coordinates": [2214.606, -3390.122],
        "size": [16, 16]
      },
      "properties": {
        "iconurl": "icons/vehicles_map/mini_trk_logistics.png",
        "iconrotate": "155.0",
        "popupContent": "Amazing information about null will be found here!"
      },
      "bf2props": {
        "name": "cpname_silent_eagle_coop64_airport_logi_0",
        "class": "ObjectSpawner",
        "name_object": "MAN SV Logistics",
        "team": "2",
        "obj1": "null",
        "obj2": "ger_trk_logistics",
        "maxspawn": "300.0",
        "minspawn": "300.0",
        "spawndelay": "false",
        "ttl": "1200.0",
        "cpid": "8"
      }
    },
    {
      "type": "Feature",
      "geometry": {
        "type": "Point",
        "coordinates": [2217.854, -3388.608],
        "size": [16, 16]
      },
      "properties": {
        "iconurl": "icons/vehicles_map/mini_trk_logistics.png",
        "iconrotate": "155.0",
        "popupContent": "Amazing information about null will be found here!"
      },
      "bf2props": {
        "name": "cpname_silent_eagle_coop64_airport_logi_1",
        "class": "ObjectSpawner",
        "name_object": "MAN SV Logistics",
        "team": "2",
        "obj1": "null",
        "obj2": "ger_trk_logistics",
        "maxspawn": "300.0",
        "minspawn": "300.0",
        "spawndelay": "false",
        "ttl": "1200.0",
        "cpid": "8"
      }
    },
    {
      "type": "Feature",
      "geometry": {
        "type": "Point",
        "coordinates": [2256.33, -3413.583],
        "size": [33, 33],
        "radius": "80.0"
      },
      "properties": {
        "iconurl": "icons/flags_map/ger/minimap_cp.png",
        "iconrotate": "0",
        "popupContent": "Amazing information about Abandoned Airfield will be found here!"
      },
      "bf2props": {
        "name": "cpname_silent_eagle_coop64_airport",
        "class": "ControlPoint",
        "name_object": "Abandoned Airfield",
        "team": "2",
        "areavalue1": "99999.0",
        "areavalue2": "20.0",
        "cpid": "8",
        "sgid": "6",
        "uncap": "false",
        "ttgc": "180.0",
        "ttlc": "180.0"
      }
    },
    {
      "type": "Feature",
      "geometry": {
        "type": "Point",
        "coordinates": [2048.857, -2825.4],
        "size": [33, 33],
        "radius": "150.0"
      },
      "properties": {
        "iconurl": "icons/flags_map/neutral/minimap_cp.png",
        "iconrotate": "0",
        "popupContent": "Amazing information about Logging House 150m will be found here!"
      },
      "bf2props": {
        "name": "cpname_silent_eagle_coop64_loggingshack",
        "class": "ControlPoint",
        "name_object": "Logging House 150m",
        "team": "0",
        "areavalue1": "1000.0",
        "areavalue2": "20.0",
        "cpid": "7",
        "sgid": "5",
        "uncap": "false",
        "ttgc": "180.0",
        "ttlc": "180.0"
      }
    },
    {
      "type": "Feature",
      "geometry": {
        "type": "Point",
        "coordinates": [2321.998, -2293.988],
        "size": [33, 33],
        "radius": "80.0"
      },
      "properties": {
        "iconurl": "icons/flags_map/neutral/minimap_cp.png",
        "iconrotate": "0",
        "popupContent": "Amazing information about South Village 80m will be found here!"
      },
      "bf2props": {
        "name": "cpname_silent_eagle_coop64_southtown",
        "class": "ControlPoint",
        "name_object": "South Village 80m",
        "team": "0",
        "areavalue1": "20.0",
        "areavalue2": "20.0",
        "cpid": "6",
        "sgid": "4",
        "uncap": "false",
        "ttgc": "180.0",
        "ttlc": "180.0"
      }
    },
    {
      "type": "Feature",
      "geometry": {
        "type": "Point",
        "coordinates": [2359.698, -2043.806],
        "size": [33, 33],
        "radius": "80.0"
      },
      "properties": {
        "iconurl": "icons/flags_map/neutral/minimap_cp.png",
        "iconrotate": "0",
        "popupContent": "Amazing information about North Village 80m will be found here!"
      },
      "bf2props": {
        "name": "cpname_silent_eagle_coop64_northtown",
        "class": "ControlPoint",
        "name_object": "North Village 80m",
        "team": "0",
        "areavalue1": "20.0",
        "areavalue2": "20.0",
        "cpid": "5",
        "sgid": "3",
        "uncap": "false",
        "ttgc": "180.0",
        "ttlc": "180.0"
      }
    },
    {
      "type": "Feature",
      "geometry": {
        "type": "Point",
        "coordinates": [2085.553, -1042.343],
        "size": [33, 33],
        "radius": "80.0"
      },
      "properties": {
        "iconurl": "icons/flags_map/ru/minimap_cp.png",
        "iconrotate": "0",
        "popupContent": "Amazing information about Missile Silo 80m will be found here!"
      },
      "bf2props": {
        "name": "cpname_silent_eagle_coop64_missilesilo",
        "class": "ControlPoint",
        "name_object": "Missile Silo 80m",
        "team": "1",
        "areavalue1": "20.0",
        "areavalue2": "20.0",
        "cpid": "4",
        "sgid": "2",
        "uncap": "false",
        "ttgc": "180.0",
        "ttlc": "180.0"
      }
    },
    {
      "type": "Feature",
      "geometry": {
        "type": "Point",
        "coordinates": [1523.852, -1778.179],
        "size": [33, 33],
        "radius": "150.0"
      },
      "properties": {
        "iconurl": "icons/flags_map/ru/minimap_cp.png",
        "iconrotate": "0",
        "popupContent": "Amazing information about Lake Objective 150m will be found here!"
      },
      "bf2props": {
        "name": "cpname_silent_eagle_coop64_northlake",
        "class": "ControlPoint",
        "name_object": "Lake Objective 150m",
        "team": "1",
        "areavalue1": "20.0",
        "areavalue2": "20.0",
        "cpid": "3",
        "sgid": "2",
        "uncap": "false",
        "ttgc": "180.0",
        "ttlc": "180.0"
      }
    },
    {
      "type": "Feature",
      "geometry": {
        "type": "Point",
        "coordinates": [674.31494, -1721.777],
        "size": [33, 33],
        "radius": "60.0"
      },
      "properties": {
        "iconurl": "icons/flags_map/ru/minimap_cp.png",
        "iconrotate": "0",
        "popupContent": "Amazing information about Power Plant 60m will be found here!"
      },
      "bf2props": {
        "name": "cpname_silent_eagle_coop64_powerplant",
        "class": "ControlPoint",
        "name_object": "Power Plant 60m",
        "team": "1",
        "areavalue1": "20.0",
        "areavalue2": "99999.0",
        "cpid": "2",
        "sgid": "1",
        "uncap": "false",
        "ttgc": "180.0",
        "ttlc": "180.0"
      }
    },
    {
      "type": "Feature",
      "geometry": {
        "type": "Point",
        "coordinates": [642.78296, -195.91296],
        "size": [33, 33],
        "radius": "0.0"
      },
      "properties": {
        "iconurl": "icons/flags_map/ru/minimap_cpbase.png",
        "iconrotate": "0",
        "popupContent": "Amazing information about Russian Airfield will be found here!"
      },
      "bf2props": {
        "name": "cpname_silent_eagle_coop64_airfield",
        "class": "ControlPoint",
        "name_object": "Russian Airfield",
        "team": "1",
        "areavalue1": "0.0",
        "areavalue2": "0.0",
        "cpid": "1",
        "sgid": "-999",
        "uncap": "true",
        "ttgc": "180.0",
        "ttlc": "180.0"
      }
    },
    {
      "type": "Feature",
      "geometry": {
        "type": "Polygon",
        "coordinates": [
          [
            [2662.5737, -810.1553],
            [2554.791, -6.699463],
            [4087.9844, 0.041503906],
            [4093.3684, -1258.5244],
            [3524.481, -1089.5686]
          ]
        ]
      },
      "bf2props": {
        "code": "combatarea_40_cp_layer_64",
        "class": "CombatArea",
        "team": "0",
        "vehicles": "4",
        "layer": "2",
        "inverted": "true",
        "max": [0.0, 0.0],
        "min": [0.0, 0.0]
      }
    },
    {
      "type": "Feature",
      "geometry": {
        "type": "Polygon",
        "coordinates": [
          [
            [0,0],
            [0,-4096],
            [4096,-4096],
            [4096,0]
          ],[
            [1298.8486, -2078.1582],
            [1579.0101, -2349.886],
            [1704.0742, -2625.0342],
            [1793.6467, -3250.19],
            [2039.3579, -3779.228],
            [2317.4028, -3887.907],
            [2633.3145, -3823.958],
            [2810.2683, -3634.1558],
            [2818.0974, -3271.3105],
            [2891.0837, -2068.6226],
            [2592.6116, -1057.7544],
            [1598.1339, -145.44067],
            [755.57275, -13.669189],
            [196.55908, -0.48120117],
            [196.41467, -175.05688],
            [52.80835, -174.5896],
            [51.600586, -417.65454],
            [279.09375, -1557.5476],
            [355.28333, -1903.0969],
            [556.4824, -1981.2859],
            [1047.984, -1952.8672]
          ]
        ]
      },
      "bf2props": {
        "code": "combatarea_69_default",
        "class": "CombatArea",
        "team": "0",
        "vehicles": "3",
        "layer": "1",
        "inverted": "false",
        "max": [0.0, 0.0],
        "min": [0.0, 0.0]
      }
    },
    {
      "type": "Feature",
      "geometry": {
        "type": "Polygon",
        "coordinates": [
          [
            [0,0],
            [0,-4096],
            [4096,-4096],
            [4096,0]
          ],[
            [3.0039062, -3.3510742],
            [0.040283203, -4095.8184],
            [4090.707, -4095.5986],
            [4096.0, -0.8959961]
          ]
        ]
      },
      "bf2props": {
        "code": "combatarea_90_default",
        "class": "CombatArea",
        "team": "0",
        "vehicles": "4",
        "layer": "1",
        "inverted": "false",
        "max": [0.0, 0.0],
        "min": [0.0, 0.0]
      }
    },
    {
      "type": "Feature",
      "geometry": {
        "type": "Polygon",
        "coordinates": [
          [
            [1.1921387, -1.6054688],
            [1.2489014, -1179.8372],
            [816.84814, -1009.501],
            [1742.536, -819.2446],
            [2179.8687, -682.2505],
            [1596.6754, -139.95337],
            [1488.2085, 2.7055664]
          ]
        ]
      },
      "bf2props": {
        "code": "combatarea_94_default",
        "class": "CombatArea",
        "team": "2",
        "vehicles": "4",
        "layer": "1",
        "inverted": "true",
        "max": [0.0, 0.0],
        "min": [0.0, 0.0]
      }
    }
  ]
}