{
  "team1":"ch",
  "team2":"gb",
  "team1tickets":"400",
  "team2tickets":"400",
  "mapsize":"4096",
  "viewdistance":"650",
  "combatareause":"true",
  "combatareadamage":"20.0",
  "combatareaallowoutside":"10.0",
  "routes": [
    [
      [
        "cpname_shijiavalley_coop64_chfarm"
      ],
      [
        "cpname_shijiavalley_coop64_oldtown"
      ],
      [
        "cpname_shijiavalley_coop64_trainfrieght",
        "cpname_shijiavalley_coop64_northcity"
      ],
      [
        "cpname_shijiavalley_coop64_farm"
      ],
      [
        "cpname_shijiavalley_coop64_airport"
      ],
      [
        "cpname_shijiavalley_coop64_lowervillage"
      ],
      [
        "cpname_shijiavalley_coop64_village"
      ],
      [
        "cpname_shijiavalley_coop64_mine"
      ],
      [
        "cpname_shijiavalley_coop64_gbmain"
      ]
    ]
  ],
  "type": "FeatureCollection",
  "features": [
    {
      "type": "Feature",
      "geometry": {
        "type": "Point",
        "coordinates": [177.77698, -314.375],
        "size": [16, 16]
      },
      "properties": {
        "iconurl": "icons/vehicles_map/mini_ahe_heavy.png",
        "iconrotate": "90.0",
        "popupContent": "Amazing information about null will be found here!"
      },
      "bf2props": {
        "name": "cpname_shijiavalley_coop64_gbmain_cas",
        "class": "ObjectSpawner",
        "name_object": "Apache AH1",
        "team": "2",
        "obj1": "null",
        "obj2": "gb_ahe_apache",
        "maxspawn": "600.0",
        "minspawn": "600.0",
        "spawndelay": "false",
        "ttl": "1200.0",
        "cpid": "1"
      }
    },
    {
      "type": "Feature",
      "geometry": {
        "type": "Point",
        "coordinates": [183.51099, -243.39905],
        "size": [16, 16]
      },
      "properties": {
        "iconurl": "icons/vehicles_map/mini_the_light.png",
        "iconrotate": "90.0",
        "popupContent": "Amazing information about null will be found here!"
      },
      "bf2props": {
        "name": "cpname_shijiavalley_coop64_gbmain_trans",
        "class": "ObjectSpawner",
        "name_object": "Lynx AH.7",
        "team": "2",
        "obj1": "null",
        "obj2": "gb_the_lynx_l7a2_alt",
        "maxspawn": "300.0",
        "minspawn": "300.0",
        "spawndelay": "false",
        "ttl": "1200.0",
        "cpid": "1"
      }
    },
    {
      "type": "Feature",
      "geometry": {
        "type": "Point",
        "coordinates": [184.5, -269.37402],
        "size": [16, 16]
      },
      "properties": {
        "iconurl": "icons/vehicles_map/mini_the_heavy_chinook.png",
        "iconrotate": "90.0",
        "popupContent": "Amazing information about null will be found here!"
      },
      "bf2props": {
        "name": "cpname_shijiavalley_coop64_gbmain_transporter",
        "class": "ObjectSpawner",
        "name_object": "Chinook HC.4",
        "team": "2",
        "obj1": "null",
        "obj2": "gb_the_chinook",
        "maxspawn": "300.0",
        "minspawn": "300.0",
        "spawndelay": "false",
        "ttl": "1200.0",
        "cpid": "1"
      }
    },
    {
      "type": "Feature",
      "geometry": {
        "type": "Point",
        "coordinates": [206.63904, -314.91504],
        "size": [16, 16]
      },
      "properties": {
        "iconurl": "icons/vehicles_map/mini_ahe_heavy.png",
        "iconrotate": "90.0",
        "popupContent": "Amazing information about null will be found here!"
      },
      "bf2props": {
        "name": "cpname_shijiavalley_coop64_gbmain_cas_sp",
        "class": "ObjectSpawner",
        "name_object": "Apache AH1",
        "team": "2",
        "obj1": "null",
        "obj2": "gb_ahe_apache_sp",
        "maxspawn": "450.0",
        "minspawn": "450.0",
        "spawndelay": "false",
        "ttl": "1200.0",
        "cpid": "1"
      }
    },
    {
      "type": "Feature",
      "geometry": {
        "type": "Point",
        "coordinates": [211.64502, -189.05396],
        "size": [16, 16]
      },
      "properties": {
        "iconurl": "icons/vehicles_map/mini_apc_medium.png",
        "iconrotate": "16.14",
        "popupContent": "Amazing information about null will be found here!"
      },
      "bf2props": {
        "name": "cpname_shijiavalley_coop64_gbmain_apc",
        "class": "ObjectSpawner",
        "name_object": "FV 510 Warrior",
        "team": "2",
        "obj1": "null",
        "obj2": "gb_apc_warrior",
        "maxspawn": "300.0",
        "minspawn": "300.0",
        "spawndelay": "false",
        "ttl": "1200.0",
        "cpid": "1"
      }
    },
    {
      "type": "Feature",
      "geometry": {
        "type": "Point",
        "coordinates": [237.81702, -206.61804],
        "size": [16, 16]
      },
      "properties": {
        "iconurl": "icons/mini_map/repairdepot.png",
        "iconrotate": "0",
        "popupContent": "Amazing information about null will be found here!"
      },
      "bf2props": {
        "name": "cpname_shijiavalley_coop64_gbmain_depot",
        "class": "ObjectSpawner",
        "name_object": "Vehicle Depot",
        "team": "2",
        "obj1": "null",
        "obj2": "vehicle_depot_gb",
        "maxspawn": "0.0",
        "minspawn": "0.0",
        "spawndelay": "false",
        "ttl": "0.0",
        "cpid": "1"
      }
    },
    {
      "type": "Feature",
      "geometry": {
        "type": "Point",
        "coordinates": [231.20105, -216.01697],
        "size": [16, 16]
      },
      "properties": {
        "iconurl": "icons/vehicles_map/mini_trk_logistics.png",
        "iconrotate": "0.0",
        "popupContent": "Amazing information about null will be found here!"
      },
      "bf2props": {
        "name": "cpname_shijiavalley_coop64_gbmain_support",
        "class": "ObjectSpawner",
        "name_object": "MAN SV Logistics",
        "team": "2",
        "obj1": "null",
        "obj2": "gb_trk_logistics",
        "maxspawn": "300.0",
        "minspawn": "300.0",
        "spawndelay": "false",
        "ttl": "1200.0",
        "cpid": "1"
      }
    },
    {
      "type": "Feature",
      "geometry": {
        "type": "Point",
        "coordinates": [214.84595, -194.29895],
        "size": [16, 16]
      },
      "properties": {
        "iconurl": "icons/vehicles_map/mini_apc_medium.png",
        "iconrotate": "19.627",
        "popupContent": "Amazing information about null will be found here!"
      },
      "bf2props": {
        "name": "cpname_shijiavalley_coop64_gbmain_apc_0",
        "class": "ObjectSpawner",
        "name_object": "FV 510 Warrior",
        "team": "2",
        "obj1": "null",
        "obj2": "gb_apc_warrior",
        "maxspawn": "300.0",
        "minspawn": "300.0",
        "spawndelay": "false",
        "ttl": "1200.0",
        "cpid": "1"
      }
    },
    {
      "type": "Feature",
      "geometry": {
        "type": "Point",
        "coordinates": [202.18994, -173.27197],
        "size": [16, 16]
      },
      "properties": {
        "iconurl": "icons/vehicles_map/mini_apc_medium.png",
        "iconrotate": "40.251",
        "popupContent": "Amazing information about null will be found here!"
      },
      "bf2props": {
        "name": "cpname_shijiavalley_coop64_gbmain_apc_1",
        "class": "ObjectSpawner",
        "name_object": "FV 510 Warrior",
        "team": "2",
        "obj1": "null",
        "obj2": "gb_apc_warrior_bf2",
        "maxspawn": "300.0",
        "minspawn": "300.0",
        "spawndelay": "false",
        "ttl": "1200.0",
        "cpid": "1"
      }
    },
    {
      "type": "Feature",
      "geometry": {
        "type": "Point",
        "coordinates": [200.33105, -168.12195],
        "size": [16, 16]
      },
      "properties": {
        "iconurl": "icons/vehicles_map/mini_apc_medium.png",
        "iconrotate": "40.251",
        "popupContent": "Amazing information about null will be found here!"
      },
      "bf2props": {
        "name": "cpname_shijiavalley_coop64_gbmain_apc_2",
        "class": "ObjectSpawner",
        "name_object": "FV 510 Warrior",
        "team": "2",
        "obj1": "null",
        "obj2": "gb_apc_warrior_bf2",
        "maxspawn": "300.0",
        "minspawn": "300.0",
        "spawndelay": "false",
        "ttl": "1200.0",
        "cpid": "1"
      }
    },
    {
      "type": "Feature",
      "geometry": {
        "type": "Point",
        "coordinates": [232.53699, -170.59998],
        "size": [16, 16]
      },
      "properties": {
        "iconurl": "icons/vehicles_map/mini_rec_medium.png",
        "iconrotate": "-90.0",
        "popupContent": "Amazing information about null will be found here!"
      },
      "bf2props": {
        "name": "cpname_shijiavalley_coop64_gbmain_jeep",
        "class": "ObjectSpawner",
        "name_object": "FV 107 Scimitar",
        "team": "2",
        "obj1": "null",
        "obj2": "gb_ifv_scimitar_bf2",
        "maxspawn": "300.0",
        "minspawn": "300.0",
        "spawndelay": "false",
        "ttl": "1200.0",
        "cpid": "1"
      }
    },
    {
      "type": "Feature",
      "geometry": {
        "type": "Point",
        "coordinates": [232.42603, -174.755],
        "size": [16, 16]
      },
      "properties": {
        "iconurl": "icons/vehicles_map/mini_rec_medium.png",
        "iconrotate": "-90.0",
        "popupContent": "Amazing information about null will be found here!"
      },
      "bf2props": {
        "name": "cpname_shijiavalley_coop64_gbmain_scimi",
        "class": "ObjectSpawner",
        "name_object": "FV 107 Scimitar",
        "team": "2",
        "obj1": "null",
        "obj2": "gb_ifv_scimitar_bf2",
        "maxspawn": "300.0",
        "minspawn": "300.0",
        "spawndelay": "false",
        "ttl": "1200.0",
        "cpid": "1"
      }
    },
    {
      "type": "Feature",
      "geometry": {
        "type": "Point",
        "coordinates": [231.73706, -189.35095],
        "size": [16, 16]
      },
      "properties": {
        "iconurl": "icons/vehicles_map/mini_jep_medium.png",
        "iconrotate": "-90.0",
        "popupContent": "Amazing information about null will be found here!"
      },
      "bf2props": {
        "name": "cpname_shijiavalley_coop64_gbmain_jeep_0",
        "class": "ObjectSpawner",
        "name_object": "Panther CLV",
        "team": "2",
        "obj1": "null",
        "obj2": "gb_jep_panther_alt",
        "maxspawn": "300.0",
        "minspawn": "300.0",
        "spawndelay": "false",
        "ttl": "1200.0",
        "cpid": "1"
      }
    },
    {
      "type": "Feature",
      "geometry": {
        "type": "Point",
        "coordinates": [231.81201, -184.99402],
        "size": [16, 16]
      },
      "properties": {
        "iconurl": "icons/vehicles_map/mini_jep_medium.png",
        "iconrotate": "-90.0",
        "popupContent": "Amazing information about null will be found here!"
      },
      "bf2props": {
        "name": "cpname_shijiavalley_coop64_gbmain_panther",
        "class": "ObjectSpawner",
        "name_object": "Panther CLV",
        "team": "2",
        "obj1": "null",
        "obj2": "gb_jep_panther_alt",
        "maxspawn": "300.0",
        "minspawn": "300.0",
        "spawndelay": "false",
        "ttl": "1200.0",
        "cpid": "1"
      }
    },
    {
      "type": "Feature",
      "geometry": {
        "type": "Point",
        "coordinates": [958.25, -1550.65],
        "size": [16, 16]
      },
      "properties": {
        "iconurl": "icons/vehicles_map/mini_stw_aa_medium.png",
        "iconrotate": "0.0",
        "popupContent": "Amazing information about zpu4 will be found here!"
      },
      "bf2props": {
        "name": "cpname_shijiavalley_coop64_village_aa",
        "class": "ObjectSpawner",
        "name_object": "zpu4",
        "team": "1",
        "obj1": "zpu4",
        "obj2": "null",
        "maxspawn": "1200.0",
        "minspawn": "1200.0",
        "spawndelay": "false",
        "ttl": "1200.0",
        "cpid": "3"
      }
    },
    {
      "type": "Feature",
      "geometry": {
        "type": "Point",
        "coordinates": [1412.5449, -2561.729],
        "size": [16, 16]
      },
      "properties": {
        "iconurl": "icons/vehicles_map/mini_stw_aa_medium.png",
        "iconrotate": "-91.524",
        "popupContent": "Amazing information about zpu4 will be found here!"
      },
      "bf2props": {
        "name": "cpname_shijiavalley_coop64_airport_aa",
        "class": "ObjectSpawner",
        "name_object": "zpu4",
        "team": "1",
        "obj1": "zpu4",
        "obj2": "null",
        "maxspawn": "1200.0",
        "minspawn": "1200.0",
        "spawndelay": "false",
        "ttl": "1200.0",
        "cpid": "5"
      }
    },
    {
      "type": "Feature",
      "geometry": {
        "type": "Point",
        "coordinates": [813.402, -3306.814],
        "size": [16, 16]
      },
      "properties": {
        "iconurl": "icons/vehicles_map/mini_stw_aa_medium.png",
        "iconrotate": "48.438",
        "popupContent": "Amazing information about zpu4 will be found here!"
      },
      "bf2props": {
        "name": "cpname_shijiavalley_coop64_trainfrieght_aa",
        "class": "ObjectSpawner",
        "name_object": "zpu4",
        "team": "1",
        "obj1": "zpu4",
        "obj2": "null",
        "maxspawn": "1200.0",
        "minspawn": "1200.0",
        "spawndelay": "false",
        "ttl": "1200.0",
        "cpid": "9"
      }
    },
    {
      "type": "Feature",
      "geometry": {
        "type": "Point",
        "coordinates": [839.004, -2960.416],
        "size": [16, 16]
      },
      "properties": {
        "iconurl": "icons/vehicles_map/mini_stw_aa_medium.png",
        "iconrotate": "-91.524",
        "popupContent": "Amazing information about zpu4 will be found here!"
      },
      "bf2props": {
        "name": "cpname_shijiavalley_coop64_northcity_aa",
        "class": "ObjectSpawner",
        "name_object": "zpu4",
        "team": "1",
        "obj1": "zpu4",
        "obj2": "null",
        "maxspawn": "1200.0",
        "minspawn": "1200.0",
        "spawndelay": "false",
        "ttl": "1200.0",
        "cpid": "10"
      }
    },
    {
      "type": "Feature",
      "geometry": {
        "type": "Point",
        "coordinates": [569.57605, -3211.387],
        "size": [16, 16]
      },
      "properties": {
        "iconurl": "icons/vehicles_map/mini_stw_aa_light.png",
        "iconrotate": "90.0",
        "popupContent": "Amazing information about igla_djigit will be found here!"
      },
      "bf2props": {
        "name": "cpname_shijiavalley_coop64_oldtown_aa",
        "class": "ObjectSpawner",
        "name_object": "igla_djigit",
        "team": "1",
        "obj1": "igla_djigit",
        "obj2": "null",
        "maxspawn": "600.0",
        "minspawn": "600.0",
        "spawndelay": "false",
        "ttl": "1200.0",
        "cpid": "7"
      }
    },
    {
      "type": "Feature",
      "geometry": {
        "type": "Point",
        "coordinates": [200.97803, -3500.3599],
        "size": [16, 16]
      },
      "properties": {
        "iconurl": "icons/vehicles_map/mini_tank_heavy.png",
        "iconrotate": "97.062",
        "popupContent": "Amazing information about ZTZ-98 will be found here!"
      },
      "bf2props": {
        "name": "cpname_shijiavalley_coop64_chfarm_tank",
        "class": "ObjectSpawner",
        "name_object": "ZTZ-98",
        "team": "1",
        "obj1": "ch_tnk_type98_bf2",
        "obj2": "null",
        "maxspawn": "600.0",
        "minspawn": "600.0",
        "spawndelay": "false",
        "ttl": "1200.0",
        "cpid": "8"
      }
    },
    {
      "type": "Feature",
      "geometry": {
        "type": "Point",
        "coordinates": [200.34705, -3489.011],
        "size": [16, 16]
      },
      "properties": {
        "iconurl": "icons/vehicles_map/mini_tank_heavy.png",
        "iconrotate": "97.062",
        "popupContent": "Amazing information about ZTZ-99A2 will be found here!"
      },
      "bf2props": {
        "name": "cpname_shijiavalley_coop64_chfarm_tank_0",
        "class": "ObjectSpawner",
        "name_object": "ZTZ-99A2",
        "team": "1",
        "obj1": "ch_tnk_ztz99",
        "obj2": "null",
        "maxspawn": "600.0",
        "minspawn": "600.0",
        "spawndelay": "false",
        "ttl": "1200.0",
        "cpid": "8"
      }
    },
    {
      "type": "Feature",
      "geometry": {
        "type": "Point",
        "coordinates": [200.93994, -3494.581],
        "size": [16, 16]
      },
      "properties": {
        "iconurl": "icons/vehicles_map/mini_tank_heavy.png",
        "iconrotate": "97.062",
        "popupContent": "Amazing information about ZTZ-98 will be found here!"
      },
      "bf2props": {
        "name": "cpname_shijiavalley_coop64_chfarm_tank_1",
        "class": "ObjectSpawner",
        "name_object": "ZTZ-98",
        "team": "1",
        "obj1": "ch_tnk_type98_bf2",
        "obj2": "null",
        "maxspawn": "600.0",
        "minspawn": "600.0",
        "spawndelay": "false",
        "ttl": "1200.0",
        "cpid": "8"
      }
    },
    {
      "type": "Feature",
      "geometry": {
        "type": "Point",
        "coordinates": [223.16296, -3466.362],
        "size": [16, 16]
      },
      "properties": {
        "iconurl": "icons/vehicles_map/mini_apc_heavy.png",
        "iconrotate": "-128.072",
        "popupContent": "Amazing information about Type 86G will be found here!"
      },
      "bf2props": {
        "name": "cpname_shijiavalley_coop64_chfarm_apc",
        "class": "ObjectSpawner",
        "name_object": "Type 86G",
        "team": "1",
        "obj1": "ch_ifv_type86",
        "obj2": "null",
        "maxspawn": "600.0",
        "minspawn": "600.0",
        "spawndelay": "false",
        "ttl": "1200.0",
        "cpid": "8"
      }
    },
    {
      "type": "Feature",
      "geometry": {
        "type": "Point",
        "coordinates": [203.47998, -3477.822],
        "size": [16, 16]
      },
      "properties": {
        "iconurl": "icons/vehicles_map/mini_apc_heavy.png",
        "iconrotate": "109.485",
        "popupContent": "Amazing information about Type 86G will be found here!"
      },
      "bf2props": {
        "name": "cpname_shijiavalley_coop64_chfarm_apc_0",
        "class": "ObjectSpawner",
        "name_object": "Type 86G",
        "team": "1",
        "obj1": "ch_ifv_type86_bf2",
        "obj2": "null",
        "maxspawn": "600.0",
        "minspawn": "600.0",
        "spawndelay": "false",
        "ttl": "1200.0",
        "cpid": "8"
      }
    },
    {
      "type": "Feature",
      "geometry": {
        "type": "Point",
        "coordinates": [201.74402, -3482.274],
        "size": [16, 16]
      },
      "properties": {
        "iconurl": "icons/vehicles_map/mini_apc_heavy.png",
        "iconrotate": "109.485",
        "popupContent": "Amazing information about Type 86G will be found here!"
      },
      "bf2props": {
        "name": "cpname_shijiavalley_coop64_chfarm_apc_1",
        "class": "ObjectSpawner",
        "name_object": "Type 86G",
        "team": "1",
        "obj1": "ch_ifv_type86_bf2",
        "obj2": "null",
        "maxspawn": "600.0",
        "minspawn": "600.0",
        "spawndelay": "false",
        "ttl": "1200.0",
        "cpid": "8"
      }
    },
    {
      "type": "Feature",
      "geometry": {
        "type": "Point",
        "coordinates": [223.88196, -3471.415],
        "size": [16, 16]
      },
      "properties": {
        "iconurl": "icons/vehicles_map/mini_apc_heavy.png",
        "iconrotate": "-128.072",
        "popupContent": "Amazing information about Type 86G will be found here!"
      },
      "bf2props": {
        "name": "cpname_shijiavalley_coop64_chfarm_apc_2",
        "class": "ObjectSpawner",
        "name_object": "Type 86G",
        "team": "1",
        "obj1": "ch_ifv_type86",
        "obj2": "null",
        "maxspawn": "600.0",
        "minspawn": "600.0",
        "spawndelay": "false",
        "ttl": "1200.0",
        "cpid": "8"
      }
    },
    {
      "type": "Feature",
      "geometry": {
        "type": "Point",
        "coordinates": [65.222046, -3551.0898],
        "size": [16, 16]
      },
      "properties": {
        "iconurl": "icons/vehicles_map/mini_trk_logistics.png",
        "iconrotate": "90.0",
        "popupContent": "Amazing information about EQ2080 Logistics will be found here!"
      },
      "bf2props": {
        "name": "cpname_shijiavalley_coop64_chfarm_logi",
        "class": "ObjectSpawner",
        "name_object": "EQ2080 Logistics",
        "team": "1",
        "obj1": "ch_trk_logistics",
        "obj2": "null",
        "maxspawn": "300.0",
        "minspawn": "300.0",
        "spawndelay": "false",
        "ttl": "1200.0",
        "cpid": "8"
      }
    },
    {
      "type": "Feature",
      "geometry": {
        "type": "Point",
        "coordinates": [65.222046, -3554.4648],
        "size": [16, 16]
      },
      "properties": {
        "iconurl": "icons/vehicles_map/mini_trk_logistics.png",
        "iconrotate": "90.0",
        "popupContent": "Amazing information about EQ2080 Logistics will be found here!"
      },
      "bf2props": {
        "name": "cpname_shijiavalley_coop64_chfarm_logi_0",
        "class": "ObjectSpawner",
        "name_object": "EQ2080 Logistics",
        "team": "1",
        "obj1": "ch_trk_logistics",
        "obj2": "null",
        "maxspawn": "300.0",
        "minspawn": "300.0",
        "spawndelay": "false",
        "ttl": "1200.0",
        "cpid": "8"
      }
    },
    {
      "type": "Feature",
      "geometry": {
        "type": "Point",
        "coordinates": [85.69104, -3560.4238],
        "size": [16, 16]
      },
      "properties": {
        "iconurl": "icons/vehicles_map/mini_jep_light.png",
        "iconrotate": "20.0",
        "popupContent": "Amazing information about Norinco FAV will be found here!"
      },
      "bf2props": {
        "name": "cpname_shijiavalley_coop64_chfarm_jeep",
        "class": "ObjectSpawner",
        "name_object": "Norinco FAV",
        "team": "1",
        "obj1": "ch_jep_paratrooper",
        "obj2": "null",
        "maxspawn": "300.0",
        "minspawn": "300.0",
        "spawndelay": "false",
        "ttl": "1200.0",
        "cpid": "8"
      }
    },
    {
      "type": "Feature",
      "geometry": {
        "type": "Point",
        "coordinates": [89.37805, -3559.857],
        "size": [16, 16]
      },
      "properties": {
        "iconurl": "icons/vehicles_map/mini_jep_light.png",
        "iconrotate": "20.0",
        "popupContent": "Amazing information about Norinco FAV will be found here!"
      },
      "bf2props": {
        "name": "cpname_shijiavalley_coop64_chfarm_jeep_0",
        "class": "ObjectSpawner",
        "name_object": "Norinco FAV",
        "team": "1",
        "obj1": "ch_jep_paratrooper",
        "obj2": "null",
        "maxspawn": "300.0",
        "minspawn": "300.0",
        "spawndelay": "false",
        "ttl": "1200.0",
        "cpid": "8"
      }
    },
    {
      "type": "Feature",
      "geometry": {
        "type": "Point",
        "coordinates": [78.65698, -3533.7222],
        "size": [16, 16]
      },
      "properties": {
        "iconurl": "icons/mini_map/uavtrailer.png",
        "iconrotate": "0",
        "popupContent": "Amazing information about UAV Terminal will be found here!"
      },
      "bf2props": {
        "name": "cpname_shijiavalley_coop64_chfarm_acv",
        "class": "ObjectSpawner",
        "name_object": "UAV Terminal",
        "team": "1",
        "obj1": "ch_acv_wz551",
        "obj2": "null",
        "maxspawn": "300.0",
        "minspawn": "300.0",
        "spawndelay": "false",
        "ttl": "1200.0",
        "cpid": "8"
      }
    },
    {
      "type": "Feature",
      "geometry": {
        "type": "Point",
        "coordinates": [60.322998, -3534.334],
        "size": [16, 16]
      },
      "properties": {
        "iconurl": "icons/mini_map/repairdepot.png",
        "iconrotate": "0",
        "popupContent": "Amazing information about Vehicle Depot will be found here!"
      },
      "bf2props": {
        "name": "cpname_shijiavalley_coop64_chfarm_depot",
        "class": "ObjectSpawner",
        "name_object": "Vehicle Depot",
        "team": "1",
        "obj1": "vehicle_depot_ch",
        "obj2": "null",
        "maxspawn": "0.0",
        "minspawn": "0.0",
        "spawndelay": "false",
        "ttl": "0.0",
        "cpid": "8"
      }
    },
    {
      "type": "Feature",
      "geometry": {
        "type": "Point",
        "coordinates": [560.599, -3128.1719],
        "size": [16, 16]
      },
      "properties": {
        "iconurl": "icons/player_map/mini_squad.png",
        "iconrotate": "0",
        "popupContent": "Amazing information about Permanent spawnpoint will be found here!"
      },
      "bf2props": {
        "name": "cpname_shijiavalley_coop64_oldtown_rally",
        "class": "ObjectSpawner",
        "name_object": "Permanent spawnpoint | Permanent spawnpoint",
        "team": "1",
        "obj1": "rallypoint_ch_placeable_noexpire",
        "obj2": "rallypoint_gb_placeable_noexpire",
        "maxspawn": "99999.0",
        "minspawn": "99999.0",
        "spawndelay": "false",
        "ttl": "99999.0",
        "cpid": "7"
      }
    },
    {
      "type": "Feature",
      "geometry": {
        "type": "Point",
        "coordinates": [824.51, -2908.439],
        "size": [16, 16]
      },
      "properties": {
        "iconurl": "icons/player_map/mini_squad.png",
        "iconrotate": "0",
        "popupContent": "Amazing information about Permanent spawnpoint will be found here!"
      },
      "bf2props": {
        "name": "cpname_shijiavalley_coop64_northcity_rally",
        "class": "ObjectSpawner",
        "name_object": "Permanent spawnpoint | Permanent spawnpoint",
        "team": "1",
        "obj1": "rallypoint_ch_placeable_noexpire",
        "obj2": "rallypoint_gb_placeable_noexpire",
        "maxspawn": "99999.0",
        "minspawn": "99999.0",
        "spawndelay": "false",
        "ttl": "99999.0",
        "cpid": "10"
      }
    },
    {
      "type": "Feature",
      "geometry": {
        "type": "Point",
        "coordinates": [875.52795, -3285.886],
        "size": [16, 16]
      },
      "properties": {
        "iconurl": "icons/player_map/mini_squad.png",
        "iconrotate": "0",
        "popupContent": "Amazing information about Permanent spawnpoint will be found here!"
      },
      "bf2props": {
        "name": "cpname_shijiavalley_coop64_trainfrieght_rally",
        "class": "ObjectSpawner",
        "name_object": "Permanent spawnpoint | Permanent spawnpoint",
        "team": "1",
        "obj1": "rallypoint_ch_placeable_noexpire",
        "obj2": "rallypoint_gb_placeable_noexpire",
        "maxspawn": "99999.0",
        "minspawn": "99999.0",
        "spawndelay": "false",
        "ttl": "99999.0",
        "cpid": "9"
      }
    },
    {
      "type": "Feature",
      "geometry": {
        "type": "Point",
        "coordinates": [1421.067, -2569.98],
        "size": [16, 16]
      },
      "properties": {
        "iconurl": "icons/player_map/mini_squad.png",
        "iconrotate": "0",
        "popupContent": "Amazing information about Permanent spawnpoint will be found here!"
      },
      "bf2props": {
        "name": "cpname_shijiavalley_coop64_airport_rally",
        "class": "ObjectSpawner",
        "name_object": "Permanent spawnpoint | Permanent spawnpoint",
        "team": "1",
        "obj1": "rallypoint_ch_placeable_noexpire",
        "obj2": "rallypoint_gb_placeable_noexpire",
        "maxspawn": "99999.0",
        "minspawn": "99999.0",
        "spawndelay": "false",
        "ttl": "99999.0",
        "cpid": "5"
      }
    },
    {
      "type": "Feature",
      "geometry": {
        "type": "Point",
        "coordinates": [914.74, -1581.031],
        "size": [16, 16]
      },
      "properties": {
        "iconurl": "icons/player_map/mini_squad.png",
        "iconrotate": "0",
        "popupContent": "Amazing information about Permanent spawnpoint will be found here!"
      },
      "bf2props": {
        "name": "cpname_shijiavalley_coop64_village_rally",
        "class": "ObjectSpawner",
        "name_object": "Permanent spawnpoint | Permanent spawnpoint",
        "team": "1",
        "obj1": "rallypoint_ch_placeable_noexpire",
        "obj2": "rallypoint_gb_placeable_noexpire",
        "maxspawn": "99999.0",
        "minspawn": "99999.0",
        "spawndelay": "false",
        "ttl": "99999.0",
        "cpid": "3"
      }
    },
    {
      "type": "Feature",
      "geometry": {
        "type": "Point",
        "coordinates": [566.98, -824.47595],
        "size": [16, 16]
      },
      "properties": {
        "iconurl": "icons/player_map/mini_squad.png",
        "iconrotate": "0",
        "popupContent": "Amazing information about Permanent spawnpoint will be found here!"
      },
      "bf2props": {
        "name": "cpname_shijiavalley_coop64_mine_rally",
        "class": "ObjectSpawner",
        "name_object": "Permanent spawnpoint | Permanent spawnpoint",
        "team": "2",
        "obj1": "rallypoint_ch_placeable_noexpire",
        "obj2": "rallypoint_gb_placeable_noexpire",
        "maxspawn": "99999.0",
        "minspawn": "99999.0",
        "spawndelay": "false",
        "ttl": "99999.0",
        "cpid": "2"
      }
    },
    {
      "type": "Feature",
      "geometry": {
        "type": "Point",
        "coordinates": [239.95496, -266.05396],
        "size": [16, 16]
      },
      "properties": {
        "iconurl": "icons/mini_map/uavtrailer.png",
        "iconrotate": "0",
        "popupContent": "Amazing information about null will be found here!"
      },
      "bf2props": {
        "name": "cpname_shijiavalley_coop64_gbmain_acv",
        "class": "ObjectSpawner",
        "name_object": "UAV Terminal",
        "team": "2",
        "obj1": "null",
        "obj2": "gb_acv_sultan",
        "maxspawn": "0.0",
        "minspawn": "0.0",
        "spawndelay": "false",
        "ttl": "0.0",
        "cpid": "1"
      }
    },
    {
      "type": "Feature",
      "geometry": {
        "type": "Point",
        "coordinates": [78.34204, -3561.217],
        "size": [16, 16]
      },
      "properties": {
        "iconurl": "icons/vehicles_map/mini_jep_support.png",
        "iconrotate": "20.0",
        "popupContent": "Amazing information about BJ2020 will be found here!"
      },
      "bf2props": {
        "name": "cpname_shijiavalley_coop64_chfarm_jeep_1",
        "class": "ObjectSpawner",
        "name_object": "BJ2020",
        "team": "1",
        "obj1": "ch_jep_uaz",
        "obj2": "null",
        "maxspawn": "300.0",
        "minspawn": "300.0",
        "spawndelay": "false",
        "ttl": "1200.0",
        "cpid": "8"
      }
    },
    {
      "type": "Feature",
      "geometry": {
        "type": "Point",
        "coordinates": [82.02905, -3560.65],
        "size": [16, 16]
      },
      "properties": {
        "iconurl": "icons/vehicles_map/mini_jep_light.png",
        "iconrotate": "20.0",
        "popupContent": "Amazing information about Norinco FAV will be found here!"
      },
      "bf2props": {
        "name": "cpname_shijiavalley_coop64_chfarm_jeep_2",
        "class": "ObjectSpawner",
        "name_object": "Norinco FAV",
        "team": "1",
        "obj1": "ch_jep_paratrooper",
        "obj2": "null",
        "maxspawn": "300.0",
        "minspawn": "300.0",
        "spawndelay": "false",
        "ttl": "1200.0",
        "cpid": "8"
      }
    },
    {
      "type": "Feature",
      "geometry": {
        "type": "Point",
        "coordinates": [218.229, -200.01697],
        "size": [16, 16]
      },
      "properties": {
        "iconurl": "icons/vehicles_map/mini_apc_medium.png",
        "iconrotate": "19.627",
        "popupContent": "Amazing information about null will be found here!"
      },
      "bf2props": {
        "name": "cpname_shijiavalley_coop64_gbmain_warrior",
        "class": "ObjectSpawner",
        "name_object": "FV 510 Warrior",
        "team": "2",
        "obj1": "null",
        "obj2": "gb_apc_warrior",
        "maxspawn": "300.0",
        "minspawn": "300.0",
        "spawndelay": "false",
        "ttl": "1200.0",
        "cpid": "1"
      }
    },
    {
      "type": "Feature",
      "geometry": {
        "type": "Point",
        "coordinates": [234.55298, -193.86804],
        "size": [16, 16]
      },
      "properties": {
        "iconurl": "icons/vehicles_map/mini_trk_support.png",
        "iconrotate": "-90.0",
        "popupContent": "Amazing information about null will be found here!"
      },
      "bf2props": {
        "name": "cpname_shijiavalley_coop64_gbmain_support_0",
        "class": "ObjectSpawner",
        "name_object": "MAN Support Vehicle",
        "team": "2",
        "obj1": "null",
        "obj2": "gb_trk_support",
        "maxspawn": "300.0",
        "minspawn": "300.0",
        "spawndelay": "false",
        "ttl": "1200.0",
        "cpid": "1"
      }
    },
    {
      "type": "Feature",
      "geometry": {
        "type": "Point",
        "coordinates": [238.55896, -199.39502],
        "size": [33, 33],
        "radius": "0.0"
      },
      "properties": {
        "iconurl": "icons/flags_map/gb/minimap_cpbase.png",
        "iconrotate": "0",
        "popupContent": "Amazing information about British Deployment Area will be found here!"
      },
      "bf2props": {
        "name": "cpname_shijiavalley_coop64_gbmain",
        "class": "ControlPoint",
        "name_object": "British Deployment Area",
        "team": "2",
        "areavalue1": "0.0",
        "areavalue2": "0.0",
        "cpid": "1",
        "sgid": "9",
        "uncap": "true",
        "ttgc": "120.0",
        "ttlc": "120.0"
      }
    },
    {
      "type": "Feature",
      "geometry": {
        "type": "Point",
        "coordinates": [575.181, -803.329],
        "size": [33, 33],
        "radius": "100.0"
      },
      "properties": {
        "iconurl": "icons/flags_map/gb/minimap_cp.png",
        "iconrotate": "0",
        "popupContent": "Amazing information about Uranium Mine 100m will be found here!"
      },
      "bf2props": {
        "name": "cpname_shijiavalley_coop64_mine",
        "class": "ControlPoint",
        "name_object": "Uranium Mine 100m",
        "team": "2",
        "areavalue1": "300.0",
        "areavalue2": "0.0",
        "cpid": "2",
        "sgid": "8",
        "uncap": "false",
        "ttgc": "120.0",
        "ttlc": "120.0"
      }
    },
    {
      "type": "Feature",
      "geometry": {
        "type": "Point",
        "coordinates": [956.07104, -1614.145],
        "size": [33, 33],
        "radius": "80.0"
      },
      "properties": {
        "iconurl": "icons/flags_map/ch/minimap_cp.png",
        "iconrotate": "0",
        "popupContent": "Amazing information about Mijiapo 80m will be found here!"
      },
      "bf2props": {
        "name": "cpname_shijiavalley_coop64_village",
        "class": "ControlPoint",
        "name_object": "Mijiapo 80m",
        "team": "1",
        "areavalue1": "0.0",
        "areavalue2": "0.0",
        "cpid": "3",
        "sgid": "7",
        "uncap": "false",
        "ttgc": "120.0",
        "ttlc": "120.0"
      }
    },
    {
      "type": "Feature",
      "geometry": {
        "type": "Point",
        "coordinates": [1097.398, -2044.344],
        "size": [33, 33],
        "radius": "100.0"
      },
      "properties": {
        "iconurl": "icons/flags_map/ch/minimap_cp.png",
        "iconrotate": "0",
        "popupContent": "Amazing information about Mijiapo Outskirts 100m will be found here!"
      },
      "bf2props": {
        "name": "cpname_shijiavalley_coop64_lowervillage",
        "class": "ControlPoint",
        "name_object": "Mijiapo Outskirts 100m",
        "team": "1",
        "areavalue1": "0.0",
        "areavalue2": "0.0",
        "cpid": "4",
        "sgid": "6",
        "uncap": "false",
        "ttgc": "120.0",
        "ttlc": "120.0"
      }
    },
    {
      "type": "Feature",
      "geometry": {
        "type": "Point",
        "coordinates": [1391.876, -2503.805],
        "size": [33, 33],
        "radius": "100.0"
      },
      "properties": {
        "iconurl": "icons/flags_map/ch/minimap_cp.png",
        "iconrotate": "0",
        "popupContent": "Amazing information about Airport 100m will be found here!"
      },
      "bf2props": {
        "name": "cpname_shijiavalley_coop64_airport",
        "class": "ControlPoint",
        "name_object": "Airport 100m",
        "team": "1",
        "areavalue1": "0.0",
        "areavalue2": "0.0",
        "cpid": "5",
        "sgid": "5",
        "uncap": "false",
        "ttgc": "120.0",
        "ttlc": "120.0"
      }
    },
    {
      "type": "Feature",
      "geometry": {
        "type": "Point",
        "coordinates": [1339.4031, -3041.363],
        "size": [33, 33],
        "radius": "100.0"
      },
      "properties": {
        "iconurl": "icons/flags_map/ch/minimap_cp.png",
        "iconrotate": "0",
        "popupContent": "Amazing information about Farm 100m will be found here!"
      },
      "bf2props": {
        "name": "cpname_shijiavalley_coop64_farm",
        "class": "ControlPoint",
        "name_object": "Farm 100m",
        "team": "1",
        "areavalue1": "0.0",
        "areavalue2": "0.0",
        "cpid": "6",
        "sgid": "4",
        "uncap": "false",
        "ttgc": "120.0",
        "ttlc": "120.0"
      }
    },
    {
      "type": "Feature",
      "geometry": {
        "type": "Point",
        "coordinates": [584.86804, -3126.664],
        "size": [33, 33],
        "radius": "75.0"
      },
      "properties": {
        "iconurl": "icons/flags_map/ch/minimap_cp.png",
        "iconrotate": "0",
        "popupContent": "Amazing information about Old Town 75m will be found here!"
      },
      "bf2props": {
        "name": "cpname_shijiavalley_coop64_oldtown",
        "class": "ControlPoint",
        "name_object": "Old Town 75m",
        "team": "1",
        "areavalue1": "0.0",
        "areavalue2": "99999.0",
        "cpid": "7",
        "sgid": "2",
        "uncap": "false",
        "ttgc": "120.0",
        "ttlc": "120.0"
      }
    },
    {
      "type": "Feature",
      "geometry": {
        "type": "Point",
        "coordinates": [177.26794, -3551.9722],
        "size": [33, 33],
        "radius": "0.0"
      },
      "properties": {
        "iconurl": "icons/flags_map/ch/minimap_cpbase.png",
        "iconrotate": "0",
        "popupContent": "Amazing information about PLA Operations will be found here!"
      },
      "bf2props": {
        "name": "cpname_shijiavalley_coop64_chfarm",
        "class": "ControlPoint",
        "name_object": "PLA Operations",
        "team": "1",
        "areavalue1": "0.0",
        "areavalue2": "0.0",
        "cpid": "8",
        "sgid": "1",
        "uncap": "true",
        "ttgc": "120.0",
        "ttlc": "120.0"
      }
    },
    {
      "type": "Feature",
      "geometry": {
        "type": "Point",
        "coordinates": [902.405, -3244.79],
        "size": [33, 33],
        "radius": "80.0"
      },
      "properties": {
        "iconurl": "icons/flags_map/ch/minimap_cp.png",
        "iconrotate": "0",
        "popupContent": "Amazing information about South Zhouying City 80m will be found here!"
      },
      "bf2props": {
        "name": "cpname_shijiavalley_coop64_trainfrieght",
        "class": "ControlPoint",
        "name_object": "South Zhouying City 80m",
        "team": "1",
        "areavalue1": "0.0",
        "areavalue2": "0.0",
        "cpid": "9",
        "sgid": "3",
        "uncap": "false",
        "ttgc": "120.0",
        "ttlc": "120.0"
      }
    },
    {
      "type": "Feature",
      "geometry": {
        "type": "Point",
        "coordinates": [873.776, -2945.742],
        "size": [33, 33],
        "radius": "70.0"
      },
      "properties": {
        "iconurl": "icons/flags_map/ch/minimap_cp.png",
        "iconrotate": "0",
        "popupContent": "Amazing information about North Zhouying City 70m will be found here!"
      },
      "bf2props": {
        "name": "cpname_shijiavalley_coop64_northcity",
        "class": "ControlPoint",
        "name_object": "North Zhouying City 70m",
        "team": "1",
        "areavalue1": "0.0",
        "areavalue2": "0.0",
        "cpid": "10",
        "sgid": "3",
        "uncap": "false",
        "ttgc": "120.0",
        "ttlc": "120.0"
      }
    },
    {
      "type": "Feature",
      "geometry": {
        "type": "Polygon",
        "coordinates": [
          [
            [0,0],
            [0,-4096],
            [4096,-4096],
            [4096,0]
          ],[
            [2.8149414, -4.838379],
            [2.1639404, -4093.697],
            [1694.4774, -4093.6836],
            [1609.9131, -2995.9512],
            [1596.8245, -2675.3457],
            [1628.0697, -2391.6843],
            [1535.5889, -1980.2036],
            [1600.8875, -1669.9885],
            [1413.4263, -1003.57007],
            [1207.8593, -587.8408],
            [746.0813, -145.64526],
            [4093.7612, -2.9399414],
            [744.86816, -145.22607],
            [409.1101, -9.529297]
          ]
        ]
      },
      "bf2props": {
        "code": "combatarea_89_default",
        "class": "CombatArea",
        "team": "0",
        "vehicles": "4",
        "layer": "1",
        "inverted": "false",
        "max": [0.0, 0.0],
        "min": [0.0, 0.0]
      }
    },
    {
      "type": "Feature",
      "geometry": {
        "type": "Polygon",
        "coordinates": [
          [
            [743.85364, -144.05127],
            [409.40332, -6.8220215],
            [1.9753418, -4.480957],
            [1.154541, -683.52954],
            [288.70837, -664.8513],
            [484.91284, -488.85278]
          ]
        ]
      },
      "bf2props": {
        "code": "combatarea_14_default",
        "class": "CombatArea",
        "team": "1",
        "vehicles": "4",
        "layer": "1",
        "inverted": "true",
        "max": [0.0, 0.0],
        "min": [0.0, 0.0]
      }
    },
    {
      "type": "Feature",
      "geometry": {
        "type": "Polygon",
        "coordinates": [
          [
            [1.3222656, -4094.1753],
            [2.8066406, -3144.7148],
            [253.34546, -3151.5017],
            [565.1669, -3300.3345],
            [745.1057, -3546.7988],
            [791.3767, -4092.6064]
          ]
        ]
      },
      "bf2props": {
        "code": "combatarea_20_default",
        "class": "CombatArea",
        "team": "2",
        "vehicles": "4",
        "layer": "1",
        "inverted": "true",
        "max": [0.0, 0.0],
        "min": [0.0, 0.0]
      }
    }
  ]
}