{
  "team1":"ch",
  "team2":"gb",
  "team1tickets":"400",
  "team2tickets":"400",
  "mapsize":"4096",
  "viewdistance":"650",
  "combatareause":"true",
  "combatareadamage":"20.0",
  "combatareaallowoutside":"10.0",
  "routes": [
    [
      [
        "cpname_shijiavalley_skirmish16_temple"
      ],
      [
        "cpname_shijiavalley_skirmish16_obj1"
      ],
      [
        "cpname_shijiavalley_skirmish16_obj2"
      ],
      [
        "cpname_shijiavalley_skirmish16_obj3"
      ],
      [
        "cpname_shijiavalley_skirmish16_obj4"
      ],
      [
        "cpname_shijiavalley_skirmish16_obj5"
      ],
      [
        "cpname_shijiavalley_skirmish16_govtbuilding"
      ]
    ],
    [
      [
        "cpname_shijiavalley_skirmish16_temple"
      ],
      [
        "cpname_shijiavalley_skirmish16_2obj1"
      ],
      [
        "cpname_shijiavalley_skirmish16_2obj2"
      ],
      [
        "cpname_shijiavalley_skirmish16_2obj3"
      ],
      [
        "cpname_shijiavalley_skirmish16_govtbuilding"
      ]
    ]
  ],
  "type": "FeatureCollection",
  "features": [
    {
      "type": "Feature",
      "geometry": {
        "type": "Point",
        "coordinates": [983.713, -2980.607],
        "size": [16, 16]
      },
      "properties": {
        "iconurl": "icons/mini_map/icon_supply.png",
        "iconrotate": "0",
        "popupContent": "Amazing information about null will be found here!"
      },
      "bf2props": {
        "name": "cpname_shijiavalley_skirmish16_govtbuilding_crate",
        "class": "ObjectSpawner",
        "name_object": "Permanent supply crate",
        "team": "2",
        "obj1": "null",
        "obj2": "fixed_supply_crate",
        "maxspawn": "0.0",
        "minspawn": "60.0",
        "spawndelay": "false",
        "ttl": "99999.0",
        "cpid": "1"
      }
    },
    {
      "type": "Feature",
      "geometry": {
        "type": "Point",
        "coordinates": [500.75598, -2926.816],
        "size": [16, 16]
      },
      "properties": {
        "iconurl": "icons/mini_map/icon_supply.png",
        "iconrotate": "0",
        "popupContent": "Amazing information about Permanent supply crate will be found here!"
      },
      "bf2props": {
        "name": "cpname_shijiavalley_skirmish16_temple_crate",
        "class": "ObjectSpawner",
        "name_object": "Permanent supply crate",
        "team": "1",
        "obj1": "fixed_supply_crate",
        "obj2": "null",
        "maxspawn": "0.0",
        "minspawn": "60.0",
        "spawndelay": "false",
        "ttl": "99999.0",
        "cpid": "504"
      }
    },
    {
      "type": "Feature",
      "geometry": {
        "type": "Point",
        "coordinates": [977.251, -2980.717],
        "size": [16, 16]
      },
      "properties": {
        "iconurl": "icons/mini_map/icon_supply.png",
        "iconrotate": "0",
        "popupContent": "Amazing information about null will be found here!"
      },
      "bf2props": {
        "name": "cpname_shijiavalley_skirmish16_govtbuilding_crate_0",
        "class": "ObjectSpawner",
        "name_object": "Permanent supply crate",
        "team": "2",
        "obj1": "null",
        "obj2": "fixed_supply_crate",
        "maxspawn": "0.0",
        "minspawn": "60.0",
        "spawndelay": "false",
        "ttl": "99999.0",
        "cpid": "1"
      }
    },
    {
      "type": "Feature",
      "geometry": {
        "type": "Point",
        "coordinates": [481.36304, -2936.185],
        "size": [16, 16]
      },
      "properties": {
        "iconurl": "icons/mini_map/icon_supply.png",
        "iconrotate": "0",
        "popupContent": "Amazing information about Permanent supply crate will be found here!"
      },
      "bf2props": {
        "name": "cpname_shijiavalley_skirmish16_temple_crate_0",
        "class": "ObjectSpawner",
        "name_object": "Permanent supply crate",
        "team": "1",
        "obj1": "fixed_supply_crate",
        "obj2": "null",
        "maxspawn": "0.0",
        "minspawn": "60.0",
        "spawndelay": "false",
        "ttl": "99999.0",
        "cpid": "504"
      }
    },
    {
      "type": "Feature",
      "geometry": {
        "type": "Point",
        "coordinates": [774.77, -3143.969],
        "size": [16, 16]
      },
      "properties": {
        "iconurl": "icons/mini_map/icon_supply.png",
        "iconrotate": "0",
        "popupContent": "Amazing information about Permanent supply crate will be found here!"
      },
      "bf2props": {
        "name": "cpname_shijiavalley_skirmish16_obj4_crate",
        "class": "ObjectSpawner",
        "name_object": "Permanent supply crate | Permanent supply crate",
        "team": "0",
        "obj1": "fixed_supply_crate",
        "obj2": "fixed_supply_crate",
        "maxspawn": "0.0",
        "minspawn": "0.0",
        "spawndelay": "false",
        "ttl": "0.0",
        "cpid": "501"
      }
    },
    {
      "type": "Feature",
      "geometry": {
        "type": "Point",
        "coordinates": [565.64795, -3051.823],
        "size": [16, 16]
      },
      "properties": {
        "iconurl": "icons/mini_map/icon_supply.png",
        "iconrotate": "0",
        "popupContent": "Amazing information about Permanent supply crate will be found here!"
      },
      "bf2props": {
        "name": "cpname_shijiavalley_skirmish16_obj1_crate",
        "class": "ObjectSpawner",
        "name_object": "Permanent supply crate | Permanent supply crate",
        "team": "0",
        "obj1": "fixed_supply_crate",
        "obj2": "fixed_supply_crate",
        "maxspawn": "0.0",
        "minspawn": "0.0",
        "spawndelay": "false",
        "ttl": "0.0",
        "cpid": "506"
      }
    },
    {
      "type": "Feature",
      "geometry": {
        "type": "Point",
        "coordinates": [620.948, -3164.482],
        "size": [16, 16]
      },
      "properties": {
        "iconurl": "icons/mini_map/icon_supply.png",
        "iconrotate": "0",
        "popupContent": "Amazing information about Permanent supply crate will be found here!"
      },
      "bf2props": {
        "name": "cpname_shijiavalley_skirmish16_obj2_crate",
        "class": "ObjectSpawner",
        "name_object": "Permanent supply crate | Permanent supply crate",
        "team": "0",
        "obj1": "fixed_supply_crate",
        "obj2": "fixed_supply_crate",
        "maxspawn": "0.0",
        "minspawn": "0.0",
        "spawndelay": "false",
        "ttl": "0.0",
        "cpid": "507"
      }
    },
    {
      "type": "Feature",
      "geometry": {
        "type": "Point",
        "coordinates": [687.56995, -3004.594],
        "size": [16, 16]
      },
      "properties": {
        "iconurl": "icons/mini_map/icon_supply.png",
        "iconrotate": "0",
        "popupContent": "Amazing information about Permanent supply crate will be found here!"
      },
      "bf2props": {
        "name": "cpname_shijiavalley_skirmish16_obj3_crate",
        "class": "ObjectSpawner",
        "name_object": "Permanent supply crate | Permanent supply crate",
        "team": "0",
        "obj1": "fixed_supply_crate",
        "obj2": "fixed_supply_crate",
        "maxspawn": "0.0",
        "minspawn": "0.0",
        "spawndelay": "false",
        "ttl": "0.0",
        "cpid": "508"
      }
    },
    {
      "type": "Feature",
      "geometry": {
        "type": "Point",
        "coordinates": [812.77, -2958.957],
        "size": [16, 16]
      },
      "properties": {
        "iconurl": "icons/mini_map/icon_supply.png",
        "iconrotate": "0",
        "popupContent": "Amazing information about Permanent supply crate will be found here!"
      },
      "bf2props": {
        "name": "cpname_shijiavalley_skirmish16_obj5_crate",
        "class": "ObjectSpawner",
        "name_object": "Permanent supply crate | Permanent supply crate",
        "team": "0",
        "obj1": "fixed_supply_crate",
        "obj2": "fixed_supply_crate",
        "maxspawn": "0.0",
        "minspawn": "0.0",
        "spawndelay": "false",
        "ttl": "0.0",
        "cpid": "502"
      }
    },
    {
      "type": "Feature",
      "geometry": {
        "type": "Point",
        "coordinates": [578.62805, -3094.633],
        "size": [16, 16]
      },
      "properties": {
        "iconurl": "icons/mini_map/icon_supply.png",
        "iconrotate": "0",
        "popupContent": "Amazing information about Permanent supply crate will be found here!"
      },
      "bf2props": {
        "name": "cpname_shijiavalley_skirmish16_2obj1_crate",
        "class": "ObjectSpawner",
        "name_object": "Permanent supply crate | Permanent supply crate",
        "team": "0",
        "obj1": "fixed_supply_crate",
        "obj2": "fixed_supply_crate",
        "maxspawn": "0.0",
        "minspawn": "0.0",
        "spawndelay": "false",
        "ttl": "0.0",
        "cpid": "503"
      }
    },
    {
      "type": "Feature",
      "geometry": {
        "type": "Point",
        "coordinates": [736.55505, -3004.3691],
        "size": [16, 16]
      },
      "properties": {
        "iconurl": "icons/mini_map/icon_supply.png",
        "iconrotate": "0",
        "popupContent": "Amazing information about Permanent supply crate will be found here!"
      },
      "bf2props": {
        "name": "cpname_shijiavalley_skirmish16_2obj2_crate",
        "class": "ObjectSpawner",
        "name_object": "Permanent supply crate | Permanent supply crate",
        "team": "0",
        "obj1": "fixed_supply_crate",
        "obj2": "fixed_supply_crate",
        "maxspawn": "0.0",
        "minspawn": "0.0",
        "spawndelay": "false",
        "ttl": "0.0",
        "cpid": "505"
      }
    },
    {
      "type": "Feature",
      "geometry": {
        "type": "Point",
        "coordinates": [826.485, -3144.6191],
        "size": [16, 16]
      },
      "properties": {
        "iconurl": "icons/mini_map/icon_supply.png",
        "iconrotate": "0",
        "popupContent": "Amazing information about Permanent supply crate will be found here!"
      },
      "bf2props": {
        "name": "cpname_shijiavalley_skirmish16_2obj3_crate",
        "class": "ObjectSpawner",
        "name_object": "Permanent supply crate | Permanent supply crate",
        "team": "0",
        "obj1": "fixed_supply_crate",
        "obj2": "fixed_supply_crate",
        "maxspawn": "0.0",
        "minspawn": "0.0",
        "spawndelay": "false",
        "ttl": "0.0",
        "cpid": "509"
      }
    },
    {
      "type": "Feature",
      "geometry": {
        "type": "Point",
        "coordinates": [996.484, -2981.87],
        "size": [16, 16]
      },
      "properties": {
        "iconurl": "icons/mini_map/uavtrailer.png",
        "iconrotate": "0",
        "popupContent": "Amazing information about null will be found here!"
      },
      "bf2props": {
        "name": "cpname_shijiavalley_skirmish16_govtbuilding_gbacv",
        "class": "ObjectSpawner",
        "name_object": "UAV Terminal",
        "team": "2",
        "obj1": "null",
        "obj2": "gb_acv_sultan",
        "maxspawn": "10.0",
        "minspawn": "10.0",
        "spawndelay": "false",
        "ttl": "99999.0",
        "cpid": "1"
      }
    },
    {
      "type": "Feature",
      "geometry": {
        "type": "Point",
        "coordinates": [514.83704, -2899.096],
        "size": [16, 16]
      },
      "properties": {
        "iconurl": "icons/mini_map/uavtrailer.png",
        "iconrotate": "0",
        "popupContent": "Amazing information about UAV Terminal will be found here!"
      },
      "bf2props": {
        "name": "cpname_shijiavalley_skirmish16_temple_plaacv",
        "class": "ObjectSpawner",
        "name_object": "UAV Terminal",
        "team": "1",
        "obj1": "ch_acv_wz551",
        "obj2": "null",
        "maxspawn": "10.0",
        "minspawn": "10.0",
        "spawndelay": "false",
        "ttl": "99999.0",
        "cpid": "504"
      }
    },
    {
      "type": "Feature",
      "geometry": {
        "type": "Point",
        "coordinates": [988.53796, -2972.754],
        "size": [33, 33],
        "radius": "10.0"
      },
      "properties": {
        "iconurl": "icons/flags_map/gb/minimap_cpbase.png",
        "iconrotate": "0",
        "popupContent": "Amazing information about GB Main will be found here!"
      },
      "bf2props": {
        "name": "cpname_shijiavalley_skirmish16_govtbuilding",
        "class": "ControlPoint",
        "name_object": "GB Main",
        "team": "2",
        "areavalue1": "0.0",
        "areavalue2": "0.0",
        "cpid": "1",
        "sgid": "-999",
        "uncap": "true",
        "ttgc": "90.0",
        "ttlc": "90.0"
      }
    },
    {
      "type": "Feature",
      "geometry": {
        "type": "Point",
        "coordinates": [796.13, -3109.5688],
        "size": [33, 33],
        "radius": "50.0"
      },
      "properties": {
        "iconurl": "icons/flags_map/neutral/minimap_cp.png",
        "iconrotate": "0",
        "popupContent": "Amazing information about Obj 4 50m will be found here!"
      },
      "bf2props": {
        "name": "cpname_shijiavalley_skirmish16_obj4",
        "class": "ControlPoint",
        "name_object": "Obj 4 50m",
        "team": "0",
        "areavalue1": "0.0",
        "areavalue2": "0.0",
        "cpid": "501",
        "sgid": "511",
        "uncap": "false",
        "ttgc": "90.0",
        "ttlc": "90.0"
      }
    },
    {
      "type": "Feature",
      "geometry": {
        "type": "Point",
        "coordinates": [506.27698, -2924.236],
        "size": [33, 33],
        "radius": "10.0"
      },
      "properties": {
        "iconurl": "icons/flags_map/ch/minimap_cpbase.png",
        "iconrotate": "0",
        "popupContent": "Amazing information about PLA Main will be found here!"
      },
      "bf2props": {
        "name": "cpname_shijiavalley_skirmish16_temple",
        "class": "ControlPoint",
        "name_object": "PLA Main",
        "team": "1",
        "areavalue1": "0.0",
        "areavalue2": "0.0",
        "cpid": "504",
        "sgid": "1",
        "uncap": "true",
        "ttgc": "0.0",
        "ttlc": "0.0"
      }
    },
    {
      "type": "Feature",
      "geometry": {
        "type": "Point",
        "coordinates": [570.994, -3047.708],
        "size": [33, 33],
        "radius": "50.0"
      },
      "properties": {
        "iconurl": "icons/flags_map/neutral/minimap_cp.png",
        "iconrotate": "0",
        "popupContent": "Amazing information about Obj 1 50m will be found here!"
      },
      "bf2props": {
        "name": "cpname_shijiavalley_skirmish16_obj1",
        "class": "ControlPoint",
        "name_object": "Obj 1 50m",
        "team": "0",
        "areavalue1": "0.0",
        "areavalue2": "0.0",
        "cpid": "506",
        "sgid": "211",
        "uncap": "false",
        "ttgc": "90.0",
        "ttlc": "90.0"
      }
    },
    {
      "type": "Feature",
      "geometry": {
        "type": "Point",
        "coordinates": [641.145, -3149.6812],
        "size": [33, 33],
        "radius": "50.0"
      },
      "properties": {
        "iconurl": "icons/flags_map/neutral/minimap_cp.png",
        "iconrotate": "0",
        "popupContent": "Amazing information about Obj 2 50m will be found here!"
      },
      "bf2props": {
        "name": "cpname_shijiavalley_skirmish16_obj2",
        "class": "ControlPoint",
        "name_object": "Obj 2 50m",
        "team": "0",
        "areavalue1": "0.0",
        "areavalue2": "0.0",
        "cpid": "507",
        "sgid": "311",
        "uncap": "false",
        "ttgc": "90.0",
        "ttlc": "90.0"
      }
    },
    {
      "type": "Feature",
      "geometry": {
        "type": "Point",
        "coordinates": [708.021, -3006.3901],
        "size": [33, 33],
        "radius": "50.0"
      },
      "properties": {
        "iconurl": "icons/flags_map/neutral/minimap_cp.png",
        "iconrotate": "0",
        "popupContent": "Amazing information about Obj 3 50m will be found here!"
      },
      "bf2props": {
        "name": "cpname_shijiavalley_skirmish16_obj3",
        "class": "ControlPoint",
        "name_object": "Obj 3 50m",
        "team": "0",
        "areavalue1": "0.0",
        "areavalue2": "0.0",
        "cpid": "508",
        "sgid": "411",
        "uncap": "false",
        "ttgc": "90.0",
        "ttlc": "90.0"
      }
    },
    {
      "type": "Feature",
      "geometry": {
        "type": "Point",
        "coordinates": [822.42004, -2929.8179],
        "size": [33, 33],
        "radius": "50.0"
      },
      "properties": {
        "iconurl": "icons/flags_map/neutral/minimap_cp.png",
        "iconrotate": "0",
        "popupContent": "Amazing information about Obj 5 50m will be found here!"
      },
      "bf2props": {
        "name": "cpname_shijiavalley_skirmish16_obj5",
        "class": "ControlPoint",
        "name_object": "Obj 5 50m",
        "team": "0",
        "areavalue1": "0.0",
        "areavalue2": "0.0",
        "cpid": "502",
        "sgid": "611",
        "uncap": "false",
        "ttgc": "90.0",
        "ttlc": "90.0"
      }
    },
    {
      "type": "Feature",
      "geometry": {
        "type": "Point",
        "coordinates": [602.07104, -3094.5552],
        "size": [33, 33],
        "radius": "65.0"
      },
      "properties": {
        "iconurl": "icons/flags_map/neutral/minimap_cp.png",
        "iconrotate": "0",
        "popupContent": "Amazing information about Obj 1 65m will be found here!"
      },
      "bf2props": {
        "name": "cpname_shijiavalley_skirmish16_2obj1",
        "class": "ControlPoint",
        "name_object": "Obj 1 65m",
        "team": "0",
        "areavalue1": "0.0",
        "areavalue2": "0.0",
        "cpid": "503",
        "sgid": "212",
        "uncap": "false",
        "ttgc": "90.0",
        "ttlc": "90.0"
      }
    },
    {
      "type": "Feature",
      "geometry": {
        "type": "Point",
        "coordinates": [730.58997, -2996.582],
        "size": [33, 33],
        "radius": "65.0"
      },
      "properties": {
        "iconurl": "icons/flags_map/neutral/minimap_cp.png",
        "iconrotate": "0",
        "popupContent": "Amazing information about Obj 2 65m will be found here!"
      },
      "bf2props": {
        "name": "cpname_shijiavalley_skirmish16_2obj2",
        "class": "ControlPoint",
        "name_object": "Obj 2 65m",
        "team": "0",
        "areavalue1": "0.0",
        "areavalue2": "0.0",
        "cpid": "505",
        "sgid": "312",
        "uncap": "false",
        "ttgc": "90.0",
        "ttlc": "90.0"
      }
    },
    {
      "type": "Feature",
      "geometry": {
        "type": "Point",
        "coordinates": [846.021, -3126.554],
        "size": [33, 33],
        "radius": "65.0"
      },
      "properties": {
        "iconurl": "icons/flags_map/neutral/minimap_cp.png",
        "iconrotate": "0",
        "popupContent": "Amazing information about Obj 3 65m will be found here!"
      },
      "bf2props": {
        "name": "cpname_shijiavalley_skirmish16_2obj3",
        "class": "ControlPoint",
        "name_object": "Obj 3 65m",
        "team": "0",
        "areavalue1": "0.0",
        "areavalue2": "0.0",
        "cpid": "509",
        "sgid": "412",
        "uncap": "false",
        "ttgc": "90.0",
        "ttlc": "90.0"
      }
    },
    {
      "type": "Feature",
      "geometry": {
        "type": "Polygon",
        "coordinates": [
          [
            [0,0],
            [0,-4096],
            [4096,-4096],
            [4096,0]
          ],[
            [1016.53687, -2953.3428],
            [982.7633, -2907.3542],
            [793.10156, -2761.9612],
            [747.90576, -2745.6392],
            [548.9949, -2779.4155],
            [479.18262, -2847.0571],
            [477.8733, -2981.4775],
            [442.65833, -2983.2053],
            [429.11865, -2997.8323],
            [431.8307, -3130.04],
            [591.10205, -3258.3662],
            [1024.1687, -3266.0127],
            [1062.2598, -3180.581],
            [1055.7231, -3061.3992]
          ]
        ]
      },
      "bf2props": {
        "code": "combatarea_8_skirmish",
        "class": "CombatArea",
        "team": "0",
        "vehicles": "4",
        "layer": "6",
        "inverted": "false",
        "max": [0.0, 0.0],
        "min": [0.0, 0.0]
      }
    },
    {
      "type": "Feature",
      "geometry": {
        "type": "Polygon",
        "coordinates": [
          [
            [963.8556, -2886.1519],
            [909.45825, -2937.9355],
            [917.333, -3011.6956],
            [918.1992, -3044.7715],
            [1051.0511, -3043.4639],
            [1021.2604, -2947.3992]
          ]
        ]
      },
      "bf2props": {
        "code": "combatarea_18_skirmish",
        "class": "CombatArea",
        "team": "1",
        "vehicles": "4",
        "layer": "6",
        "inverted": "true",
        "max": [0.0, 0.0],
        "min": [0.0, 0.0]
      }
    },
    {
      "type": "Feature",
      "geometry": {
        "type": "Polygon",
        "coordinates": [
          [
            [468.8722, -3022.7788],
            [498.26392, -3024.7612],
            [548.2754, -2974.7427],
            [550.443, -2772.8508],
            [471.75232, -2839.7222]
          ]
        ]
      },
      "bf2props": {
        "code": "combatarea_20_skirmish",
        "class": "CombatArea",
        "team": "2",
        "vehicles": "4",
        "layer": "6",
        "inverted": "true",
        "max": [0.0, 0.0],
        "min": [0.0, 0.0]
      }
    }
  ]
}