{
  "team1":"ch",
  "team2":"usa",
  "team1tickets":"600",
  "team2tickets":"600",
  "mapsize":"2048",
  "viewdistance":"500",
  "combatareause":"true",
  "combatareadamage":"20.0",
  "combatareaallowoutside":"10.0",
  "routes": [
    [
      [
        "cpname_qwai1_aas64_pla_outpost"
      ],
      [
        "cpname_qwai1_aas_construction_site"
      ],
      [
        "cpname_qwai1_aas_fishing_village"
      ],
      [
        "cpname_qwai1_aas_qwai_village"
      ],
      [
        "cpname_qwai1_aas_processing_plant"
      ],
      [
        "cpname_qwai1_aas64_us_army_outpost"
      ]
    ],
    [
      [
        "cpname_qwai1_aas64_pla_outpost"
      ],
      [
        "cpname_qwai1_aas_road_pass"
      ],
      [
        "cpname_qwai1_aas_south_bridge",
        "cpname_qwai1_aas_north_bridge"
      ],
      [
        "cpname_qwai1_aas_qwai_village_2"
      ],
      [
        "cpname_qwai1_aas64_us_army_outpost"
      ]
    ]
  ],
  "type": "FeatureCollection",
  "features": [
    {
      "type": "Feature",
      "geometry": {
        "type": "Point",
        "coordinates": [196.0, -1686.0],
        "size": [16, 16]
      },
      "properties": {
        "iconurl": "icons/mini_map/repairdepot.png",
        "iconrotate": "0",
        "popupContent": "Amazing information about Vehicle Depot will be found here!"
      },
      "bf2props": {
        "name": "cpname_qwai1_aas64_pla_outpost_vehdepo",
        "class": "ObjectSpawner",
        "name_object": "Vehicle Depot",
        "team": "1",
        "obj1": "vehicle_depot_ch",
        "obj2": "null",
        "maxspawn": "0.0",
        "minspawn": "0.0",
        "spawndelay": "false",
        "ttl": "0.0",
        "cpid": "106"
      }
    },
    {
      "type": "Feature",
      "geometry": {
        "type": "Point",
        "coordinates": [198.0, -1658.0],
        "size": [16, 16]
      },
      "properties": {
        "iconurl": "icons/mini_map/uavtrailer.png",
        "iconrotate": "0",
        "popupContent": "Amazing information about UAV Terminal will be found here!"
      },
      "bf2props": {
        "name": "cpname_qwai1_aas64_pla_outpost_acv",
        "class": "ObjectSpawner",
        "name_object": "UAV Terminal",
        "team": "1",
        "obj1": "ch_acv_wz551",
        "obj2": "null",
        "maxspawn": "0.0",
        "minspawn": "0.0",
        "spawndelay": "false",
        "ttl": "0.0",
        "cpid": "106"
      }
    },
    {
      "type": "Feature",
      "geometry": {
        "type": "Point",
        "coordinates": [193.0, -1722.0],
        "size": [16, 16]
      },
      "properties": {
        "iconurl": "icons/vehicles_map/mini_the_medium.png",
        "iconrotate": "0.0",
        "popupContent": "Amazing information about Mi-17 Hip-H will be found here!"
      },
      "bf2props": {
        "name": "cpname_qwai1_aas64_pla_outpost_the",
        "class": "ObjectSpawner",
        "name_object": "Mi-17 Hip-H",
        "team": "1",
        "obj1": "ch_the_mi17",
        "obj2": "null",
        "maxspawn": "450.0",
        "minspawn": "450.0",
        "spawndelay": "true",
        "ttl": "99999.0",
        "cpid": "106"
      }
    },
    {
      "type": "Feature",
      "geometry": {
        "type": "Point",
        "coordinates": [227.0, -1640.0],
        "size": [16, 16]
      },
      "properties": {
        "iconurl": "icons/vehicles_map/mini_apc_medium.png",
        "iconrotate": "-90.0",
        "popupContent": "Amazing information about ZSL-92 25mm will be found here!"
      },
      "bf2props": {
        "name": "cpname_qwai1_aas64_pla_outpost_25mm",
        "class": "ObjectSpawner",
        "name_object": "ZSL-92 25mm",
        "team": "1",
        "obj1": "ch_apc_wz551",
        "obj2": "null",
        "maxspawn": "600.0",
        "minspawn": "600.0",
        "spawndelay": "true",
        "ttl": "99999.0",
        "cpid": "106"
      }
    },
    {
      "type": "Feature",
      "geometry": {
        "type": "Point",
        "coordinates": [227.0, -1644.0],
        "size": [16, 16]
      },
      "properties": {
        "iconurl": "icons/vehicles_map/mini_rec_light.png",
        "iconrotate": "-90.0",
        "popupContent": "Amazing information about VN-3 will be found here!"
      },
      "bf2props": {
        "name": "cpname_qwai1_aas64_pla_outpost_vn3",
        "class": "ObjectSpawner",
        "name_object": "VN-3",
        "team": "1",
        "obj1": "ch_jep_vn3",
        "obj2": "null",
        "maxspawn": "600.0",
        "minspawn": "600.0",
        "spawndelay": "true",
        "ttl": "99999.0",
        "cpid": "106"
      }
    },
    {
      "type": "Feature",
      "geometry": {
        "type": "Point",
        "coordinates": [223.0, -1664.0],
        "size": [16, 16]
      },
      "properties": {
        "iconurl": "icons/vehicles_map/mini_jep_light.png",
        "iconrotate": "-90.0",
        "popupContent": "Amazing information about Norinco FAV will be found here!"
      },
      "bf2props": {
        "name": "cpname_qwai1_aas64_pla_outpost_fav",
        "class": "ObjectSpawner",
        "name_object": "Norinco FAV",
        "team": "1",
        "obj1": "ch_jep_paratrooper",
        "obj2": "null",
        "maxspawn": "300.0",
        "minspawn": "300.0",
        "spawndelay": "false",
        "ttl": "99999.0",
        "cpid": "106"
      }
    },
    {
      "type": "Feature",
      "geometry": {
        "type": "Point",
        "coordinates": [227.0, -1648.0],
        "size": [16, 16]
      },
      "properties": {
        "iconurl": "icons/vehicles_map/mini_apc_light.png",
        "iconrotate": "-90.0",
        "popupContent": "Amazing information about ZSL-92A will be found here!"
      },
      "bf2props": {
        "name": "cpname_qwai1_aas64_pla_outpost_shitbox",
        "class": "ObjectSpawner",
        "name_object": "ZSL-92A",
        "team": "1",
        "obj1": "ch_apc_wz551a",
        "obj2": "null",
        "maxspawn": "300.0",
        "minspawn": "300.0",
        "spawndelay": "false",
        "ttl": "99999.0",
        "cpid": "106"
      }
    },
    {
      "type": "Feature",
      "geometry": {
        "type": "Point",
        "coordinates": [224.0, -1672.0],
        "size": [16, 16]
      },
      "properties": {
        "iconurl": "icons/vehicles_map/mini_trk_logistics.png",
        "iconrotate": "-90.0",
        "popupContent": "Amazing information about EQ2080 Logistics will be found here!"
      },
      "bf2props": {
        "name": "cpname_qwai1_aas64_pla_outpost_logi1",
        "class": "ObjectSpawner",
        "name_object": "EQ2080 Logistics",
        "team": "1",
        "obj1": "ch_trk_logistics",
        "obj2": "null",
        "maxspawn": "300.0",
        "minspawn": "300.0",
        "spawndelay": "false",
        "ttl": "99999.0",
        "cpid": "106"
      }
    },
    {
      "type": "Feature",
      "geometry": {
        "type": "Point",
        "coordinates": [224.0, -1675.0],
        "size": [16, 16]
      },
      "properties": {
        "iconurl": "icons/vehicles_map/mini_trk_logistics.png",
        "iconrotate": "-90.0",
        "popupContent": "Amazing information about EQ2080 Logistics will be found here!"
      },
      "bf2props": {
        "name": "cpname_qwai1_aas64_pla_outpost_logi2",
        "class": "ObjectSpawner",
        "name_object": "EQ2080 Logistics",
        "team": "1",
        "obj1": "ch_trk_logistics",
        "obj2": "null",
        "maxspawn": "300.0",
        "minspawn": "300.0",
        "spawndelay": "false",
        "ttl": "99999.0",
        "cpid": "106"
      }
    },
    {
      "type": "Feature",
      "geometry": {
        "type": "Point",
        "coordinates": [224.0, -1668.0],
        "size": [16, 16]
      },
      "properties": {
        "iconurl": "icons/vehicles_map/mini_trk_support.png",
        "iconrotate": "-90.0",
        "popupContent": "Amazing information about EQ2080 2.5 Ton will be found here!"
      },
      "bf2props": {
        "name": "cpname_qwai1_aas64_pla_outpost_truck",
        "class": "ObjectSpawner",
        "name_object": "EQ2080 2.5 Ton",
        "team": "1",
        "obj1": "ch_trk_support",
        "obj2": "null",
        "maxspawn": "300.0",
        "minspawn": "300.0",
        "spawndelay": "false",
        "ttl": "99999.0",
        "cpid": "106"
      }
    },
    {
      "type": "Feature",
      "geometry": {
        "type": "Point",
        "coordinates": [408.0, -1558.0],
        "size": [16, 16]
      },
      "properties": {
        "iconurl": "icons/vehicles_map/mini_shp_light.png",
        "iconrotate": "90.0",
        "popupContent": "Amazing information about RHIB will be found here!"
      },
      "bf2props": {
        "name": "cpname_qwai1_aas64_pla_outpost_rhib",
        "class": "ObjectSpawner",
        "name_object": "RHIB",
        "team": "1",
        "obj1": "boat_rib_gpmg_pkp",
        "obj2": "null",
        "maxspawn": "300.0",
        "minspawn": "300.0",
        "spawndelay": "true",
        "ttl": "300.0",
        "cpid": "106"
      }
    },
    {
      "type": "Feature",
      "geometry": {
        "type": "Point",
        "coordinates": [1705.0, -859.0],
        "size": [16, 16]
      },
      "properties": {
        "iconurl": "icons/mini_map/repairdepot.png",
        "iconrotate": "0",
        "popupContent": "Amazing information about null will be found here!"
      },
      "bf2props": {
        "name": "cpname_qwai1_aas64_us_army_outpost_vehdepo",
        "class": "ObjectSpawner",
        "name_object": "Vehicle Depot",
        "team": "2",
        "obj1": "null",
        "obj2": "vehicle_depot_us",
        "maxspawn": "0.0",
        "minspawn": "0.0",
        "spawndelay": "false",
        "ttl": "0.0",
        "cpid": "107"
      }
    },
    {
      "type": "Feature",
      "geometry": {
        "type": "Point",
        "coordinates": [1717.0, -853.0],
        "size": [16, 16]
      },
      "properties": {
        "iconurl": "icons/mini_map/uavtrailer.png",
        "iconrotate": "0",
        "popupContent": "Amazing information about null will be found here!"
      },
      "bf2props": {
        "name": "cpname_qwai1_aas64_us_army_outpost_acv",
        "class": "ObjectSpawner",
        "name_object": "UAV Terminal",
        "team": "2",
        "obj1": "null",
        "obj2": "us_acv_stryker",
        "maxspawn": "0.0",
        "minspawn": "0.0",
        "spawndelay": "false",
        "ttl": "0.0",
        "cpid": "107"
      }
    },
    {
      "type": "Feature",
      "geometry": {
        "type": "Point",
        "coordinates": [1714.0, -831.0],
        "size": [16, 16]
      },
      "properties": {
        "iconurl": "icons/vehicles_map/mini_the_medium.png",
        "iconrotate": "-90.0",
        "popupContent": "Amazing information about null will be found here!"
      },
      "bf2props": {
        "name": "cpname_qwai1_aas64_us_army_outpost_the",
        "class": "ObjectSpawner",
        "name_object": "UH-60L Blackhawk",
        "team": "2",
        "obj1": "null",
        "obj2": "us_the_uh60_alt",
        "maxspawn": "450.0",
        "minspawn": "450.0",
        "spawndelay": "true",
        "ttl": "99999.0",
        "cpid": "107"
      }
    },
    {
      "type": "Feature",
      "geometry": {
        "type": "Point",
        "coordinates": [1669.0, -859.0],
        "size": [16, 16]
      },
      "properties": {
        "iconurl": "icons/vehicles_map/mini_apc_light.png",
        "iconrotate": "90.0",
        "popupContent": "Amazing information about null will be found here!"
      },
      "bf2props": {
        "name": "cpname_qwai1_aas64_us_army_outpost_strykermk19",
        "class": "ObjectSpawner",
        "name_object": "M1126 Stryker ICV MK19",
        "team": "2",
        "obj1": "null",
        "obj2": "us_apc_stryker_mk19",
        "maxspawn": "600.0",
        "minspawn": "600.0",
        "spawndelay": "true",
        "ttl": "99999.0",
        "cpid": "107"
      }
    },
    {
      "type": "Feature",
      "geometry": {
        "type": "Point",
        "coordinates": [1669.0, -864.0],
        "size": [16, 16]
      },
      "properties": {
        "iconurl": "icons/vehicles_map/mini_apc_light.png",
        "iconrotate": "90.0",
        "popupContent": "Amazing information about null will be found here!"
      },
      "bf2props": {
        "name": "cpname_qwai1_aas64_us_army_outpost_stryker50",
        "class": "ObjectSpawner",
        "name_object": "M1126 Stryker ICV",
        "team": "2",
        "obj1": "null",
        "obj2": "us_apc_stryker",
        "maxspawn": "600.0",
        "minspawn": "600.0",
        "spawndelay": "true",
        "ttl": "99999.0",
        "cpid": "107"
      }
    },
    {
      "type": "Feature",
      "geometry": {
        "type": "Point",
        "coordinates": [1680.0, -837.0],
        "size": [16, 16]
      },
      "properties": {
        "iconurl": "icons/vehicles_map/mini_jep_medium.png",
        "iconrotate": "180.0",
        "popupContent": "Amazing information about null will be found here!"
      },
      "bf2props": {
        "name": "cpname_qwai1_aas64_us_army_outpost_hmmv",
        "class": "ObjectSpawner",
        "name_object": "M1025 HMMWV",
        "team": "2",
        "obj1": "null",
        "obj2": "us_jep_hmmwv",
        "maxspawn": "300.0",
        "minspawn": "300.0",
        "spawndelay": "false",
        "ttl": "99999.0",
        "cpid": "107"
      }
    },
    {
      "type": "Feature",
      "geometry": {
        "type": "Point",
        "coordinates": [1680.0, -850.0],
        "size": [16, 16]
      },
      "properties": {
        "iconurl": "icons/vehicles_map/mini_jep_medium.png",
        "iconrotate": "180.0",
        "popupContent": "Amazing information about null will be found here!"
      },
      "bf2props": {
        "name": "cpname_qwai1_aas64_us_army_outpost_hmmvup",
        "class": "ObjectSpawner",
        "name_object": "M1151 Up-Armored HMMWV",
        "team": "2",
        "obj1": "null",
        "obj2": "us_jep_hmmwv_uparmored",
        "maxspawn": "300.0",
        "minspawn": "300.0",
        "spawndelay": "false",
        "ttl": "99999.0",
        "cpid": "107"
      }
    },
    {
      "type": "Feature",
      "geometry": {
        "type": "Point",
        "coordinates": [1688.0, -818.0],
        "size": [16, 16]
      },
      "properties": {
        "iconurl": "icons/vehicles_map/mini_trk_logistics.png",
        "iconrotate": "180.0",
        "popupContent": "Amazing information about null will be found here!"
      },
      "bf2props": {
        "name": "cpname_qwai1_aas64_us_army_outpost_logi1",
        "class": "ObjectSpawner",
        "name_object": "M35 Logistics",
        "team": "2",
        "obj1": "null",
        "obj2": "us_trk_logistics",
        "maxspawn": "300.0",
        "minspawn": "300.0",
        "spawndelay": "false",
        "ttl": "99999.0",
        "cpid": "107"
      }
    },
    {
      "type": "Feature",
      "geometry": {
        "type": "Point",
        "coordinates": [1692.0, -818.0],
        "size": [16, 16]
      },
      "properties": {
        "iconurl": "icons/vehicles_map/mini_trk_logistics.png",
        "iconrotate": "180.0",
        "popupContent": "Amazing information about null will be found here!"
      },
      "bf2props": {
        "name": "cpname_qwai1_aas64_us_army_outpost_logi2",
        "class": "ObjectSpawner",
        "name_object": "M35 Logistics",
        "team": "2",
        "obj1": "null",
        "obj2": "us_trk_logistics",
        "maxspawn": "300.0",
        "minspawn": "300.0",
        "spawndelay": "false",
        "ttl": "99999.0",
        "cpid": "107"
      }
    },
    {
      "type": "Feature",
      "geometry": {
        "type": "Point",
        "coordinates": [1696.0, -818.0],
        "size": [16, 16]
      },
      "properties": {
        "iconurl": "icons/vehicles_map/mini_trk_support.png",
        "iconrotate": "180.0",
        "popupContent": "Amazing information about null will be found here!"
      },
      "bf2props": {
        "name": "cpname_qwai1_aas64_us_army_outpost_truck",
        "class": "ObjectSpawner",
        "name_object": "M35 2.5 Ton",
        "team": "2",
        "obj1": "null",
        "obj2": "us_trk_support",
        "maxspawn": "300.0",
        "minspawn": "300.0",
        "spawndelay": "false",
        "ttl": "99999.0",
        "cpid": "107"
      }
    },
    {
      "type": "Feature",
      "geometry": {
        "type": "Point",
        "coordinates": [1456.0, -237.0],
        "size": [16, 16]
      },
      "properties": {
        "iconurl": "icons/vehicles_map/mini_shp_light.png",
        "iconrotate": "0.0",
        "popupContent": "Amazing information about null will be found here!"
      },
      "bf2props": {
        "name": "cpname_qwai1_aas64_us_army_outpost_rhib",
        "class": "ObjectSpawner",
        "name_object": "RHIB",
        "team": "2",
        "obj1": "null",
        "obj2": "boat_rib_gpmg_m240b",
        "maxspawn": "300.0",
        "minspawn": "300.0",
        "spawndelay": "true",
        "ttl": "300.0",
        "cpid": "107"
      }
    },
    {
      "type": "Feature",
      "geometry": {
        "type": "Point",
        "coordinates": [-316.0, -1680.0],
        "size": [16, 16]
      },
      "properties": {
        "iconurl": "icons/mini_map/airdef.png",
        "iconrotate": "0",
        "popupContent": "Amazing information about Artillery Barrage Call-In will be found here!"
      },
      "bf2props": {
        "name": "common_team1_arty1",
        "class": "ObjectSpawner",
        "name_object": "Artillery Barrage Call-In",
        "team": "1",
        "obj1": "artillery_team1",
        "obj2": "null",
        "maxspawn": "1800.0",
        "minspawn": "1800.0",
        "spawndelay": "true",
        "ttl": "0.0",
        "cpid": "-1"
      }
    },
    {
      "type": "Feature",
      "geometry": {
        "type": "Point",
        "coordinates": [-316.0, -1700.0],
        "size": [16, 16]
      },
      "properties": {
        "iconurl": "icons/mini_map/airdef.png",
        "iconrotate": "0",
        "popupContent": "Amazing information about Artillery Barrage Call-In will be found here!"
      },
      "bf2props": {
        "name": "common_team1_arty2",
        "class": "ObjectSpawner",
        "name_object": "Artillery Barrage Call-In",
        "team": "1",
        "obj1": "artillery_team1",
        "obj2": "null",
        "maxspawn": "1800.0",
        "minspawn": "1800.0",
        "spawndelay": "true",
        "ttl": "0.0",
        "cpid": "-1"
      }
    },
    {
      "type": "Feature",
      "geometry": {
        "type": "Point",
        "coordinates": [-300.0, -1680.0],
        "size": [16, 16]
      },
      "properties": {
        "iconurl": "icons/mini_map/airdef.png",
        "iconrotate": "0",
        "popupContent": "Amazing information about Artillery Barrage Call-In will be found here!"
      },
      "bf2props": {
        "name": "common_team1_arty3",
        "class": "ObjectSpawner",
        "name_object": "Artillery Barrage Call-In",
        "team": "1",
        "obj1": "artillery_team1",
        "obj2": "null",
        "maxspawn": "1800.0",
        "minspawn": "1800.0",
        "spawndelay": "true",
        "ttl": "0.0",
        "cpid": "-1"
      }
    },
    {
      "type": "Feature",
      "geometry": {
        "type": "Point",
        "coordinates": [-300.0, -1700.0],
        "size": [16, 16]
      },
      "properties": {
        "iconurl": "icons/mini_map/airdef.png",
        "iconrotate": "0",
        "popupContent": "Amazing information about Artillery Barrage Call-In will be found here!"
      },
      "bf2props": {
        "name": "common_team1_arty4",
        "class": "ObjectSpawner",
        "name_object": "Artillery Barrage Call-In",
        "team": "1",
        "obj1": "artillery_team1",
        "obj2": "null",
        "maxspawn": "1800.0",
        "minspawn": "1800.0",
        "spawndelay": "true",
        "ttl": "0.0",
        "cpid": "-1"
      }
    },
    {
      "type": "Feature",
      "geometry": {
        "type": "Point",
        "coordinates": [2480.0, -1052.0],
        "size": [16, 16]
      },
      "properties": {
        "iconurl": "icons/mini_map/airdef.png",
        "iconrotate": "0",
        "popupContent": "Amazing information about null will be found here!"
      },
      "bf2props": {
        "name": "common_team2_arty1",
        "class": "ObjectSpawner",
        "name_object": "Artillery Barrage Call-In",
        "team": "2",
        "obj1": "null",
        "obj2": "artillery_team2",
        "maxspawn": "1800.0",
        "minspawn": "1800.0",
        "spawndelay": "true",
        "ttl": "0.0",
        "cpid": "-1"
      }
    },
    {
      "type": "Feature",
      "geometry": {
        "type": "Point",
        "coordinates": [2480.0, -1072.0],
        "size": [16, 16]
      },
      "properties": {
        "iconurl": "icons/mini_map/airdef.png",
        "iconrotate": "0",
        "popupContent": "Amazing information about null will be found here!"
      },
      "bf2props": {
        "name": "common_team2_arty2",
        "class": "ObjectSpawner",
        "name_object": "Artillery Barrage Call-In",
        "team": "2",
        "obj1": "null",
        "obj2": "artillery_team2",
        "maxspawn": "1800.0",
        "minspawn": "1800.0",
        "spawndelay": "true",
        "ttl": "0.0",
        "cpid": "-1"
      }
    },
    {
      "type": "Feature",
      "geometry": {
        "type": "Point",
        "coordinates": [2496.0, -1052.0],
        "size": [16, 16]
      },
      "properties": {
        "iconurl": "icons/mini_map/airdef.png",
        "iconrotate": "0",
        "popupContent": "Amazing information about null will be found here!"
      },
      "bf2props": {
        "name": "common_team2_arty3",
        "class": "ObjectSpawner",
        "name_object": "Artillery Barrage Call-In",
        "team": "2",
        "obj1": "null",
        "obj2": "artillery_team2",
        "maxspawn": "1800.0",
        "minspawn": "1800.0",
        "spawndelay": "true",
        "ttl": "0.0",
        "cpid": "-1"
      }
    },
    {
      "type": "Feature",
      "geometry": {
        "type": "Point",
        "coordinates": [2496.0, -1072.0],
        "size": [16, 16]
      },
      "properties": {
        "iconurl": "icons/mini_map/airdef.png",
        "iconrotate": "0",
        "popupContent": "Amazing information about null will be found here!"
      },
      "bf2props": {
        "name": "common_team2_arty4",
        "class": "ObjectSpawner",
        "name_object": "Artillery Barrage Call-In",
        "team": "2",
        "obj1": "null",
        "obj2": "artillery_team2",
        "maxspawn": "1800.0",
        "minspawn": "1800.0",
        "spawndelay": "true",
        "ttl": "0.0",
        "cpid": "-1"
      }
    },
    {
      "type": "Feature",
      "geometry": {
        "type": "Point",
        "coordinates": [259.0, -1662.0],
        "size": [33, 33],
        "radius": "0.0"
      },
      "properties": {
        "iconurl": "icons/flags_map/ch/minimap_cpbase.png",
        "iconrotate": "0",
        "popupContent": "Amazing information about PLA Outpost will be found here!"
      },
      "bf2props": {
        "name": "cpname_qwai1_aas64_pla_outpost",
        "class": "ControlPoint",
        "name_object": "PLA Outpost",
        "team": "1",
        "areavalue1": "0.0",
        "areavalue2": "0.0",
        "cpid": "106",
        "sgid": "10",
        "uncap": "true",
        "ttgc": "0.0",
        "ttlc": "0.0"
      }
    },
    {
      "type": "Feature",
      "geometry": {
        "type": "Point",
        "coordinates": [1676.0, -879.0],
        "size": [33, 33],
        "radius": "0.0"
      },
      "properties": {
        "iconurl": "icons/flags_map/us/minimap_cpbase.png",
        "iconrotate": "0",
        "popupContent": "Amazing information about US Army Outpost will be found here!"
      },
      "bf2props": {
        "name": "cpname_qwai1_aas64_us_army_outpost",
        "class": "ControlPoint",
        "name_object": "US Army Outpost",
        "team": "2",
        "areavalue1": "0.0",
        "areavalue2": "0.0",
        "cpid": "107",
        "sgid": "-999",
        "uncap": "true",
        "ttgc": "0.0",
        "ttlc": "0.0"
      }
    },
    {
      "type": "Feature",
      "geometry": {
        "type": "Point",
        "coordinates": [572.605, -546.0],
        "size": [33, 33],
        "radius": "150.0"
      },
      "properties": {
        "iconurl": "icons/flags_map/ch/minimap_cp.png",
        "iconrotate": "0",
        "popupContent": "Amazing information about Construction Site 150m will be found here!"
      },
      "bf2props": {
        "name": "cpname_qwai1_aas_construction_site",
        "class": "ControlPoint",
        "name_object": "Construction Site 150m",
        "team": "1",
        "areavalue1": "0.0",
        "areavalue2": "1000.0",
        "cpid": "501",
        "sgid": "201",
        "uncap": "false",
        "ttgc": "180.0",
        "ttlc": "180.0"
      }
    },
    {
      "type": "Feature",
      "geometry": {
        "type": "Point",
        "coordinates": [799.586, -1130.155],
        "size": [33, 33],
        "radius": "200.0"
      },
      "properties": {
        "iconurl": "icons/flags_map/neutral/minimap_cp.png",
        "iconrotate": "0",
        "popupContent": "Amazing information about Fishing Village 200m will be found here!"
      },
      "bf2props": {
        "name": "cpname_qwai1_aas_fishing_village",
        "class": "ControlPoint",
        "name_object": "Fishing Village 200m",
        "team": "0",
        "areavalue1": "0.0",
        "areavalue2": "0.0",
        "cpid": "502",
        "sgid": "301",
        "uncap": "false",
        "ttgc": "180.0",
        "ttlc": "180.0"
      }
    },
    {
      "type": "Feature",
      "geometry": {
        "type": "Point",
        "coordinates": [1163.0, -1251.0],
        "size": [33, 33],
        "radius": "150.0"
      },
      "properties": {
        "iconurl": "icons/flags_map/neutral/minimap_cp.png",
        "iconrotate": "0",
        "popupContent": "Amazing information about Qwai Village 150m will be found here!"
      },
      "bf2props": {
        "name": "cpname_qwai1_aas_qwai_village",
        "class": "ControlPoint",
        "name_object": "Qwai Village 150m",
        "team": "0",
        "areavalue1": "0.0",
        "areavalue2": "0.0",
        "cpid": "503",
        "sgid": "401",
        "uncap": "false",
        "ttgc": "180.0",
        "ttlc": "180.0"
      }
    },
    {
      "type": "Feature",
      "geometry": {
        "type": "Point",
        "coordinates": [1408.0, -1718.0],
        "size": [33, 33],
        "radius": "200.0"
      },
      "properties": {
        "iconurl": "icons/flags_map/us/minimap_cp.png",
        "iconrotate": "0",
        "popupContent": "Amazing information about Processing Plant 200m will be found here!"
      },
      "bf2props": {
        "name": "cpname_qwai1_aas_processing_plant",
        "class": "ControlPoint",
        "name_object": "Processing Plant 200m",
        "team": "2",
        "areavalue1": "1000.0",
        "areavalue2": "0.0",
        "cpid": "504",
        "sgid": "501",
        "uncap": "false",
        "ttgc": "180.0",
        "ttlc": "180.0"
      }
    },
    {
      "type": "Feature",
      "geometry": {
        "type": "Point",
        "coordinates": [673.0, -1112.0],
        "size": [33, 33],
        "radius": "175.0"
      },
      "properties": {
        "iconurl": "icons/flags_map/neutral/minimap_cp.png",
        "iconrotate": "0",
        "popupContent": "Amazing information about Road Pass 175m will be found here!"
      },
      "bf2props": {
        "name": "cpname_qwai1_aas_road_pass",
        "class": "ControlPoint",
        "name_object": "Road Pass 175m",
        "team": "0",
        "areavalue1": "0.0",
        "areavalue2": "1000.0",
        "cpid": "505",
        "sgid": "202",
        "uncap": "false",
        "ttgc": "180.0",
        "ttlc": "180.0"
      }
    },
    {
      "type": "Feature",
      "geometry": {
        "type": "Point",
        "coordinates": [969.0, -1376.0],
        "size": [33, 33],
        "radius": "100.0"
      },
      "properties": {
        "iconurl": "icons/flags_map/neutral/minimap_cp.png",
        "iconrotate": "0",
        "popupContent": "Amazing information about South Bridge 100m will be found here!"
      },
      "bf2props": {
        "name": "cpname_qwai1_aas_south_bridge",
        "class": "ControlPoint",
        "name_object": "South Bridge 100m",
        "team": "0",
        "areavalue1": "50.0",
        "areavalue2": "50.0",
        "cpid": "506",
        "sgid": "302",
        "uncap": "false",
        "ttgc": "90.0",
        "ttlc": "90.0"
      }
    },
    {
      "type": "Feature",
      "geometry": {
        "type": "Point",
        "coordinates": [1067.0, -824.0],
        "size": [33, 33],
        "radius": "100.0"
      },
      "properties": {
        "iconurl": "icons/flags_map/neutral/minimap_cp.png",
        "iconrotate": "0",
        "popupContent": "Amazing information about North Bridge 100m will be found here!"
      },
      "bf2props": {
        "name": "cpname_qwai1_aas_north_bridge",
        "class": "ControlPoint",
        "name_object": "North Bridge 100m",
        "team": "0",
        "areavalue1": "50.0",
        "areavalue2": "50.0",
        "cpid": "507",
        "sgid": "302",
        "uncap": "false",
        "ttgc": "90.0",
        "ttlc": "90.0"
      }
    },
    {
      "type": "Feature",
      "geometry": {
        "type": "Point",
        "coordinates": [1217.0, -1192.0],
        "size": [33, 33],
        "radius": "100.0"
      },
      "properties": {
        "iconurl": "icons/flags_map/neutral/minimap_cp.png",
        "iconrotate": "0",
        "popupContent": "Amazing information about Qwai Village 100m will be found here!"
      },
      "bf2props": {
        "name": "cpname_qwai1_aas_qwai_village_2",
        "class": "ControlPoint",
        "name_object": "Qwai Village 100m",
        "team": "0",
        "areavalue1": "1000.0",
        "areavalue2": "0.0",
        "cpid": "508",
        "sgid": "402",
        "uncap": "false",
        "ttgc": "180.0",
        "ttlc": "180.0"
      }
    },
    {
      "type": "Feature",
      "geometry": {
        "type": "Polygon",
        "coordinates": [
          [
            [0,0],
            [0,-2048],
            [2048,-2048],
            [2048,0]
          ],[
            [56.36786, -1152.1224],
            [74.49664, -1489.7074],
            [117.36316, -1549.7532],
            [109.12274, -1767.5485],
            [0.0, -2048.0],
            [109.12274, -1767.5485],
            [334.0174, -1915.4412],
            [547.8479, -1926.4633],
            [575.5755, -1943.1543],
            [710.7112, -1939.3208],
            [1073.178, -1997.4167],
            [1394.0173, -1976.0911],
            [1586.1567, -1999.3794],
            [1917.5264, -1938.7114],
            [1967.6519, -1844.3818],
            [1952.9559, -1342.3872],
            [1956.8239, -940.996],
            [1919.5747, -947.20776],
            [1838.2329, -525.38135],
            [1890.1554, -243.72986],
            [1803.6239, -109.57422],
            [2048.0, 0.0],
            [1803.6239, -109.57422],
            [1708.5785, -60.76599],
            [1382.1658, -36.81067],
            [846.40857, -61.710815],
            [481.67072, -134.92017],
            [190.35187, -192.6676],
            [182.78558, -686.91846],
            [169.68762, -957.2361],
            [87.79993, -1109.4784]
          ]
        ]
      },
      "bf2props": {
        "code": "combatarea_6_cp_layer_64",
        "class": "CombatArea",
        "team": "0",
        "vehicles": "4",
        "layer": "6",
        "inverted": "false",
        "max": [0.0, 0.0],
        "min": [0.0, 0.0]
      }
    },
    {
      "type": "Feature",
      "geometry": {
        "type": "Polygon",
        "coordinates": [
          [
            [1837.2684, -525.61206],
            [1734.2684, -630.3202],
            [1603.9126, -773.5266],
            [1550.0304, -885.9866],
            [1542.3257, -1011.4568],
            [1606.2964, -1060.5481],
            [1693.7332, -1073.331],
            [1805.0388, -1198.6156],
            [1951.8599, -1258.1511],
            [1955.543, -942.30347],
            [1918.7983, -948.5956]
          ]
        ]
      },
      "bf2props": {
        "code": "combatarea_31_aas_common",
        "class": "CombatArea",
        "team": "1",
        "vehicles": "4",
        "layer": "6",
        "inverted": "true",
        "max": [0.0, 0.0],
        "min": [0.0, 0.0]
      }
    },
    {
      "type": "Feature",
      "geometry": {
        "type": "Polygon",
        "coordinates": [
          [
            [109.29053, -1766.9818],
            [334.73254, -1914.6957],
            [443.97668, -1926.6482],
            [396.16492, -1839.9109],
            [364.87366, -1705.9695],
            [351.94946, -1608.8877],
            [289.1582, -1497.1279],
            [177.18347, -1437.694],
            [69.41083, -1368.0857],
            [75.51611, -1489.4379],
            [118.4209, -1549.2133]
          ]
        ]
      },
      "bf2props": {
        "code": "combatarea_42_aas_common",
        "class": "CombatArea",
        "team": "2",
        "vehicles": "4",
        "layer": "6",
        "inverted": "true",
        "max": [0.0, 0.0],
        "min": [0.0, 0.0]
      }
    },
    {
      "type": "Feature",
      "geometry": {
        "type": "Polygon",
        "coordinates": [
          [
            [0,0],
            [0,-2048],
            [2048,-2048],
            [2048,0]
          ],[
            [2048.0, 0.0],
            [0.0, 0.0],
            [0.0, -2048.0],
            [2048.0, -2048.0]
          ]
        ]
      },
      "bf2props": {
        "code": "combatarea_11_aas_common",
        "class": "CombatArea",
        "team": "0",
        "vehicles": "5",
        "layer": "6",
        "inverted": "false",
        "max": [0.0, 0.0],
        "min": [0.0, 0.0]
      }
    }
  ]
}