{
  "team1":"arf",
  "team2":"usa",
  "team1tickets":"850",
  "team2tickets":"600",
  "mapsize":"2048",
  "viewdistance":"500",
  "combatareause":"true",
  "combatareadamage":"20.0",
  "combatareaallowoutside":"15.0",
  "routes": [
    [
      [
        "cpname_ramiel_aas64_habr_gidr_hq"
      ],
      [
        "cpname_ramiel_aas64_extraction"
      ],
      [
        "cpname_ramiel_aas64_crew1",
        "cpname_ramiel_aas64_crew2",
        "cpname_ramiel_aas64_crew3",
        "cpname_ramiel_aas64_crew4",
        "cpname_ramiel_aas64_crew15"
      ],
      [
        "cpname_ramiel_aas64_crew5",
        "cpname_ramiel_aas64_crew6",
        "cpname_ramiel_aas64_crew7",
        "cpname_ramiel_aas64_crew8",
        "cpname_ramiel_aas64_crew13",
        "cpname_ramiel_aas64_crew14"
      ],
      [
        "cpname_ramiel_aas64_crew11"
      ],
      [
        "cpname_ramiel_aas64_blackhawk2"
      ],
      [
        "cpname_ramiel_aas64_convoy"
      ],
      [
        "cpname_ramiel_aas64_blackhawk1"
      ],
      [
        "cpname_ramiel_aas64_160th",
        "cpname_ramiel_aas64_deltaforce",
        "cpname_ramiel_aas64_10th"
      ]
    ]
  ],
  "type": "FeatureCollection",
  "features": [
    {
      "type": "Feature",
      "geometry": {
        "type": "Point",
        "coordinates": [687.062, -1668.964],
        "size": [16, 16]
      },
      "properties": {
        "iconurl": "icons/vehicles_map/mini_ahe_scout.png",
        "iconrotate": "0.0",
        "popupContent": "Amazing information about null will be found here!"
      },
      "bf2props": {
        "name": "cpname_ramiel_aas64_usmain_helo1",
        "class": "ObjectSpawner",
        "name_object": "MH-6 Littlebird",
        "team": "2",
        "obj1": "null",
        "obj2": "us_the_mh6",
        "maxspawn": "300.0",
        "minspawn": "300.0",
        "spawndelay": "false",
        "ttl": "99999.0",
        "cpid": "1"
      }
    },
    {
      "type": "Feature",
      "geometry": {
        "type": "Point",
        "coordinates": [416.823, -1701.998],
        "size": [16, 16]
      },
      "properties": {
        "iconurl": "icons/vehicles_map/mini_the_medium.png",
        "iconrotate": "0.0",
        "popupContent": "Amazing information about null will be found here!"
      },
      "bf2props": {
        "name": "cpname_ramiel_aas64_160th_helo3",
        "class": "ObjectSpawner",
        "name_object": "MH-60L Blackhawk",
        "team": "2",
        "obj1": "null",
        "obj2": "us_the_uh60_soar",
        "maxspawn": "300.0",
        "minspawn": "300.0",
        "spawndelay": "false",
        "ttl": "99999.0",
        "cpid": "615"
      }
    },
    {
      "type": "Feature",
      "geometry": {
        "type": "Point",
        "coordinates": [296.40802, -1617.9619],
        "size": [16, 16]
      },
      "properties": {
        "iconurl": "icons/mini_map/repairdepot.png",
        "iconrotate": "0",
        "popupContent": "Amazing information about null will be found here!"
      },
      "bf2props": {
        "name": "cpname_ramiel_aas64_160th_depot",
        "class": "ObjectSpawner",
        "name_object": "Vehicle Depot",
        "team": "2",
        "obj1": "null",
        "obj2": "vehicle_depot_us",
        "maxspawn": "0.0",
        "minspawn": "0.0",
        "spawndelay": "false",
        "ttl": "99999.0",
        "cpid": "617"
      }
    },
    {
      "type": "Feature",
      "geometry": {
        "type": "Point",
        "coordinates": [323.96698, -1695.698],
        "size": [16, 16]
      },
      "properties": {
        "iconurl": "icons/vehicles_map/mini_jep_medium.png",
        "iconrotate": "18.848",
        "popupContent": "Amazing information about null will be found here!"
      },
      "bf2props": {
        "name": "cpname_ramiel_aas64_160th_jeep1",
        "class": "ObjectSpawner",
        "name_object": "M1025 HMMWV MK19",
        "team": "2",
        "obj1": "null",
        "obj2": "us_jep_hmmwv_mk19",
        "maxspawn": "600.0",
        "minspawn": "600.0",
        "spawndelay": "false",
        "ttl": "99999.0",
        "cpid": "617"
      }
    },
    {
      "type": "Feature",
      "geometry": {
        "type": "Point",
        "coordinates": [334.338, -1695.3411],
        "size": [16, 16]
      },
      "properties": {
        "iconurl": "icons/vehicles_map/mini_jep_medium.png",
        "iconrotate": "18.774",
        "popupContent": "Amazing information about null will be found here!"
      },
      "bf2props": {
        "name": "cpname_ramiel_aas64_160th_jeep2",
        "class": "ObjectSpawner",
        "name_object": "M1025 HMMWV",
        "team": "2",
        "obj1": "null",
        "obj2": "us_jep_hmmwv",
        "maxspawn": "600.0",
        "minspawn": "600.0",
        "spawndelay": "false",
        "ttl": "99999.0",
        "cpid": "617"
      }
    },
    {
      "type": "Feature",
      "geometry": {
        "type": "Point",
        "coordinates": [328.74402, -1695.52],
        "size": [16, 16]
      },
      "properties": {
        "iconurl": "icons/vehicles_map/mini_jep_medium.png",
        "iconrotate": "21.355",
        "popupContent": "Amazing information about null will be found here!"
      },
      "bf2props": {
        "name": "cpname_ramiel_aas64_160th_jeep3",
        "class": "ObjectSpawner",
        "name_object": "M1025 HMMWV",
        "team": "2",
        "obj1": "null",
        "obj2": "us_jep_hmmwv",
        "maxspawn": "600.0",
        "minspawn": "600.0",
        "spawndelay": "false",
        "ttl": "99999.0",
        "cpid": "617"
      }
    },
    {
      "type": "Feature",
      "geometry": {
        "type": "Point",
        "coordinates": [758.91296, -1668.708],
        "size": [16, 16]
      },
      "properties": {
        "iconurl": "icons/vehicles_map/mini_ahe_light.png",
        "iconrotate": "0.0",
        "popupContent": "Amazing information about null will be found here!"
      },
      "bf2props": {
        "name": "cpname_ramiel_aas64_usmain_helo4",
        "class": "ObjectSpawner",
        "name_object": "AH-6 Littlebird Rockets",
        "team": "2",
        "obj1": "null",
        "obj2": "us_ahe_ah6",
        "maxspawn": "1200.0",
        "minspawn": "1200.0",
        "spawndelay": "false",
        "ttl": "99999.0",
        "cpid": "1"
      }
    },
    {
      "type": "Feature",
      "geometry": {
        "type": "Point",
        "coordinates": [741.162, -1669.14],
        "size": [16, 16]
      },
      "properties": {
        "iconurl": "icons/vehicles_map/mini_ahe_scout.png",
        "iconrotate": "0.0",
        "popupContent": "Amazing information about null will be found here!"
      },
      "bf2props": {
        "name": "cpname_ramiel_aas64_usmain_helo5",
        "class": "ObjectSpawner",
        "name_object": "MH-6 Littlebird",
        "team": "2",
        "obj1": "null",
        "obj2": "us_the_mh6",
        "maxspawn": "99999.0",
        "minspawn": "99999.0",
        "spawndelay": "false",
        "ttl": "99999.0",
        "cpid": "1"
      }
    },
    {
      "type": "Feature",
      "geometry": {
        "type": "Point",
        "coordinates": [705.478, -1668.971],
        "size": [16, 16]
      },
      "properties": {
        "iconurl": "icons/vehicles_map/mini_ahe_scout.png",
        "iconrotate": "0.0",
        "popupContent": "Amazing information about null will be found here!"
      },
      "bf2props": {
        "name": "cpname_ramiel_aas64_usmain_helo6",
        "class": "ObjectSpawner",
        "name_object": "MH-6 Littlebird",
        "team": "2",
        "obj1": "null",
        "obj2": "us_the_mh6",
        "maxspawn": "300.0",
        "minspawn": "300.0",
        "spawndelay": "false",
        "ttl": "99999.0",
        "cpid": "1"
      }
    },
    {
      "type": "Feature",
      "geometry": {
        "type": "Point",
        "coordinates": [776.662, -1668.895],
        "size": [16, 16]
      },
      "properties": {
        "iconurl": "icons/vehicles_map/mini_ahe_light.png",
        "iconrotate": "0.0",
        "popupContent": "Amazing information about null will be found here!"
      },
      "bf2props": {
        "name": "cpname_ramiel_aas64_160th_helo7",
        "class": "ObjectSpawner",
        "name_object": "AH-6 Littlebird Rockets",
        "team": "2",
        "obj1": "null",
        "obj2": "us_ahe_ah6",
        "maxspawn": "1200.0",
        "minspawn": "1200.0",
        "spawndelay": "false",
        "ttl": "99999.0",
        "cpid": "615"
      }
    },
    {
      "type": "Feature",
      "geometry": {
        "type": "Point",
        "coordinates": [318.565, -1695.4761],
        "size": [16, 16]
      },
      "properties": {
        "iconurl": "icons/vehicles_map/mini_jep_medium.png",
        "iconrotate": "20.586",
        "popupContent": "Amazing information about null will be found here!"
      },
      "bf2props": {
        "name": "cpname_ramiel_aas64_10th_jeep4",
        "class": "ObjectSpawner",
        "name_object": "M1025 HMMWV",
        "team": "2",
        "obj1": "null",
        "obj2": "us_jep_hmmwv",
        "maxspawn": "600.0",
        "minspawn": "600.0",
        "spawndelay": "false",
        "ttl": "99999.0",
        "cpid": "617"
      }
    },
    {
      "type": "Feature",
      "geometry": {
        "type": "Point",
        "coordinates": [313.297, -1695.557],
        "size": [16, 16]
      },
      "properties": {
        "iconurl": "icons/vehicles_map/mini_jep_medium.png",
        "iconrotate": "20.24",
        "popupContent": "Amazing information about null will be found here!"
      },
      "bf2props": {
        "name": "cpname_ramiel_aas64_10th_jeep5",
        "class": "ObjectSpawner",
        "name_object": "M1025 HMMWV",
        "team": "2",
        "obj1": "null",
        "obj2": "us_jep_hmmwv",
        "maxspawn": "600.0",
        "minspawn": "600.0",
        "spawndelay": "false",
        "ttl": "99999.0",
        "cpid": "617"
      }
    },
    {
      "type": "Feature",
      "geometry": {
        "type": "Point",
        "coordinates": [340.71198, -1649.879],
        "size": [16, 16]
      },
      "properties": {
        "iconurl": "icons/vehicles_map/mini_apc_medium.png",
        "iconrotate": "46.872",
        "popupContent": "Amazing information about null will be found here!"
      },
      "bf2props": {
        "name": "cpname_ramiel_aas64_10th_apc1",
        "class": "ObjectSpawner",
        "name_object": "VBCI",
        "team": "2",
        "obj1": "null",
        "obj2": "fr_apc_vbci",
        "maxspawn": "99999.0",
        "minspawn": "99999.0",
        "spawndelay": "false",
        "ttl": "99999.0",
        "cpid": "622"
      }
    },
    {
      "type": "Feature",
      "geometry": {
        "type": "Point",
        "coordinates": [352.667, -1638.06],
        "size": [16, 16]
      },
      "properties": {
        "iconurl": "icons/vehicles_map/mini_apc_medium.png",
        "iconrotate": "48.766",
        "popupContent": "Amazing information about null will be found here!"
      },
      "bf2props": {
        "name": "cpname_ramiel_aas64_10th_apc2",
        "class": "ObjectSpawner",
        "name_object": "VBCI",
        "team": "2",
        "obj1": "null",
        "obj2": "fr_apc_vbci",
        "maxspawn": "99999.0",
        "minspawn": "99999.0",
        "spawndelay": "false",
        "ttl": "99999.0",
        "cpid": "622"
      }
    },
    {
      "type": "Feature",
      "geometry": {
        "type": "Point",
        "coordinates": [393.03003, 1654.124],
        "size": [16, 16]
      },
      "properties": {
        "iconurl": "icons/mini_map/airdef.png",
        "iconrotate": "0",
        "popupContent": "Amazing information about Mortar Barrage Call-In will be found here!"
      },
      "bf2props": {
        "name": "cpname_ramiel_aas64_habr_gidr_hq_mortar1",
        "class": "ObjectSpawner",
        "name_object": "Mortar Barrage Call-In",
        "team": "1",
        "obj1": "mortar_team1",
        "obj2": "null",
        "maxspawn": "1200.0",
        "minspawn": "1200.0",
        "spawndelay": "true",
        "ttl": "99999.0",
        "cpid": "603"
      }
    },
    {
      "type": "Feature",
      "geometry": {
        "type": "Point",
        "coordinates": [233.77002, 1599.5801],
        "size": [16, 16]
      },
      "properties": {
        "iconurl": "icons/mini_map/airdef.png",
        "iconrotate": "0",
        "popupContent": "Amazing information about Mortar Barrage Call-In will be found here!"
      },
      "bf2props": {
        "name": "cpname_ramiel_aas64_habr_gidr_hq_mortar2",
        "class": "ObjectSpawner",
        "name_object": "Mortar Barrage Call-In",
        "team": "1",
        "obj1": "mortar_team1",
        "obj2": "null",
        "maxspawn": "1200.0",
        "minspawn": "1200.0",
        "spawndelay": "true",
        "ttl": "99999.0",
        "cpid": "603"
      }
    },
    {
      "type": "Feature",
      "geometry": {
        "type": "Point",
        "coordinates": [447.826, 1530.8379],
        "size": [16, 16]
      },
      "properties": {
        "iconurl": "icons/mini_map/airdef.png",
        "iconrotate": "0",
        "popupContent": "Amazing information about Mortar Barrage Call-In will be found here!"
      },
      "bf2props": {
        "name": "cpname_ramiel_aas64_habr_gidr_hq_mortar3",
        "class": "ObjectSpawner",
        "name_object": "Mortar Barrage Call-In",
        "team": "1",
        "obj1": "mortar_team1",
        "obj2": "null",
        "maxspawn": "1200.0",
        "minspawn": "1200.0",
        "spawndelay": "true",
        "ttl": "99999.0",
        "cpid": "603"
      }
    },
    {
      "type": "Feature",
      "geometry": {
        "type": "Point",
        "coordinates": [344.74, 1615.8921],
        "size": [16, 16]
      },
      "properties": {
        "iconurl": "icons/mini_map/airdef.png",
        "iconrotate": "0",
        "popupContent": "Amazing information about Mortar Barrage Call-In will be found here!"
      },
      "bf2props": {
        "name": "cpname_ramiel_aas64_habr_gidr_hq_mortar4",
        "class": "ObjectSpawner",
        "name_object": "Mortar Barrage Call-In",
        "team": "1",
        "obj1": "mortar_team1",
        "obj2": "null",
        "maxspawn": "1200.0",
        "minspawn": "1200.0",
        "spawndelay": "true",
        "ttl": "99999.0",
        "cpid": "603"
      }
    },
    {
      "type": "Feature",
      "geometry": {
        "type": "Point",
        "coordinates": [538.167, -435.61603],
        "size": [16, 16]
      },
      "properties": {
        "iconurl": "icons/vehicles_map/mini_jep_logistics.png",
        "iconrotate": "-92.085",
        "popupContent": "Amazing information about Logistics Technical will be found here!"
      },
      "bf2props": {
        "name": "cpname_ramiel_aas64_habr_gidr_hq_jeep1",
        "class": "ObjectSpawner",
        "name_object": "Logistics Technical",
        "team": "1",
        "obj1": "civ_jep_support_logistics",
        "obj2": "null",
        "maxspawn": "300.0",
        "minspawn": "300.0",
        "spawndelay": "false",
        "ttl": "99999.0",
        "cpid": "603"
      }
    },
    {
      "type": "Feature",
      "geometry": {
        "type": "Point",
        "coordinates": [531.485, -453.315],
        "size": [16, 16]
      },
      "properties": {
        "iconurl": "icons/vehicles_map/mini_jep_light.png",
        "iconrotate": "0.0",
        "popupContent": "Amazing information about M2HB Technical will be found here!"
      },
      "bf2props": {
        "name": "cpname_ramiel_aas64_habr_gidr_hq_jeep2",
        "class": "ObjectSpawner",
        "name_object": "M2HB Technical",
        "team": "1",
        "obj1": "civ_jep_technical_red",
        "obj2": "null",
        "maxspawn": "600.0",
        "minspawn": "600.0",
        "spawndelay": "false",
        "ttl": "99999.0",
        "cpid": "603"
      }
    },
    {
      "type": "Feature",
      "geometry": {
        "type": "Point",
        "coordinates": [1270.13, -669.739],
        "size": [16, 16]
      },
      "properties": {
        "iconurl": "icons/spotted_map/icon_objectivespotted.png",
        "iconrotate": "-180.0",
        "popupContent": "Amazing information about Weapon Cache will be found here!"
      },
      "bf2props": {
        "name": "cpname_ramiel_aas64_mosque1_crate",
        "class": "ObjectSpawner",
        "name_object": "Weapon Cache",
        "team": "1",
        "obj1": "ammocache",
        "obj2": "null",
        "maxspawn": "10.0",
        "minspawn": "10.0",
        "spawndelay": "false",
        "ttl": "99999.0",
        "cpid": "604"
      }
    },
    {
      "type": "Feature",
      "geometry": {
        "type": "Point",
        "coordinates": [642.76904, -599.45496],
        "size": [16, 16]
      },
      "properties": {
        "iconurl": "icons/spotted_map/icon_objectivespotted.png",
        "iconrotate": "-180.0",
        "popupContent": "Amazing information about Weapon Cache will be found here!"
      },
      "bf2props": {
        "name": "cpname_ramiel_aas64_mosque2_crate",
        "class": "ObjectSpawner",
        "name_object": "Weapon Cache",
        "team": "1",
        "obj1": "ammocache",
        "obj2": "null",
        "maxspawn": "10.0",
        "minspawn": "10.0",
        "spawndelay": "false",
        "ttl": "0.0",
        "cpid": "605"
      }
    },
    {
      "type": "Feature",
      "geometry": {
        "type": "Point",
        "coordinates": [980.601, -803.815],
        "size": [16, 16]
      },
      "properties": {
        "iconurl": "icons/player_map/mini_squad.png",
        "iconrotate": "0",
        "popupContent": "Amazing information about Temporary spawnpoint will be found here!"
      },
      "bf2props": {
        "name": "cpname_ramiel_aas64_habr_gidr_hq_spawn",
        "class": "ObjectSpawner",
        "name_object": "Temporary spawnpoint",
        "team": "1",
        "obj1": "rallypoint_arf_placeable",
        "obj2": "null",
        "maxspawn": "99999.0",
        "minspawn": "99999.0",
        "spawndelay": "false",
        "ttl": "99999.0",
        "cpid": "603"
      }
    },
    {
      "type": "Feature",
      "geometry": {
        "type": "Point",
        "coordinates": [983.157, -782.924],
        "size": [16, 16]
      },
      "properties": {
        "iconurl": "icons/player_map/mini_squad.png",
        "iconrotate": "0",
        "popupContent": "Amazing information about Temporary spawnpoint will be found here!"
      },
      "bf2props": {
        "name": "cpname_ramiel_aas64_blackhawk2_spawn2",
        "class": "ObjectSpawner",
        "name_object": "Temporary spawnpoint",
        "team": "1",
        "obj1": "rallypoint_arf_placeable",
        "obj2": "null",
        "maxspawn": "99999.0",
        "minspawn": "99999.0",
        "spawndelay": "false",
        "ttl": "99999.0",
        "cpid": "603"
      }
    },
    {
      "type": "Feature",
      "geometry": {
        "type": "Point",
        "coordinates": [1102.624, -215.71002],
        "size": [16, 16]
      },
      "properties": {
        "iconurl": "icons/player_map/mini_squad.png",
        "iconrotate": "0",
        "popupContent": "Amazing information about Temporary spawnpoint will be found here!"
      },
      "bf2props": {
        "name": "cpname_ramiel_aas64_habr_gidr_hq_spawn3",
        "class": "ObjectSpawner",
        "name_object": "Temporary spawnpoint",
        "team": "1",
        "obj1": "rallypoint_arf_placeable",
        "obj2": "null",
        "maxspawn": "99999.0",
        "minspawn": "99999.0",
        "spawndelay": "false",
        "ttl": "99999.0",
        "cpid": "603"
      }
    },
    {
      "type": "Feature",
      "geometry": {
        "type": "Point",
        "coordinates": [1098.942, -523.072],
        "size": [16, 16]
      },
      "properties": {
        "iconurl": "icons/player_map/mini_squad.png",
        "iconrotate": "0",
        "popupContent": "Amazing information about Temporary spawnpoint will be found here!"
      },
      "bf2props": {
        "name": "cpname_ramiel_aas64_habr_gidr_hq_spawn4",
        "class": "ObjectSpawner",
        "name_object": "Temporary spawnpoint",
        "team": "1",
        "obj1": "rallypoint_arf_placeable",
        "obj2": "null",
        "maxspawn": "99999.0",
        "minspawn": "99999.0",
        "spawndelay": "false",
        "ttl": "99999.0",
        "cpid": "603"
      }
    },
    {
      "type": "Feature",
      "geometry": {
        "type": "Point",
        "coordinates": [1046.726, -599.64],
        "size": [16, 16]
      },
      "properties": {
        "iconurl": "icons/vehicles_map/mini_jep_medium.png",
        "iconrotate": "96.038",
        "popupContent": "Amazing information about null will be found here!"
      },
      "bf2props": {
        "name": "cpname_ramiel_aas64_crew10_jeep1",
        "class": "ObjectSpawner",
        "name_object": "M1025 HMMWV",
        "team": "2",
        "obj1": "null",
        "obj2": "us_jep_hmmwv",
        "maxspawn": "99999.0",
        "minspawn": "99999.0",
        "spawndelay": "false",
        "ttl": "99999.0",
        "cpid": "626"
      }
    },
    {
      "type": "Feature",
      "geometry": {
        "type": "Point",
        "coordinates": [1060.634, -597.95],
        "size": [16, 16]
      },
      "properties": {
        "iconurl": "icons/vehicles_map/mini_jep_medium.png",
        "iconrotate": "86.533",
        "popupContent": "Amazing information about null will be found here!"
      },
      "bf2props": {
        "name": "cpname_ramiel_aas64_crew11_jeep1",
        "class": "ObjectSpawner",
        "name_object": "M1025 HMMWV",
        "team": "2",
        "obj1": "null",
        "obj2": "us_jep_hmmwv",
        "maxspawn": "99999.0",
        "minspawn": "99999.0",
        "spawndelay": "false",
        "ttl": "99999.0",
        "cpid": "626"
      }
    },
    {
      "type": "Feature",
      "geometry": {
        "type": "Point",
        "coordinates": [1052.438, -596.674],
        "size": [16, 16]
      },
      "properties": {
        "iconurl": "icons/vehicles_map/mini_jep_medium.png",
        "iconrotate": "86.533",
        "popupContent": "Amazing information about null will be found here!"
      },
      "bf2props": {
        "name": "cpname_ramiel_aas64_crew12_jeep3",
        "class": "ObjectSpawner",
        "name_object": "M1151 Up-Armored HMMWV MK19",
        "team": "2",
        "obj1": "null",
        "obj2": "us_jep_hmmwv_uparmored_mk19",
        "maxspawn": "99999.0",
        "minspawn": "99999.0",
        "spawndelay": "false",
        "ttl": "99999.0",
        "cpid": "626"
      }
    },
    {
      "type": "Feature",
      "geometry": {
        "type": "Point",
        "coordinates": [330.511, -1660.714],
        "size": [16, 16]
      },
      "properties": {
        "iconurl": "icons/vehicles_map/mini_apc_light.png",
        "iconrotate": "46.872",
        "popupContent": "Amazing information about null will be found here!"
      },
      "bf2props": {
        "name": "cpname_ramiel_aas64_160th_tank",
        "class": "ObjectSpawner",
        "name_object": "VAB VTT",
        "team": "2",
        "obj1": "null",
        "obj2": "fr_apc_vab",
        "maxspawn": "99999.0",
        "minspawn": "99999.0",
        "spawndelay": "false",
        "ttl": "99999.0",
        "cpid": "622"
      }
    },
    {
      "type": "Feature",
      "geometry": {
        "type": "Point",
        "coordinates": [435.28198, -1702.87],
        "size": [16, 16]
      },
      "properties": {
        "iconurl": "icons/vehicles_map/mini_the_medium.png",
        "iconrotate": "0.0",
        "popupContent": "Amazing information about null will be found here!"
      },
      "bf2props": {
        "name": "cpname_ramiel_aas64_160th_helo7_0",
        "class": "ObjectSpawner",
        "name_object": "MH-60L Blackhawk",
        "team": "2",
        "obj1": "null",
        "obj2": "us_the_uh60_soar",
        "maxspawn": "300.0",
        "minspawn": "300.0",
        "spawndelay": "false",
        "ttl": "99999.0",
        "cpid": "615"
      }
    },
    {
      "type": "Feature",
      "geometry": {
        "type": "Point",
        "coordinates": [537.202, -409.38397],
        "size": [16, 16]
      },
      "properties": {
        "iconurl": "icons/mini_map/repairdepot.png",
        "iconrotate": "0",
        "popupContent": "Amazing information about Vehicle Depot will be found here!"
      },
      "bf2props": {
        "name": "cpname_ramiel_aas64_habr_gidr_hq_repairdepot",
        "class": "ObjectSpawner",
        "name_object": "Vehicle Depot",
        "team": "1",
        "obj1": "vehicle_depot_tal",
        "obj2": "null",
        "maxspawn": "1.0",
        "minspawn": "1.0",
        "spawndelay": "false",
        "ttl": "99999.0",
        "cpid": "603"
      }
    },
    {
      "type": "Feature",
      "geometry": {
        "type": "Point",
        "coordinates": [524.90796, -453.24],
        "size": [16, 16]
      },
      "properties": {
        "iconurl": "icons/vehicles_map/mini_adv_light.png",
        "iconrotate": "0.0",
        "popupContent": "Amazing information about Ural-4320 ZU-23-2 will be found here!"
      },
      "bf2props": {
        "name": "cpname_ramiel_aas64_habr_gidr_hq_jeep3",
        "class": "ObjectSpawner",
        "name_object": "Ural-4320 ZU-23-2",
        "team": "1",
        "obj1": "civ_aav_uralzu232",
        "obj2": "null",
        "maxspawn": "600.0",
        "minspawn": "600.0",
        "spawndelay": "true",
        "ttl": "99999.0",
        "cpid": "603"
      }
    },
    {
      "type": "Feature",
      "geometry": {
        "type": "Point",
        "coordinates": [514.36304, -453.60498],
        "size": [16, 16]
      },
      "properties": {
        "iconurl": "icons/vehicles_map/mini_jep_light.png",
        "iconrotate": "0.0",
        "popupContent": "Amazing information about DShKM Technical will be found here!"
      },
      "bf2props": {
        "name": "cpname_ramiel_aas64_habr_gidr_hq_jeep4",
        "class": "ObjectSpawner",
        "name_object": "DShKM Technical",
        "team": "1",
        "obj1": "civ_jep_technical",
        "obj2": "null",
        "maxspawn": "600.0",
        "minspawn": "600.0",
        "spawndelay": "false",
        "ttl": "99999.0",
        "cpid": "603"
      }
    },
    {
      "type": "Feature",
      "geometry": {
        "type": "Point",
        "coordinates": [522.181, -453.19702],
        "size": [16, 16]
      },
      "properties": {
        "iconurl": "icons/vehicles_map/mini_civ_dirtbike.png",
        "iconrotate": "0.0",
        "popupContent": "Amazing information about Dirtbike will be found here!"
      },
      "bf2props": {
        "name": "cpname_ramiel_aas64_habr_gidr_hq_bike1",
        "class": "ObjectSpawner",
        "name_object": "Dirtbike",
        "team": "1",
        "obj1": "civ_bik_dirtbike",
        "obj2": "null",
        "maxspawn": "300.0",
        "minspawn": "300.0",
        "spawndelay": "false",
        "ttl": "99999.0",
        "cpid": "603"
      }
    },
    {
      "type": "Feature",
      "geometry": {
        "type": "Point",
        "coordinates": [513.71204, -424.294],
        "size": [16, 16]
      },
      "properties": {
        "iconurl": "icons/vehicles_map/mini_civ_dirtbike.png",
        "iconrotate": "32.479",
        "popupContent": "Amazing information about Dirtbike will be found here!"
      },
      "bf2props": {
        "name": "cpname_ramiel_aas64_habr_gidr_hq_bike2",
        "class": "ObjectSpawner",
        "name_object": "Dirtbike",
        "team": "1",
        "obj1": "civ_bik_dirtbike",
        "obj2": "null",
        "maxspawn": "300.0",
        "minspawn": "300.0",
        "spawndelay": "false",
        "ttl": "99999.0",
        "cpid": "603"
      }
    },
    {
      "type": "Feature",
      "geometry": {
        "type": "Point",
        "coordinates": [514.03796, -420.286],
        "size": [16, 16]
      },
      "properties": {
        "iconurl": "icons/vehicles_map/mini_civ_dirtbike.png",
        "iconrotate": "29.476",
        "popupContent": "Amazing information about Dirtbike will be found here!"
      },
      "bf2props": {
        "name": "cpname_ramiel_aas64_habr_gidr_hq_bike3",
        "class": "ObjectSpawner",
        "name_object": "Dirtbike",
        "team": "1",
        "obj1": "civ_bik_dirtbike",
        "obj2": "null",
        "maxspawn": "300.0",
        "minspawn": "300.0",
        "spawndelay": "false",
        "ttl": "99999.0",
        "cpid": "603"
      }
    },
    {
      "type": "Feature",
      "geometry": {
        "type": "Point",
        "coordinates": [514.199, -416.388],
        "size": [16, 16]
      },
      "properties": {
        "iconurl": "icons/vehicles_map/mini_civ_dirtbike.png",
        "iconrotate": "30.191",
        "popupContent": "Amazing information about Dirtbike will be found here!"
      },
      "bf2props": {
        "name": "cpname_ramiel_aas64_habr_gidr_hq_bike4",
        "class": "ObjectSpawner",
        "name_object": "Dirtbike",
        "team": "1",
        "obj1": "civ_bik_dirtbike",
        "obj2": "null",
        "maxspawn": "300.0",
        "minspawn": "300.0",
        "spawndelay": "false",
        "ttl": "99999.0",
        "cpid": "603"
      }
    },
    {
      "type": "Feature",
      "geometry": {
        "type": "Point",
        "coordinates": [585.176, -423.153],
        "size": [16, 16]
      },
      "properties": {
        "iconurl": "icons/vehicles_map/mini_civ_car.png",
        "iconrotate": "162.17",
        "popupContent": "Amazing information about Civilian Car will be found here!"
      },
      "bf2props": {
        "name": "cpname_ramiel_aas64_habr_gidr_hq_jeep5",
        "class": "ObjectSpawner",
        "name_object": "Civilian Car",
        "team": "1",
        "obj1": "civ_jep_car_black",
        "obj2": "null",
        "maxspawn": "300.0",
        "minspawn": "300.0",
        "spawndelay": "false",
        "ttl": "99999.0",
        "cpid": "603"
      }
    },
    {
      "type": "Feature",
      "geometry": {
        "type": "Point",
        "coordinates": [589.301, -422.47302],
        "size": [16, 16]
      },
      "properties": {
        "iconurl": "icons/vehicles_map/mini_civ_car.png",
        "iconrotate": "-180.0",
        "popupContent": "Amazing information about Civilian Car will be found here!"
      },
      "bf2props": {
        "name": "cpname_ramiel_aas64_habr_gidr_hq_jeep6",
        "class": "ObjectSpawner",
        "name_object": "Civilian Car",
        "team": "1",
        "obj1": "civ_jep_car",
        "obj2": "null",
        "maxspawn": "300.0",
        "minspawn": "300.0",
        "spawndelay": "false",
        "ttl": "99999.0",
        "cpid": "603"
      }
    },
    {
      "type": "Feature",
      "geometry": {
        "type": "Point",
        "coordinates": [593.76196, -422.159],
        "size": [16, 16]
      },
      "properties": {
        "iconurl": "icons/vehicles_map/mini_jep_light.png",
        "iconrotate": "-180.0",
        "popupContent": "Amazing information about DShKM Technical will be found here!"
      },
      "bf2props": {
        "name": "cpname_ramiel_aas64_habr_gidr_hq_jeep7",
        "class": "ObjectSpawner",
        "name_object": "DShKM Technical",
        "team": "1",
        "obj1": "civ_jep_technical",
        "obj2": "null",
        "maxspawn": "600.0",
        "minspawn": "600.0",
        "spawndelay": "true",
        "ttl": "99999.0",
        "cpid": "603"
      }
    },
    {
      "type": "Feature",
      "geometry": {
        "type": "Point",
        "coordinates": [507.136, -1679.829],
        "size": [16, 16]
      },
      "properties": {
        "iconurl": "icons/mini_map/uavtrailer.png",
        "iconrotate": "0",
        "popupContent": "Amazing information about null will be found here!"
      },
      "bf2props": {
        "name": "cpname_ramiel_aas64_160th_acv",
        "class": "ObjectSpawner",
        "name_object": "UAV Terminal",
        "team": "2",
        "obj1": "null",
        "obj2": "us_acv_stryker",
        "maxspawn": "1.0",
        "minspawn": "1.0",
        "spawndelay": "false",
        "ttl": "99999.0",
        "cpid": "615"
      }
    },
    {
      "type": "Feature",
      "geometry": {
        "type": "Point",
        "coordinates": [1099.105, -539.447],
        "size": [16, 16]
      },
      "properties": {
        "iconurl": "icons/spotted_map/icon_objectivespotted.png",
        "iconrotate": "90.0",
        "popupContent": "Amazing information about Weapon Cache will be found here!"
      },
      "bf2props": {
        "name": "cpname_ramiel_aas64_habr_gidr_hq_ammo1",
        "class": "ObjectSpawner",
        "name_object": "Weapon Cache",
        "team": "1",
        "obj1": "ammocache",
        "obj2": "null",
        "maxspawn": "99999.0",
        "minspawn": "99999.0",
        "spawndelay": "false",
        "ttl": "99999.0",
        "cpid": "603"
      }
    },
    {
      "type": "Feature",
      "geometry": {
        "type": "Point",
        "coordinates": [985.836, -795.302],
        "size": [16, 16]
      },
      "properties": {
        "iconurl": "icons/spotted_map/icon_objectivespotted.png",
        "iconrotate": "0.0",
        "popupContent": "Amazing information about Weapon Cache will be found here!"
      },
      "bf2props": {
        "name": "cpname_ramiel_aas64_habr_gidr_hq_ammo2",
        "class": "ObjectSpawner",
        "name_object": "Weapon Cache",
        "team": "1",
        "obj1": "ammocache",
        "obj2": "null",
        "maxspawn": "99999.0",
        "minspawn": "99999.0",
        "spawndelay": "false",
        "ttl": "99999.0",
        "cpid": "603"
      }
    },
    {
      "type": "Feature",
      "geometry": {
        "type": "Point",
        "coordinates": [1795.942, -1337.615],
        "size": [16, 16]
      },
      "properties": {
        "iconurl": "icons/spotted_map/icon_objectivespotted.png",
        "iconrotate": "0.0",
        "popupContent": "Amazing information about Weapon Cache will be found here!"
      },
      "bf2props": {
        "name": "cpname_ramiel_aas64_city2_ammo",
        "class": "ObjectSpawner",
        "name_object": "Weapon Cache",
        "team": "1",
        "obj1": "ammocache",
        "obj2": "null",
        "maxspawn": "99999.0",
        "minspawn": "99999.0",
        "spawndelay": "false",
        "ttl": "99999.0",
        "cpid": "607"
      }
    },
    {
      "type": "Feature",
      "geometry": {
        "type": "Point",
        "coordinates": [559.53296, -448.49103],
        "size": [16, 16]
      },
      "properties": {
        "iconurl": "icons/spotted_map/icon_objectivespotted.png",
        "iconrotate": "180.0",
        "popupContent": "Amazing information about Weapon Cache will be found here!"
      },
      "bf2props": {
        "name": "cpname_ramiel_aas64_habr_gidr_hq_ammo1_0",
        "class": "ObjectSpawner",
        "name_object": "Weapon Cache",
        "team": "1",
        "obj1": "ammocache",
        "obj2": "null",
        "maxspawn": "10.0",
        "minspawn": "10.0",
        "spawndelay": "false",
        "ttl": "99999.0",
        "cpid": "603"
      }
    },
    {
      "type": "Feature",
      "geometry": {
        "type": "Point",
        "coordinates": [551.51697, -411.297],
        "size": [16, 16]
      },
      "properties": {
        "iconurl": "icons/spotted_map/icon_objectivespotted.png",
        "iconrotate": "-90.0",
        "popupContent": "Amazing information about Weapon Cache will be found here!"
      },
      "bf2props": {
        "name": "cpname_ramiel_aas64_habr_gidr_hq_ammo2_0",
        "class": "ObjectSpawner",
        "name_object": "Weapon Cache",
        "team": "1",
        "obj1": "ammocache",
        "obj2": "null",
        "maxspawn": "10.0",
        "minspawn": "10.0",
        "spawndelay": "false",
        "ttl": "99999.0",
        "cpid": "603"
      }
    },
    {
      "type": "Feature",
      "geometry": {
        "type": "Point",
        "coordinates": [1792.4141, -1318.483],
        "size": [16, 16]
      },
      "properties": {
        "iconurl": "icons/vehicles_map/mini_civ_car.png",
        "iconrotate": "154.332",
        "popupContent": "Amazing information about Civilian Car will be found here!"
      },
      "bf2props": {
        "name": "cpname_ramiel_aas64_city2_car",
        "class": "ObjectSpawner",
        "name_object": "Civilian Car",
        "team": "1",
        "obj1": "civ_jep_car",
        "obj2": "null",
        "maxspawn": "300.0",
        "minspawn": "300.0",
        "spawndelay": "false",
        "ttl": "99999.0",
        "cpid": "607"
      }
    },
    {
      "type": "Feature",
      "geometry": {
        "type": "Point",
        "coordinates": [1098.879, -202.40802],
        "size": [16, 16]
      },
      "properties": {
        "iconurl": "icons/vehicles_map/mini_civ_car.png",
        "iconrotate": "-111.847",
        "popupContent": "Amazing information about Civilian Car will be found here!"
      },
      "bf2props": {
        "name": "cpname_ramiel_aas64_city4_car",
        "class": "ObjectSpawner",
        "name_object": "Civilian Car",
        "team": "1",
        "obj1": "civ_jep_car_blue",
        "obj2": "null",
        "maxspawn": "300.0",
        "minspawn": "300.0",
        "spawndelay": "false",
        "ttl": "99999.0",
        "cpid": "603"
      }
    },
    {
      "type": "Feature",
      "geometry": {
        "type": "Point",
        "coordinates": [1096.379, -223.45099],
        "size": [16, 16]
      },
      "properties": {
        "iconurl": "icons/spotted_map/icon_objectivespotted.png",
        "iconrotate": "0.0",
        "popupContent": "Amazing information about Weapon Cache will be found here!"
      },
      "bf2props": {
        "name": "cpname_ramiel_aas64_habr_gidr_hq_ammo5",
        "class": "ObjectSpawner",
        "name_object": "Weapon Cache",
        "team": "1",
        "obj1": "ammocache",
        "obj2": "null",
        "maxspawn": "99999.0",
        "minspawn": "99999.0",
        "spawndelay": "false",
        "ttl": "99999.0",
        "cpid": "603"
      }
    },
    {
      "type": "Feature",
      "geometry": {
        "type": "Point",
        "coordinates": [285.20697, -519.464],
        "size": [16, 16]
      },
      "properties": {
        "iconurl": "icons/spotted_map/icon_objectivespotted.png",
        "iconrotate": "0.0",
        "popupContent": "Amazing information about Weapon Cache will be found here!"
      },
      "bf2props": {
        "name": "cpname_ramiel_aas64_crew1_ammo",
        "class": "ObjectSpawner",
        "name_object": "Weapon Cache",
        "team": "1",
        "obj1": "ammocache",
        "obj2": "null",
        "maxspawn": "99999.0",
        "minspawn": "99999.0",
        "spawndelay": "false",
        "ttl": "99999.0",
        "cpid": "610"
      }
    },
    {
      "type": "Feature",
      "geometry": {
        "type": "Point",
        "coordinates": [349.31097, -299.911],
        "size": [16, 16]
      },
      "properties": {
        "iconurl": "icons/spotted_map/icon_objectivespotted.png",
        "iconrotate": "0.0",
        "popupContent": "Amazing information about Weapon Cache will be found here!"
      },
      "bf2props": {
        "name": "cpname_ramiel_aas64_crew2_ammo",
        "class": "ObjectSpawner",
        "name_object": "Weapon Cache",
        "team": "1",
        "obj1": "ammocache",
        "obj2": "null",
        "maxspawn": "99999.0",
        "minspawn": "99999.0",
        "spawndelay": "false",
        "ttl": "99999.0",
        "cpid": "611"
      }
    },
    {
      "type": "Feature",
      "geometry": {
        "type": "Point",
        "coordinates": [217.09698, -278.80902],
        "size": [16, 16]
      },
      "properties": {
        "iconurl": "icons/spotted_map/icon_objectivespotted.png",
        "iconrotate": "0.0",
        "popupContent": "Amazing information about Weapon Cache will be found here!"
      },
      "bf2props": {
        "name": "cpname_ramiel_aas64_crew3_ammo",
        "class": "ObjectSpawner",
        "name_object": "Weapon Cache",
        "team": "1",
        "obj1": "ammocache",
        "obj2": "null",
        "maxspawn": "99999.0",
        "minspawn": "99999.0",
        "spawndelay": "false",
        "ttl": "99999.0",
        "cpid": "612"
      }
    },
    {
      "type": "Feature",
      "geometry": {
        "type": "Point",
        "coordinates": [113.685, -366.16602],
        "size": [16, 16]
      },
      "properties": {
        "iconurl": "icons/spotted_map/icon_objectivespotted.png",
        "iconrotate": "-180.0",
        "popupContent": "Amazing information about Weapon Cache will be found here!"
      },
      "bf2props": {
        "name": "cpname_ramiel_aas64_crew4_ammo",
        "class": "ObjectSpawner",
        "name_object": "Weapon Cache",
        "team": "1",
        "obj1": "ammocache",
        "obj2": "null",
        "maxspawn": "99999.0",
        "minspawn": "99999.0",
        "spawndelay": "false",
        "ttl": "99999.0",
        "cpid": "613"
      }
    },
    {
      "type": "Feature",
      "geometry": {
        "type": "Point",
        "coordinates": [505.714, -843.13904],
        "size": [16, 16]
      },
      "properties": {
        "iconurl": "icons/spotted_map/icon_objectivespotted.png",
        "iconrotate": "90.0",
        "popupContent": "Amazing information about Weapon Cache will be found here!"
      },
      "bf2props": {
        "name": "cpname_ramiel_aas64_crew5_ammo",
        "class": "ObjectSpawner",
        "name_object": "Weapon Cache",
        "team": "1",
        "obj1": "ammocache",
        "obj2": "null",
        "maxspawn": "99999.0",
        "minspawn": "99999.0",
        "spawndelay": "false",
        "ttl": "99999.0",
        "cpid": "614"
      }
    },
    {
      "type": "Feature",
      "geometry": {
        "type": "Point",
        "coordinates": [761.719, -832.246],
        "size": [16, 16]
      },
      "properties": {
        "iconurl": "icons/spotted_map/icon_objectivespotted.png",
        "iconrotate": "-90.0",
        "popupContent": "Amazing information about Weapon Cache will be found here!"
      },
      "bf2props": {
        "name": "cpname_ramiel_aas64_crew6_ammo",
        "class": "ObjectSpawner",
        "name_object": "Weapon Cache",
        "team": "1",
        "obj1": "ammocache",
        "obj2": "null",
        "maxspawn": "99999.0",
        "minspawn": "99999.0",
        "spawndelay": "false",
        "ttl": "99999.0",
        "cpid": "616"
      }
    },
    {
      "type": "Feature",
      "geometry": {
        "type": "Point",
        "coordinates": [788.268, -682.318],
        "size": [16, 16]
      },
      "properties": {
        "iconurl": "icons/spotted_map/icon_objectivespotted.png",
        "iconrotate": "-135.306",
        "popupContent": "Amazing information about Weapon Cache will be found here!"
      },
      "bf2props": {
        "name": "cpname_ramiel_aas64_crew7_ammo",
        "class": "ObjectSpawner",
        "name_object": "Weapon Cache",
        "team": "1",
        "obj1": "ammocache",
        "obj2": "null",
        "maxspawn": "99999.0",
        "minspawn": "99999.0",
        "spawndelay": "false",
        "ttl": "99999.0",
        "cpid": "618"
      }
    },
    {
      "type": "Feature",
      "geometry": {
        "type": "Point",
        "coordinates": [512.246, -779.551],
        "size": [16, 16]
      },
      "properties": {
        "iconurl": "icons/spotted_map/icon_objectivespotted.png",
        "iconrotate": "90.0",
        "popupContent": "Amazing information about Weapon Cache will be found here!"
      },
      "bf2props": {
        "name": "cpname_ramiel_aas64_crew8_ammo",
        "class": "ObjectSpawner",
        "name_object": "Weapon Cache",
        "team": "1",
        "obj1": "ammocache",
        "obj2": "null",
        "maxspawn": "99999.0",
        "minspawn": "99999.0",
        "spawndelay": "false",
        "ttl": "99999.0",
        "cpid": "619"
      }
    },
    {
      "type": "Feature",
      "geometry": {
        "type": "Point",
        "coordinates": [916.747, -458.755],
        "size": [16, 16]
      },
      "properties": {
        "iconurl": "icons/spotted_map/icon_objectivespotted.png",
        "iconrotate": "0.0",
        "popupContent": "Amazing information about Weapon Cache will be found here!"
      },
      "bf2props": {
        "name": "cpname_ramiel_aas64_crew13_ammo",
        "class": "ObjectSpawner",
        "name_object": "Weapon Cache",
        "team": "1",
        "obj1": "ammocache",
        "obj2": "null",
        "maxspawn": "99999.0",
        "minspawn": "99999.0",
        "spawndelay": "false",
        "ttl": "99999.0",
        "cpid": "620"
      }
    },
    {
      "type": "Feature",
      "geometry": {
        "type": "Point",
        "coordinates": [855.319, -617.656],
        "size": [16, 16]
      },
      "properties": {
        "iconurl": "icons/spotted_map/icon_objectivespotted.png",
        "iconrotate": "0.0",
        "popupContent": "Amazing information about Weapon Cache will be found here!"
      },
      "bf2props": {
        "name": "cpname_ramiel_aas64_crew14_ammo",
        "class": "ObjectSpawner",
        "name_object": "Weapon Cache",
        "team": "1",
        "obj1": "ammocache",
        "obj2": "null",
        "maxspawn": "99999.0",
        "minspawn": "99999.0",
        "spawndelay": "false",
        "ttl": "99999.0",
        "cpid": "621"
      }
    },
    {
      "type": "Feature",
      "geometry": {
        "type": "Point",
        "coordinates": [391.16302, -586.254],
        "size": [16, 16]
      },
      "properties": {
        "iconurl": "icons/spotted_map/icon_objectivespotted.png",
        "iconrotate": "-90.0",
        "popupContent": "Amazing information about Weapon Cache will be found here!"
      },
      "bf2props": {
        "name": "cpname_ramiel_aas64_crew15_ammo",
        "class": "ObjectSpawner",
        "name_object": "Weapon Cache",
        "team": "1",
        "obj1": "ammocache",
        "obj2": "null",
        "maxspawn": "99999.0",
        "minspawn": "99999.0",
        "spawndelay": "false",
        "ttl": "99999.0",
        "cpid": "625"
      }
    },
    {
      "type": "Feature",
      "geometry": {
        "type": "Point",
        "coordinates": [64.34601, -634.453],
        "size": [16, 16]
      },
      "properties": {
        "iconurl": "icons/vehicles_map/mini_civ_car.png",
        "iconrotate": "-90.0",
        "popupContent": "Amazing information about Civilian Car will be found here!"
      },
      "bf2props": {
        "name": "cpname_ramiel_aas64_city5_ins_jeep_3",
        "class": "ObjectSpawner",
        "name_object": "Civilian Car",
        "team": "1",
        "obj1": "civ_jep_car_blue",
        "obj2": "null",
        "maxspawn": "300.0",
        "minspawn": "300.0",
        "spawndelay": "false",
        "ttl": "99999.0",
        "cpid": "603"
      }
    },
    {
      "type": "Feature",
      "geometry": {
        "type": "Point",
        "coordinates": [594.91504, -435.472],
        "size": [16, 16]
      },
      "properties": {
        "iconurl": "icons/vehicles_map/mini_jep_atgm.png",
        "iconrotate": "83.425",
        "popupContent": "Amazing information about SPG-9 Technical will be found here!"
      },
      "bf2props": {
        "name": "cpname_ramiel_aas64_habr_gidr_hq_spg",
        "class": "ObjectSpawner",
        "name_object": "SPG-9 Technical",
        "team": "1",
        "obj1": "civ_atm_technical",
        "obj2": "null",
        "maxspawn": "99999.0",
        "minspawn": "99999.0",
        "spawndelay": "false",
        "ttl": "99999.0",
        "cpid": "603"
      }
    },
    {
      "type": "Feature",
      "geometry": {
        "type": "Point",
        "coordinates": [581.193, -446.175],
        "size": [16, 16]
      },
      "properties": {
        "iconurl": "icons/mini_map/uavtrailer.png",
        "iconrotate": "0",
        "popupContent": "Amazing information about UAV Terminal will be found here!"
      },
      "bf2props": {
        "name": "cpname_ramiel_aas64_habr_gidr_hq_acv",
        "class": "ObjectSpawner",
        "name_object": "UAV Terminal",
        "team": "1",
        "obj1": "arf_acv_technical",
        "obj2": "null",
        "maxspawn": "0.0",
        "minspawn": "0.0",
        "spawndelay": "false",
        "ttl": "99999.0",
        "cpid": "603"
      }
    },
    {
      "type": "Feature",
      "geometry": {
        "type": "Point",
        "coordinates": [1267.686, -683.468],
        "size": [16, 16]
      },
      "properties": {
        "iconurl": "icons/player_map/mini_squad.png",
        "iconrotate": "0",
        "popupContent": "Amazing information about Temporary spawnpoint will be found here!"
      },
      "bf2props": {
        "name": "cpname_ramiel_aas64_mosque1_rally",
        "class": "ObjectSpawner",
        "name_object": "Temporary spawnpoint",
        "team": "1",
        "obj1": "rallypoint_arf_placeable",
        "obj2": "null",
        "maxspawn": "99999.0",
        "minspawn": "99999.0",
        "spawndelay": "false",
        "ttl": "99999.0",
        "cpid": "604"
      }
    },
    {
      "type": "Feature",
      "geometry": {
        "type": "Point",
        "coordinates": [1304.171, -673.98596],
        "size": [16, 16]
      },
      "properties": {
        "iconurl": "icons/player_map/mini_squad.png",
        "iconrotate": "0",
        "popupContent": "Amazing information about Temporary spawnpoint will be found here!"
      },
      "bf2props": {
        "name": "cpname_ramiel_aas64_mosque1_rally2",
        "class": "ObjectSpawner",
        "name_object": "Temporary spawnpoint",
        "team": "1",
        "obj1": "rallypoint_arf_placeable",
        "obj2": "null",
        "maxspawn": "99999.0",
        "minspawn": "99999.0",
        "spawndelay": "false",
        "ttl": "99999.0",
        "cpid": "604"
      }
    },
    {
      "type": "Feature",
      "geometry": {
        "type": "Point",
        "coordinates": [658.025, -611.371],
        "size": [16, 16]
      },
      "properties": {
        "iconurl": "icons/player_map/mini_squad.png",
        "iconrotate": "0",
        "popupContent": "Amazing information about Temporary spawnpoint will be found here!"
      },
      "bf2props": {
        "name": "cpname_ramiel_aas64_mosque2_rally",
        "class": "ObjectSpawner",
        "name_object": "Temporary spawnpoint",
        "team": "1",
        "obj1": "rallypoint_arf_placeable",
        "obj2": "null",
        "maxspawn": "99999.0",
        "minspawn": "99999.0",
        "spawndelay": "false",
        "ttl": "99999.0",
        "cpid": "605"
      }
    },
    {
      "type": "Feature",
      "geometry": {
        "type": "Point",
        "coordinates": [70.14398, -621.437],
        "size": [16, 16]
      },
      "properties": {
        "iconurl": "icons/player_map/mini_squad.png",
        "iconrotate": "0",
        "popupContent": "Amazing information about Temporary spawnpoint will be found here!"
      },
      "bf2props": {
        "name": "cpname_ramiel_aas64_city5_rally",
        "class": "ObjectSpawner",
        "name_object": "Temporary spawnpoint",
        "team": "1",
        "obj1": "rallypoint_arf_placeable",
        "obj2": "null",
        "maxspawn": "99999.0",
        "minspawn": "99999.0",
        "spawndelay": "false",
        "ttl": "99999.0",
        "cpid": "603"
      }
    },
    {
      "type": "Feature",
      "geometry": {
        "type": "Point",
        "coordinates": [78.02899, -623.526],
        "size": [16, 16]
      },
      "properties": {
        "iconurl": "icons/spotted_map/icon_objectivespotted.png",
        "iconrotate": "41.886",
        "popupContent": "Amazing information about Weapon Cache will be found here!"
      },
      "bf2props": {
        "name": "cpname_ramiel_aas64_city5_ammo",
        "class": "ObjectSpawner",
        "name_object": "Weapon Cache",
        "team": "1",
        "obj1": "ammocache",
        "obj2": "null",
        "maxspawn": "99999.0",
        "minspawn": "99999.0",
        "spawndelay": "false",
        "ttl": "99999.0",
        "cpid": "603"
      }
    },
    {
      "type": "Feature",
      "geometry": {
        "type": "Point",
        "coordinates": [299.002, -1609.791],
        "size": [16, 16]
      },
      "properties": {
        "iconurl": "icons/vehicles_map/mini_trk_logistics.png",
        "iconrotate": "90.987",
        "popupContent": "Amazing information about null will be found here!"
      },
      "bf2props": {
        "name": "cpname_ramiel_aas64_10th_logi",
        "class": "ObjectSpawner",
        "name_object": "M35 Logistics",
        "team": "2",
        "obj1": "null",
        "obj2": "us_trk_logistics",
        "maxspawn": "300.0",
        "minspawn": "300.0",
        "spawndelay": "false",
        "ttl": "99999.0",
        "cpid": "617"
      }
    },
    {
      "type": "Feature",
      "geometry": {
        "type": "Point",
        "coordinates": [1328.038, -358.719],
        "size": [33, 33],
        "radius": "40.0"
      },
      "properties": {
        "iconurl": "icons/flags_map/neutral/minimap_cp.png",
        "iconrotate": "0",
        "popupContent": "Amazing information about Blackhawk 6-1 will be found here!"
      },
      "bf2props": {
        "name": "cpname_ramiel_aas64_blackhawk1",
        "class": "ControlPoint",
        "name_object": "Blackhawk 6-1",
        "team": "1",
        "areavalue1": "0.0",
        "areavalue2": "0.0",
        "cpid": "601",
        "sgid": "8",
        "uncap": "false",
        "ttgc": "90.0",
        "ttlc": "180.0"
      }
    },
    {
      "type": "Feature",
      "geometry": {
        "type": "Point",
        "coordinates": [999.381, -855.26],
        "size": [33, 33],
        "radius": "35.0"
      },
      "properties": {
        "iconurl": "icons/flags_map/neutral/minimap_cp.png",
        "iconrotate": "0",
        "popupContent": "Amazing information about Blackhawk 6-4 will be found here!"
      },
      "bf2props": {
        "name": "cpname_ramiel_aas64_blackhawk2",
        "class": "ControlPoint",
        "name_object": "Blackhawk 6-4",
        "team": "1",
        "areavalue1": "0.0",
        "areavalue2": "0.0",
        "cpid": "602",
        "sgid": "6",
        "uncap": "false",
        "ttgc": "90.0",
        "ttlc": "180.0"
      }
    },
    {
      "type": "Feature",
      "geometry": {
        "type": "Point",
        "coordinates": [557.246, -421.872],
        "size": [33, 33],
        "radius": "0.0"
      },
      "properties": {
        "iconurl": "icons/flags_map/neutral/minimap_cpbase.png",
        "iconrotate": "0",
        "popupContent": "Amazing information about Aidid's Compound will be found here!"
      },
      "bf2props": {
        "name": "cpname_ramiel_aas64_habr_gidr_hq",
        "class": "ControlPoint",
        "name_object": "Aidid's Compound",
        "team": "1",
        "areavalue1": "0.0",
        "areavalue2": "0.0",
        "cpid": "603",
        "sgid": "1",
        "uncap": "true",
        "ttgc": "0.0",
        "ttlc": "0.0"
      }
    },
    {
      "type": "Feature",
      "geometry": {
        "type": "Point",
        "coordinates": [481.64502, -1723.098],
        "size": [33, 33],
        "radius": "0.0"
      },
      "properties": {
        "iconurl": "icons/flags_map/us/minimap_cpbase.png",
        "iconrotate": "0",
        "popupContent": "Amazing information about 160th Special Ops will be found here!"
      },
      "bf2props": {
        "name": "cpname_ramiel_aas64_160th",
        "class": "ControlPoint",
        "name_object": "160th Special Ops",
        "team": "2",
        "areavalue1": "0.0",
        "areavalue2": "0.0",
        "cpid": "615",
        "sgid": "-999",
        "uncap": "true",
        "ttgc": "0.0",
        "ttlc": "0.0"
      }
    },
    {
      "type": "Feature",
      "geometry": {
        "type": "Point",
        "coordinates": [725.331, -1679.563],
        "size": [33, 33],
        "radius": "0.0"
      },
      "properties": {
        "iconurl": "icons/flags_map/us/minimap_cpbase.png",
        "iconrotate": "0",
        "popupContent": "Amazing information about Delta Force Rangers will be found here!"
      },
      "bf2props": {
        "name": "cpname_ramiel_aas64_deltaforce",
        "class": "ControlPoint",
        "name_object": "Delta Force Rangers",
        "team": "2",
        "areavalue1": "0.0",
        "areavalue2": "0.0",
        "cpid": "1",
        "sgid": "-999",
        "uncap": "true",
        "ttgc": "0.0",
        "ttlc": "0.0"
      }
    },
    {
      "type": "Feature",
      "geometry": {
        "type": "Point",
        "coordinates": [279.248, -1664.727],
        "size": [33, 33],
        "radius": "0.0"
      },
      "properties": {
        "iconurl": "icons/flags_map/us/minimap_cpbase.png",
        "iconrotate": "0",
        "popupContent": "Amazing information about Task Force 2-14 will be found here!"
      },
      "bf2props": {
        "name": "cpname_ramiel_aas64_10th",
        "class": "ControlPoint",
        "name_object": "Task Force 2-14",
        "team": "2",
        "areavalue1": "0.0",
        "areavalue2": "0.0",
        "cpid": "617",
        "sgid": "-999",
        "uncap": "true",
        "ttgc": "0.0",
        "ttlc": "0.0"
      }
    },
    {
      "type": "Feature",
      "geometry": {
        "type": "Point",
        "coordinates": [1276.8931, -686.06],
        "size": [33, 33],
        "radius": "0.0"
      },
      "properties": {
        "iconurl": "icons/flags_map/neutral/minimap_cpbase.png",
        "iconrotate": "0",
        "popupContent": "Amazing information about Mosque will be found here!"
      },
      "bf2props": {
        "name": "cpname_ramiel_aas64_mosque1",
        "class": "ControlPoint",
        "name_object": "Mosque",
        "team": "1",
        "areavalue1": "0.0",
        "areavalue2": "0.0",
        "cpid": "604",
        "sgid": "-999",
        "uncap": "true",
        "ttgc": "0.0",
        "ttlc": "0.0"
      }
    },
    {
      "type": "Feature",
      "geometry": {
        "type": "Point",
        "coordinates": [661.999, -594.48096],
        "size": [33, 33],
        "radius": "0.0"
      },
      "properties": {
        "iconurl": "icons/flags_map/neutral/minimap_cpbase.png",
        "iconrotate": "0",
        "popupContent": "Amazing information about Mosque will be found here!"
      },
      "bf2props": {
        "name": "cpname_ramiel_aas64_mosque2",
        "class": "ControlPoint",
        "name_object": "Mosque",
        "team": "1",
        "areavalue1": "0.0",
        "areavalue2": "0.0",
        "cpid": "605",
        "sgid": "-999",
        "uncap": "true",
        "ttgc": "0.0",
        "ttlc": "0.0"
      }
    },
    {
      "type": "Feature",
      "geometry": {
        "type": "Point",
        "coordinates": [1788.7681, -1303.379],
        "size": [33, 33],
        "radius": "150.0"
      },
      "properties": {
        "iconurl": "icons/flags_map/neutral/minimap_cpbase.png",
        "iconrotate": "0",
        "popupContent": "Amazing information about City Center will be found here!"
      },
      "bf2props": {
        "name": "cpname_ramiel_aas64_city2",
        "class": "ControlPoint",
        "name_object": "City Center",
        "team": "1",
        "areavalue1": "0.0",
        "areavalue2": "0.0",
        "cpid": "607",
        "sgid": "-999",
        "uncap": "true",
        "ttgc": "0.0",
        "ttlc": "0.0"
      }
    },
    {
      "type": "Feature",
      "geometry": {
        "type": "Point",
        "coordinates": [183.16199, -667.01904],
        "size": [33, 33],
        "radius": "75.0"
      },
      "properties": {
        "iconurl": "icons/flags_map/neutral/minimap_cp.png",
        "iconrotate": "0",
        "popupContent": "Amazing information about Extraction Point will be found here!"
      },
      "bf2props": {
        "name": "cpname_ramiel_aas64_extraction",
        "class": "ControlPoint",
        "name_object": "Extraction Point",
        "team": "1",
        "areavalue1": "0.0",
        "areavalue2": "9999.0",
        "cpid": "609",
        "sgid": "2",
        "uncap": "false",
        "ttgc": "120.0",
        "ttlc": "120.0"
      }
    },
    {
      "type": "Feature",
      "geometry": {
        "type": "Point",
        "coordinates": [291.45398, -510.26898],
        "size": [33, 33],
        "radius": "10.0"
      },
      "properties": {
        "iconurl": "icons/flags_map/neutral/minimap_cp.png",
        "iconrotate": "0",
        "popupContent": "Amazing information about Captured Pilot will be found here!"
      },
      "bf2props": {
        "name": "cpname_ramiel_aas64_crew1",
        "class": "ControlPoint",
        "name_object": "Captured Pilot",
        "team": "1",
        "areavalue1": "0.0",
        "areavalue2": "0.0",
        "cpid": "610",
        "sgid": "31",
        "uncap": "false",
        "ttgc": "120.0",
        "ttlc": "120.0"
      }
    },
    {
      "type": "Feature",
      "geometry": {
        "type": "Point",
        "coordinates": [349.61102, -296.73602],
        "size": [33, 33],
        "radius": "15.0"
      },
      "properties": {
        "iconurl": "icons/flags_map/neutral/minimap_cp.png",
        "iconrotate": "0",
        "popupContent": "Amazing information about Captured Pilot will be found here!"
      },
      "bf2props": {
        "name": "cpname_ramiel_aas64_crew2",
        "class": "ControlPoint",
        "name_object": "Captured Pilot",
        "team": "1",
        "areavalue1": "0.0",
        "areavalue2": "0.0",
        "cpid": "611",
        "sgid": "31",
        "uncap": "false",
        "ttgc": "120.0",
        "ttlc": "120.0"
      }
    },
    {
      "type": "Feature",
      "geometry": {
        "type": "Point",
        "coordinates": [227.00299, -257.646],
        "size": [33, 33],
        "radius": "30.0"
      },
      "properties": {
        "iconurl": "icons/flags_map/neutral/minimap_cp.png",
        "iconrotate": "0",
        "popupContent": "Amazing information about Captured Pilot will be found here!"
      },
      "bf2props": {
        "name": "cpname_ramiel_aas64_crew3",
        "class": "ControlPoint",
        "name_object": "Captured Pilot",
        "team": "1",
        "areavalue1": "0.0",
        "areavalue2": "0.0",
        "cpid": "612",
        "sgid": "31",
        "uncap": "false",
        "ttgc": "120.0",
        "ttlc": "120.0"
      }
    },
    {
      "type": "Feature",
      "geometry": {
        "type": "Point",
        "coordinates": [123.71002, -357.188],
        "size": [33, 33],
        "radius": "15.0"
      },
      "properties": {
        "iconurl": "icons/flags_map/neutral/minimap_cp.png",
        "iconrotate": "0",
        "popupContent": "Amazing information about Captured Pilot will be found here!"
      },
      "bf2props": {
        "name": "cpname_ramiel_aas64_crew4",
        "class": "ControlPoint",
        "name_object": "Captured Pilot",
        "team": "1",
        "areavalue1": "0.0",
        "areavalue2": "0.0",
        "cpid": "613",
        "sgid": "31",
        "uncap": "false",
        "ttgc": "120.0",
        "ttlc": "120.0"
      }
    },
    {
      "type": "Feature",
      "geometry": {
        "type": "Point",
        "coordinates": [518.864, -845.278],
        "size": [33, 33],
        "radius": "15.0"
      },
      "properties": {
        "iconurl": "icons/flags_map/neutral/minimap_cp.png",
        "iconrotate": "0",
        "popupContent": "Amazing information about Captured Crewman will be found here!"
      },
      "bf2props": {
        "name": "cpname_ramiel_aas64_crew5",
        "class": "ControlPoint",
        "name_object": "Captured Crewman",
        "team": "1",
        "areavalue1": "0.0",
        "areavalue2": "0.0",
        "cpid": "614",
        "sgid": "41",
        "uncap": "false",
        "ttgc": "120.0",
        "ttlc": "120.0"
      }
    },
    {
      "type": "Feature",
      "geometry": {
        "type": "Point",
        "coordinates": [768.79, -828.819],
        "size": [33, 33],
        "radius": "15.0"
      },
      "properties": {
        "iconurl": "icons/flags_map/neutral/minimap_cp.png",
        "iconrotate": "0",
        "popupContent": "Amazing information about Captured Crewman will be found here!"
      },
      "bf2props": {
        "name": "cpname_ramiel_aas64_crew6",
        "class": "ControlPoint",
        "name_object": "Captured Crewman",
        "team": "1",
        "areavalue1": "0.0",
        "areavalue2": "0.0",
        "cpid": "616",
        "sgid": "41",
        "uncap": "false",
        "ttgc": "120.0",
        "ttlc": "120.0"
      }
    },
    {
      "type": "Feature",
      "geometry": {
        "type": "Point",
        "coordinates": [801.278, -681.06104],
        "size": [33, 33],
        "radius": "15.0"
      },
      "properties": {
        "iconurl": "icons/flags_map/neutral/minimap_cp.png",
        "iconrotate": "0",
        "popupContent": "Amazing information about Captured Crewman will be found here!"
      },
      "bf2props": {
        "name": "cpname_ramiel_aas64_crew7",
        "class": "ControlPoint",
        "name_object": "Captured Crewman",
        "team": "1",
        "areavalue1": "0.0",
        "areavalue2": "0.0",
        "cpid": "618",
        "sgid": "41",
        "uncap": "false",
        "ttgc": "120.0",
        "ttlc": "120.0"
      }
    },
    {
      "type": "Feature",
      "geometry": {
        "type": "Point",
        "coordinates": [525.982, -773.589],
        "size": [33, 33],
        "radius": "15.0"
      },
      "properties": {
        "iconurl": "icons/flags_map/neutral/minimap_cp.png",
        "iconrotate": "0",
        "popupContent": "Amazing information about Captured Crewman will be found here!"
      },
      "bf2props": {
        "name": "cpname_ramiel_aas64_crew8",
        "class": "ControlPoint",
        "name_object": "Captured Crewman",
        "team": "1",
        "areavalue1": "0.0",
        "areavalue2": "0.0",
        "cpid": "619",
        "sgid": "41",
        "uncap": "false",
        "ttgc": "120.0",
        "ttlc": "120.0"
      }
    },
    {
      "type": "Feature",
      "geometry": {
        "type": "Point",
        "coordinates": [934.32, -922.681],
        "size": [33, 33],
        "radius": "25.0"
      },
      "properties": {
        "iconurl": "icons/flags_map/neutral/minimap_cp.png",
        "iconrotate": "0",
        "popupContent": "Amazing information about Safehouse will be found here!"
      },
      "bf2props": {
        "name": "cpname_ramiel_aas64_crew11",
        "class": "ControlPoint",
        "name_object": "Safehouse",
        "team": "1",
        "areavalue1": "0.0",
        "areavalue2": "0.0",
        "cpid": "622",
        "sgid": "5",
        "uncap": "false",
        "ttgc": "300.0",
        "ttlc": "300.0"
      }
    },
    {
      "type": "Feature",
      "geometry": {
        "type": "Point",
        "coordinates": [929.659, -463.11902],
        "size": [33, 33],
        "radius": "8.0"
      },
      "properties": {
        "iconurl": "icons/flags_map/neutral/minimap_cp.png",
        "iconrotate": "0",
        "popupContent": "Amazing information about Captured Crewman will be found here!"
      },
      "bf2props": {
        "name": "cpname_ramiel_aas64_crew13",
        "class": "ControlPoint",
        "name_object": "Captured Crewman",
        "team": "1",
        "areavalue1": "0.0",
        "areavalue2": "0.0",
        "cpid": "620",
        "sgid": "41",
        "uncap": "false",
        "ttgc": "120.0",
        "ttlc": "120.0"
      }
    },
    {
      "type": "Feature",
      "geometry": {
        "type": "Point",
        "coordinates": [852.307, -607.532],
        "size": [33, 33],
        "radius": "15.0"
      },
      "properties": {
        "iconurl": "icons/flags_map/neutral/minimap_cp.png",
        "iconrotate": "0",
        "popupContent": "Amazing information about Captured Crewman will be found here!"
      },
      "bf2props": {
        "name": "cpname_ramiel_aas64_crew14",
        "class": "ControlPoint",
        "name_object": "Captured Crewman",
        "team": "1",
        "areavalue1": "0.0",
        "areavalue2": "0.0",
        "cpid": "621",
        "sgid": "41",
        "uncap": "false",
        "ttgc": "120.0",
        "ttlc": "120.0"
      }
    },
    {
      "type": "Feature",
      "geometry": {
        "type": "Point",
        "coordinates": [399.844, -575.004],
        "size": [33, 33],
        "radius": "9.0"
      },
      "properties": {
        "iconurl": "icons/flags_map/neutral/minimap_cp.png",
        "iconrotate": "0",
        "popupContent": "Amazing information about Captured Pilot will be found here!"
      },
      "bf2props": {
        "name": "cpname_ramiel_aas64_crew15",
        "class": "ControlPoint",
        "name_object": "Captured Pilot",
        "team": "1",
        "areavalue1": "0.0",
        "areavalue2": "0.0",
        "cpid": "625",
        "sgid": "31",
        "uncap": "false",
        "ttgc": "120.0",
        "ttlc": "120.0"
      }
    },
    {
      "type": "Feature",
      "geometry": {
        "type": "Point",
        "coordinates": [1104.142, -595.114],
        "size": [33, 33],
        "radius": "30.0"
      },
      "properties": {
        "iconurl": "icons/flags_map/neutral/minimap_cp.png",
        "iconrotate": "0",
        "popupContent": "Amazing information about Convoy Rendezvous will be found here!"
      },
      "bf2props": {
        "name": "cpname_ramiel_aas64_convoy",
        "class": "ControlPoint",
        "name_object": "Convoy Rendezvous",
        "team": "1",
        "areavalue1": "0.0",
        "areavalue2": "0.0",
        "cpid": "626",
        "sgid": "7",
        "uncap": "false",
        "ttgc": "120.0",
        "ttlc": "120.0"
      }
    },
    {
      "type": "Feature",
      "geometry": {
        "type": "Polygon",
        "coordinates": [
          [
            [0,0],
            [0,-2048],
            [2048,-2048],
            [2048,0]
          ],[
            [2048.0, -2048.0],
            [2048.0, 0.0],
            [0.0, 0.0],
            [0.0, -1548.9347],
            [366.6939, -2048.0]
          ]
        ]
      },
      "bf2props": {
        "code": "combatarea_0_blackhawk_down",
        "class": "CombatArea",
        "team": "0",
        "vehicles": "4",
        "layer": "7",
        "inverted": "false",
        "max": [0.0, 0.0],
        "min": [0.0, 0.0]
      }
    },
    {
      "type": "Feature",
      "geometry": {
        "type": "Polygon",
        "coordinates": [
          [
            [1314.8584, -764.7881],
            [1315.0037, -690.2499],
            [1332.9526, -689.5397],
            [1332.5702, -639.5856],
            [1241.3645, -640.63354],
            [1241.1594, -765.03125]
          ]
        ]
      },
      "bf2props": {
        "code": "combatarea_20_blackhawk_down",
        "class": "CombatArea",
        "team": "2",
        "vehicles": "0",
        "layer": "7",
        "inverted": "true",
        "max": [0.0, 0.0],
        "min": [0.0, 0.0]
      }
    },
    {
      "type": "Feature",
      "geometry": {
        "type": "Polygon",
        "coordinates": [
          [
            [700.7321, -615.3031],
            [700.6012, -573.87805],
            [622.1293, -576.3329],
            [620.5978, -614.339]
          ]
        ]
      },
      "bf2props": {
        "code": "combatarea_26_blackhawk_down",
        "class": "CombatArea",
        "team": "2",
        "vehicles": "0",
        "layer": "7",
        "inverted": "true",
        "max": [0.0, 0.0],
        "min": [0.0, 0.0]
      }
    },
    {
      "type": "Feature",
      "geometry": {
        "type": "Polygon",
        "coordinates": [
          [
            [675.8764, -372.9214],
            [676.0307, -387.84192],
            [697.14825, -387.30957],
            [696.8869, -372.24]
          ]
        ]
      },
      "bf2props": {
        "code": "combatarea_42_blackhawk_down",
        "class": "CombatArea",
        "team": "2",
        "vehicles": "0",
        "layer": "7",
        "inverted": "true",
        "max": [0.0, 0.0],
        "min": [0.0, 0.0]
      }
    },
    {
      "type": "Feature",
      "geometry": {
        "type": "Polygon",
        "coordinates": [
          [
            [468.46918, -474.4364],
            [631.7812, -475.0547],
            [663.27954, -430.1505],
            [666.84033, -371.8224],
            [447.3811, -371.94568],
            [446.82025, -391.52917],
            [456.45618, -404.1775],
            [456.86182, -440.8777],
            [468.4973, -454.7688]
          ]
        ]
      },
      "bf2props": {
        "code": "combatarea_34_blackhawk_down",
        "class": "CombatArea",
        "team": "2",
        "vehicles": "4",
        "layer": "7",
        "inverted": "true",
        "max": [0.0, 0.0],
        "min": [0.0, 0.0]
      }
    },
    {
      "type": "Feature",
      "geometry": {
        "type": "Polygon",
        "coordinates": [
          [
            [874.5033, -1389.7651],
            [841.34686, -1367.5568],
            [693.2, -1452.187],
            [543.0993, -1435.9587],
            [414.2705, -1299.5099],
            [324.04114, -1304.3696],
            [118.70709, -1493.3899],
            [2.152954, -1502.5817],
            [7.906189, -2048.8193],
            [1085.0016, -2041.2847],
            [1185.2057, -1778.4219],
            [1183.2025, -1737.4412],
            [1119.4468, -1603.6104],
            [1038.7405, -1524.0054],
            [898.83704, -1401.8625]
          ]
        ]
      },
      "bf2props": {
        "code": "combatarea_28_blackhawk_down",
        "class": "CombatArea",
        "team": "1",
        "vehicles": "4",
        "layer": "7",
        "inverted": "true",
        "max": [0.0, 0.0],
        "min": [0.0, 0.0]
      }
    }
  ]
}