{
  "team1":"arf",
  "team2":"usa",
  "team1tickets":"500",
  "team2tickets":"600",
  "mapsize":"2048",
  "viewdistance":"500",
  "combatareause":"true",
  "combatareadamage":"20.0",
  "combatareaallowoutside":"10.0",
  "routes": [
    [
      [
        "cpname_ramiel_coop16_mill"
      ],
      [
        "cpname_ramiel_coop16_cp5"
      ],
      [
        "cpname_ramiel_coop16_cp4"
      ],
      [
        "cpname_ramiel_coop16_cp3",
        "cpname_ramiel_coop16_cp6"
      ],
      [
        "cpname_ramiel_coop16_cp2"
      ],
      [
        "cpname_ramiel_coop16_cp1"
      ],
      [
        "cpname_ramiel_coop16_fob"
      ]
    ]
  ],
  "type": "FeatureCollection",
  "features": [
    {
      "type": "Feature",
      "geometry": {
        "type": "Point",
        "coordinates": [953.31, -1293.639],
        "size": [16, 16]
      },
      "properties": {
        "iconurl": "icons/mini_map/uavtrailer.png",
        "iconrotate": "0",
        "popupContent": "Amazing information about null will be found here!"
      },
      "bf2props": {
        "name": "cpname_ramiel_coop16_fob_usarmy_commandpost",
        "class": "ObjectSpawner",
        "name_object": "UAV Terminal",
        "team": "2",
        "obj1": "null",
        "obj2": "us_acv_stryker",
        "maxspawn": "9999.0",
        "minspawn": "9999.0",
        "spawndelay": "false",
        "ttl": "99999.0",
        "cpid": "201"
      }
    },
    {
      "type": "Feature",
      "geometry": {
        "type": "Point",
        "coordinates": [1073.157, -161.818],
        "size": [16, 16]
      },
      "properties": {
        "iconurl": "icons/spotted_map/icon_objectivespotted.png",
        "iconrotate": "-180.0",
        "popupContent": "Amazing information about Weapon Cache will be found here!"
      },
      "bf2props": {
        "name": "cpname_ramiel_coop16_mill_crate",
        "class": "ObjectSpawner",
        "name_object": "Weapon Cache",
        "team": "1",
        "obj1": "ammocache",
        "obj2": "null",
        "maxspawn": "0.0",
        "minspawn": "0.0",
        "spawndelay": "false",
        "ttl": "0.0",
        "cpid": "207"
      }
    },
    {
      "type": "Feature",
      "geometry": {
        "type": "Point",
        "coordinates": [1141.9661, -168.23798],
        "size": [16, 16]
      },
      "properties": {
        "iconurl": "icons/spotted_map/icon_objectivespotted.png",
        "iconrotate": "-180.0",
        "popupContent": "Amazing information about Weapon Cache will be found here!"
      },
      "bf2props": {
        "name": "cpname_ramiel_coop16_mill_cache",
        "class": "ObjectSpawner",
        "name_object": "Weapon Cache",
        "team": "1",
        "obj1": "ammocache",
        "obj2": "null",
        "maxspawn": "0.0",
        "minspawn": "0.0",
        "spawndelay": "false",
        "ttl": "0.0",
        "cpid": "207"
      }
    },
    {
      "type": "Feature",
      "geometry": {
        "type": "Point",
        "coordinates": [1110.888, -209.28497],
        "size": [16, 16]
      },
      "properties": {
        "iconurl": "icons/spotted_map/icon_objectivespotted.png",
        "iconrotate": "-180.0",
        "popupContent": "Amazing information about Weapon Cache will be found here!"
      },
      "bf2props": {
        "name": "cpname_ramiel_coop16_mill_cache_0",
        "class": "ObjectSpawner",
        "name_object": "Weapon Cache",
        "team": "1",
        "obj1": "ammocache",
        "obj2": "null",
        "maxspawn": "0.0",
        "minspawn": "0.0",
        "spawndelay": "false",
        "ttl": "0.0",
        "cpid": "207"
      }
    },
    {
      "type": "Feature",
      "geometry": {
        "type": "Point",
        "coordinates": [1141.9141, -191.68],
        "size": [16, 16]
      },
      "properties": {
        "iconurl": "icons/spotted_map/icon_objectivespotted.png",
        "iconrotate": "-180.0",
        "popupContent": "Amazing information about Weapon Cache will be found here!"
      },
      "bf2props": {
        "name": "cpname_ramiel_coop16_mill_cache_1",
        "class": "ObjectSpawner",
        "name_object": "Weapon Cache",
        "team": "1",
        "obj1": "ammocache",
        "obj2": "null",
        "maxspawn": "0.0",
        "minspawn": "0.0",
        "spawndelay": "false",
        "ttl": "0.0",
        "cpid": "207"
      }
    },
    {
      "type": "Feature",
      "geometry": {
        "type": "Point",
        "coordinates": [1108.547, -225.54901],
        "size": [16, 16]
      },
      "properties": {
        "iconurl": "icons/spotted_map/icon_objectivespotted.png",
        "iconrotate": "90.0",
        "popupContent": "Amazing information about Weapon Cache will be found here!"
      },
      "bf2props": {
        "name": "cpname_ramiel_coop16_mill_cache_2",
        "class": "ObjectSpawner",
        "name_object": "Weapon Cache",
        "team": "1",
        "obj1": "ammocache",
        "obj2": "null",
        "maxspawn": "0.0",
        "minspawn": "0.0",
        "spawndelay": "false",
        "ttl": "0.0",
        "cpid": "207"
      }
    },
    {
      "type": "Feature",
      "geometry": {
        "type": "Point",
        "coordinates": [983.0, -1269.0],
        "size": [33, 33],
        "radius": "22.0"
      },
      "properties": {
        "iconurl": "icons/flags_map/us/minimap_cp.png",
        "iconrotate": "0",
        "popupContent": "Amazing information about US Army Forward Base will be found here!"
      },
      "bf2props": {
        "name": "cpname_ramiel_coop16_fob",
        "class": "ControlPoint",
        "name_object": "US Army Forward Base",
        "team": "2",
        "areavalue1": "1000.0",
        "areavalue2": "20.0",
        "cpid": "201",
        "sgid": "7",
        "uncap": "false",
        "ttgc": "90.0",
        "ttlc": "120.0"
      }
    },
    {
      "type": "Feature",
      "geometry": {
        "type": "Point",
        "coordinates": [1057.0, -980.0],
        "size": [33, 33],
        "radius": "26.0"
      },
      "properties": {
        "iconurl": "icons/flags_map/neutral/minimap_cp.png",
        "iconrotate": "0",
        "popupContent": "Amazing information about Alpha will be found here!"
      },
      "bf2props": {
        "name": "cpname_ramiel_coop16_cp1",
        "class": "ControlPoint",
        "name_object": "Alpha",
        "team": "0",
        "areavalue1": "20.0",
        "areavalue2": "20.0",
        "cpid": "202",
        "sgid": "6",
        "uncap": "false",
        "ttgc": "90.0",
        "ttlc": "90.0"
      }
    },
    {
      "type": "Feature",
      "geometry": {
        "type": "Point",
        "coordinates": [998.0, -850.0],
        "size": [33, 33],
        "radius": "18.0"
      },
      "properties": {
        "iconurl": "icons/flags_map/neutral/minimap_cp.png",
        "iconrotate": "0",
        "popupContent": "Amazing information about Bravo will be found here!"
      },
      "bf2props": {
        "name": "cpname_ramiel_coop16_cp2",
        "class": "ControlPoint",
        "name_object": "Bravo",
        "team": "1",
        "areavalue1": "20.0",
        "areavalue2": "20.0",
        "cpid": "203",
        "sgid": "5",
        "uncap": "false",
        "ttgc": "90.0",
        "ttlc": "90.0"
      }
    },
    {
      "type": "Feature",
      "geometry": {
        "type": "Point",
        "coordinates": [1083.0, -708.0],
        "size": [33, 33],
        "radius": "20.0"
      },
      "properties": {
        "iconurl": "icons/flags_map/neutral/minimap_cp.png",
        "iconrotate": "0",
        "popupContent": "Amazing information about Delta will be found here!"
      },
      "bf2props": {
        "name": "cpname_ramiel_coop16_cp3",
        "class": "ControlPoint",
        "name_object": "Delta",
        "team": "1",
        "areavalue1": "20.0",
        "areavalue2": "20.0",
        "cpid": "204",
        "sgid": "4",
        "uncap": "false",
        "ttgc": "90.0",
        "ttlc": "90.0"
      }
    },
    {
      "type": "Feature",
      "geometry": {
        "type": "Point",
        "coordinates": [976.0, -573.0],
        "size": [33, 33],
        "radius": "23.0"
      },
      "properties": {
        "iconurl": "icons/flags_map/neutral/minimap_cp.png",
        "iconrotate": "0",
        "popupContent": "Amazing information about Echo will be found here!"
      },
      "bf2props": {
        "name": "cpname_ramiel_coop16_cp4",
        "class": "ControlPoint",
        "name_object": "Echo",
        "team": "1",
        "areavalue1": "20.0",
        "areavalue2": "20.0",
        "cpid": "205",
        "sgid": "3",
        "uncap": "false",
        "ttgc": "90.0",
        "ttlc": "90.0"
      }
    },
    {
      "type": "Feature",
      "geometry": {
        "type": "Point",
        "coordinates": [997.0, -349.0],
        "size": [33, 33],
        "radius": "17.0"
      },
      "properties": {
        "iconurl": "icons/flags_map/neutral/minimap_cp.png",
        "iconrotate": "0",
        "popupContent": "Amazing information about Foxtrot will be found here!"
      },
      "bf2props": {
        "name": "cpname_ramiel_coop16_cp5",
        "class": "ControlPoint",
        "name_object": "Foxtrot",
        "team": "1",
        "areavalue1": "20.0",
        "areavalue2": "20.0",
        "cpid": "206",
        "sgid": "2",
        "uncap": "false",
        "ttgc": "90.0",
        "ttlc": "90.0"
      }
    },
    {
      "type": "Feature",
      "geometry": {
        "type": "Point",
        "coordinates": [1120.0, -167.0],
        "size": [33, 33],
        "radius": "27.0"
      },
      "properties": {
        "iconurl": "icons/flags_map/neutral/minimap_cp.png",
        "iconrotate": "0",
        "popupContent": "Amazing information about Saw Mill will be found here!"
      },
      "bf2props": {
        "name": "cpname_ramiel_coop16_mill",
        "class": "ControlPoint",
        "name_object": "Saw Mill",
        "team": "1",
        "areavalue1": "20.0",
        "areavalue2": "1000.0",
        "cpid": "207",
        "sgid": "1",
        "uncap": "false",
        "ttgc": "90.0",
        "ttlc": "120.0"
      }
    },
    {
      "type": "Feature",
      "geometry": {
        "type": "Point",
        "coordinates": [970.0, -730.0],
        "size": [33, 33],
        "radius": "18.0"
      },
      "properties": {
        "iconurl": "icons/flags_map/neutral/minimap_cp.png",
        "iconrotate": "0",
        "popupContent": "Amazing information about Charlie will be found here!"
      },
      "bf2props": {
        "name": "cpname_ramiel_coop16_cp6",
        "class": "ControlPoint",
        "name_object": "Charlie",
        "team": "1",
        "areavalue1": "20.0",
        "areavalue2": "20.0",
        "cpid": "208",
        "sgid": "4",
        "uncap": "false",
        "ttgc": "90.0",
        "ttlc": "90.0"
      }
    },
    {
      "type": "Feature",
      "geometry": {
        "type": "Polygon",
        "coordinates": [
          [
            [0,0],
            [0,-2048],
            [2048,-2048],
            [2048,0]
          ],[
            [1169.9354, -115.89807],
            [1031.6869, -116.335205],
            [957.84503, -208.00061],
            [912.2043, -301.4535],
            [902.8704, -409.68164],
            [893.96594, -1037.9882],
            [894.184, -1168.0349],
            [897.95844, -1264.0742],
            [953.1749, -1301.844],
            [1000.0628, -1309.6997],
            [1011.9659, -1249.9283],
            [1109.248, -1075.8809],
            [1109.2375, -1029.609],
            [1186.2738, -996.1741],
            [1185.9427, -930.3263],
            [1176.0565, -910.14124],
            [1164.1521, -852.8036],
            [1173.9589, -574.0941],
            [1127.9355, -562.4331],
            [1058.0032, -562.1256],
            [1059.9762, -453.9685],
            [1168.0305, -456.28394],
            [1173.8995, -196.11462],
            [1174.0487, -119.74963]
          ]
        ]
      },
      "bf2props": {
        "code": "combatarea_0_16",
        "class": "CombatArea",
        "team": "0",
        "vehicles": "4",
        "layer": "4",
        "inverted": "false",
        "max": [0.0, 0.0],
        "min": [0.0, 0.0]
      }
    }
  ]
}