{
  "team1":"arf",
  "team2":"usa",
  "team1tickets":"550",
  "team2tickets":"550",
  "mapsize":"2048",
  "viewdistance":"500",
  "combatareause":"true",
  "combatareadamage":"20.0",
  "combatareaallowoutside":"10.0",
  "routes": [
    [
      [
        "cpname_ramiel_skirmish16_insurgencymain"
      ],
      [
        "cpname_ramiel_skirmish16_apartment"
      ],
      [
        "cpname_ramiel_skirmish16_courtyard",
        "cpname_ramiel_skirmish16_junkyard"
      ],
      [
        "cpname_ramiel_skirmish16_slums"
      ],
      [
        "cpname_ramiel_skirmish16_fob"
      ],
      [
        "cpname_ramiel_skirmish16_us_mainbase"
      ]
    ]
  ],
  "type": "FeatureCollection",
  "features": [
    {
      "type": "Feature",
      "geometry": {
        "type": "Point",
        "coordinates": [920.665, -1148.44],
        "size": [16, 16]
      },
      "properties": {
        "iconurl": "icons/mini_map/icon_supply.png",
        "iconrotate": "0",
        "popupContent": "Amazing information about Permanent supply crate will be found here!"
      },
      "bf2props": {
        "name": "crate",
        "class": "ObjectSpawner",
        "name_object": "Permanent supply crate | Permanent supply crate",
        "team": "2",
        "obj1": "fixed_supply_crate",
        "obj2": "fixed_supply_crate",
        "maxspawn": "0.0",
        "minspawn": "60.0",
        "spawndelay": "false",
        "ttl": "0.0",
        "cpid": "1"
      }
    },
    {
      "type": "Feature",
      "geometry": {
        "type": "Point",
        "coordinates": [1057.178, -965.563],
        "size": [16, 16]
      },
      "properties": {
        "iconurl": "icons/mini_map/icon_supply.png",
        "iconrotate": "0",
        "popupContent": "Amazing information about Permanent supply crate will be found here!"
      },
      "bf2props": {
        "name": "cpname_ramiel_skirmish16_fob_0",
        "class": "ObjectSpawner",
        "name_object": "Permanent supply crate | Permanent supply crate",
        "team": "2",
        "obj1": "fixed_supply_crate",
        "obj2": "fixed_supply_crate",
        "maxspawn": "0.0",
        "minspawn": "60.0",
        "spawndelay": "false",
        "ttl": "0.0",
        "cpid": "101"
      }
    },
    {
      "type": "Feature",
      "geometry": {
        "type": "Point",
        "coordinates": [846.374, -852.235],
        "size": [16, 16]
      },
      "properties": {
        "iconurl": "icons/mini_map/icon_supply.png",
        "iconrotate": "0",
        "popupContent": "Amazing information about Permanent supply crate will be found here!"
      },
      "bf2props": {
        "name": "crate_1",
        "class": "ObjectSpawner",
        "name_object": "Permanent supply crate | Permanent supply crate",
        "team": "0",
        "obj1": "fixed_supply_crate",
        "obj2": "fixed_supply_crate",
        "maxspawn": "0.0",
        "minspawn": "60.0",
        "spawndelay": "false",
        "ttl": "0.0",
        "cpid": "102"
      }
    },
    {
      "type": "Feature",
      "geometry": {
        "type": "Point",
        "coordinates": [982.195, -743.31604],
        "size": [16, 16]
      },
      "properties": {
        "iconurl": "icons/mini_map/icon_supply.png",
        "iconrotate": "0",
        "popupContent": "Amazing information about Permanent supply crate will be found here!"
      },
      "bf2props": {
        "name": "cpname_ramiel_skirmish16_courtyard_2",
        "class": "ObjectSpawner",
        "name_object": "Permanent supply crate | Permanent supply crate",
        "team": "0",
        "obj1": "fixed_supply_crate",
        "obj2": "fixed_supply_crate",
        "maxspawn": "0.0",
        "minspawn": "60.0",
        "spawndelay": "false",
        "ttl": "0.0",
        "cpid": "103"
      }
    },
    {
      "type": "Feature",
      "geometry": {
        "type": "Point",
        "coordinates": [962.673, -573.605],
        "size": [16, 16]
      },
      "properties": {
        "iconurl": "icons/mini_map/icon_supply.png",
        "iconrotate": "0",
        "popupContent": "Amazing information about Permanent supply crate will be found here!"
      },
      "bf2props": {
        "name": "cpname_ramiel_skirmish16_apartment_3",
        "class": "ObjectSpawner",
        "name_object": "Permanent supply crate | Permanent supply crate",
        "team": "1",
        "obj1": "fixed_supply_crate",
        "obj2": "fixed_supply_crate",
        "maxspawn": "0.0",
        "minspawn": "60.0",
        "spawndelay": "false",
        "ttl": "0.0",
        "cpid": "501"
      }
    },
    {
      "type": "Feature",
      "geometry": {
        "type": "Point",
        "coordinates": [792.995, -685.726],
        "size": [16, 16]
      },
      "properties": {
        "iconurl": "icons/mini_map/icon_supply.png",
        "iconrotate": "0",
        "popupContent": "Amazing information about Permanent supply crate will be found here!"
      },
      "bf2props": {
        "name": "cpname_ramiel_skirmish16_junkyard_2",
        "class": "ObjectSpawner",
        "name_object": "Permanent supply crate | Permanent supply crate",
        "team": "0",
        "obj1": "fixed_supply_crate",
        "obj2": "fixed_supply_crate",
        "maxspawn": "0.0",
        "minspawn": "60.0",
        "spawndelay": "false",
        "ttl": "0.0",
        "cpid": "502"
      }
    },
    {
      "type": "Feature",
      "geometry": {
        "type": "Point",
        "coordinates": [1087.852, -440.20398],
        "size": [16, 16]
      },
      "properties": {
        "iconurl": "icons/mini_map/icon_supply.png",
        "iconrotate": "0",
        "popupContent": "Amazing information about Permanent supply crate will be found here!"
      },
      "bf2props": {
        "name": "cpname_ramiel_skirmish16_insurgencymain_cr",
        "class": "ObjectSpawner",
        "name_object": "Permanent supply crate | Permanent supply crate",
        "team": "1",
        "obj1": "fixed_supply_crate",
        "obj2": "fixed_supply_crate",
        "maxspawn": "0.0",
        "minspawn": "60.0",
        "spawndelay": "false",
        "ttl": "0.0",
        "cpid": "104"
      }
    },
    {
      "type": "Feature",
      "geometry": {
        "type": "Point",
        "coordinates": [972.394, -1132.411],
        "size": [33, 33],
        "radius": "0.0"
      },
      "properties": {
        "iconurl": "icons/flags_map/us/minimap_cpbase.png",
        "iconrotate": "0",
        "popupContent": "Amazing information about US Reinforcements will be found here!"
      },
      "bf2props": {
        "name": "cpname_ramiel_skirmish16_us_mainbase",
        "class": "ControlPoint",
        "name_object": "US Reinforcements",
        "team": "2",
        "areavalue1": "0.0",
        "areavalue2": "0.0",
        "cpid": "1",
        "sgid": "6",
        "uncap": "true",
        "ttgc": "60.0",
        "ttlc": "60.0"
      }
    },
    {
      "type": "Feature",
      "geometry": {
        "type": "Point",
        "coordinates": [1063.709, -962.109],
        "size": [33, 33],
        "radius": "50.0"
      },
      "properties": {
        "iconurl": "icons/flags_map/us/minimap_cp.png",
        "iconrotate": "0",
        "popupContent": "Amazing information about M*A*S*H Unit will be found here!"
      },
      "bf2props": {
        "name": "cpname_ramiel_skirmish16_fob",
        "class": "ControlPoint",
        "name_object": "M*A*S*H Unit",
        "team": "2",
        "areavalue1": "1000.0",
        "areavalue2": "0.0",
        "cpid": "101",
        "sgid": "5",
        "uncap": "false",
        "ttgc": "120.0",
        "ttlc": "120.0"
      }
    },
    {
      "type": "Feature",
      "geometry": {
        "type": "Point",
        "coordinates": [863.76, -846.71204],
        "size": [33, 33],
        "radius": "50.0"
      },
      "properties": {
        "iconurl": "icons/flags_map/neutral/minimap_cp.png",
        "iconrotate": "0",
        "popupContent": "Amazing information about Slums 50m will be found here!"
      },
      "bf2props": {
        "name": "cpname_ramiel_skirmish16_slums",
        "class": "ControlPoint",
        "name_object": "Slums 50m",
        "team": "0",
        "areavalue1": "0.0",
        "areavalue2": "0.0",
        "cpid": "102",
        "sgid": "4",
        "uncap": "false",
        "ttgc": "120.0",
        "ttlc": "120.0"
      }
    },
    {
      "type": "Feature",
      "geometry": {
        "type": "Point",
        "coordinates": [985.534, -725.532],
        "size": [33, 33],
        "radius": "50.0"
      },
      "properties": {
        "iconurl": "icons/flags_map/neutral/minimap_cp.png",
        "iconrotate": "0",
        "popupContent": "Amazing information about Courtyard 50m will be found here!"
      },
      "bf2props": {
        "name": "cpname_ramiel_skirmish16_courtyard",
        "class": "ControlPoint",
        "name_object": "Courtyard 50m",
        "team": "0",
        "areavalue1": "0.0",
        "areavalue2": "0.0",
        "cpid": "103",
        "sgid": "31",
        "uncap": "false",
        "ttgc": "120.0",
        "ttlc": "120.0"
      }
    },
    {
      "type": "Feature",
      "geometry": {
        "type": "Point",
        "coordinates": [1088.644, -425.26],
        "size": [33, 33],
        "radius": "0.0"
      },
      "properties": {
        "iconurl": "icons/flags_map/neutral/minimap_cpbase.png",
        "iconrotate": "0",
        "popupContent": "Amazing information about Insurgent Base will be found here!"
      },
      "bf2props": {
        "name": "cpname_ramiel_skirmish16_insurgencymain",
        "class": "ControlPoint",
        "name_object": "Insurgent Base",
        "team": "1",
        "areavalue1": "0.0",
        "areavalue2": "0.0",
        "cpid": "104",
        "sgid": "1",
        "uncap": "true",
        "ttgc": "60.0",
        "ttlc": "60.0"
      }
    },
    {
      "type": "Feature",
      "geometry": {
        "type": "Point",
        "coordinates": [983.967, -561.036],
        "size": [33, 33],
        "radius": "50.0"
      },
      "properties": {
        "iconurl": "icons/flags_map/neutral/minimap_cp.png",
        "iconrotate": "0",
        "popupContent": "Amazing information about Apartments 50m will be found here!"
      },
      "bf2props": {
        "name": "cpname_ramiel_skirmish16_apartment",
        "class": "ControlPoint",
        "name_object": "Apartments 50m",
        "team": "1",
        "areavalue1": "0.0",
        "areavalue2": "1000.0",
        "cpid": "501",
        "sgid": "2",
        "uncap": "false",
        "ttgc": "120.0",
        "ttlc": "120.0"
      }
    },
    {
      "type": "Feature",
      "geometry": {
        "type": "Point",
        "coordinates": [834.706, -669.94104],
        "size": [33, 33],
        "radius": "50.0"
      },
      "properties": {
        "iconurl": "icons/flags_map/neutral/minimap_cp.png",
        "iconrotate": "0",
        "popupContent": "Amazing information about Junkyard 50m will be found here!"
      },
      "bf2props": {
        "name": "cpname_ramiel_skirmish16_junkyard",
        "class": "ControlPoint",
        "name_object": "Junkyard 50m",
        "team": "0",
        "areavalue1": "0.0",
        "areavalue2": "0.0",
        "cpid": "502",
        "sgid": "31",
        "uncap": "false",
        "ttgc": "120.0",
        "ttlc": "120.0"
      }
    },
    {
      "type": "Feature",
      "geometry": {
        "type": "Polygon",
        "coordinates": [
          [
            [0,0],
            [0,-2048],
            [2048,-2048],
            [2048,0]
          ],[
            [1206.5078, -381.5725],
            [638.244, -367.10645],
            [634.71436, -743.81384],
            [763.6288, -741.9922],
            [763.19916, -1002.11743],
            [893.5993, -1011.7678],
            [894.1748, -1176.678],
            [1025.7772, -1175.9185],
            [1173.355, -999.35815],
            [1184.0886, -640.55444],
            [1213.7609, -468.99536]
          ]
        ]
      },
      "bf2props": {
        "code": "combatarea_0_cp_layer_64",
        "class": "CombatArea",
        "team": "0",
        "vehicles": "4",
        "layer": "6",
        "inverted": "false",
        "max": [0.0, 0.0],
        "min": [0.0, 0.0]
      }
    },
    {
      "type": "Feature",
      "geometry": {
        "type": "Polygon",
        "coordinates": [
          [
            [954.322, -379.10376],
            [950.4358, -437.46765],
            [1028.9552, -460.25757],
            [1210.9736, -466.71326],
            [1202.9231, -383.7882]
          ]
        ]
      },
      "bf2props": {
        "code": "combatarea_11_cp_layer_64",
        "class": "CombatArea",
        "team": "2",
        "vehicles": "4",
        "layer": "6",
        "inverted": "true",
        "max": [0.0, 0.0],
        "min": [0.0, 0.0]
      }
    },
    {
      "type": "Feature",
      "geometry": {
        "type": "Polygon",
        "coordinates": [
          [
            [974.89996, -1098.701],
            [894.5783, -1103.542],
            [896.7073, -1174.7186],
            [978.216, -1173.898]
          ]
        ]
      },
      "bf2props": {
        "code": "combatarea_16_cp_layer_64",
        "class": "CombatArea",
        "team": "1",
        "vehicles": "4",
        "layer": "6",
        "inverted": "true",
        "max": [0.0, 0.0],
        "min": [0.0, 0.0]
      }
    }
  ]
}