[
  {
    "code" : "albasrah_2",
    "name" : "Al Basrah",
    "listgm" : "map_json/albasrah_2/listgm.json",
    "mapsize" : "2048"
  },  {
    "code" : "asad_khal",
    "name" : "Asad Khal",
    "listgm" : "map_json/asad_khal/listgm.json",
    "mapsize" : "1024"
  },  {
    "code" : "assault_on_grozny",
    "name" : "Assault on Grozny",
    "listgm" : "map_json/assault_on_grozny/listgm.json",
    "mapsize" : "2048"
  },  {
    "code" : "assault_on_mestia",
    "name" : "Assault on Mestia",
    "listgm" : "map_json/assault_on_mestia/listgm.json",
    "mapsize" : "1024"
  },  {
    "code" : "bamyan",
    "name" : "Bamyan",
    "listgm" : "map_json/bamyan/listgm.json",
    "mapsize" : "4096"
  },  {
    "code" : "battle_of_ia_drang",
    "name" : "Battle of Ia Drang",
    "listgm" : "map_json/battle_of_ia_drang/listgm.json",
    "mapsize" : "2048"
  },  {
    "code" : "beirut",
    "name" : "Beirut",
    "listgm" : "map_json/beirut/listgm.json",
    "mapsize" : "2048"
  },  {
    "code" : "bijar_canyons",
    "name" : "Bijar Canyons",
    "listgm" : "map_json/bijar_canyons/listgm.json",
    "mapsize" : "4096"
  },  {
    "code" : "black_gold",
    "name" : "Black Gold",
    "listgm" : "map_json/black_gold/listgm.json",
    "mapsize" : "4096"
  },  {
    "code" : "burning_sands",
    "name" : "Burning Sands",
    "listgm" : "map_json/burning_sands/listgm.json",
    "mapsize" : "4096"
  },  {
    "code" : "charlies_point",
    "name" : "Charlies Point",
    "listgm" : "map_json/charlies_point/listgm.json",
    "mapsize" : "2048"
  },  {
    "code" : "dovre",
    "name" : "Dovre",
    "listgm" : "map_json/dovre/listgm.json",
    "mapsize" : "2048"
  },  {
    "code" : "dovre_winter",
    "name" : "Dovre Winter",
    "listgm" : "map_json/dovre_winter/listgm.json",
    "mapsize" : "2048"
  },  {
    "code" : "dragon_fly",
    "name" : "Dragon Fly",
    "listgm" : "map_json/dragon_fly/listgm.json",
    "mapsize" : "2048"
  },  {
    "code" : "fallujah_west",
    "name" : "Fallujah West",
    "listgm" : "map_json/fallujah_west/listgm.json",
    "mapsize" : "1024"
  },  {
    "code" : "fools_road",
    "name" : "Fools Road",
    "listgm" : "map_json/fools_road/listgm.json",
    "mapsize" : "2048"
  },  {
    "code" : "gaza_2",
    "name" : "Gaza",
    "listgm" : "map_json/gaza_2/listgm.json",
    "mapsize" : "1024"
  },  {
    "code" : "goose_green",
    "name" : "Goose Green",
    "listgm" : "map_json/goose_green/listgm.json",
    "mapsize" : "2048"
  },  {
    "code" : "hades_peak",
    "name" : "Hades Peak",
    "listgm" : "map_json/hades_peak/listgm.json",
    "mapsize" : "4096"
  },  {
    "code" : "hill_488",
    "name" : "Hill 488",
    "listgm" : "map_json/hill_488/listgm.json",
    "mapsize" : "1024"
  },  {
    "code" : "iron_ridge",
    "name" : "Iron Ridge",
    "listgm" : "map_json/iron_ridge/listgm.json",
    "mapsize" : "2048"
  },  {
    "code" : "jabal",
    "name" : "Jabal al Burj",
    "listgm" : "map_json/jabal/listgm.json",
    "mapsize" : "2048"
  },  {
    "code" : "karbala",
    "name" : "Karbala",
    "listgm" : "map_json/karbala/listgm.json",
    "mapsize" : "2048"
  },  {
    "code" : "kashan_desert",
    "name" : "Kashan Desert",
    "listgm" : "map_json/kashan_desert/listgm.json",
    "mapsize" : "4096"
  },  {
    "code" : "khamisiyah",
    "name" : "Khamisiyah",
    "listgm" : "map_json/khamisiyah/listgm.json",
    "mapsize" : "4096"
  },  {
    "code" : "kokan",
    "name" : "Kokan",
    "listgm" : "map_json/kokan/listgm.json",
    "mapsize" : "2048"
  },  {
    "code" : "korengal",
    "name" : "Korengal Valley",
    "listgm" : "map_json/korengal/listgm.json",
    "mapsize" : "1024"
  },  {
    "code" : "kozelsk",
    "name" : "Kozelsk",
    "listgm" : "map_json/kozelsk/listgm.json",
    "mapsize" : "2048"
  },  {
    "code" : "lashkar_valley",
    "name" : "Lashkar Valley",
    "listgm" : "map_json/lashkar_valley/listgm.json",
    "mapsize" : "2048"
  },  {
    "code" : "muttrah_city_2",
    "name" : "Muttrah City",
    "listgm" : "map_json/muttrah_city_2/listgm.json",
    "mapsize" : "2048"
  },  {
    "code" : "nuijamaa",
    "name" : "Nuijamaa",
    "listgm" : "map_json/nuijamaa/listgm.json",
    "mapsize" : "2048"
  },  {
    "code" : "operation_archer",
    "name" : "Operation Archer",
    "listgm" : "map_json/operation_archer/listgm.json",
    "mapsize" : "2048"
  },  {
    "code" : "operation_ghost_train",
    "name" : "Operation Ghost Train",
    "listgm" : "map_json/operation_ghost_train/listgm.json",
    "mapsize" : "1024"
  },  {
    "code" : "operation_marlin",
    "name" : "Operation Marlin",
    "listgm" : "map_json/operation_marlin/listgm.json",
    "mapsize" : "2048"
  },  {
    "code" : "operation_soul_rebel",
    "name" : "Operation Soul Rebel",
    "listgm" : "map_json/operation_soul_rebel/listgm.json",
    "mapsize" : "4096"
  },  {
    "code" : "op_barracuda",
    "name" : "Operation Barracuda",
    "listgm" : "map_json/op_barracuda/listgm.json",
    "mapsize" : "2048"
  },  {
    "code" : "pavlovsk_bay",
    "name" : "Pavlosk Bay",
    "listgm" : "map_json/pavlovsk_bay/listgm.json",
    "mapsize" : "4096"
  },  {
    "code" : "qwai1",
    "name" : "Qwai River",
    "listgm" : "map_json/qwai1/listgm.json",
    "mapsize" : "2048"
  },  {
    "code" : "ramiel",
    "name" : "Ramiel",
    "listgm" : "map_json/ramiel/listgm.json",
    "mapsize" : "2048"
  },  {
    "code" : "route",
    "name" : "Route E-106 - BETA",
    "listgm" : "map_json/route/listgm.json",
    "mapsize" : "2048"
  },  {
    "code" : "saaremaa",
    "name" : "Saaremaa",
    "listgm" : "map_json/saaremaa/listgm.json",
    "mapsize" : "4096"
  },  {
    "code" : "sahel",
    "name" : "Sahel - BETA",
    "listgm" : "map_json/sahel/listgm.json",
    "mapsize" : "2048"
  },  {
    "code" : "sbeneh_outskirts",
    "name" : "Sbeneh Outskirts",
    "listgm" : "map_json/sbeneh_outskirts/listgm.json",
    "mapsize" : "2048"
  },  {
    "code" : "shijiavalley",
    "name" : "Shijia Valley",
    "listgm" : "map_json/shijiavalley/listgm.json",
    "mapsize" : "4096"
  },  {
    "code" : "silent_eagle",
    "name" : "Silent Eagle",
    "listgm" : "map_json/silent_eagle/listgm.json",
    "mapsize" : "4096"
  },  {
    "code" : "tad_sae",
    "name" : "Tad Sae",
    "listgm" : "map_json/tad_sae/listgm.json",
    "mapsize" : "1024"
  },  {
    "code" : "the_falklands",
    "name" : "The Falklands",
    "listgm" : "map_json/the_falklands/listgm.json",
    "mapsize" : "8192"
  },  {
    "code" : "ulyanovsk",
    "name" : "Ulyanovsk",
    "listgm" : "map_json/ulyanovsk/listgm.json",
    "mapsize" : "2048"
  },  {
    "code" : "vadso_city",
    "name" : "Vadso City",
    "listgm" : "map_json/vadso_city/listgm.json",
    "mapsize" : "4096"
  },  {
    "code" : "wanda_shan",
    "name" : "[[Wanda Shan]]",
    "listgm" : "map_json/wanda_shan/listgm.json",
    "mapsize" : "4096"
  },  {
    "code" : "xiangshan",
    "name" : "Xiangshan",
    "listgm" : "map_json/xiangshan/listgm.json",
    "mapsize" : "4096"
  },  {
    "code" : "yamalia",
    "name" : "Yamalia",
    "listgm" : "map_json/yamalia/listgm.json",
    "mapsize" : "4096"
  },
]