{
  "team1":"mec",
  "team2":"idf",
  "team1tickets":"600",
  "team2tickets":"600",
  "mapsize":"1024",
  "viewdistance":"200",
  "combatareause":"true",
  "combatareadamage":"20.0",
  "combatareaallowoutside":"5.0",
  "routes": [
    [
      [
        "cpname_asad_khal_skirmish32_mecstart"
      ],
      [
        "cpname_asad_khal_skirmish32_westcity",
        "cpname_asad_khal_skirmish32_eastcity"
      ],
      [
        "cpname_asad_khal_skirmish32_idfstart"
      ]
    ]
  ],
  "type": "FeatureCollection",
  "features": [
    {
      "type": "Feature",
      "geometry": {
        "type": "Point",
        "coordinates": [413.0, -795.0],
        "size": [16, 16]
      },
      "properties": {
        "iconurl": "icons/mini_map/icon_supply.png",
        "iconrotate": "0",
        "popupContent": "Amazing information about Permanent supply crate will be found here!"
      },
      "bf2props": {
        "name": "cpname_asad_khal_skirmish32_idfstart_crate",
        "class": "ObjectSpawner",
        "name_object": "Permanent supply crate | Permanent supply crate",
        "team": "2",
        "obj1": "fixed_supply_crate",
        "obj2": "fixed_supply_crate",
        "maxspawn": "0.0",
        "minspawn": "60.0",
        "spawndelay": "false",
        "ttl": "0.0",
        "cpid": "501"
      }
    },
    {
      "type": "Feature",
      "geometry": {
        "type": "Point",
        "coordinates": [549.0, -764.0],
        "size": [16, 16]
      },
      "properties": {
        "iconurl": "icons/mini_map/icon_supply.png",
        "iconrotate": "0",
        "popupContent": "Amazing information about Permanent supply crate will be found here!"
      },
      "bf2props": {
        "name": "cpname_asad_khal_skirmish32_idfstart_0",
        "class": "ObjectSpawner",
        "name_object": "Permanent supply crate | Permanent supply crate",
        "team": "2",
        "obj1": "fixed_supply_crate",
        "obj2": "fixed_supply_crate",
        "maxspawn": "0.0",
        "minspawn": "60.0",
        "spawndelay": "false",
        "ttl": "0.0",
        "cpid": "501"
      }
    },
    {
      "type": "Feature",
      "geometry": {
        "type": "Point",
        "coordinates": [361.0, -235.0],
        "size": [16, 16]
      },
      "properties": {
        "iconurl": "icons/mini_map/icon_supply.png",
        "iconrotate": "0",
        "popupContent": "Amazing information about Permanent supply crate will be found here!"
      },
      "bf2props": {
        "name": "cpname_asad_khal_skirmish32_mecstart_2",
        "class": "ObjectSpawner",
        "name_object": "Permanent supply crate | Permanent supply crate",
        "team": "1",
        "obj1": "fixed_supply_crate",
        "obj2": "fixed_supply_crate",
        "maxspawn": "0.0",
        "minspawn": "60.0",
        "spawndelay": "false",
        "ttl": "0.0",
        "cpid": "502"
      }
    },
    {
      "type": "Feature",
      "geometry": {
        "type": "Point",
        "coordinates": [422.0, -246.0],
        "size": [16, 16]
      },
      "properties": {
        "iconurl": "icons/mini_map/icon_supply.png",
        "iconrotate": "0",
        "popupContent": "Amazing information about Permanent supply crate will be found here!"
      },
      "bf2props": {
        "name": "cpname_asad_khal_skirmish32_mecstart_cr",
        "class": "ObjectSpawner",
        "name_object": "Permanent supply crate | Permanent supply crate",
        "team": "1",
        "obj1": "fixed_supply_crate",
        "obj2": "fixed_supply_crate",
        "maxspawn": "0.0",
        "minspawn": "60.0",
        "spawndelay": "false",
        "ttl": "0.0",
        "cpid": "502"
      }
    },
    {
      "type": "Feature",
      "geometry": {
        "type": "Point",
        "coordinates": [563.0, -764.0],
        "size": [16, 16]
      },
      "properties": {
        "iconurl": "icons/mini_map/uavtrailer.png",
        "iconrotate": "0",
        "popupContent": "Amazing information about null will be found here!"
      },
      "bf2props": {
        "name": "cpname_asad_khal_skirmish32_idfstart_acv",
        "class": "ObjectSpawner",
        "name_object": "UAV Terminal",
        "team": "2",
        "obj1": "null",
        "obj2": "idf_acv_m557",
        "maxspawn": "0.0",
        "minspawn": "0.0",
        "spawndelay": "false",
        "ttl": "0.0",
        "cpid": "501"
      }
    },
    {
      "type": "Feature",
      "geometry": {
        "type": "Point",
        "coordinates": [392.0, -240.0],
        "size": [16, 16]
      },
      "properties": {
        "iconurl": "icons/mini_map/uavtrailer.png",
        "iconrotate": "0",
        "popupContent": "Amazing information about UAV Terminal will be found here!"
      },
      "bf2props": {
        "name": "cpname_asad_khal_skirmish32_mecstart_acv",
        "class": "ObjectSpawner",
        "name_object": "UAV Terminal",
        "team": "1",
        "obj1": "mec_acv_btr60pu",
        "obj2": "null",
        "maxspawn": "0.0",
        "minspawn": "0.0",
        "spawndelay": "false",
        "ttl": "0.0",
        "cpid": "502"
      }
    },
    {
      "type": "Feature",
      "geometry": {
        "type": "Point",
        "coordinates": [342.0, -590.0],
        "size": [16, 16]
      },
      "properties": {
        "iconurl": "icons/mini_map/icon_supply.png",
        "iconrotate": "0",
        "popupContent": "Amazing information about Permanent supply crate will be found here!"
      },
      "bf2props": {
        "name": "cpname_asad_khal_skirmish32_westcity_cr",
        "class": "ObjectSpawner",
        "name_object": "Permanent supply crate | Permanent supply crate",
        "team": "0",
        "obj1": "fixed_supply_crate",
        "obj2": "fixed_supply_crate",
        "maxspawn": "0.0",
        "minspawn": "60.0",
        "spawndelay": "false",
        "ttl": "0.0",
        "cpid": "503"
      }
    },
    {
      "type": "Feature",
      "geometry": {
        "type": "Point",
        "coordinates": [504.0, -522.0],
        "size": [16, 16]
      },
      "properties": {
        "iconurl": "icons/mini_map/icon_supply.png",
        "iconrotate": "0",
        "popupContent": "Amazing information about Permanent supply crate will be found here!"
      },
      "bf2props": {
        "name": "cpname_asad_khal_skirmish32_eastcity_cr",
        "class": "ObjectSpawner",
        "name_object": "Permanent supply crate | Permanent supply crate",
        "team": "0",
        "obj1": "fixed_supply_crate",
        "obj2": "fixed_supply_crate",
        "maxspawn": "0.0",
        "minspawn": "60.0",
        "spawndelay": "false",
        "ttl": "0.0",
        "cpid": "504"
      }
    },
    {
      "type": "Feature",
      "geometry": {
        "type": "Point",
        "coordinates": [502.738, -650.744],
        "size": [33, 33],
        "radius": "40.0"
      },
      "properties": {
        "iconurl": "icons/flags_map/idf/minimap_cp.png",
        "iconrotate": "0",
        "popupContent": "Amazing information about IDF Camp 40m will be found here!"
      },
      "bf2props": {
        "name": "cpname_asad_khal_skirmish32_idfstart",
        "class": "ControlPoint",
        "name_object": "IDF Camp 40m",
        "team": "2",
        "areavalue1": "1000.0",
        "areavalue2": "0.0",
        "cpid": "501",
        "sgid": "3",
        "uncap": "false",
        "ttgc": "60.0",
        "ttlc": "60.0"
      }
    },
    {
      "type": "Feature",
      "geometry": {
        "type": "Point",
        "coordinates": [387.395, -374.13098],
        "size": [33, 33],
        "radius": "40.0"
      },
      "properties": {
        "iconurl": "icons/flags_map/mec/minimap_cp.png",
        "iconrotate": "0",
        "popupContent": "Amazing information about MEC Camp 40m will be found here!"
      },
      "bf2props": {
        "name": "cpname_asad_khal_skirmish32_mecstart",
        "class": "ControlPoint",
        "name_object": "MEC Camp 40m",
        "team": "1",
        "areavalue1": "0.0",
        "areavalue2": "1000.0",
        "cpid": "502",
        "sgid": "1",
        "uncap": "false",
        "ttgc": "60.0",
        "ttlc": "60.0"
      }
    },
    {
      "type": "Feature",
      "geometry": {
        "type": "Point",
        "coordinates": [357.846, -566.399],
        "size": [33, 33],
        "radius": "60.0"
      },
      "properties": {
        "iconurl": "icons/flags_map/neutral/minimap_cp.png",
        "iconrotate": "0",
        "popupContent": "Amazing information about West Village 60m will be found here!"
      },
      "bf2props": {
        "name": "cpname_asad_khal_skirmish32_westcity",
        "class": "ControlPoint",
        "name_object": "West Village 60m",
        "team": "0",
        "areavalue1": "0.0",
        "areavalue2": "0.0",
        "cpid": "503",
        "sgid": "2",
        "uncap": "false",
        "ttgc": "120.0",
        "ttlc": "120.0"
      }
    },
    {
      "type": "Feature",
      "geometry": {
        "type": "Point",
        "coordinates": [505.104, -502.218],
        "size": [33, 33],
        "radius": "60.0"
      },
      "properties": {
        "iconurl": "icons/flags_map/neutral/minimap_cp.png",
        "iconrotate": "0",
        "popupContent": "Amazing information about East Village 60m will be found here!"
      },
      "bf2props": {
        "name": "cpname_asad_khal_skirmish32_eastcity",
        "class": "ControlPoint",
        "name_object": "East Village 60m",
        "team": "0",
        "areavalue1": "0.0",
        "areavalue2": "0.0",
        "cpid": "504",
        "sgid": "2",
        "uncap": "false",
        "ttgc": "120.0",
        "ttlc": "120.0"
      }
    },
    {
      "type": "Feature",
      "geometry": {
        "type": "Polygon",
        "coordinates": [
          [
            [530.34955, -796.1493],
            [577.3287, -771.3772],
            [586.8185, -716.1947],
            [529.07263, -709.443],
            [474.34827, -707.1499],
            [394.31412, -704.079],
            [350.78137, -721.70496],
            [316.49698, -719.4531],
            [319.92587, -741.9472],
            [344.018, -757.57275],
            [367.08997, -786.34674],
            [416.33057, -796.2687]
          ]
        ]
      },
      "bf2props": {
        "code": "combatarea_0_skirmish32_mec",
        "class": "CombatArea",
        "team": "1",
        "vehicles": "4",
        "layer": "6",
        "inverted": "true",
        "max": [0.0, 0.0],
        "min": [0.0, 0.0]
      }
    },
    {
      "type": "Feature",
      "geometry": {
        "type": "Polygon",
        "coordinates": [
          [
            [0,0],
            [0,-1024],
            [1024,-1024],
            [1024,0]
          ],[
            [331.83102, -337.27728],
            [318.6792, -346.64716],
            [305.795, -366.011],
            [303.86633, -388.90564],
            [306.28027, -425.3429],
            [322.22427, -449.64337],
            [316.749, -462.64435],
            [310.61716, -485.29504],
            [313.8476, -499.1187],
            [326.21396, -525.1928],
            [324.53793, -540.79724],
            [317.15344, -548.06824],
            [314.38702, -592.9984],
            [315.07968, -653.397],
            [296.13104, -654.5382],
            [295.62415, -696.78674],
            [314.633, -697.60516],
            [314.08795, -715.62366],
            [321.08127, -741.92554],
            [344.4183, -756.3865],
            [366.34198, -787.0297],
            [417.1519, -793.9898],
            [441.21704, -794.8696],
            [530.05133, -795.23505],
            [576.2302, -770.63416],
            [585.5803, -715.72],
            [581.62775, -644.99677],
            [580.0008, -616.43207],
            [567.2925, -588.0215],
            [558.5941, -572.3701],
            [545.21155, -554.59436],
            [533.84344, -544.21674],
            [527.2932, -535.0941],
            [536.3468, -529.78064],
            [547.24835, -525.67645],
            [552.3556, -491.74652],
            [541.11066, -472.04675],
            [529.5347, -453.0929],
            [526.06714, -440.79926],
            [531.5755, -424.0041],
            [531.814, -410.51447],
            [526.6705, -385.60577],
            [505.18973, -385.10297],
            [496.63843, -391.30927],
            [484.81363, -391.22296],
            [477.91693, -383.9016],
            [478.1616, -369.16553],
            [477.43094, -337.09814],
            [470.68372, -287.35077],
            [466.69675, -255.83911],
            [429.31332, -221.93274],
            [389.6804, -220.58875],
            [360.09543, -219.19946],
            [306.94043, -228.84961],
            [295.34662, -264.36353],
            [298.66608, -310.4438],
            [307.44858, -318.58362],
            [317.39597, -324.39362],
            [326.29193, -328.29938]
          ]
        ]
      },
      "bf2props": {
        "code": "combatarea_12_skirmish32_mec",
        "class": "CombatArea",
        "team": "0",
        "vehicles": "4",
        "layer": "6",
        "inverted": "false",
        "max": [0.0, 0.0],
        "min": [0.0, 0.0]
      }
    },
    {
      "type": "Feature",
      "geometry": {
        "type": "Polygon",
        "coordinates": [
          [
            [359.79904, -216.58783],
            [306.959, -227.08435],
            [293.51834, -263.0119],
            [295.79028, -309.45856],
            [338.50607, -296.08472],
            [389.837, -294.10992],
            [415.80453, -289.85474],
            [469.30692, -279.7718],
            [467.85443, -255.45337],
            [430.00488, -220.6706]
          ]
        ]
      },
      "bf2props": {
        "code": "combatarea_71_skirmish32_mec",
        "class": "CombatArea",
        "team": "2",
        "vehicles": "4",
        "layer": "6",
        "inverted": "true",
        "max": [0.0, 0.0],
        "min": [0.0, 0.0]
      }
    }
  ]
}