{
  "team1":"ch",
  "team2":"fr",
  "team1tickets":"750",
  "team2tickets":"750",
  "mapsize":"4096",
  "viewdistance":"600",
  "combatareause":"true",
  "combatareadamage":"20.0",
  "combatareaallowoutside":"10.0",
  "routes": [
    [
      [
        "cpname_xiangshan_aas128_redbase"
      ],
      [
        "cpname_xiangshan_aas128_supplyline"
      ],
      [
        "cpname_xiangshan_aas128_redbarracks"
      ],
      [
        "cpname_xiangshan_aas128_northwestbridge"
      ],
      [
        "cpname_xiangshan_aas128_bigmachill"
      ],
      [
        "cpname_xiangshan_aas128_listeningpost"
      ],
      [
        "cpname_xiangshan_aas128_blufob"
      ],
      [
        "cpname_xiangshan_aas128_blubase"
      ]
    ],
    [
      [
        "cpname_xiangshan_aas128_redbase"
      ],
      [
        "cpname_xiangshan_aas128_supplyline"
      ],
      [
        "cpname_xiangshan_aas128_redbarracks1"
      ],
      [
        "cpname_xiangshan_aas128_buddhisttemple"
      ],
      [
        "cpname_xiangshan_aas128_oldcatholicmission"
      ],
      [
        "cpname_xiangshan_aas128_listeningpost1"
      ],
      [
        "cpname_xiangshan_aas128_blufob"
      ],
      [
        "cpname_xiangshan_aas128_blubase"
      ]
    ],
    [
      [
        "cpname_xiangshan_aas128_redbase"
      ],
      [
        "cpname_xiangshan_aas128_supplyline"
      ],
      [
        "cpname_xiangshan_aas128_fishingvillage"
      ],
      [
        "cpname_xiangshan_aas128_village"
      ],
      [
        "cpname_xiangshan_aas128_northbridge"
      ],
      [
        "cpname_xiangshan_aas128_oldcatholicmission1"
      ],
      [
        "cpname_xiangshan_aas128_blufob"
      ],
      [
        "cpname_xiangshan_aas128_blubase"
      ]
    ],
    [
      [
        "cpname_xiangshan_aas128_redbase"
      ],
      [
        "cpname_xiangshan_aas128_supplyline"
      ],
      [
        "cpname_xiangshan_aas128_fishingvillage1"
      ],
      [
        "cpname_xiangshan_aas128_village1"
      ],
      [
        "cpname_xiangshan_aas128_midbridge"
      ],
      [
        "cpname_xiangshan_aas128_listeningpost2"
      ],
      [
        "cpname_xiangshan_aas128_blufob"
      ],
      [
        "cpname_xiangshan_aas128_blubase"
      ]
    ],
    [
      [
        "cpname_xiangshan_aas128_redbase"
      ],
      [
        "cpname_xiangshan_aas128_supplyline"
      ],
      [
        "cpname_xiangshan_aas128_fishingvillage2"
      ],
      [
        "cpname_xiangshan_aas128_swamp"
      ],
      [
        "cpname_xiangshan_aas128_ancientfort"
      ],
      [
        "cpname_xiangshan_aas128_southbridge"
      ],
      [
        "cpname_xiangshan_aas128_blufob"
      ],
      [
        "cpname_xiangshan_aas128_blubase"
      ]
    ]
  ],
  "type": "FeatureCollection",
  "features": [
    {
      "type": "Feature",
      "geometry": {
        "type": "Point",
        "coordinates": [348.115, -3647.7358],
        "size": [16, 16]
      },
      "properties": {
        "iconurl": "icons/vehicles_map/mini_the_medium.png",
        "iconrotate": "0.0",
        "popupContent": "Amazing information about null will be found here!"
      },
      "bf2props": {
        "name": "cpname_xiangshan_aas128_blufob_transheli_0",
        "class": "ObjectSpawner",
        "name_object": "NH90 NFH",
        "team": "2",
        "obj1": "null",
        "obj2": "fr_the_nh90_navy",
        "maxspawn": "300.0",
        "minspawn": "300.0",
        "spawndelay": "true",
        "ttl": "99999.0",
        "cpid": "218"
      }
    },
    {
      "type": "Feature",
      "geometry": {
        "type": "Point",
        "coordinates": [417.13794, -3646.229],
        "size": [16, 16]
      },
      "properties": {
        "iconurl": "icons/vehicles_map/mini_ahe_heavy.png",
        "iconrotate": "0.0",
        "popupContent": "Amazing information about null will be found here!"
      },
      "bf2props": {
        "name": "cpname_xiangshan_aas128_blufob_attackheli",
        "class": "ObjectSpawner",
        "name_object": "EC 665 Tigre HAP",
        "team": "2",
        "obj1": "null",
        "obj2": "fr_ahe_tiger",
        "maxspawn": "1200.0",
        "minspawn": "1200.0",
        "spawndelay": "true",
        "ttl": "99999.0",
        "cpid": "218"
      }
    },
    {
      "type": "Feature",
      "geometry": {
        "type": "Point",
        "coordinates": [291.312, -3709.086],
        "size": [16, 16]
      },
      "properties": {
        "iconurl": "icons/vehicles_map/mini_apc_medium.png",
        "iconrotate": "90.0",
        "popupContent": "Amazing information about null will be found here!"
      },
      "bf2props": {
        "name": "cpname_xiangshan_aas128_blufob_apc",
        "class": "ObjectSpawner",
        "name_object": "VBCI",
        "team": "2",
        "obj1": "null",
        "obj2": "fr_apc_vbci",
        "maxspawn": "600.0",
        "minspawn": "600.0",
        "spawndelay": "false",
        "ttl": "99999.0",
        "cpid": "218"
      }
    },
    {
      "type": "Feature",
      "geometry": {
        "type": "Point",
        "coordinates": [366.901, -3706.247],
        "size": [16, 16]
      },
      "properties": {
        "iconurl": "icons/vehicles_map/mini_tank_heavy.png",
        "iconrotate": "90.0",
        "popupContent": "Amazing information about null will be found here!"
      },
      "bf2props": {
        "name": "cpname_xiangshan_aas128_blufob_tank",
        "class": "ObjectSpawner",
        "name_object": "AMX-56 Leclerc",
        "team": "2",
        "obj1": "null",
        "obj2": "fr_tnk_leclerc",
        "maxspawn": "1200.0",
        "minspawn": "1200.0",
        "spawndelay": "false",
        "ttl": "99999.0",
        "cpid": "218"
      }
    },
    {
      "type": "Feature",
      "geometry": {
        "type": "Point",
        "coordinates": [291.312, -3714.199],
        "size": [16, 16]
      },
      "properties": {
        "iconurl": "icons/vehicles_map/mini_apc_medium.png",
        "iconrotate": "90.0",
        "popupContent": "Amazing information about null will be found here!"
      },
      "bf2props": {
        "name": "cpname_xiangshan_aas128_blufob_apc_0",
        "class": "ObjectSpawner",
        "name_object": "VBCI",
        "team": "2",
        "obj1": "null",
        "obj2": "fr_apc_vbci",
        "maxspawn": "600.0",
        "minspawn": "600.0",
        "spawndelay": "false",
        "ttl": "99999.0",
        "cpid": "218"
      }
    },
    {
      "type": "Feature",
      "geometry": {
        "type": "Point",
        "coordinates": [3858.209, -313.917],
        "size": [16, 16]
      },
      "properties": {
        "iconurl": "icons/vehicles_map/mini_apc_medium.png",
        "iconrotate": "0.0",
        "popupContent": "Amazing information about ZSL-92 25mm will be found here!"
      },
      "bf2props": {
        "name": "cpname_xiangshan_aas128_redbase_apc",
        "class": "ObjectSpawner",
        "name_object": "ZSL-92 25mm",
        "team": "1",
        "obj1": "ch_apc_wz551",
        "obj2": "null",
        "maxspawn": "600.0",
        "minspawn": "600.0",
        "spawndelay": "false",
        "ttl": "99999.0",
        "cpid": "219"
      }
    },
    {
      "type": "Feature",
      "geometry": {
        "type": "Point",
        "coordinates": [3853.808, -313.922],
        "size": [16, 16]
      },
      "properties": {
        "iconurl": "icons/vehicles_map/mini_apc_heavy.png",
        "iconrotate": "0.0",
        "popupContent": "Amazing information about ZSL-92B 30mm will be found here!"
      },
      "bf2props": {
        "name": "cpname_xiangshan_aas128_redbase_0",
        "class": "ObjectSpawner",
        "name_object": "ZSL-92B 30mm",
        "team": "1",
        "obj1": "ch_ifv_wz551b",
        "obj2": "null",
        "maxspawn": "600.0",
        "minspawn": "600.0",
        "spawndelay": "true",
        "ttl": "99999.0",
        "cpid": "219"
      }
    },
    {
      "type": "Feature",
      "geometry": {
        "type": "Point",
        "coordinates": [3828.217, -268.49],
        "size": [16, 16]
      },
      "properties": {
        "iconurl": "icons/vehicles_map/mini_tank_heavy.png",
        "iconrotate": "180.0",
        "popupContent": "Amazing information about ZTZ-99A2 will be found here!"
      },
      "bf2props": {
        "name": "cpname_xiangshan_aas128_redbase_tank",
        "class": "ObjectSpawner",
        "name_object": "ZTZ-99A2",
        "team": "1",
        "obj1": "ch_tnk_ztz99",
        "obj2": "null",
        "maxspawn": "1200.0",
        "minspawn": "1200.0",
        "spawndelay": "false",
        "ttl": "99999.0",
        "cpid": "219"
      }
    },
    {
      "type": "Feature",
      "geometry": {
        "type": "Point",
        "coordinates": [3838.481, -268.375],
        "size": [16, 16]
      },
      "properties": {
        "iconurl": "icons/vehicles_map/mini_tank_heavy.png",
        "iconrotate": "180.0",
        "popupContent": "Amazing information about ZTZ-99A2 will be found here!"
      },
      "bf2props": {
        "name": "cpname_xiangshan_aas128_redbase_0_0",
        "class": "ObjectSpawner",
        "name_object": "ZTZ-99A2",
        "team": "1",
        "obj1": "ch_tnk_ztz99",
        "obj2": "null",
        "maxspawn": "1200.0",
        "minspawn": "1200.0",
        "spawndelay": "false",
        "ttl": "99999.0",
        "cpid": "219"
      }
    },
    {
      "type": "Feature",
      "geometry": {
        "type": "Point",
        "coordinates": [3831.168, -311.526],
        "size": [16, 16]
      },
      "properties": {
        "iconurl": "icons/vehicles_map/mini_rec_light.png",
        "iconrotate": "0.0",
        "popupContent": "Amazing information about VN-3 will be found here!"
      },
      "bf2props": {
        "name": "cpname_xiangshan_aas128_redbase_vn3",
        "class": "ObjectSpawner",
        "name_object": "VN-3",
        "team": "1",
        "obj1": "ch_jep_vn3",
        "obj2": "null",
        "maxspawn": "600.0",
        "minspawn": "600.0",
        "spawndelay": "false",
        "ttl": "99999.0",
        "cpid": "219"
      }
    },
    {
      "type": "Feature",
      "geometry": {
        "type": "Point",
        "coordinates": [3916.067, -265.20398],
        "size": [16, 16]
      },
      "properties": {
        "iconurl": "icons/mini_map/uavtrailer.png",
        "iconrotate": "0",
        "popupContent": "Amazing information about UAV Terminal will be found here!"
      },
      "bf2props": {
        "name": "cpname_xiangshan_aas128_redbase_acv",
        "class": "ObjectSpawner",
        "name_object": "UAV Terminal",
        "team": "1",
        "obj1": "ch_acv_wz551",
        "obj2": "null",
        "maxspawn": "0.0",
        "minspawn": "0.0",
        "spawndelay": "false",
        "ttl": "99999.0",
        "cpid": "219"
      }
    },
    {
      "type": "Feature",
      "geometry": {
        "type": "Point",
        "coordinates": [3877.3901, -316.71802],
        "size": [16, 16]
      },
      "properties": {
        "iconurl": "icons/mini_map/repairdepot.png",
        "iconrotate": "0",
        "popupContent": "Amazing information about Vehicle Depot will be found here!"
      },
      "bf2props": {
        "name": "cpname_xiangshan_aas128_redbase_vehicledepot",
        "class": "ObjectSpawner",
        "name_object": "Vehicle Depot",
        "team": "1",
        "obj1": "vehicle_depot_ch",
        "obj2": "null",
        "maxspawn": "300.0",
        "minspawn": "300.0",
        "spawndelay": "false",
        "ttl": "99999.0",
        "cpid": "219"
      }
    },
    {
      "type": "Feature",
      "geometry": {
        "type": "Point",
        "coordinates": [301.61597, -3758.745],
        "size": [16, 16]
      },
      "properties": {
        "iconurl": "icons/mini_map/uavtrailer.png",
        "iconrotate": "0",
        "popupContent": "Amazing information about null will be found here!"
      },
      "bf2props": {
        "name": "cpname_xiangshan_aas128_blufob_acv",
        "class": "ObjectSpawner",
        "name_object": "UAV Terminal",
        "team": "2",
        "obj1": "null",
        "obj2": "fr_acv_vab",
        "maxspawn": "99999.0",
        "minspawn": "99999.0",
        "spawndelay": "false",
        "ttl": "99999.0",
        "cpid": "218"
      }
    },
    {
      "type": "Feature",
      "geometry": {
        "type": "Point",
        "coordinates": [3833.384, -268.32605],
        "size": [16, 16]
      },
      "properties": {
        "iconurl": "icons/vehicles_map/mini_tank_heavy.png",
        "iconrotate": "180.0",
        "popupContent": "Amazing information about ZTZ-99A2 will be found here!"
      },
      "bf2props": {
        "name": "cpname_xiangshan_aas128_redbase_1_1",
        "class": "ObjectSpawner",
        "name_object": "ZTZ-99A2",
        "team": "1",
        "obj1": "ch_tnk_ztz99",
        "obj2": "null",
        "maxspawn": "1200.0",
        "minspawn": "1200.0",
        "spawndelay": "false",
        "ttl": "99999.0",
        "cpid": "219"
      }
    },
    {
      "type": "Feature",
      "geometry": {
        "type": "Point",
        "coordinates": [3867.767, -284.08704],
        "size": [16, 16]
      },
      "properties": {
        "iconurl": "icons/vehicles_map/mini_trk_logistics.png",
        "iconrotate": "0.0",
        "popupContent": "Amazing information about EQ2080 Logistics will be found here!"
      },
      "bf2props": {
        "name": "cpname_xiangshan_aas128_redbase_logistictruck",
        "class": "ObjectSpawner",
        "name_object": "EQ2080 Logistics",
        "team": "1",
        "obj1": "ch_trk_logistics",
        "obj2": "null",
        "maxspawn": "300.0",
        "minspawn": "300.0",
        "spawndelay": "false",
        "ttl": "99999.0",
        "cpid": "219"
      }
    },
    {
      "type": "Feature",
      "geometry": {
        "type": "Point",
        "coordinates": [299.62805, -3726.667],
        "size": [16, 16]
      },
      "properties": {
        "iconurl": "icons/vehicles_map/mini_trk_logistics.png",
        "iconrotate": "0.0",
        "popupContent": "Amazing information about null will be found here!"
      },
      "bf2props": {
        "name": "cpname_xiangshan_aas128_blufob_logistictruck",
        "class": "ObjectSpawner",
        "name_object": "GBC 180 Logistics",
        "team": "2",
        "obj1": "null",
        "obj2": "fr_trk_logistics",
        "maxspawn": "300.0",
        "minspawn": "300.0",
        "spawndelay": "false",
        "ttl": "99999.0",
        "cpid": "218"
      }
    },
    {
      "type": "Feature",
      "geometry": {
        "type": "Point",
        "coordinates": [301.52197, -3704.1812],
        "size": [16, 16]
      },
      "properties": {
        "iconurl": "icons/vehicles_map/mini_trk_logistics.png",
        "iconrotate": "88.348",
        "popupContent": "Amazing information about null will be found here!"
      },
      "bf2props": {
        "name": "cpname_xiangshan_aas128_blufob_jeep",
        "class": "ObjectSpawner",
        "name_object": "GBC 180 Logistics",
        "team": "2",
        "obj1": "null",
        "obj2": "fr_trk_logistics",
        "maxspawn": "300.0",
        "minspawn": "300.0",
        "spawndelay": "false",
        "ttl": "99999.0",
        "cpid": "218"
      }
    },
    {
      "type": "Feature",
      "geometry": {
        "type": "Point",
        "coordinates": [366.62695, -3718.866],
        "size": [16, 16]
      },
      "properties": {
        "iconurl": "icons/vehicles_map/mini_tank_medium.png",
        "iconrotate": "92.629",
        "popupContent": "Amazing information about null will be found here!"
      },
      "bf2props": {
        "name": "cpname_xiangshan_aas128_blufob_lightapc",
        "class": "ObjectSpawner",
        "name_object": "AMX-10RC",
        "team": "2",
        "obj1": "null",
        "obj2": "fr_tnk_amx10rc",
        "maxspawn": "1200.0",
        "minspawn": "1200.0",
        "spawndelay": "false",
        "ttl": "99999.0",
        "cpid": "218"
      }
    },
    {
      "type": "Feature",
      "geometry": {
        "type": "Point",
        "coordinates": [299.57104, -3728.916],
        "size": [16, 16]
      },
      "properties": {
        "iconurl": "icons/mini_map/repairdepot.png",
        "iconrotate": "0",
        "popupContent": "Amazing information about null will be found here!"
      },
      "bf2props": {
        "name": "cpname_xiangshan_aas128_blufob_vehicledepot",
        "class": "ObjectSpawner",
        "name_object": "Vehicle Depot",
        "team": "2",
        "obj1": "null",
        "obj2": "vehicle_depot_fr",
        "maxspawn": "300.0",
        "minspawn": "300.0",
        "spawndelay": "false",
        "ttl": "99999.0",
        "cpid": "218"
      }
    },
    {
      "type": "Feature",
      "geometry": {
        "type": "Point",
        "coordinates": [3863.0151, -251.927],
        "size": [16, 16]
      },
      "properties": {
        "iconurl": "icons/vehicles_map/mini_the_heavy.png",
        "iconrotate": "-180.0",
        "popupContent": "Amazing information about Z-8KA will be found here!"
      },
      "bf2props": {
        "name": "cpname_xiangshan_aas128_redbase_transheli",
        "class": "ObjectSpawner",
        "name_object": "Z-8KA",
        "team": "1",
        "obj1": "ch_the_z8",
        "obj2": "null",
        "maxspawn": "300.0",
        "minspawn": "300.0",
        "spawndelay": "true",
        "ttl": "99999.0",
        "cpid": "219"
      }
    },
    {
      "type": "Feature",
      "geometry": {
        "type": "Point",
        "coordinates": [3898.362, -273.81702],
        "size": [16, 16]
      },
      "properties": {
        "iconurl": "icons/vehicles_map/mini_apc_light.png",
        "iconrotate": "-89.849",
        "popupContent": "Amazing information about ZSL-92A will be found here!"
      },
      "bf2props": {
        "name": "cpname_xiangshan_aas128_redbase_0_1",
        "class": "ObjectSpawner",
        "name_object": "ZSL-92A",
        "team": "1",
        "obj1": "ch_apc_wz551a",
        "obj2": "null",
        "maxspawn": "900.0",
        "minspawn": "900.0",
        "spawndelay": "false",
        "ttl": "99999.0",
        "cpid": "219"
      }
    },
    {
      "type": "Feature",
      "geometry": {
        "type": "Point",
        "coordinates": [383.36206, -3706.795],
        "size": [16, 16]
      },
      "properties": {
        "iconurl": "icons/vehicles_map/mini_tank_heavy.png",
        "iconrotate": "90.0",
        "popupContent": "Amazing information about null will be found here!"
      },
      "bf2props": {
        "name": "cpname_xiangshan_aas128_blufob_tank_0",
        "class": "ObjectSpawner",
        "name_object": "AMX-56 Leclerc",
        "team": "2",
        "obj1": "null",
        "obj2": "fr_tnk_leclerc",
        "maxspawn": "1200.0",
        "minspawn": "1200.0",
        "spawndelay": "false",
        "ttl": "99999.0",
        "cpid": "218"
      }
    },
    {
      "type": "Feature",
      "geometry": {
        "type": "Point",
        "coordinates": [3843.3608, -284.08704],
        "size": [16, 16]
      },
      "properties": {
        "iconurl": "icons/vehicles_map/mini_trk_logistics.png",
        "iconrotate": "-90.0",
        "popupContent": "Amazing information about EQ2080 Logistics will be found here!"
      },
      "bf2props": {
        "name": "cpname_xiangshan_aas128_redbase_0_2",
        "class": "ObjectSpawner",
        "name_object": "EQ2080 Logistics",
        "team": "1",
        "obj1": "ch_trk_logistics",
        "obj2": "null",
        "maxspawn": "300.0",
        "minspawn": "300.0",
        "spawndelay": "false",
        "ttl": "99999.0",
        "cpid": "219"
      }
    },
    {
      "type": "Feature",
      "geometry": {
        "type": "Point",
        "coordinates": [3843.266, -289.78296],
        "size": [16, 16]
      },
      "properties": {
        "iconurl": "icons/vehicles_map/mini_trk_logistics.png",
        "iconrotate": "-90.0",
        "popupContent": "Amazing information about EQ2080 Logistics will be found here!"
      },
      "bf2props": {
        "name": "cpname_xiangshan_aas128_redbase_1_2",
        "class": "ObjectSpawner",
        "name_object": "EQ2080 Logistics",
        "team": "1",
        "obj1": "ch_trk_logistics",
        "obj2": "null",
        "maxspawn": "300.0",
        "minspawn": "300.0",
        "spawndelay": "false",
        "ttl": "99999.0",
        "cpid": "219"
      }
    },
    {
      "type": "Feature",
      "geometry": {
        "type": "Point",
        "coordinates": [2255.025, -926.65295],
        "size": [16, 16]
      },
      "properties": {
        "iconurl": "icons/vehicles_map/mini_shp_light.png",
        "iconrotate": "90.0",
        "popupContent": "Amazing information about Landing Boat will be found here!"
      },
      "bf2props": {
        "name": "cpname_xiangshan_aas128_redbase_rib",
        "class": "ObjectSpawner",
        "name_object": "Landing Boat",
        "team": "1",
        "obj1": "ch_boat",
        "obj2": "null",
        "maxspawn": "600.0",
        "minspawn": "600.0",
        "spawndelay": "false",
        "ttl": "99999.0",
        "cpid": "219"
      }
    },
    {
      "type": "Feature",
      "geometry": {
        "type": "Point",
        "coordinates": [2254.637, -917.41003],
        "size": [16, 16]
      },
      "properties": {
        "iconurl": "icons/vehicles_map/mini_shp_light.png",
        "iconrotate": "90.0",
        "popupContent": "Amazing information about Landing Boat will be found here!"
      },
      "bf2props": {
        "name": "cpname_xiangshan_aas128_redbase_0_3",
        "class": "ObjectSpawner",
        "name_object": "Landing Boat",
        "team": "1",
        "obj1": "ch_boat",
        "obj2": "null",
        "maxspawn": "600.0",
        "minspawn": "600.0",
        "spawndelay": "false",
        "ttl": "99999.0",
        "cpid": "219"
      }
    },
    {
      "type": "Feature",
      "geometry": {
        "type": "Point",
        "coordinates": [3896.656, -293.78198],
        "size": [16, 16]
      },
      "properties": {
        "iconurl": "icons/vehicles_map/mini_adv_heavy.png",
        "iconrotate": "-90.0",
        "popupContent": "Amazing information about Type 95 SPAAA will be found here!"
      },
      "bf2props": {
        "name": "cpname_xiangshan_aas128_redbase_aav",
        "class": "ObjectSpawner",
        "name_object": "Type 95 SPAAA",
        "team": "1",
        "obj1": "ch_aav_type95",
        "obj2": "null",
        "maxspawn": "900.0",
        "minspawn": "900.0",
        "spawndelay": "true",
        "ttl": "99999.0",
        "cpid": "219"
      }
    },
    {
      "type": "Feature",
      "geometry": {
        "type": "Point",
        "coordinates": [3835.936, -311.526],
        "size": [16, 16]
      },
      "properties": {
        "iconurl": "icons/vehicles_map/mini_rec_light.png",
        "iconrotate": "0.0",
        "popupContent": "Amazing information about VN-3 will be found here!"
      },
      "bf2props": {
        "name": "cpname_xiangshan_aas128_redbase_1_3",
        "class": "ObjectSpawner",
        "name_object": "VN-3",
        "team": "1",
        "obj1": "ch_jep_vn3",
        "obj2": "null",
        "maxspawn": "600.0",
        "minspawn": "600.0",
        "spawndelay": "false",
        "ttl": "99999.0",
        "cpid": "219"
      }
    },
    {
      "type": "Feature",
      "geometry": {
        "type": "Point",
        "coordinates": [5074.171, 942.625],
        "size": [16, 16]
      },
      "properties": {
        "iconurl": "icons/mini_map/airdef.png",
        "iconrotate": "0",
        "popupContent": "Amazing information about Artillery Barrage Call-In will be found here!"
      },
      "bf2props": {
        "name": "cpname_xiangshan_aas128_redbase_areaattack",
        "class": "ObjectSpawner",
        "name_object": "Artillery Barrage Call-In",
        "team": "1",
        "obj1": "artillery_team1",
        "obj2": "null",
        "maxspawn": "1800.0",
        "minspawn": "1800.0",
        "spawndelay": "true",
        "ttl": "99999.0",
        "cpid": "219"
      }
    },
    {
      "type": "Feature",
      "geometry": {
        "type": "Point",
        "coordinates": [-1067.9761, -4981.3223],
        "size": [16, 16]
      },
      "properties": {
        "iconurl": "icons/mini_map/airdef.png",
        "iconrotate": "0",
        "popupContent": "Amazing information about null will be found here!"
      },
      "bf2props": {
        "name": "cpname_xiangshan_aas128_blufob_areaattack",
        "class": "ObjectSpawner",
        "name_object": "Artillery Barrage Call-In",
        "team": "2",
        "obj1": "null",
        "obj2": "artillery_team2",
        "maxspawn": "1800.0",
        "minspawn": "1800.0",
        "spawndelay": "true",
        "ttl": "99999.0",
        "cpid": "218"
      }
    },
    {
      "type": "Feature",
      "geometry": {
        "type": "Point",
        "coordinates": [312.10706, -3704.6401],
        "size": [16, 16]
      },
      "properties": {
        "iconurl": "icons/vehicles_map/mini_trk_logistics.png",
        "iconrotate": "90.0",
        "popupContent": "Amazing information about null will be found here!"
      },
      "bf2props": {
        "name": "cpname_xiangshan_aas128_blufob_logistictruck_0",
        "class": "ObjectSpawner",
        "name_object": "GBC 180 Logistics",
        "team": "2",
        "obj1": "null",
        "obj2": "fr_trk_logistics",
        "maxspawn": "300.0",
        "minspawn": "300.0",
        "spawndelay": "false",
        "ttl": "99999.0",
        "cpid": "218"
      }
    },
    {
      "type": "Feature",
      "geometry": {
        "type": "Point",
        "coordinates": [323.38, -3703.9858],
        "size": [16, 16]
      },
      "properties": {
        "iconurl": "icons/vehicles_map/mini_apc_light.png",
        "iconrotate": "90.0",
        "popupContent": "Amazing information about null will be found here!"
      },
      "bf2props": {
        "name": "cpname_xiangshan_aas128_blufob_apc_1",
        "class": "ObjectSpawner",
        "name_object": "VAB VTT",
        "team": "2",
        "obj1": "null",
        "obj2": "fr_apc_vab",
        "maxspawn": "600.0",
        "minspawn": "600.0",
        "spawndelay": "false",
        "ttl": "99999.0",
        "cpid": "218"
      }
    },
    {
      "type": "Feature",
      "geometry": {
        "type": "Point",
        "coordinates": [3086.738, -1711.099],
        "size": [16, 16]
      },
      "properties": {
        "iconurl": "icons/vehicles_map/mini_shp_light.png",
        "iconrotate": "161.896",
        "popupContent": "Amazing information about Landing Boat will be found here!"
      },
      "bf2props": {
        "name": "cpname_xiangshan_aas128_redbase_boat",
        "class": "ObjectSpawner",
        "name_object": "Landing Boat",
        "team": "1",
        "obj1": "ch_boat",
        "obj2": "null",
        "maxspawn": "300.0",
        "minspawn": "300.0",
        "spawndelay": "false",
        "ttl": "99999.0",
        "cpid": "219"
      }
    },
    {
      "type": "Feature",
      "geometry": {
        "type": "Point",
        "coordinates": [5034.7646, 937.77905],
        "size": [16, 16]
      },
      "properties": {
        "iconurl": "icons/mini_map/airdef.png",
        "iconrotate": "0",
        "popupContent": "Amazing information about Artillery Barrage Call-In will be found here!"
      },
      "bf2props": {
        "name": "cpname_xiangshan_aas128_redbase_0_4",
        "class": "ObjectSpawner",
        "name_object": "Artillery Barrage Call-In",
        "team": "1",
        "obj1": "artillery_team1",
        "obj2": "null",
        "maxspawn": "1800.0",
        "minspawn": "1800.0",
        "spawndelay": "true",
        "ttl": "99999.0",
        "cpid": "219"
      }
    },
    {
      "type": "Feature",
      "geometry": {
        "type": "Point",
        "coordinates": [5054.581, 966.2671],
        "size": [16, 16]
      },
      "properties": {
        "iconurl": "icons/mini_map/airdef.png",
        "iconrotate": "0",
        "popupContent": "Amazing information about Artillery Barrage Call-In will be found here!"
      },
      "bf2props": {
        "name": "cpname_xiangshan_aas128_redbase_1_4",
        "class": "ObjectSpawner",
        "name_object": "Artillery Barrage Call-In",
        "team": "1",
        "obj1": "artillery_team1",
        "obj2": "null",
        "maxspawn": "1800.0",
        "minspawn": "1800.0",
        "spawndelay": "true",
        "ttl": "99999.0",
        "cpid": "219"
      }
    },
    {
      "type": "Feature",
      "geometry": {
        "type": "Point",
        "coordinates": [5047.5957, 946.64307],
        "size": [16, 16]
      },
      "properties": {
        "iconurl": "icons/mini_map/airdef.png",
        "iconrotate": "0",
        "popupContent": "Amazing information about Artillery Barrage Call-In will be found here!"
      },
      "bf2props": {
        "name": "cpname_xiangshan_aas128_redbase_2_1",
        "class": "ObjectSpawner",
        "name_object": "Artillery Barrage Call-In",
        "team": "1",
        "obj1": "artillery_team1",
        "obj2": "null",
        "maxspawn": "1800.0",
        "minspawn": "1800.0",
        "spawndelay": "true",
        "ttl": "99999.0",
        "cpid": "219"
      }
    },
    {
      "type": "Feature",
      "geometry": {
        "type": "Point",
        "coordinates": [-925.99194, -5005.379],
        "size": [16, 16]
      },
      "properties": {
        "iconurl": "icons/mini_map/airdef.png",
        "iconrotate": "0",
        "popupContent": "Amazing information about null will be found here!"
      },
      "bf2props": {
        "name": "cpname_xiangshan_aas128_blufob_areaattack_0",
        "class": "ObjectSpawner",
        "name_object": "Artillery Barrage Call-In",
        "team": "2",
        "obj1": "null",
        "obj2": "artillery_team2",
        "maxspawn": "1800.0",
        "minspawn": "1800.0",
        "spawndelay": "true",
        "ttl": "99999.0",
        "cpid": "218"
      }
    },
    {
      "type": "Feature",
      "geometry": {
        "type": "Point",
        "coordinates": [-1032.0769, -5126.744],
        "size": [16, 16]
      },
      "properties": {
        "iconurl": "icons/mini_map/airdef.png",
        "iconrotate": "0",
        "popupContent": "Amazing information about null will be found here!"
      },
      "bf2props": {
        "name": "cpname_xiangshan_aas128_blufob_areaattack_1",
        "class": "ObjectSpawner",
        "name_object": "Artillery Barrage Call-In",
        "team": "2",
        "obj1": "null",
        "obj2": "artillery_team2",
        "maxspawn": "1800.0",
        "minspawn": "1800.0",
        "spawndelay": "true",
        "ttl": "99999.0",
        "cpid": "218"
      }
    },
    {
      "type": "Feature",
      "geometry": {
        "type": "Point",
        "coordinates": [-949.64404, -5099.745],
        "size": [16, 16]
      },
      "properties": {
        "iconurl": "icons/mini_map/airdef.png",
        "iconrotate": "0",
        "popupContent": "Amazing information about null will be found here!"
      },
      "bf2props": {
        "name": "cpname_xiangshan_aas128_blufob_areaattack_2",
        "class": "ObjectSpawner",
        "name_object": "Artillery Barrage Call-In",
        "team": "2",
        "obj1": "null",
        "obj2": "artillery_team2",
        "maxspawn": "1800.0",
        "minspawn": "1800.0",
        "spawndelay": "true",
        "ttl": "99999.0",
        "cpid": "218"
      }
    },
    {
      "type": "Feature",
      "geometry": {
        "type": "Point",
        "coordinates": [3702.3389, -793.08496],
        "size": [16, 16]
      },
      "properties": {
        "iconurl": "",
        "iconrotate": "0.0",
        "popupContent": "Amazing information about mobileradar_ch_dest will be found here!"
      },
      "bf2props": {
        "name": "cpname_xiangshan_aas128_redbase_radar",
        "class": "ObjectSpawner",
        "name_object": "mobileradar_ch_dest",
        "team": "1",
        "obj1": "mobileradar_ch_dest",
        "obj2": "null",
        "maxspawn": "99999.0",
        "minspawn": "99999.0",
        "spawndelay": "false",
        "ttl": "99999.0",
        "cpid": "219"
      }
    },
    {
      "type": "Feature",
      "geometry": {
        "type": "Point",
        "coordinates": [3888.638, -251.54102],
        "size": [16, 16]
      },
      "properties": {
        "iconurl": "icons/vehicles_map/mini_ahe_light.png",
        "iconrotate": "-180.0",
        "popupContent": "Amazing information about Z-9WA Haitun HJ-8 will be found here!"
      },
      "bf2props": {
        "name": "cpname_xiangshan_aas128_redbase_1_5",
        "class": "ObjectSpawner",
        "name_object": "Z-9WA Haitun HJ-8",
        "team": "1",
        "obj1": "ch_ahe_z9wa_hj8",
        "obj2": "null",
        "maxspawn": "1200.0",
        "minspawn": "1200.0",
        "spawndelay": "true",
        "ttl": "99999.0",
        "cpid": "219"
      }
    },
    {
      "type": "Feature",
      "geometry": {
        "type": "Point",
        "coordinates": [3863.2031, -313.69702],
        "size": [16, 16]
      },
      "properties": {
        "iconurl": "icons/vehicles_map/mini_trk_logistics.png",
        "iconrotate": "0.0",
        "popupContent": "Amazing information about EQ2080 Logistics will be found here!"
      },
      "bf2props": {
        "name": "cpname_xiangshan_aas128_redbase_2_2",
        "class": "ObjectSpawner",
        "name_object": "EQ2080 Logistics",
        "team": "1",
        "obj1": "ch_trk_logistics",
        "obj2": "null",
        "maxspawn": "300.0",
        "minspawn": "300.0",
        "spawndelay": "false",
        "ttl": "99999.0",
        "cpid": "219"
      }
    },
    {
      "type": "Feature",
      "geometry": {
        "type": "Point",
        "coordinates": [331.79504, -3704.107],
        "size": [16, 16]
      },
      "properties": {
        "iconurl": "icons/vehicles_map/mini_apc_light.png",
        "iconrotate": "90.0",
        "popupContent": "Amazing information about null will be found here!"
      },
      "bf2props": {
        "name": "cpname_xiangshan_aas128_blufob_transapc",
        "class": "ObjectSpawner",
        "name_object": "VAB VTT",
        "team": "2",
        "obj1": "null",
        "obj2": "fr_apc_vab",
        "maxspawn": "600.0",
        "minspawn": "600.0",
        "spawndelay": "false",
        "ttl": "99999.0",
        "cpid": "218"
      }
    },
    {
      "type": "Feature",
      "geometry": {
        "type": "Point",
        "coordinates": [311.57104, -3647.961],
        "size": [16, 16]
      },
      "properties": {
        "iconurl": "icons/vehicles_map/mini_the_light.png",
        "iconrotate": "0.0",
        "popupContent": "Amazing information about null will be found here!"
      },
      "bf2props": {
        "name": "cpname_xiangshan_aas128_blufob_transheli_2",
        "class": "ObjectSpawner",
        "name_object": "AS565 MB Panther",
        "team": "2",
        "obj1": "null",
        "obj2": "fr_the_panther",
        "maxspawn": "300.0",
        "minspawn": "300.0",
        "spawndelay": "false",
        "ttl": "99999.0",
        "cpid": "218"
      }
    },
    {
      "type": "Feature",
      "geometry": {
        "type": "Point",
        "coordinates": [326.76404, -3721.7349],
        "size": [16, 16]
      },
      "properties": {
        "iconurl": "icons/vehicles_map/mini_trk_support.png",
        "iconrotate": "90.459",
        "popupContent": "Amazing information about null will be found here!"
      },
      "bf2props": {
        "name": "cpname_xiangshan_aas128_blubase_truck",
        "class": "ObjectSpawner",
        "name_object": "GBC-180",
        "team": "2",
        "obj1": "null",
        "obj2": "fr_trk_support",
        "maxspawn": "300.0",
        "minspawn": "300.0",
        "spawndelay": "false",
        "ttl": "99999.0",
        "cpid": "218"
      }
    },
    {
      "type": "Feature",
      "geometry": {
        "type": "Point",
        "coordinates": [3840.609, -311.82397],
        "size": [16, 16]
      },
      "properties": {
        "iconurl": "icons/vehicles_map/mini_trk_support.png",
        "iconrotate": "0.0",
        "popupContent": "Amazing information about EQ2080 2.5 Ton will be found here!"
      },
      "bf2props": {
        "name": "cpname_xiangshan_aas128_redbase_truck",
        "class": "ObjectSpawner",
        "name_object": "EQ2080 2.5 Ton",
        "team": "1",
        "obj1": "ch_trk_support",
        "obj2": "null",
        "maxspawn": "300.0",
        "minspawn": "300.0",
        "spawndelay": "false",
        "ttl": "99999.0",
        "cpid": "219"
      }
    },
    {
      "type": "Feature",
      "geometry": {
        "type": "Point",
        "coordinates": [3687.788, -795.16296],
        "size": [33, 33],
        "radius": "100.0"
      },
      "properties": {
        "iconurl": "icons/flags_map/ch/minimap_cp.png",
        "iconrotate": "0",
        "popupContent": "Amazing information about Supply Line 100m will be found here!"
      },
      "bf2props": {
        "name": "cpname_xiangshan_aas128_supplyline",
        "class": "ControlPoint",
        "name_object": "Supply Line 100m",
        "team": "1",
        "areavalue1": "0.0",
        "areavalue2": "400.0",
        "cpid": "101",
        "sgid": "200",
        "uncap": "false",
        "ttgc": "300.0",
        "ttlc": "300.0"
      }
    },
    {
      "type": "Feature",
      "geometry": {
        "type": "Point",
        "coordinates": [1411.6631, -1403.533],
        "size": [33, 33],
        "radius": "50.0"
      },
      "properties": {
        "iconurl": "icons/flags_map/neutral/minimap_cp.png",
        "iconrotate": "0",
        "popupContent": "Amazing information about Buddhist Temple 50m will be found here!"
      },
      "bf2props": {
        "name": "cpname_xiangshan_aas128_buddhisttemple",
        "class": "ControlPoint",
        "name_object": "Buddhist Temple 50m",
        "team": "0",
        "areavalue1": "0.0",
        "areavalue2": "0.0",
        "cpid": "201",
        "sgid": "402",
        "uncap": "false",
        "ttgc": "300.0",
        "ttlc": "300.0"
      }
    },
    {
      "type": "Feature",
      "geometry": {
        "type": "Point",
        "coordinates": [1005.37305, -2146.892],
        "size": [33, 33],
        "radius": "75.0"
      },
      "properties": {
        "iconurl": "icons/flags_map/neutral/minimap_cp.png",
        "iconrotate": "0",
        "popupContent": "Amazing information about Old Catholic Mission 75m will be found here!"
      },
      "bf2props": {
        "name": "cpname_xiangshan_aas128_oldcatholicmission",
        "class": "ControlPoint",
        "name_object": "Old Catholic Mission 75m",
        "team": "0",
        "areavalue1": "0.0",
        "areavalue2": "0.0",
        "cpid": "202",
        "sgid": "502",
        "uncap": "false",
        "ttgc": "300.0",
        "ttlc": "300.0"
      }
    },
    {
      "type": "Feature",
      "geometry": {
        "type": "Point",
        "coordinates": [2294.636, -2135.165],
        "size": [33, 33],
        "radius": "100.0"
      },
      "properties": {
        "iconurl": "icons/flags_map/neutral/minimap_cp.png",
        "iconrotate": "0",
        "popupContent": "Amazing information about Xiangshan 100m will be found here!"
      },
      "bf2props": {
        "name": "cpname_xiangshan_aas128_village",
        "class": "ControlPoint",
        "name_object": "Xiangshan 100m",
        "team": "0",
        "areavalue1": "0.0",
        "areavalue2": "0.0",
        "cpid": "203",
        "sgid": "403",
        "uncap": "false",
        "ttgc": "300.0",
        "ttlc": "300.0"
      }
    },
    {
      "type": "Feature",
      "geometry": {
        "type": "Point",
        "coordinates": [2358.025, -3288.948],
        "size": [33, 33],
        "radius": "100.0"
      },
      "properties": {
        "iconurl": "icons/flags_map/neutral/minimap_cp.png",
        "iconrotate": "0",
        "popupContent": "Amazing information about South Bridge 100m will be found here!"
      },
      "bf2props": {
        "name": "cpname_xiangshan_aas128_southbridge",
        "class": "ControlPoint",
        "name_object": "South Bridge 100m",
        "team": "0",
        "areavalue1": "0.0",
        "areavalue2": "0.0",
        "cpid": "204",
        "sgid": "605",
        "uncap": "false",
        "ttgc": "300.0",
        "ttlc": "300.0"
      }
    },
    {
      "type": "Feature",
      "geometry": {
        "type": "Point",
        "coordinates": [2898.732, -2768.1611],
        "size": [33, 33],
        "radius": "65.0"
      },
      "properties": {
        "iconurl": "icons/flags_map/neutral/minimap_cp.png",
        "iconrotate": "0",
        "popupContent": "Amazing information about Fortress 65m will be found here!"
      },
      "bf2props": {
        "name": "cpname_xiangshan_aas128_ancientfort",
        "class": "ControlPoint",
        "name_object": "Fortress 65m",
        "team": "0",
        "areavalue1": "0.0",
        "areavalue2": "0.0",
        "cpid": "205",
        "sgid": "505",
        "uncap": "false",
        "ttgc": "300.0",
        "ttlc": "300.0"
      }
    },
    {
      "type": "Feature",
      "geometry": {
        "type": "Point",
        "coordinates": [1096.765, -2861.5059],
        "size": [33, 33],
        "radius": "75.0"
      },
      "properties": {
        "iconurl": "icons/flags_map/neutral/minimap_cp.png",
        "iconrotate": "0",
        "popupContent": "Amazing information about Listening Post 75m will be found here!"
      },
      "bf2props": {
        "name": "cpname_xiangshan_aas128_listeningpost",
        "class": "ControlPoint",
        "name_object": "Listening Post 75m",
        "team": "0",
        "areavalue1": "0.0",
        "areavalue2": "0.0",
        "cpid": "206",
        "sgid": "601",
        "uncap": "false",
        "ttgc": "300.0",
        "ttlc": "300.0"
      }
    },
    {
      "type": "Feature",
      "geometry": {
        "type": "Point",
        "coordinates": [2135.895, -971.26794],
        "size": [33, 33],
        "radius": "60.0"
      },
      "properties": {
        "iconurl": "icons/flags_map/ch/minimap_cp.png",
        "iconrotate": "0",
        "popupContent": "Amazing information about PLA Forward Outpost 60m will be found here!"
      },
      "bf2props": {
        "name": "cpname_xiangshan_aas128_redbarracks",
        "class": "ControlPoint",
        "name_object": "PLA Forward Outpost 60m",
        "team": "1",
        "areavalue1": "0.0",
        "areavalue2": "0.0",
        "cpid": "207",
        "sgid": "301",
        "uncap": "false",
        "ttgc": "300.0",
        "ttlc": "300.0"
      }
    },
    {
      "type": "Feature",
      "geometry": {
        "type": "Point",
        "coordinates": [979.261, -994.29895],
        "size": [33, 33],
        "radius": "75.0"
      },
      "properties": {
        "iconurl": "icons/flags_map/neutral/minimap_cp.png",
        "iconrotate": "0",
        "popupContent": "Amazing information about Northwest Bridge 75m will be found here!"
      },
      "bf2props": {
        "name": "cpname_xiangshan_aas128_northwestbridge",
        "class": "ControlPoint",
        "name_object": "Northwest Bridge 75m",
        "team": "0",
        "areavalue1": "0.0",
        "areavalue2": "0.0",
        "cpid": "208",
        "sgid": "401",
        "uncap": "false",
        "ttgc": "300.0",
        "ttlc": "300.0"
      }
    },
    {
      "type": "Feature",
      "geometry": {
        "type": "Point",
        "coordinates": [1974.387, -2951.979],
        "size": [33, 33],
        "radius": "100.0"
      },
      "properties": {
        "iconurl": "icons/flags_map/neutral/minimap_cp.png",
        "iconrotate": "0",
        "popupContent": "Amazing information about Center Bridge 100m will be found here!"
      },
      "bf2props": {
        "name": "cpname_xiangshan_aas128_midbridge",
        "class": "ControlPoint",
        "name_object": "Center Bridge 100m",
        "team": "0",
        "areavalue1": "0.0",
        "areavalue2": "0.0",
        "cpid": "209",
        "sgid": "504",
        "uncap": "false",
        "ttgc": "300.0",
        "ttlc": "300.0"
      }
    },
    {
      "type": "Feature",
      "geometry": {
        "type": "Point",
        "coordinates": [1748.804, -1801.616],
        "size": [33, 33],
        "radius": "100.0"
      },
      "properties": {
        "iconurl": "icons/flags_map/neutral/minimap_cp.png",
        "iconrotate": "0",
        "popupContent": "Amazing information about North Bridge 100m will be found here!"
      },
      "bf2props": {
        "name": "cpname_xiangshan_aas128_northbridge",
        "class": "ControlPoint",
        "name_object": "North Bridge 100m",
        "team": "0",
        "areavalue1": "0.0",
        "areavalue2": "0.0",
        "cpid": "111",
        "sgid": "503",
        "uncap": "false",
        "ttgc": "300.0",
        "ttlc": "300.0"
      }
    },
    {
      "type": "Feature",
      "geometry": {
        "type": "Point",
        "coordinates": [1228.065, -3553.886],
        "size": [33, 33],
        "radius": "50.0"
      },
      "properties": {
        "iconurl": "icons/flags_map/fr/minimap_cp.png",
        "iconrotate": "0",
        "popupContent": "Amazing information about French Forward Outpost 50m will be found here!"
      },
      "bf2props": {
        "name": "cpname_xiangshan_aas128_blufob",
        "class": "ControlPoint",
        "name_object": "French Forward Outpost 50m",
        "team": "2",
        "areavalue1": "400.0",
        "areavalue2": "0.0",
        "cpid": "2",
        "sgid": "700",
        "uncap": "false",
        "ttgc": "300.0",
        "ttlc": "300.0"
      }
    },
    {
      "type": "Feature",
      "geometry": {
        "type": "Point",
        "coordinates": [3627.6729, -1993.498],
        "size": [33, 33],
        "radius": "100.0"
      },
      "properties": {
        "iconurl": "icons/flags_map/neutral/minimap_cp.png",
        "iconrotate": "0",
        "popupContent": "Amazing information about Swamp 100m will be found here!"
      },
      "bf2props": {
        "name": "cpname_xiangshan_aas128_swamp",
        "class": "ControlPoint",
        "name_object": "Swamp 100m",
        "team": "0",
        "areavalue1": "0.0",
        "areavalue2": "0.0",
        "cpid": "3",
        "sgid": "405",
        "uncap": "false",
        "ttgc": "300.0",
        "ttlc": "300.0"
      }
    },
    {
      "type": "Feature",
      "geometry": {
        "type": "Point",
        "coordinates": [619.67505, -1740.406],
        "size": [33, 33],
        "radius": "75.0"
      },
      "properties": {
        "iconurl": "icons/flags_map/neutral/minimap_cp.png",
        "iconrotate": "0",
        "popupContent": "Amazing information about Communication Outpost 75m will be found here!"
      },
      "bf2props": {
        "name": "cpname_xiangshan_aas128_bigmachill",
        "class": "ControlPoint",
        "name_object": "Communication Outpost 75m",
        "team": "0",
        "areavalue1": "0.0",
        "areavalue2": "0.0",
        "cpid": "4",
        "sgid": "501",
        "uncap": "false",
        "ttgc": "300.0",
        "ttlc": "300.0"
      }
    },
    {
      "type": "Feature",
      "geometry": {
        "type": "Point",
        "coordinates": [3085.907, -1640.761],
        "size": [33, 33],
        "radius": "75.0"
      },
      "properties": {
        "iconurl": "icons/flags_map/ch/minimap_cp.png",
        "iconrotate": "0",
        "popupContent": "Amazing information about Leshan 75m will be found here!"
      },
      "bf2props": {
        "name": "cpname_xiangshan_aas128_fishingvillage",
        "class": "ControlPoint",
        "name_object": "Leshan 75m",
        "team": "1",
        "areavalue1": "0.0",
        "areavalue2": "0.0",
        "cpid": "210",
        "sgid": "303",
        "uncap": "false",
        "ttgc": "300.0",
        "ttlc": "300.0"
      }
    },
    {
      "type": "Feature",
      "geometry": {
        "type": "Point",
        "coordinates": [1096.765, -2861.5059],
        "size": [33, 33],
        "radius": "75.0"
      },
      "properties": {
        "iconurl": "icons/flags_map/neutral/minimap_cp.png",
        "iconrotate": "0",
        "popupContent": "Amazing information about Listening Post 75m will be found here!"
      },
      "bf2props": {
        "name": "cpname_xiangshan_aas128_listeningpost1",
        "class": "ControlPoint",
        "name_object": "Listening Post 75m",
        "team": "0",
        "areavalue1": "0.0",
        "areavalue2": "0.0",
        "cpid": "211",
        "sgid": "602",
        "uncap": "false",
        "ttgc": "300.0",
        "ttlc": "300.0"
      }
    },
    {
      "type": "Feature",
      "geometry": {
        "type": "Point",
        "coordinates": [1005.37305, -2146.892],
        "size": [33, 33],
        "radius": "75.0"
      },
      "properties": {
        "iconurl": "icons/flags_map/neutral/minimap_cp.png",
        "iconrotate": "0",
        "popupContent": "Amazing information about Old Catholic Mission 75m will be found here!"
      },
      "bf2props": {
        "name": "cpname_xiangshan_aas128_oldcatholicmission1",
        "class": "ControlPoint",
        "name_object": "Old Catholic Mission 75m",
        "team": "0",
        "areavalue1": "0.0",
        "areavalue2": "0.0",
        "cpid": "212",
        "sgid": "603",
        "uncap": "false",
        "ttgc": "300.0",
        "ttlc": "300.0"
      }
    },
    {
      "type": "Feature",
      "geometry": {
        "type": "Point",
        "coordinates": [2294.636, -2135.165],
        "size": [33, 33],
        "radius": "100.0"
      },
      "properties": {
        "iconurl": "icons/flags_map/neutral/minimap_cp.png",
        "iconrotate": "0",
        "popupContent": "Amazing information about Xiangshan 100m will be found here!"
      },
      "bf2props": {
        "name": "cpname_xiangshan_aas128_village1",
        "class": "ControlPoint",
        "name_object": "Xiangshan 100m",
        "team": "0",
        "areavalue1": "0.0",
        "areavalue2": "0.0",
        "cpid": "213",
        "sgid": "404",
        "uncap": "false",
        "ttgc": "300.0",
        "ttlc": "300.0"
      }
    },
    {
      "type": "Feature",
      "geometry": {
        "type": "Point",
        "coordinates": [3085.907, -1640.761],
        "size": [33, 33],
        "radius": "75.0"
      },
      "properties": {
        "iconurl": "icons/flags_map/ch/minimap_cp.png",
        "iconrotate": "0",
        "popupContent": "Amazing information about Leshan 75m will be found here!"
      },
      "bf2props": {
        "name": "cpname_xiangshan_aas128_fishingvillage1",
        "class": "ControlPoint",
        "name_object": "Leshan 75m",
        "team": "1",
        "areavalue1": "0.0",
        "areavalue2": "0.0",
        "cpid": "214",
        "sgid": "304",
        "uncap": "false",
        "ttgc": "300.0",
        "ttlc": "300.0"
      }
    },
    {
      "type": "Feature",
      "geometry": {
        "type": "Point",
        "coordinates": [3085.907, -1640.761],
        "size": [33, 33],
        "radius": "75.0"
      },
      "properties": {
        "iconurl": "icons/flags_map/ch/minimap_cp.png",
        "iconrotate": "0",
        "popupContent": "Amazing information about Leshan 75m will be found here!"
      },
      "bf2props": {
        "name": "cpname_xiangshan_aas128_fishingvillage2",
        "class": "ControlPoint",
        "name_object": "Leshan 75m",
        "team": "1",
        "areavalue1": "0.0",
        "areavalue2": "0.0",
        "cpid": "215",
        "sgid": "305",
        "uncap": "false",
        "ttgc": "300.0",
        "ttlc": "300.0"
      }
    },
    {
      "type": "Feature",
      "geometry": {
        "type": "Point",
        "coordinates": [2135.895, -971.26794],
        "size": [33, 33],
        "radius": "60.0"
      },
      "properties": {
        "iconurl": "icons/flags_map/ch/minimap_cp.png",
        "iconrotate": "0",
        "popupContent": "Amazing information about PLA Forward Outpost 60m will be found here!"
      },
      "bf2props": {
        "name": "cpname_xiangshan_aas128_redbarracks1",
        "class": "ControlPoint",
        "name_object": "PLA Forward Outpost 60m",
        "team": "1",
        "areavalue1": "0.0",
        "areavalue2": "0.0",
        "cpid": "216",
        "sgid": "302",
        "uncap": "false",
        "ttgc": "300.0",
        "ttlc": "300.0"
      }
    },
    {
      "type": "Feature",
      "geometry": {
        "type": "Point",
        "coordinates": [1096.765, -2861.5059],
        "size": [33, 33],
        "radius": "75.0"
      },
      "properties": {
        "iconurl": "icons/flags_map/neutral/minimap_cp.png",
        "iconrotate": "0",
        "popupContent": "Amazing information about Listening Post 75m will be found here!"
      },
      "bf2props": {
        "name": "cpname_xiangshan_aas128_listeningpost2",
        "class": "ControlPoint",
        "name_object": "Listening Post 75m",
        "team": "0",
        "areavalue1": "0.0",
        "areavalue2": "0.0",
        "cpid": "217",
        "sgid": "604",
        "uncap": "false",
        "ttgc": "300.0",
        "ttlc": "300.0"
      }
    },
    {
      "type": "Feature",
      "geometry": {
        "type": "Point",
        "coordinates": [238.94397, -3861.678],
        "size": [33, 33],
        "radius": "0.0"
      },
      "properties": {
        "iconurl": "icons/flags_map/fr/minimap_cpbase.png",
        "iconrotate": "0",
        "popupContent": "Amazing information about FR Base will be found here!"
      },
      "bf2props": {
        "name": "cpname_xiangshan_aas128_blubase",
        "class": "ControlPoint",
        "name_object": "FR Base",
        "team": "2",
        "areavalue1": "0.0",
        "areavalue2": "0.0",
        "cpid": "218",
        "sgid": "800",
        "uncap": "true",
        "ttgc": "0.0",
        "ttlc": "0.0"
      }
    },
    {
      "type": "Feature",
      "geometry": {
        "type": "Point",
        "coordinates": [3734.689, -229.54395],
        "size": [33, 33],
        "radius": "0.0"
      },
      "properties": {
        "iconurl": "icons/flags_map/ch/minimap_cpbase.png",
        "iconrotate": "0",
        "popupContent": "Amazing information about PLA Base will be found here!"
      },
      "bf2props": {
        "name": "cpname_xiangshan_aas128_redbase",
        "class": "ControlPoint",
        "name_object": "PLA Base",
        "team": "1",
        "areavalue1": "0.0",
        "areavalue2": "0.0",
        "cpid": "219",
        "sgid": "100",
        "uncap": "true",
        "ttgc": "0.0",
        "ttlc": "0.0"
      }
    },
    {
      "type": "Feature",
      "geometry": {
        "type": "Polygon",
        "coordinates": [
          [
            [0,0],
            [0,-4096],
            [4096,-4096],
            [4096,0]
          ],[
            [4096.0, 0.0],
            [0.0, 0.0],
            [0.0, -4096.0],
            [4096.0, -4096.0]
          ]
        ]
      },
      "bf2props": {
        "code": "combatarea_15_aas128",
        "class": "CombatArea",
        "team": "0",
        "vehicles": "4",
        "layer": "3",
        "inverted": "false",
        "max": [0.0, 0.0],
        "min": [0.0, 0.0]
      }
    },
    {
      "type": "Feature",
      "geometry": {
        "type": "Polygon",
        "coordinates": [
          [
            [866.18286, -4113.0215],
            [936.5271, -3809.6924],
            [939.46313, -3726.603],
            [904.2549, -3666.9329],
            [740.6135, -3413.7554],
            [552.01416, -3302.3003],
            [326.33813, -3287.6401],
            [0.18273926, -3378.601],
            [-5.8789062, -4102.8745]
          ]
        ]
      },
      "bf2props": {
        "code": "combatarea_19_aas128",
        "class": "CombatArea",
        "team": "1",
        "vehicles": "4",
        "layer": "3",
        "inverted": "true",
        "max": [0.0, 0.0],
        "min": [0.0, 0.0]
      }
    },
    {
      "type": "Feature",
      "geometry": {
        "type": "Polygon",
        "coordinates": [
          [
            [4097.7583, 1.515625],
            [3170.6062, 3.6831055],
            [3153.8306, -195.2461],
            [3179.1704, -346.2881],
            [3249.8435, -463.573],
            [3378.856, -548.95337],
            [3502.9834, -597.24365],
            [3631.0315, -618.4553],
            [3821.2302, -652.00073],
            [4020.6235, -671.13794],
            [4098.7095, -668.5039]
          ]
        ]
      },
      "bf2props": {
        "code": "combatarea_20_aas128",
        "class": "CombatArea",
        "team": "2",
        "vehicles": "4",
        "layer": "3",
        "inverted": "true",
        "max": [0.0, 0.0],
        "min": [0.0, 0.0]
      }
    }
  ]
}