{
  "team1":"ch",
  "team2":"fr",
  "team1tickets":"500",
  "team2tickets":"600",
  "mapsize":"4096",
  "viewdistance":"600",
  "combatareause":"true",
  "combatareadamage":"20.0",
  "combatareaallowoutside":"10.0",
  "routes": [
    [
      [
        "cpname_xiangshan_coop64_chfob"
      ],
      [
        "cpname_xiangshan_coop64_village"
      ],
      [
        "cpname_xiangshan_coop64_northricefields"
      ],
      [
        "cpname_xiangshan_coop64_fishingvillage"
      ],
      [
        "cpname_xiangshan_coop64_nrthobjective"
      ],
      [
        "cpname_xiangshan_coop64_frfob"
      ],
      [
        "cpname_xiangshan_coop64_frmain"
      ]
    ]
  ],
  "type": "FeatureCollection",
  "features": [
    {
      "type": "Feature",
      "geometry": {
        "type": "Point",
        "coordinates": [3862.732, -251.78296],
        "size": [16, 16]
      },
      "properties": {
        "iconurl": "icons/vehicles_map/mini_ahe_heavy.png",
        "iconrotate": "-180.0",
        "popupContent": "Amazing information about null will be found here!"
      },
      "bf2props": {
        "name": "cpname_xiangshan_coop64_frmain_cas",
        "class": "ObjectSpawner",
        "name_object": "EC 665 Tigre HAP",
        "team": "2",
        "obj1": "null",
        "obj2": "fr_ahe_tiger",
        "maxspawn": "450.0",
        "minspawn": "450.0",
        "spawndelay": "false",
        "ttl": "1200.0",
        "cpid": "1"
      }
    },
    {
      "type": "Feature",
      "geometry": {
        "type": "Point",
        "coordinates": [4016.668, -292.99402],
        "size": [16, 16]
      },
      "properties": {
        "iconurl": "icons/vehicles_map/mini_ahe_heavy.png",
        "iconrotate": "-180.0",
        "popupContent": "Amazing information about null will be found here!"
      },
      "bf2props": {
        "name": "cpname_xiangshan_coop64_frmain_cas_sp",
        "class": "ObjectSpawner",
        "name_object": "EC 665 Tigre HAP",
        "team": "2",
        "obj1": "null",
        "obj2": "fr_ahe_tiger_sp",
        "maxspawn": "450.0",
        "minspawn": "450.0",
        "spawndelay": "false",
        "ttl": "1200.0",
        "cpid": "1"
      }
    },
    {
      "type": "Feature",
      "geometry": {
        "type": "Point",
        "coordinates": [3829.982, -268.52405],
        "size": [16, 16]
      },
      "properties": {
        "iconurl": "icons/vehicles_map/mini_tank_heavy.png",
        "iconrotate": "-180.0",
        "popupContent": "Amazing information about null will be found here!"
      },
      "bf2props": {
        "name": "cpname_xiangshan_coop64_frmain_tank",
        "class": "ObjectSpawner",
        "name_object": "AMX-56 Leclerc",
        "team": "2",
        "obj1": "null",
        "obj2": "fr_tnk_leclerc",
        "maxspawn": "450.0",
        "minspawn": "450.0",
        "spawndelay": "false",
        "ttl": "1200.0",
        "cpid": "1"
      }
    },
    {
      "type": "Feature",
      "geometry": {
        "type": "Point",
        "coordinates": [3836.163, -268.52405],
        "size": [16, 16]
      },
      "properties": {
        "iconurl": "icons/vehicles_map/mini_tank_heavy.png",
        "iconrotate": "-180.0",
        "popupContent": "Amazing information about null will be found here!"
      },
      "bf2props": {
        "name": "cpname_xiangshan_coop64_frmain_tank_0",
        "class": "ObjectSpawner",
        "name_object": "AMX-56 Leclerc",
        "team": "2",
        "obj1": "null",
        "obj2": "fr_tnk_leclerc",
        "maxspawn": "450.0",
        "minspawn": "450.0",
        "spawndelay": "false",
        "ttl": "1200.0",
        "cpid": "1"
      }
    },
    {
      "type": "Feature",
      "geometry": {
        "type": "Point",
        "coordinates": [3862.7559, -314.21594],
        "size": [16, 16]
      },
      "properties": {
        "iconurl": "icons/vehicles_map/mini_tank_medium.png",
        "iconrotate": "0.0",
        "popupContent": "Amazing information about null will be found here!"
      },
      "bf2props": {
        "name": "cpname_xiangshan_coop64_frmain_amx10",
        "class": "ObjectSpawner",
        "name_object": "AMX-10RC",
        "team": "2",
        "obj1": "null",
        "obj2": "fr_tnk_amx10rc",
        "maxspawn": "300.0",
        "minspawn": "300.0",
        "spawndelay": "false",
        "ttl": "1200.0",
        "cpid": "1"
      }
    },
    {
      "type": "Feature",
      "geometry": {
        "type": "Point",
        "coordinates": [3856.9438, -314.21594],
        "size": [16, 16]
      },
      "properties": {
        "iconurl": "icons/vehicles_map/mini_tank_medium.png",
        "iconrotate": "0.0",
        "popupContent": "Amazing information about null will be found here!"
      },
      "bf2props": {
        "name": "cpname_xiangshan_coop64_frmain_amx10_0",
        "class": "ObjectSpawner",
        "name_object": "AMX-10RC",
        "team": "2",
        "obj1": "null",
        "obj2": "fr_tnk_amx10rc",
        "maxspawn": "300.0",
        "minspawn": "300.0",
        "spawndelay": "false",
        "ttl": "1200.0",
        "cpid": "1"
      }
    },
    {
      "type": "Feature",
      "geometry": {
        "type": "Point",
        "coordinates": [3876.51, -311.469],
        "size": [16, 16]
      },
      "properties": {
        "iconurl": "icons/vehicles_map/mini_apc_light.png",
        "iconrotate": "0.0",
        "popupContent": "Amazing information about null will be found here!"
      },
      "bf2props": {
        "name": "cpname_xiangshan_coop64_frmain_vab",
        "class": "ObjectSpawner",
        "name_object": "VAB VTT",
        "team": "2",
        "obj1": "null",
        "obj2": "fr_apc_vab",
        "maxspawn": "300.0",
        "minspawn": "300.0",
        "spawndelay": "false",
        "ttl": "1200.0",
        "cpid": "1"
      }
    },
    {
      "type": "Feature",
      "geometry": {
        "type": "Point",
        "coordinates": [3872.3901, -311.469],
        "size": [16, 16]
      },
      "properties": {
        "iconurl": "icons/vehicles_map/mini_apc_light.png",
        "iconrotate": "0.0",
        "popupContent": "Amazing information about null will be found here!"
      },
      "bf2props": {
        "name": "cpname_xiangshan_coop64_frmain_vab_0",
        "class": "ObjectSpawner",
        "name_object": "VAB VTT",
        "team": "2",
        "obj1": "null",
        "obj2": "fr_apc_vab",
        "maxspawn": "300.0",
        "minspawn": "300.0",
        "spawndelay": "false",
        "ttl": "1200.0",
        "cpid": "1"
      }
    },
    {
      "type": "Feature",
      "geometry": {
        "type": "Point",
        "coordinates": [3886.255, -312.93604],
        "size": [16, 16]
      },
      "properties": {
        "iconurl": "icons/vehicles_map/mini_apc_medium.png",
        "iconrotate": "0.0",
        "popupContent": "Amazing information about null will be found here!"
      },
      "bf2props": {
        "name": "cpname_xiangshan_coop64_frmain_apc",
        "class": "ObjectSpawner",
        "name_object": "VBCI",
        "team": "2",
        "obj1": "null",
        "obj2": "fr_apc_vbci",
        "maxspawn": "300.0",
        "minspawn": "300.0",
        "spawndelay": "false",
        "ttl": "1200.0",
        "cpid": "1"
      }
    },
    {
      "type": "Feature",
      "geometry": {
        "type": "Point",
        "coordinates": [3881.302, -312.93604],
        "size": [16, 16]
      },
      "properties": {
        "iconurl": "icons/vehicles_map/mini_apc_medium.png",
        "iconrotate": "0.0",
        "popupContent": "Amazing information about null will be found here!"
      },
      "bf2props": {
        "name": "cpname_xiangshan_coop64_frmain_vbci",
        "class": "ObjectSpawner",
        "name_object": "VBCI",
        "team": "2",
        "obj1": "null",
        "obj2": "fr_apc_vbci",
        "maxspawn": "300.0",
        "minspawn": "300.0",
        "spawndelay": "false",
        "ttl": "1200.0",
        "cpid": "1"
      }
    },
    {
      "type": "Feature",
      "geometry": {
        "type": "Point",
        "coordinates": [3820.606, -314.062],
        "size": [16, 16]
      },
      "properties": {
        "iconurl": "icons/vehicles_map/mini_tank_heavy.png",
        "iconrotate": "-90.0",
        "popupContent": "Amazing information about null will be found here!"
      },
      "bf2props": {
        "name": "cpname_xiangshan_coop64_frmain_tank_bf2",
        "class": "ObjectSpawner",
        "name_object": "AMX-56 Leclerc",
        "team": "2",
        "obj1": "null",
        "obj2": "fr_tnk_leclerc_bf2",
        "maxspawn": "300.0",
        "minspawn": "300.0",
        "spawndelay": "false",
        "ttl": "1200.0",
        "cpid": "1"
      }
    },
    {
      "type": "Feature",
      "geometry": {
        "type": "Point",
        "coordinates": [3820.669, -320.48706],
        "size": [16, 16]
      },
      "properties": {
        "iconurl": "icons/vehicles_map/mini_tank_heavy.png",
        "iconrotate": "-90.0",
        "popupContent": "Amazing information about null will be found here!"
      },
      "bf2props": {
        "name": "cpname_xiangshan_coop64_frmain_tank_bf2_0",
        "class": "ObjectSpawner",
        "name_object": "AMX-56 Leclerc",
        "team": "2",
        "obj1": "null",
        "obj2": "fr_tnk_leclerc_bf2",
        "maxspawn": "300.0",
        "minspawn": "300.0",
        "spawndelay": "false",
        "ttl": "1200.0",
        "cpid": "1"
      }
    },
    {
      "type": "Feature",
      "geometry": {
        "type": "Point",
        "coordinates": [3820.9, -308.17603],
        "size": [16, 16]
      },
      "properties": {
        "iconurl": "icons/vehicles_map/mini_tank_medium.png",
        "iconrotate": "-90.0",
        "popupContent": "Amazing information about null will be found here!"
      },
      "bf2props": {
        "name": "cpname_xiangshan_coop64_frmain_amx10_bf2",
        "class": "ObjectSpawner",
        "name_object": "AMX-10RC",
        "team": "2",
        "obj1": "null",
        "obj2": "fr_tnk_amx10rc_bf2",
        "maxspawn": "300.0",
        "minspawn": "300.0",
        "spawndelay": "false",
        "ttl": "1200.0",
        "cpid": "1"
      }
    },
    {
      "type": "Feature",
      "geometry": {
        "type": "Point",
        "coordinates": [3820.564, -302.49597],
        "size": [16, 16]
      },
      "properties": {
        "iconurl": "icons/vehicles_map/mini_tank_medium.png",
        "iconrotate": "-90.0",
        "popupContent": "Amazing information about null will be found here!"
      },
      "bf2props": {
        "name": "cpname_xiangshan_coop64_frmain_amx10_bf2_0",
        "class": "ObjectSpawner",
        "name_object": "AMX-10RC",
        "team": "2",
        "obj1": "null",
        "obj2": "fr_tnk_amx10rc_bf2",
        "maxspawn": "300.0",
        "minspawn": "300.0",
        "spawndelay": "false",
        "ttl": "1200.0",
        "cpid": "1"
      }
    },
    {
      "type": "Feature",
      "geometry": {
        "type": "Point",
        "coordinates": [3821.8389, -296.13904],
        "size": [16, 16]
      },
      "properties": {
        "iconurl": "icons/vehicles_map/mini_apc_medium.png",
        "iconrotate": "-90.0",
        "popupContent": "Amazing information about null will be found here!"
      },
      "bf2props": {
        "name": "cpname_xiangshan_coop64_frmain_vcbi_bf2",
        "class": "ObjectSpawner",
        "name_object": "VBCI",
        "team": "2",
        "obj1": "null",
        "obj2": "fr_apc_vbci_bf2",
        "maxspawn": "300.0",
        "minspawn": "300.0",
        "spawndelay": "false",
        "ttl": "1200.0",
        "cpid": "1"
      }
    },
    {
      "type": "Feature",
      "geometry": {
        "type": "Point",
        "coordinates": [3806.79, -296.13904],
        "size": [16, 16]
      },
      "properties": {
        "iconurl": "icons/vehicles_map/mini_apc_medium.png",
        "iconrotate": "-90.0",
        "popupContent": "Amazing information about null will be found here!"
      },
      "bf2props": {
        "name": "cpname_xiangshan_coop64_frmain_vcbi_bf2_0",
        "class": "ObjectSpawner",
        "name_object": "VBCI",
        "team": "2",
        "obj1": "null",
        "obj2": "fr_apc_vbci_bf2",
        "maxspawn": "300.0",
        "minspawn": "300.0",
        "spawndelay": "false",
        "ttl": "1200.0",
        "cpid": "1"
      }
    },
    {
      "type": "Feature",
      "geometry": {
        "type": "Point",
        "coordinates": [3914.517, -265.94104],
        "size": [16, 16]
      },
      "properties": {
        "iconurl": "icons/mini_map/repairdepot.png",
        "iconrotate": "0",
        "popupContent": "Amazing information about null will be found here!"
      },
      "bf2props": {
        "name": "cpname_xiangshan_coop64_frmain_depot",
        "class": "ObjectSpawner",
        "name_object": "Vehicle Depot",
        "team": "2",
        "obj1": "null",
        "obj2": "vehicle_depot_fr",
        "maxspawn": "0.0",
        "minspawn": "0.0",
        "spawndelay": "false",
        "ttl": "0.0",
        "cpid": "1"
      }
    },
    {
      "type": "Feature",
      "geometry": {
        "type": "Point",
        "coordinates": [3927.791, -272.16602],
        "size": [16, 16]
      },
      "properties": {
        "iconurl": "icons/vehicles_map/mini_trk_logistics.png",
        "iconrotate": "-137.78",
        "popupContent": "Amazing information about null will be found here!"
      },
      "bf2props": {
        "name": "cpname_xiangshan_coop64_frmain_truck",
        "class": "ObjectSpawner",
        "name_object": "GBC 180 Logistics",
        "team": "2",
        "obj1": "null",
        "obj2": "fr_trk_logistics",
        "maxspawn": "300.0",
        "minspawn": "300.0",
        "spawndelay": "false",
        "ttl": "1200.0",
        "cpid": "1"
      }
    },
    {
      "type": "Feature",
      "geometry": {
        "type": "Point",
        "coordinates": [3923.066, -271.13098],
        "size": [16, 16]
      },
      "properties": {
        "iconurl": "icons/vehicles_map/mini_trk_logistics.png",
        "iconrotate": "-137.78",
        "popupContent": "Amazing information about null will be found here!"
      },
      "bf2props": {
        "name": "cpname_xiangshan_coop64_frmain_truck_0",
        "class": "ObjectSpawner",
        "name_object": "GBC 180 Logistics",
        "team": "2",
        "obj1": "null",
        "obj2": "fr_trk_logistics",
        "maxspawn": "300.0",
        "minspawn": "300.0",
        "spawndelay": "false",
        "ttl": "1200.0",
        "cpid": "1"
      }
    },
    {
      "type": "Feature",
      "geometry": {
        "type": "Point",
        "coordinates": [3943.741, -271.901],
        "size": [16, 16]
      },
      "properties": {
        "iconurl": "icons/vehicles_map/mini_trk_support.png",
        "iconrotate": "-137.78",
        "popupContent": "Amazing information about null will be found here!"
      },
      "bf2props": {
        "name": "cpname_xiangshan_coop64_frmain_truck_1",
        "class": "ObjectSpawner",
        "name_object": "GBC-180",
        "team": "2",
        "obj1": "null",
        "obj2": "fr_trk_support",
        "maxspawn": "300.0",
        "minspawn": "300.0",
        "spawndelay": "false",
        "ttl": "1200.0",
        "cpid": "1"
      }
    },
    {
      "type": "Feature",
      "geometry": {
        "type": "Point",
        "coordinates": [3948.0698, -272.82495],
        "size": [16, 16]
      },
      "properties": {
        "iconurl": "icons/vehicles_map/mini_trk_support.png",
        "iconrotate": "-137.78",
        "popupContent": "Amazing information about null will be found here!"
      },
      "bf2props": {
        "name": "cpname_xiangshan_coop64_frmain_truck_2",
        "class": "ObjectSpawner",
        "name_object": "GBC-180",
        "team": "2",
        "obj1": "null",
        "obj2": "fr_trk_support",
        "maxspawn": "300.0",
        "minspawn": "300.0",
        "spawndelay": "false",
        "ttl": "1200.0",
        "cpid": "1"
      }
    },
    {
      "type": "Feature",
      "geometry": {
        "type": "Point",
        "coordinates": [2028.076, -2791.574],
        "size": [16, 16]
      },
      "properties": {
        "iconurl": "icons/vehicles_map/mini_tank_heavy.png",
        "iconrotate": "-3.463",
        "popupContent": "Amazing information about ZTZ-98 will be found here!"
      },
      "bf2props": {
        "name": "cpname_xiangshan_coop64_chfob_tank",
        "class": "ObjectSpawner",
        "name_object": "ZTZ-98",
        "team": "1",
        "obj1": "ch_tnk_type98_bf2",
        "obj2": "null",
        "maxspawn": "450.0",
        "minspawn": "450.0",
        "spawndelay": "false",
        "ttl": "1200.0",
        "cpid": "7"
      }
    },
    {
      "type": "Feature",
      "geometry": {
        "type": "Point",
        "coordinates": [2027.53, -2841.316],
        "size": [16, 16]
      },
      "properties": {
        "iconurl": "icons/vehicles_map/mini_tank_heavy.png",
        "iconrotate": "0.0",
        "popupContent": "Amazing information about ZTZ-99A2 will be found here!"
      },
      "bf2props": {
        "name": "cpname_xiangshan_coop64_chfob_tank_0",
        "class": "ObjectSpawner",
        "name_object": "ZTZ-99A2",
        "team": "1",
        "obj1": "ch_tnk_ztz99",
        "obj2": "null",
        "maxspawn": "450.0",
        "minspawn": "450.0",
        "spawndelay": "false",
        "ttl": "1200.0",
        "cpid": "7"
      }
    },
    {
      "type": "Feature",
      "geometry": {
        "type": "Point",
        "coordinates": [2027.53, -2826.206],
        "size": [16, 16]
      },
      "properties": {
        "iconurl": "icons/vehicles_map/mini_tank_heavy.png",
        "iconrotate": "0.0",
        "popupContent": "Amazing information about ZTZ-99A2 will be found here!"
      },
      "bf2props": {
        "name": "cpname_xiangshan_coop64_chfob_tank_1",
        "class": "ObjectSpawner",
        "name_object": "ZTZ-99A2",
        "team": "1",
        "obj1": "ch_tnk_ztz99",
        "obj2": "null",
        "maxspawn": "450.0",
        "minspawn": "450.0",
        "spawndelay": "false",
        "ttl": "1200.0",
        "cpid": "7"
      }
    },
    {
      "type": "Feature",
      "geometry": {
        "type": "Point",
        "coordinates": [2027.53, -2808.686],
        "size": [16, 16]
      },
      "properties": {
        "iconurl": "icons/vehicles_map/mini_tank_heavy.png",
        "iconrotate": "0.0",
        "popupContent": "Amazing information about ZTZ-99A2 will be found here!"
      },
      "bf2props": {
        "name": "cpname_xiangshan_coop64_chfob_tank_2",
        "class": "ObjectSpawner",
        "name_object": "ZTZ-99A2",
        "team": "1",
        "obj1": "ch_tnk_ztz99",
        "obj2": "null",
        "maxspawn": "450.0",
        "minspawn": "450.0",
        "spawndelay": "false",
        "ttl": "1200.0",
        "cpid": "7"
      }
    },
    {
      "type": "Feature",
      "geometry": {
        "type": "Point",
        "coordinates": [2027.022, -2774.157],
        "size": [16, 16]
      },
      "properties": {
        "iconurl": "icons/vehicles_map/mini_tank_heavy.png",
        "iconrotate": "-3.463",
        "popupContent": "Amazing information about ZTZ-98 will be found here!"
      },
      "bf2props": {
        "name": "cpname_xiangshan_coop64_chfob_tank_bf2",
        "class": "ObjectSpawner",
        "name_object": "ZTZ-98",
        "team": "1",
        "obj1": "ch_tnk_type98_bf2",
        "obj2": "null",
        "maxspawn": "450.0",
        "minspawn": "450.0",
        "spawndelay": "false",
        "ttl": "1200.0",
        "cpid": "7"
      }
    },
    {
      "type": "Feature",
      "geometry": {
        "type": "Point",
        "coordinates": [2026.326, -2758.5679],
        "size": [16, 16]
      },
      "properties": {
        "iconurl": "icons/vehicles_map/mini_tank_heavy.png",
        "iconrotate": "-0.273",
        "popupContent": "Amazing information about ZTZ-98 will be found here!"
      },
      "bf2props": {
        "name": "cpname_xiangshan_coop64_chfob_tank_bf2_0",
        "class": "ObjectSpawner",
        "name_object": "ZTZ-98",
        "team": "1",
        "obj1": "ch_tnk_type98_bf2",
        "obj2": "null",
        "maxspawn": "450.0",
        "minspawn": "450.0",
        "spawndelay": "false",
        "ttl": "1200.0",
        "cpid": "7"
      }
    },
    {
      "type": "Feature",
      "geometry": {
        "type": "Point",
        "coordinates": [2026.248, -2742.226],
        "size": [16, 16]
      },
      "properties": {
        "iconurl": "icons/vehicles_map/mini_tank_heavy.png",
        "iconrotate": "-0.273",
        "popupContent": "Amazing information about ZTZ-98 will be found here!"
      },
      "bf2props": {
        "name": "cpname_xiangshan_coop64_chfob_tank_bf2_1",
        "class": "ObjectSpawner",
        "name_object": "ZTZ-98",
        "team": "1",
        "obj1": "ch_tnk_type98_bf2",
        "obj2": "null",
        "maxspawn": "450.0",
        "minspawn": "450.0",
        "spawndelay": "false",
        "ttl": "1200.0",
        "cpid": "7"
      }
    },
    {
      "type": "Feature",
      "geometry": {
        "type": "Point",
        "coordinates": [2010.864, -2735.0269],
        "size": [16, 16]
      },
      "properties": {
        "iconurl": "icons/vehicles_map/mini_apc_medium.png",
        "iconrotate": "0.0",
        "popupContent": "Amazing information about ZSL-92 25mm will be found here!"
      },
      "bf2props": {
        "name": "cpname_xiangshan_coop64_chfob_apc_bf2",
        "class": "ObjectSpawner",
        "name_object": "ZSL-92 25mm",
        "team": "1",
        "obj1": "ch_apc_wz551_bf2",
        "obj2": "null",
        "maxspawn": "300.0",
        "minspawn": "300.0",
        "spawndelay": "false",
        "ttl": "1200.0",
        "cpid": "7"
      }
    },
    {
      "type": "Feature",
      "geometry": {
        "type": "Point",
        "coordinates": [2002.493, -2735.0269],
        "size": [16, 16]
      },
      "properties": {
        "iconurl": "icons/vehicles_map/mini_apc_medium.png",
        "iconrotate": "0.0",
        "popupContent": "Amazing information about ZSL-92 25mm will be found here!"
      },
      "bf2props": {
        "name": "cpname_xiangshan_coop64_chfob_apc_0",
        "class": "ObjectSpawner",
        "name_object": "ZSL-92 25mm",
        "team": "1",
        "obj1": "ch_apc_wz551_bf2",
        "obj2": "null",
        "maxspawn": "300.0",
        "minspawn": "300.0",
        "spawndelay": "false",
        "ttl": "1200.0",
        "cpid": "7"
      }
    },
    {
      "type": "Feature",
      "geometry": {
        "type": "Point",
        "coordinates": [2006.799, -2735.0269],
        "size": [16, 16]
      },
      "properties": {
        "iconurl": "icons/vehicles_map/mini_apc_medium.png",
        "iconrotate": "0.0",
        "popupContent": "Amazing information about ZSL-92 25mm will be found here!"
      },
      "bf2props": {
        "name": "cpname_xiangshan_coop64_chfob_apc_1",
        "class": "ObjectSpawner",
        "name_object": "ZSL-92 25mm",
        "team": "1",
        "obj1": "ch_apc_wz551_bf2",
        "obj2": "null",
        "maxspawn": "300.0",
        "minspawn": "300.0",
        "spawndelay": "false",
        "ttl": "1200.0",
        "cpid": "7"
      }
    },
    {
      "type": "Feature",
      "geometry": {
        "type": "Point",
        "coordinates": [1997.498, -2737.346],
        "size": [16, 16]
      },
      "properties": {
        "iconurl": "icons/vehicles_map/mini_apc_medium.png",
        "iconrotate": "1.062",
        "popupContent": "Amazing information about ZSL-92 25mm will be found here!"
      },
      "bf2props": {
        "name": "cpname_xiangshan_coop64_chfob_apc_2",
        "class": "ObjectSpawner",
        "name_object": "ZSL-92 25mm",
        "team": "1",
        "obj1": "ch_apc_wz551",
        "obj2": "null",
        "maxspawn": "300.0",
        "minspawn": "300.0",
        "spawndelay": "false",
        "ttl": "1200.0",
        "cpid": "7"
      }
    },
    {
      "type": "Feature",
      "geometry": {
        "type": "Point",
        "coordinates": [1989.458, -2737.196],
        "size": [16, 16]
      },
      "properties": {
        "iconurl": "icons/vehicles_map/mini_apc_medium.png",
        "iconrotate": "1.062",
        "popupContent": "Amazing information about ZSL-92 25mm will be found here!"
      },
      "bf2props": {
        "name": "cpname_xiangshan_coop64_chfob_apc_3",
        "class": "ObjectSpawner",
        "name_object": "ZSL-92 25mm",
        "team": "1",
        "obj1": "ch_apc_wz551",
        "obj2": "null",
        "maxspawn": "300.0",
        "minspawn": "300.0",
        "spawndelay": "false",
        "ttl": "1200.0",
        "cpid": "7"
      }
    },
    {
      "type": "Feature",
      "geometry": {
        "type": "Point",
        "coordinates": [1993.54, -2737.273],
        "size": [16, 16]
      },
      "properties": {
        "iconurl": "icons/vehicles_map/mini_apc_medium.png",
        "iconrotate": "1.062",
        "popupContent": "Amazing information about ZSL-92 25mm will be found here!"
      },
      "bf2props": {
        "name": "cpname_xiangshan_coop64_chfob_apc_4",
        "class": "ObjectSpawner",
        "name_object": "ZSL-92 25mm",
        "team": "1",
        "obj1": "ch_apc_wz551",
        "obj2": "null",
        "maxspawn": "300.0",
        "minspawn": "300.0",
        "spawndelay": "false",
        "ttl": "1200.0",
        "cpid": "7"
      }
    },
    {
      "type": "Feature",
      "geometry": {
        "type": "Point",
        "coordinates": [2045.9939, -2770.717],
        "size": [16, 16]
      },
      "properties": {
        "iconurl": "icons/mini_map/repairdepot.png",
        "iconrotate": "0",
        "popupContent": "Amazing information about Vehicle Depot will be found here!"
      },
      "bf2props": {
        "name": "cpname_xiangshan_coop64_chfob_depot",
        "class": "ObjectSpawner",
        "name_object": "Vehicle Depot",
        "team": "1",
        "obj1": "vehicle_depot_ch",
        "obj2": "null",
        "maxspawn": "0.0",
        "minspawn": "0.0",
        "spawndelay": "false",
        "ttl": "0.0",
        "cpid": "7"
      }
    },
    {
      "type": "Feature",
      "geometry": {
        "type": "Point",
        "coordinates": [2048.718, -2732.927],
        "size": [16, 16]
      },
      "properties": {
        "iconurl": "icons/vehicles_map/mini_trk_support.png",
        "iconrotate": "-135.0",
        "popupContent": "Amazing information about EQ2080 2.5 Ton will be found here!"
      },
      "bf2props": {
        "name": "cpname_xiangshan_coop64_chfob_truck",
        "class": "ObjectSpawner",
        "name_object": "EQ2080 2.5 Ton",
        "team": "1",
        "obj1": "ch_trk_support",
        "obj2": "null",
        "maxspawn": "300.0",
        "minspawn": "300.0",
        "spawndelay": "false",
        "ttl": "1200.0",
        "cpid": "7"
      }
    },
    {
      "type": "Feature",
      "geometry": {
        "type": "Point",
        "coordinates": [2055.588, -2739.7979],
        "size": [16, 16]
      },
      "properties": {
        "iconurl": "icons/vehicles_map/mini_trk_logistics.png",
        "iconrotate": "-135.0",
        "popupContent": "Amazing information about EQ2080 Logistics will be found here!"
      },
      "bf2props": {
        "name": "cpname_xiangshan_coop64_chfob_truck_0",
        "class": "ObjectSpawner",
        "name_object": "EQ2080 Logistics",
        "team": "1",
        "obj1": "ch_trk_logistics",
        "obj2": "null",
        "maxspawn": "300.0",
        "minspawn": "300.0",
        "spawndelay": "false",
        "ttl": "1200.0",
        "cpid": "7"
      }
    },
    {
      "type": "Feature",
      "geometry": {
        "type": "Point",
        "coordinates": [2053.252, -2737.461],
        "size": [16, 16]
      },
      "properties": {
        "iconurl": "icons/vehicles_map/mini_trk_logistics.png",
        "iconrotate": "-135.0",
        "popupContent": "Amazing information about EQ2080 Logistics will be found here!"
      },
      "bf2props": {
        "name": "cpname_xiangshan_coop64_chfob_truck_1",
        "class": "ObjectSpawner",
        "name_object": "EQ2080 Logistics",
        "team": "1",
        "obj1": "ch_trk_logistics",
        "obj2": "null",
        "maxspawn": "300.0",
        "minspawn": "300.0",
        "spawndelay": "false",
        "ttl": "1200.0",
        "cpid": "7"
      }
    },
    {
      "type": "Feature",
      "geometry": {
        "type": "Point",
        "coordinates": [2051.005, -2735.2139],
        "size": [16, 16]
      },
      "properties": {
        "iconurl": "icons/vehicles_map/mini_trk_support.png",
        "iconrotate": "-135.0",
        "popupContent": "Amazing information about EQ2080 2.5 Ton will be found here!"
      },
      "bf2props": {
        "name": "cpname_xiangshan_coop64_chfob_truck_2",
        "class": "ObjectSpawner",
        "name_object": "EQ2080 2.5 Ton",
        "team": "1",
        "obj1": "ch_trk_support",
        "obj2": "null",
        "maxspawn": "300.0",
        "minspawn": "300.0",
        "spawndelay": "false",
        "ttl": "1200.0",
        "cpid": "7"
      }
    },
    {
      "type": "Feature",
      "geometry": {
        "type": "Point",
        "coordinates": [2015.649, -2735.023],
        "size": [16, 16]
      },
      "properties": {
        "iconurl": "icons/vehicles_map/mini_adv_heavy.png",
        "iconrotate": "0.0",
        "popupContent": "Amazing information about Type 95 SPAAA will be found here!"
      },
      "bf2props": {
        "name": "cpname_xiangshan_coop64_chfob_aav",
        "class": "ObjectSpawner",
        "name_object": "Type 95 SPAAA",
        "team": "1",
        "obj1": "ch_aav_type95",
        "obj2": "null",
        "maxspawn": "300.0",
        "minspawn": "300.0",
        "spawndelay": "false",
        "ttl": "1200.0",
        "cpid": "7"
      }
    },
    {
      "type": "Feature",
      "geometry": {
        "type": "Point",
        "coordinates": [3888.676, -251.78296],
        "size": [16, 16]
      },
      "properties": {
        "iconurl": "icons/vehicles_map/mini_the_medium.png",
        "iconrotate": "-180.0",
        "popupContent": "Amazing information about null will be found here!"
      },
      "bf2props": {
        "name": "cpname_xiangshan_coop64_frmain_trans",
        "class": "ObjectSpawner",
        "name_object": "NH90 TTH",
        "team": "2",
        "obj1": "null",
        "obj2": "fr_the_nh90",
        "maxspawn": "450.0",
        "minspawn": "450.0",
        "spawndelay": "false",
        "ttl": "1200.0",
        "cpid": "1"
      }
    },
    {
      "type": "Feature",
      "geometry": {
        "type": "Point",
        "coordinates": [2288.08, -1906.421],
        "size": [16, 16]
      },
      "properties": {
        "iconurl": "icons/vehicles_map/mini_stw_mortar.png",
        "iconrotate": "120.0",
        "popupContent": "Amazing information about fixed_mortar will be found here!"
      },
      "bf2props": {
        "name": "cpname_xiangshan_coop64_village_mortar",
        "class": "ObjectSpawner",
        "name_object": "fixed_mortar",
        "team": "1",
        "obj1": "fixed_mortar",
        "obj2": "null",
        "maxspawn": "900.0",
        "minspawn": "900.0",
        "spawndelay": "false",
        "ttl": "0.0",
        "cpid": "6"
      }
    },
    {
      "type": "Feature",
      "geometry": {
        "type": "Point",
        "coordinates": [2281.796, -1920.7681],
        "size": [16, 16]
      },
      "properties": {
        "iconurl": "icons/vehicles_map/mini_stw_mortar.png",
        "iconrotate": "120.0",
        "popupContent": "Amazing information about fixed_mortar will be found here!"
      },
      "bf2props": {
        "name": "cpname_xiangshan_coop64_village_mortar_0",
        "class": "ObjectSpawner",
        "name_object": "fixed_mortar",
        "team": "1",
        "obj1": "fixed_mortar",
        "obj2": "null",
        "maxspawn": "900.0",
        "minspawn": "900.0",
        "spawndelay": "false",
        "ttl": "0.0",
        "cpid": "6"
      }
    },
    {
      "type": "Feature",
      "geometry": {
        "type": "Point",
        "coordinates": [3881.046, -289.30005],
        "size": [33, 33],
        "radius": "0.0"
      },
      "properties": {
        "iconurl": "icons/flags_map/fr/minimap_cpbase.png",
        "iconrotate": "0",
        "popupContent": "Amazing information about French Command will be found here!"
      },
      "bf2props": {
        "name": "cpname_xiangshan_coop64_frmain",
        "class": "ControlPoint",
        "name_object": "French Command",
        "team": "2",
        "areavalue1": "0.0",
        "areavalue2": "0.0",
        "cpid": "1",
        "sgid": "7",
        "uncap": "true",
        "ttgc": "180.0",
        "ttlc": "180.0"
      }
    },
    {
      "type": "Feature",
      "geometry": {
        "type": "Point",
        "coordinates": [3713.726, -769.949],
        "size": [33, 33],
        "radius": "100.0"
      },
      "properties": {
        "iconurl": "icons/flags_map/fr/minimap_cp.png",
        "iconrotate": "0",
        "popupContent": "Amazing information about French Forward Operating Base will be found here!"
      },
      "bf2props": {
        "name": "cpname_xiangshan_coop64_frfob",
        "class": "ControlPoint",
        "name_object": "French Forward Operating Base",
        "team": "2",
        "areavalue1": "99999.0",
        "areavalue2": "0.0",
        "cpid": "2",
        "sgid": "6",
        "uncap": "false",
        "ttgc": "180.0",
        "ttlc": "180.0"
      }
    },
    {
      "type": "Feature",
      "geometry": {
        "type": "Point",
        "coordinates": [2890.0059, -998.27795],
        "size": [33, 33],
        "radius": "200.0"
      },
      "properties": {
        "iconurl": "icons/flags_map/neutral/minimap_cp.png",
        "iconrotate": "0",
        "popupContent": "Amazing information about North Objective 200m will be found here!"
      },
      "bf2props": {
        "name": "cpname_xiangshan_coop64_nrthobjective",
        "class": "ControlPoint",
        "name_object": "North Objective 200m",
        "team": "0",
        "areavalue1": "20.0",
        "areavalue2": "20.0",
        "cpid": "3",
        "sgid": "5",
        "uncap": "false",
        "ttgc": "180.0",
        "ttlc": "180.0"
      }
    },
    {
      "type": "Feature",
      "geometry": {
        "type": "Point",
        "coordinates": [3083.022, -1625.721],
        "size": [33, 33],
        "radius": "70.0"
      },
      "properties": {
        "iconurl": "icons/flags_map/ch/minimap_cp.png",
        "iconrotate": "0",
        "popupContent": "Amazing information about Leshan 70m will be found here!"
      },
      "bf2props": {
        "name": "cpname_xiangshan_coop64_fishingvillage",
        "class": "ControlPoint",
        "name_object": "Leshan 70m",
        "team": "1",
        "areavalue1": "20.0",
        "areavalue2": "20.0",
        "cpid": "4",
        "sgid": "4",
        "uncap": "false",
        "ttgc": "180.0",
        "ttlc": "180.0"
      }
    },
    {
      "type": "Feature",
      "geometry": {
        "type": "Point",
        "coordinates": [2565.511, -1730.198],
        "size": [33, 33],
        "radius": "150.0"
      },
      "properties": {
        "iconurl": "icons/flags_map/ch/minimap_cp.png",
        "iconrotate": "0",
        "popupContent": "Amazing information about North Ricefields 150m will be found here!"
      },
      "bf2props": {
        "name": "cpname_xiangshan_coop64_northricefields",
        "class": "ControlPoint",
        "name_object": "North Ricefields 150m",
        "team": "1",
        "areavalue1": "20.0",
        "areavalue2": "20.0",
        "cpid": "5",
        "sgid": "3",
        "uncap": "false",
        "ttgc": "180.0",
        "ttlc": "180.0"
      }
    },
    {
      "type": "Feature",
      "geometry": {
        "type": "Point",
        "coordinates": [2311.123, -2149.26],
        "size": [33, 33],
        "radius": "100.0"
      },
      "properties": {
        "iconurl": "icons/flags_map/ch/minimap_cp.png",
        "iconrotate": "0",
        "popupContent": "Amazing information about Xiangshan 100m will be found here!"
      },
      "bf2props": {
        "name": "cpname_xiangshan_coop64_village",
        "class": "ControlPoint",
        "name_object": "Xiangshan 100m",
        "team": "1",
        "areavalue1": "0.0",
        "areavalue2": "99999.0",
        "cpid": "6",
        "sgid": "2",
        "uncap": "false",
        "ttgc": "180.0",
        "ttlc": "180.0"
      }
    },
    {
      "type": "Feature",
      "geometry": {
        "type": "Point",
        "coordinates": [2027.339, -2720.002],
        "size": [33, 33],
        "radius": "0.0"
      },
      "properties": {
        "iconurl": "icons/flags_map/ch/minimap_cpbase.png",
        "iconrotate": "0",
        "popupContent": "Amazing information about Chinese Forward Operating Base will be found here!"
      },
      "bf2props": {
        "name": "cpname_xiangshan_coop64_chfob",
        "class": "ControlPoint",
        "name_object": "Chinese Forward Operating Base",
        "team": "1",
        "areavalue1": "0.0",
        "areavalue2": "0.0",
        "cpid": "7",
        "sgid": "1",
        "uncap": "true",
        "ttgc": "180.0",
        "ttlc": "180.0"
      }
    },
    {
      "type": "Feature",
      "geometry": {
        "type": "Polygon",
        "coordinates": [
          [
            [0,0],
            [0,-4096],
            [4096,-4096],
            [4096,0]
          ],[
            [4092.9575, -394.38916],
            [4090.3838, -7.470703],
            [2713.238, -56.15381],
            [2514.7515, -234.10107],
            [2338.7812, -514.3596],
            [2347.1707, -908.3926],
            [2468.793, -1034.7463],
            [2464.225, -1193.0918],
            [2389.4714, -1330.9819],
            [2358.774, -1483.2234],
            [2293.2837, -1495.3755],
            [2070.2163, -1467.2361],
            [1784.0519, -1681.9846],
            [1697.6831, -2005.2173],
            [1697.272, -2359.314],
            [1875.631, -2877.8508],
            [2051.251, -2980.4329],
            [2137.846, -2958.0977],
            [2231.0823, -2814.0854],
            [2392.4915, -2618.5835],
            [2577.1716, -2560.474],
            [2701.9993, -2494.906],
            [2754.6582, -2357.0684],
            [2836.5103, -2261.7188],
            [3013.482, -2191.1484],
            [3185.481, -1940.2253],
            [3370.3877, -1619.0017],
            [3421.7324, -1291.8809],
            [3405.9656, -1322.6326],
            [3856.7166, -972.28296],
            [4088.938, -690.6289]
          ]
        ]
      },
      "bf2props": {
        "code": "combatarea_0_default",
        "class": "CombatArea",
        "team": "0",
        "vehicles": "4",
        "layer": "1",
        "inverted": "false",
        "max": [0.0, 0.0],
        "min": [0.0, 0.0]
      }
    },
    {
      "type": "Feature",
      "geometry": {
        "type": "Polygon",
        "coordinates": [
          [
            [4090.1614, -3.6538086],
            [3467.2278, -14.600098],
            [3542.0493, -299.94336],
            [3682.1663, -481.28516],
            [3907.9287, -585.2615],
            [4091.5808, -584.07104]
          ]
        ]
      },
      "bf2props": {
        "code": "combatarea_31_default",
        "class": "CombatArea",
        "team": "1",
        "vehicles": "4",
        "layer": "1",
        "inverted": "true",
        "max": [0.0, 0.0],
        "min": [0.0, 0.0]
      }
    },
    {
      "type": "Feature",
      "geometry": {
        "type": "Polygon",
        "coordinates": [
          [
            [2052.8037, -2983.0615],
            [2145.4448, -2963.638],
            [2235.9097, -2816.7366],
            [2332.3376, -2705.1384],
            [2132.4146, -2585.7803],
            [1888.2148, -2567.1553],
            [1777.4894, -2599.546],
            [1871.7859, -2880.874]
          ]
        ]
      },
      "bf2props": {
        "code": "combatarea_37_default",
        "class": "CombatArea",
        "team": "2",
        "vehicles": "4",
        "layer": "1",
        "inverted": "true",
        "max": [0.0, 0.0],
        "min": [0.0, 0.0]
      }
    }
  ]
}