{
  "modetype" : "gpm_coop",
  "players" : 32,
  "maptype" : "coopalternative",
  "ai" : false,
  "locid" : null,
  "placements" : [ {
    "code" : "dirtroad_kubra",
    "position" : [ -501.907, 17.7098, 299.956 ],
    "rotation" : [ 0.0, 0.0, 0.0 ],
    "controlpointid" : -999,
    "layer" : -999
  }, {
    "code" : "cpname_kokan_sp_coop32_isafbase_gwagon_0",
    "position" : [ -526.176, 20.32, 715.342 ],
    "rotation" : [ -20.0, 0.0, 0.0 ],
    "controlpointid" : 1,
    "layer" : 1
  }, {
    "code" : "cpname_kokan_sp_coop32_isafbase_gwagon_1",
    "position" : [ -528.477, 20.32, 714.446 ],
    "rotation" : [ -20.0, 0.0, 0.0 ],
    "controlpointid" : 1,
    "layer" : 1
  }, {
    "code" : "cpname_kokan_sp_coop32_isafbase_gwagon_2",
    "position" : [ -530.871, 20.32, 713.575 ],
    "rotation" : [ -20.0, 0.0, 0.0 ],
    "controlpointid" : 1,
    "layer" : 1
  }, {
    "code" : "cpname_kokan_sp_coop32_isafbase_gwagon_3",
    "position" : [ -533.366, 20.32, 712.667 ],
    "rotation" : [ -20.0, 0.0, 0.0 ],
    "controlpointid" : 1,
    "layer" : 1
  }, {
    "code" : "cpname_kokan_sp_coop32_isafbase_gwagon_4",
    "position" : [ -535.952, 20.32, 711.727 ],
    "rotation" : [ -20.0, 0.0, 0.0 ],
    "controlpointid" : 1,
    "layer" : 1
  }, {
    "code" : "cpname_kokan_sp_coop32_isafbase_gwagon_5",
    "position" : [ -538.461, 20.32, 710.771 ],
    "rotation" : [ -20.0, 0.0, 0.0 ],
    "controlpointid" : 1,
    "layer" : 1
  }, {
    "code" : "cpname_kokan_sp_coop32_isafbase_depot",
    "position" : [ -576.943, 20.32, 757.551 ],
    "rotation" : [ -50.0, 0.0, 0.0 ],
    "controlpointid" : 1,
    "layer" : 1
  }, {
    "code" : "cpname_kokan_sp_coop32_isafbase_chinook",
    "position" : [ -566.433, 20.32, 733.44 ],
    "rotation" : [ 70.0, 0.0, 0.0 ],
    "controlpointid" : 1,
    "layer" : 1
  }, {
    "code" : "cpname_kokan_sp_coop32_isafbase_chinook_0",
    "position" : [ -558.658, 20.32, 712.076 ],
    "rotation" : [ 70.0, 0.0, 0.0 ],
    "controlpointid" : 1,
    "layer" : 1
  }, {
    "code" : "cpname_kokan_sp_coop32_isafbase_logi",
    "position" : [ -522.122, 20.32, 726.936 ],
    "rotation" : [ -110.0, 0.0, 0.0 ],
    "controlpointid" : 1,
    "layer" : 1
  }, {
    "code" : "cpname_kokan_sp_coop32_isafbase_logi_0",
    "position" : [ -520.895, 20.32, 723.565 ],
    "rotation" : [ -110.0, 0.0, 0.0 ],
    "controlpointid" : 1,
    "layer" : 1
  }, {
    "code" : "cpname_kokan_sp_coop32_talimain_techie",
    "position" : [ 899.221, 18.55, -1001.806 ],
    "rotation" : [ -50.0, 0.0, 0.0 ],
    "controlpointid" : 8,
    "layer" : 1
  }, {
    "code" : "cpname_kokan_sp_coop32_talimain_techie_0",
    "position" : [ 902.512, 18.55, -997.883 ],
    "rotation" : [ -50.0, 0.0, 0.0 ],
    "controlpointid" : 8,
    "layer" : 1
  }, {
    "code" : "cpname_kokan_sp_coop32_talimain_techie_1",
    "position" : [ 900.825, 18.55, -999.894 ],
    "rotation" : [ -50.0, 0.0, 0.0 ],
    "controlpointid" : 8,
    "layer" : 1
  }, {
    "code" : "cpname_kokan_sp_coop32_talimain_depot",
    "position" : [ 945.947, 18.55, -1001.723 ],
    "rotation" : [ 90.0, 0.0, 0.0 ],
    "controlpointid" : 8,
    "layer" : 1
  }, {
    "code" : "cpname_kokan_sp_coop32_talimain_ammo",
    "position" : [ 927.079, 18.55, -1007.612 ],
    "rotation" : [ 0.0, 0.0, 0.0 ],
    "controlpointid" : 8,
    "layer" : 1
  }, {
    "code" : "cpname_kokan_sp_coop32_talimain_car",
    "position" : [ 935.483, 18.55, -982.044 ],
    "rotation" : [ -180.0, 0.0, 0.0 ],
    "controlpointid" : 8,
    "layer" : 1
  }, {
    "code" : "cpname_kokan_sp_coop32_talimain_car_0",
    "position" : [ 931.0, 18.55, -982.044 ],
    "rotation" : [ -180.0, 0.0, 0.0 ],
    "controlpointid" : 8,
    "layer" : 1
  }, {
    "code" : "cpname_kokan_sp_coop32_talimain_car_1",
    "position" : [ 937.864, 18.55, -982.064 ],
    "rotation" : [ -180.0, 0.0, 0.0 ],
    "controlpointid" : 8,
    "layer" : 1
  }, {
    "code" : "cpname_kokan_sp_coop32_talimain_car_2",
    "position" : [ 933.141, 18.55, -982.064 ],
    "rotation" : [ -180.0, 0.0, 0.0 ],
    "controlpointid" : 8,
    "layer" : 1
  }, {
    "code" : "cpname_kokan_sp_coop32_kilothirteen_crate",
    "position" : [ 633.08, 20.32, -803.476 ],
    "rotation" : [ 0.0, 0.0, 0.0 ],
    "controlpointid" : 7,
    "layer" : 1
  }, {
    "code" : "cpname_kokan_sp_coop32_kilothirteen_crate_0",
    "position" : [ 657.229, 20.32, -834.686 ],
    "rotation" : [ 0.0, 0.0, 0.0 ],
    "controlpointid" : 7,
    "layer" : 1
  }, {
    "code" : "cpname_kokan_sp_coop32_kilothirteen_crate_1",
    "position" : [ 620.334, 20.32, -848.279 ],
    "rotation" : [ 0.0, 0.0, 0.0 ],
    "controlpointid" : 7,
    "layer" : 1
  }, {
    "code" : "cpname_kokan_sp_coop32_kilothirteen_crate_2",
    "position" : [ 575.781, 20.32, -828.866 ],
    "rotation" : [ 0.0, 0.0, 0.0 ],
    "controlpointid" : 7,
    "layer" : 1
  }, {
    "code" : "cpname_kokan_sp_coop32_julietten_crate",
    "position" : [ 416.207, 20.32, -522.455 ],
    "rotation" : [ 0.0, 0.0, 0.0 ],
    "controlpointid" : 5,
    "layer" : 1
  }, {
    "code" : "cpname_kokan_sp_coop32_julietten_crate_0",
    "position" : [ 383.046, 20.32, -460.328 ],
    "rotation" : [ 0.0, 0.0, 0.0 ],
    "controlpointid" : 5,
    "layer" : 1
  }, {
    "code" : "cpname_kokan_sp_coop32_julietten_car",
    "position" : [ 324.83, 20.32, -435.714 ],
    "rotation" : [ 0.0, 0.0, 0.0 ],
    "controlpointid" : 5,
    "layer" : 1
  }, {
    "code" : "cpname_kokan_sp_coop32_julietten_crate_1",
    "position" : [ 391.755, 20.32, -483.023 ],
    "rotation" : [ 0.0, 0.0, 0.0 ],
    "controlpointid" : 5,
    "layer" : 1
  }, {
    "code" : "cpname_kokan_sp_coop32_limaeleven_crate",
    "position" : [ 632.219, 20.32, -580.492 ],
    "rotation" : [ 0.0, 0.0, 0.0 ],
    "controlpointid" : 6,
    "layer" : 1
  }, {
    "code" : "cpname_kokan_sp_coop32_limaeleven_crate_0",
    "position" : [ 634.481, 20.32, -611.488 ],
    "rotation" : [ 0.0, 0.0, 0.0 ],
    "controlpointid" : 6,
    "layer" : 1
  }, {
    "code" : "cpname_kokan_sp_coop32_limaeleven_crate_1",
    "position" : [ 677.625, 20.32, -589.172 ],
    "rotation" : [ 0.0, 0.0, 0.0 ],
    "controlpointid" : 6,
    "layer" : 1
  }, {
    "code" : "cpname_kokan_sp_coop32_indiaseven_crate",
    "position" : [ 330.987, 20.32, -147.606 ],
    "rotation" : [ 0.0, 0.0, 0.0 ],
    "controlpointid" : 3,
    "layer" : 1
  }, {
    "code" : "cpname_kokan_sp_coop32_indiaseven_crate_0",
    "position" : [ 251.995, 20.32, -32.765 ],
    "rotation" : [ 0.0, 0.0, 0.0 ],
    "controlpointid" : 3,
    "layer" : 1
  }, {
    "code" : "cpname_kokan_sp_coop32_indiaseven_crate_1",
    "position" : [ 226.37, 20.32, -30.956 ],
    "rotation" : [ 0.0, 0.0, 0.0 ],
    "controlpointid" : 3,
    "layer" : 1
  }, {
    "code" : "cpname_kokan_sp_coop32_indiaseven_crate_2",
    "position" : [ 298.511, 20.32, 59.73 ],
    "rotation" : [ 0.0, 0.0, 0.0 ],
    "controlpointid" : 3,
    "layer" : 1
  }, {
    "code" : "cpname_kokan_sp_coop32_golfeight_crate",
    "position" : [ 39.833, 20.32, -124.492 ],
    "rotation" : [ 0.0, 0.0, 0.0 ],
    "controlpointid" : 4,
    "layer" : 1
  }, {
    "code" : "cpname_kokan_sp_coop32_golfeight_crate_0",
    "position" : [ -10.354, 20.32, -131.251 ],
    "rotation" : [ 0.0, 0.0, 0.0 ],
    "controlpointid" : 4,
    "layer" : 1
  }, {
    "code" : "cpname_kokan_sp_coop32_golfeight_crate_1",
    "position" : [ -80.227, 20.32, -100.657 ],
    "rotation" : [ 0.0, 0.0, 0.0 ],
    "controlpointid" : 4,
    "layer" : 1
  }, {
    "code" : "cpname_kokan_sp_coop32_foxtrotfive_crate",
    "position" : [ -157.331, 22.12, 338.2 ],
    "rotation" : [ 0.0, 0.0, 0.0 ],
    "controlpointid" : 2,
    "layer" : 1
  }, {
    "code" : "cpname_kokan_sp_coop32_foxtrotfive_crate_0",
    "position" : [ -157.293, 22.12, 309.297 ],
    "rotation" : [ 0.0, 0.0, 0.0 ],
    "controlpointid" : 2,
    "layer" : 1
  }, {
    "code" : "cpname_kokan_sp_coop32_foxtrotfive_crate_1",
    "position" : [ -212.818, 22.12, 309.838 ],
    "rotation" : [ 0.0, 0.0, 0.0 ],
    "controlpointid" : 2,
    "layer" : 1
  }, {
    "code" : "cpname_kokan_sp_coop32_foxtrotfive_crate_2",
    "position" : [ -179.972, 22.12, 255.302 ],
    "rotation" : [ 0.0, 0.0, 0.0 ],
    "controlpointid" : 2,
    "layer" : 1
  }, {
    "code" : "cpname_kokan_sp_coop32_foxtrotfive_crate_3",
    "position" : [ -339.966, 22.12, 329.415 ],
    "rotation" : [ 0.0, 0.0, 0.0 ],
    "controlpointid" : 2,
    "layer" : 1
  }, {
    "code" : "cpname_kokan_sp_coop32_isafbase_arty",
    "position" : [ -1274.171, 14.72, 1455.814 ],
    "rotation" : [ 0.0, 0.0, 0.0 ],
    "controlpointid" : 1,
    "layer" : 1
  }, {
    "code" : "cpname_kokan_sp_coop32_isafbase_arty_0",
    "position" : [ -1274.568, 14.72, 1467.804 ],
    "rotation" : [ 0.0, 0.0, 0.0 ],
    "controlpointid" : 1,
    "layer" : 1
  }, {
    "code" : "cpname_kokan_sp_coop32_isafbase_arty_1",
    "position" : [ -1266.622, 14.72, 1467.804 ],
    "rotation" : [ 0.0, 0.0, 0.0 ],
    "controlpointid" : 1,
    "layer" : 1
  }, {
    "code" : "cpname_kokan_sp_coop32_isafbase_arty_2",
    "position" : [ -1266.622, 14.72, 1455.814 ],
    "rotation" : [ 0.0, 0.0, 0.0 ],
    "controlpointid" : 1,
    "layer" : 1
  }, {
    "code" : "cpname_kokan_sp_coop32_golfeight_techie",
    "position" : [ -22.351, 19.836, -128.298 ],
    "rotation" : [ 0.0, 0.0, 0.0 ],
    "controlpointid" : 4,
    "layer" : 1
  }, {
    "code" : "cpname_kokan_sp_coop32_indiaseven_techie",
    "position" : [ 247.481, 20.32, -47.912 ],
    "rotation" : [ -130.0, 0.0, 0.0 ],
    "controlpointid" : 3,
    "layer" : 1
  }, {
    "code" : "cpname_kokan_sp_coop32_julietten_techie",
    "position" : [ 407.182, 20.32, -455.202 ],
    "rotation" : [ -150.0, 0.0, 0.0 ],
    "controlpointid" : 5,
    "layer" : 1
  }, {
    "code" : "cpname_kokan_sp_coop32_limaeleven_techie",
    "position" : [ 659.067, 20.32, -571.965 ],
    "rotation" : [ -100.0, 0.0, 0.0 ],
    "controlpointid" : 6,
    "layer" : 1
  }, {
    "code" : "cpname_kokan_sp_coop32_talimain_rtech",
    "position" : [ 920.616, 18.55, -1006.723 ],
    "rotation" : [ 0.0, 0.0, 0.0 ],
    "controlpointid" : 8,
    "layer" : 1
  }, {
    "code" : "cpname_kokan_sp_coop32_isafbase_can",
    "position" : [ -545.888, 20.32, 766.898 ],
    "rotation" : [ 0.0, 0.0, 0.0 ],
    "controlpointid" : 1,
    "layer" : 1
  }, {
    "code" : "cpname_kokan_sp_coop32_isafbase_apc",
    "position" : [ -549.712, 20.32, 764.505 ],
    "rotation" : [ 0.0, 0.0, 0.0 ],
    "controlpointid" : 1,
    "layer" : 1
  }, {
    "code" : "cpname_kokan_sp_coop32_isafbase_support",
    "position" : [ -523.297, 20.32, 730.164 ],
    "rotation" : [ -110.0, 0.0, 0.0 ],
    "controlpointid" : 1,
    "layer" : 1
  }, {
    "code" : "cpname_kokan_sp_coop32_isafbase_acv",
    "position" : [ -528.991, 20.82, 734.941 ],
    "rotation" : [ 65.0, 0.0, 0.0 ],
    "controlpointid" : 1,
    "layer" : 1
  }, {
    "code" : "cpname_kokan_sp_coop32_talimain_1",
    "position" : [ 907.639, 18.55, -1009.823 ],
    "rotation" : [ -22.157, 0.0, 0.0 ],
    "controlpointid" : -999,
    "layer" : 1
  }, {
    "code" : "cpname_kokan_sp_coop32_talimain_2",
    "position" : [ 907.34, 18.55, -998.352 ],
    "rotation" : [ -55.58, 0.0, 0.0 ],
    "controlpointid" : -999,
    "layer" : 1
  }, {
    "code" : "cpname_kokan_sp_coop32_isafbase_1",
    "position" : [ -566.752, 20.32, 794.148 ],
    "rotation" : [ 164.368, 0.0, 0.0 ],
    "controlpointid" : -999,
    "layer" : 1
  }, {
    "code" : "cpname_kokan_sp_coop32_isafbase_2",
    "position" : [ -565.234, 20.32, 789.874 ],
    "rotation" : [ 164.774, 0.0, 0.0 ],
    "controlpointid" : -999,
    "layer" : 1
  }, {
    "code" : "cpname_kokan_sp_coop32_isafbase_5",
    "position" : [ -527.687, 20.32, 714.19 ],
    "rotation" : [ -40.529, 0.0, 0.0 ],
    "controlpointid" : -999,
    "layer" : 1
  }, {
    "code" : "cpname_kokan_sp_coop32_isafbase_6",
    "position" : [ -531.172, 20.32, 712.689 ],
    "rotation" : [ -34.926, 0.0, 0.0 ],
    "controlpointid" : -999,
    "layer" : 1
  }, {
    "code" : "cpname_kokan_sp_coop32_isafbase_7",
    "position" : [ -534.321, 20.32, 710.409 ],
    "rotation" : [ -27.505, 0.0, 0.0 ],
    "controlpointid" : -999,
    "layer" : 1
  }, {
    "code" : "cpname_kokan_sp_coop32_isafbase_8",
    "position" : [ -537.918, 20.32, 710.059 ],
    "rotation" : [ -20.309, 0.0, 0.0 ],
    "controlpointid" : -999,
    "layer" : 1
  }, {
    "code" : "cpname_kokan_sp_coop32_indiaseven_1",
    "position" : [ 303.174, 20.32, -54.972 ],
    "rotation" : [ -65.257, 0.0, 0.0 ],
    "controlpointid" : -999,
    "layer" : 1
  }, {
    "code" : "cpname_kokan_sp_coop32_indiaseven_2",
    "position" : [ 339.64, 20.32, -21.951 ],
    "rotation" : [ -99.677, 0.0, 0.0 ],
    "controlpointid" : -999,
    "layer" : 1
  }, {
    "code" : "cpname_kokan_sp_coop32_indiaseven_3",
    "position" : [ 293.516, 20.32, 61.709 ],
    "rotation" : [ -159.587, 0.0, 0.0 ],
    "controlpointid" : -999,
    "layer" : 1
  }, {
    "code" : "cpname_kokan_sp_coop32_indiaseven_4",
    "position" : [ 307.39, 20.32, 82.627 ],
    "rotation" : [ -158.428, 0.0, 0.0 ],
    "controlpointid" : -999,
    "layer" : 1
  }, {
    "code" : "cpname_kokan_sp_coop32_indiaseven_5",
    "position" : [ 317.129, 20.32, -128.758 ],
    "rotation" : [ -31.142, 0.0, 0.0 ],
    "controlpointid" : -999,
    "layer" : 1
  }, {
    "code" : "cpname_kokan_sp_coop32_indiaseven_6",
    "position" : [ 343.865, 20.32, -148.896 ],
    "rotation" : [ -44.454, 0.0, 0.0 ],
    "controlpointid" : -999,
    "layer" : 1
  }, {
    "code" : "cpname_kokan_sp_coop32_golfeight_1",
    "position" : [ 93.582, 20.32, -156.657 ],
    "rotation" : [ -81.561, 0.0, 0.0 ],
    "controlpointid" : -999,
    "layer" : 1
  }, {
    "code" : "cpname_kokan_sp_coop32_golfeight_2",
    "position" : [ 54.641, 20.32, -129.951 ],
    "rotation" : [ -95.3, 0.0, 0.0 ],
    "controlpointid" : -999,
    "layer" : 1
  }, {
    "code" : "cpname_kokan_sp_coop32_golfeight_3",
    "position" : [ -80.071, 20.32, -87.249 ],
    "rotation" : [ 136.642, 0.0, 0.0 ],
    "controlpointid" : -999,
    "layer" : 1
  }, {
    "code" : "cpname_kokan_sp_coop32_golfeight_4",
    "position" : [ -121.765, 20.32, -177.216 ],
    "rotation" : [ 66.368, 0.0, 0.0 ],
    "controlpointid" : -999,
    "layer" : 1
  }, {
    "code" : "cpname_kokan_sp_coop32_golfeight_5",
    "position" : [ 19.325, 19.917, -148.42 ],
    "rotation" : [ -78.559, 0.0, 0.0 ],
    "controlpointid" : -999,
    "layer" : 1
  }, {
    "code" : "cpname_kokan_sp_coop32_golfeight_6",
    "position" : [ -20.753, 18.653, -176.695 ],
    "rotation" : [ -16.408, 0.0, 0.0 ],
    "controlpointid" : -999,
    "layer" : 1
  }, {
    "code" : "cpname_kokan_sp_coop32_golfeight_7",
    "position" : [ -22.755, 18.653, -165.567 ],
    "rotation" : [ -18.815, 0.0, 0.0 ],
    "controlpointid" : -999,
    "layer" : 1
  }, {
    "code" : "cpname_kokan_sp_coop32_golfeight_8",
    "position" : [ -94.638, 17.137, -155.816 ],
    "rotation" : [ 74.09, 0.0, 0.0 ],
    "controlpointid" : -999,
    "layer" : 1
  }, {
    "code" : "cpname_kokan_sp_coop32_indiaseven_7",
    "position" : [ 254.974, 20.32, -52.032 ],
    "rotation" : [ 19.076, 0.0, 0.0 ],
    "controlpointid" : -999,
    "layer" : 1
  }, {
    "code" : "cpname_kokan_sp_coop32_julietten_1",
    "position" : [ 315.529, 20.32, -394.623 ],
    "rotation" : [ 135.106, 0.0, 0.0 ],
    "controlpointid" : -999,
    "layer" : 1
  }, {
    "code" : "cpname_kokan_sp_coop32_julietten_2",
    "position" : [ 321.938, 20.32, -432.164 ],
    "rotation" : [ 118.453, 0.0, 0.0 ],
    "controlpointid" : -999,
    "layer" : 1
  }, {
    "code" : "cpname_kokan_sp_coop32_julietten_3",
    "position" : [ 382.156, 20.32, -514.664 ],
    "rotation" : [ 8.824, 0.0, 0.0 ],
    "controlpointid" : -999,
    "layer" : 1
  }, {
    "code" : "cpname_kokan_sp_coop32_julietten_4",
    "position" : [ 396.083, 20.32, -544.134 ],
    "rotation" : [ -5.138, 0.0, 0.0 ],
    "controlpointid" : -999,
    "layer" : 1
  }, {
    "code" : "cpname_kokan_sp_coop32_julietten_5",
    "position" : [ 386.207, 20.32, -457.879 ],
    "rotation" : [ 164.012, 0.0, 0.0 ],
    "controlpointid" : -999,
    "layer" : 1
  }, {
    "code" : "cpname_kokan_sp_coop32_julietten_6",
    "position" : [ 418.75, 20.32, -459.492 ],
    "rotation" : [ -107.299, 0.0, 0.0 ],
    "controlpointid" : -999,
    "layer" : 1
  }, {
    "code" : "cpname_kokan_sp_coop32_julietten_7",
    "position" : [ 351.363, 20.32, -493.485 ],
    "rotation" : [ 56.804, 0.0, 0.0 ],
    "controlpointid" : -999,
    "layer" : 1
  }, {
    "code" : "cpname_kokan_sp_coop32_julietten_8",
    "position" : [ 304.687, 20.32, -419.636 ],
    "rotation" : [ 142.227, 0.0, 0.0 ],
    "controlpointid" : -999,
    "layer" : 1
  }, {
    "code" : "cpname_kokan_sp_coop32_limaeleven_1",
    "position" : [ 675.024, 20.32, -589.946 ],
    "rotation" : [ -105.695, 0.0, 0.0 ],
    "controlpointid" : -999,
    "layer" : 1
  }, {
    "code" : "cpname_kokan_sp_coop32_limaeleven_2",
    "position" : [ 679.698, 26.662, -576.407 ],
    "rotation" : [ -125.992, 0.0, 0.0 ],
    "controlpointid" : -999,
    "layer" : 1
  }, {
    "code" : "cpname_kokan_sp_coop32_limaeleven_3",
    "position" : [ 660.608, 23.541, -593.69 ],
    "rotation" : [ 167.696, 0.0, 0.0 ],
    "controlpointid" : -999,
    "layer" : 1
  }, {
    "code" : "cpname_kokan_sp_coop32_limaeleven_4",
    "position" : [ 637.009, 20.32, -607.955 ],
    "rotation" : [ 51.576, 0.0, 0.0 ],
    "controlpointid" : -999,
    "layer" : 1
  }, {
    "code" : "cpname_kokan_sp_coop32_limaeleven_5",
    "position" : [ 658.271, 20.32, -627.649 ],
    "rotation" : [ -10.897, 0.0, 0.0 ],
    "controlpointid" : -999,
    "layer" : 1
  }, {
    "code" : "cpname_kokan_sp_coop32_limaeleven_6",
    "position" : [ 643.785, 20.32, -657.306 ],
    "rotation" : [ 7.901, 0.0, 0.0 ],
    "controlpointid" : -999,
    "layer" : 1
  }, {
    "code" : "cpname_kokan_sp_coop32_limaeleven_7",
    "position" : [ 664.792, 20.32, -556.321 ],
    "rotation" : [ -162.595, 0.0, 0.0 ],
    "controlpointid" : -999,
    "layer" : 1
  }, {
    "code" : "cpname_kokan_sp_coop32_julietten_9",
    "position" : [ 404.682, 20.32, -528.195 ],
    "rotation" : [ -14.491, 0.0, 0.0 ],
    "controlpointid" : -999,
    "layer" : 1
  }, {
    "code" : "cpname_kokan_sp_coop32_kilothirteen_1",
    "position" : [ 645.363, 20.32, -808.227 ],
    "rotation" : [ -143.153, 0.0, 0.0 ],
    "controlpointid" : -999,
    "layer" : 1
  }, {
    "code" : "cpname_kokan_sp_coop32_kilothirteen_2",
    "position" : [ 630.948, 20.32, -882.126 ],
    "rotation" : [ -10.572, 0.0, 0.0 ],
    "controlpointid" : -999,
    "layer" : 1
  }, {
    "code" : "cpname_kokan_sp_coop32_kilothirteen_3",
    "position" : [ 610.947, 23.747, -801.255 ],
    "rotation" : [ 162.313, 0.0, 0.0 ],
    "controlpointid" : -999,
    "layer" : 1
  }, {
    "code" : "cpname_kokan_sp_coop32_kilothirteen_4",
    "position" : [ 580.353, 20.32, -821.414 ],
    "rotation" : [ 111.776, 0.0, 0.0 ],
    "controlpointid" : -999,
    "layer" : 1
  }, {
    "code" : "cpname_kokan_sp_coop32_kilothirteen_5",
    "position" : [ 606.392, 26.693, -847.587 ],
    "rotation" : [ 56.236, 0.0, 0.0 ],
    "controlpointid" : -999,
    "layer" : 1
  }, {
    "code" : "cpname_kokan_sp_coop32_kilothirteen_6",
    "position" : [ 607.034, 23.606, -846.626 ],
    "rotation" : [ -40.792, 0.0, 0.0 ],
    "controlpointid" : -999,
    "layer" : 1
  }, {
    "code" : "cpname_kokan_sp_coop32_kilothirteen_7",
    "position" : [ 634.78, 26.755, -852.853 ],
    "rotation" : [ -41.84, 0.0, 0.0 ],
    "controlpointid" : -999,
    "layer" : 1
  }, {
    "code" : "cpname_kokan_sp_coop32_kilothirteen_8",
    "position" : [ 658.078, 23.507, -872.468 ],
    "rotation" : [ -45.985, 0.0, 0.0 ],
    "controlpointid" : -999,
    "layer" : 1
  }, {
    "code" : "cpname_kokan_sp_coop32_talimain_3",
    "position" : [ 898.432, 18.867, -1002.098 ],
    "rotation" : [ 19.797, 0.0, 0.0 ],
    "controlpointid" : -999,
    "layer" : 1
  }, {
    "code" : "cpname_kokan_sp_coop32_talimain_4",
    "position" : [ 901.054, 18.548, -1000.049 ],
    "rotation" : [ 2.177, 0.0, 0.0 ],
    "controlpointid" : -999,
    "layer" : 1
  }, {
    "code" : "cpname_kokan_sp_coop32_talimain_5",
    "position" : [ 902.79, 18.55, -997.556 ],
    "rotation" : [ -24.262, 0.0, 0.0 ],
    "controlpointid" : -999,
    "layer" : 1
  }, {
    "code" : "cpname_kokan_sp_coop32_foxtrotfive_1",
    "position" : [ -196.519, 22.12, 351.784 ],
    "rotation" : [ 162.066, 0.0, 0.0 ],
    "controlpointid" : -999,
    "layer" : 1
  }, {
    "code" : "cpname_kokan_sp_coop32_foxtrotfive_2",
    "position" : [ -159.978, 22.12, 351.999 ],
    "rotation" : [ -150.226, 0.0, 0.0 ],
    "controlpointid" : -999,
    "layer" : 1
  }, {
    "code" : "cpname_kokan_sp_coop32_foxtrotfive_3",
    "position" : [ -150.224, 22.12, 309.024 ],
    "rotation" : [ -86.367, 0.0, 0.0 ],
    "controlpointid" : -999,
    "layer" : 1
  }, {
    "code" : "cpname_kokan_sp_coop32_foxtrotfive_4",
    "position" : [ -212.892, 22.12, 325.392 ],
    "rotation" : [ 115.781, 0.0, 0.0 ],
    "controlpointid" : -999,
    "layer" : 1
  }, {
    "code" : "cpname_kokan_sp_coop32_foxtrotfive_5",
    "position" : [ -171.356, 22.12, 248.006 ],
    "rotation" : [ -10.768, 0.0, 0.0 ],
    "controlpointid" : -999,
    "layer" : 1
  }, {
    "code" : "cpname_kokan_sp_coop32_foxtrotfive_6",
    "position" : [ -164.942, 22.12, 248.871 ],
    "rotation" : [ -16.481, 0.0, 0.0 ],
    "controlpointid" : -999,
    "layer" : 1
  }, {
    "code" : "cpname_kokan_sp_coop32_foxtrotfive_7",
    "position" : [ -343.77, 22.12, 345.509 ],
    "rotation" : [ 91.979, 0.0, 0.0 ],
    "controlpointid" : -999,
    "layer" : 1
  }, {
    "code" : "cpname_kokan_sp_coop32_foxtrotfive_8",
    "position" : [ -188.941, 22.12, 132.362 ],
    "rotation" : [ 2.268, 0.0, 0.0 ],
    "controlpointid" : -999,
    "layer" : 1
  }, {
    "code" : "cpname_kokan_sp_coop32_foxtrotfive_9",
    "position" : [ 15.362, 22.12, 274.427 ],
    "rotation" : [ -79.536, 0.0, 0.0 ],
    "controlpointid" : -999,
    "layer" : 1
  }, {
    "code" : "cpname_kokan_sp_coop32_isafbase_9",
    "position" : [ -544.572, 20.32, 757.305 ],
    "rotation" : [ -136.008, 0.0, 0.0 ],
    "controlpointid" : -999,
    "layer" : 1
  }, {
    "code" : "cpname_kokan_sp_coop32_isafbase_10",
    "position" : [ -540.833, 20.32, 753.482 ],
    "rotation" : [ -113.808, 0.0, 0.0 ],
    "controlpointid" : -999,
    "layer" : 1
  }, {
    "code" : "cpname_kokan_sp_coop32_isafbase_11",
    "position" : [ -543.786, 20.32, 751.71 ],
    "rotation" : [ -111.518, 0.0, 0.0 ],
    "controlpointid" : -999,
    "layer" : 1
  }, {
    "code" : "cpname_kokan_sp_coop32_isafbase_10_0",
    "position" : [ -547.957, 20.32, 765.669 ],
    "rotation" : [ -161.993, 0.0, 0.0 ],
    "controlpointid" : -999,
    "layer" : 1
  }, {
    "code" : "cpname_kokan_sp_coop32_julietten_10",
    "position" : [ 201.188, 20.32, -339.225 ],
    "rotation" : [ 124.532, 0.0, 0.0 ],
    "controlpointid" : -999,
    "layer" : 1
  }, {
    "code" : "cpname_kokan_sp_coop32_kilothirteen_9",
    "position" : [ 576.075, 16.152, -979.517 ],
    "rotation" : [ 18.308, 0.0, 0.0 ],
    "controlpointid" : -999,
    "layer" : 1
  }, {
    "code" : "cpname_kokan_sp_coop32_julietten_11",
    "position" : [ 307.851, 20.32, -742.471 ],
    "rotation" : [ 16.566, 0.0, 0.0 ],
    "controlpointid" : -999,
    "layer" : 1
  }, {
    "code" : "cpname_kokan_sp_coop32_isafbase",
    "position" : [ -553.775, 13.431, 747.772 ],
    "rotation" : [ 0.0, 0.0, 0.0 ],
    "controlpointid" : -999,
    "layer" : 1
  }, {
    "code" : "cpname_kokan_sp_coop32_foxtrotfive",
    "position" : [ -183.361, 15.618, 311.128 ],
    "rotation" : [ 0.0, 0.0, 0.0 ],
    "controlpointid" : -999,
    "layer" : 1
  }, {
    "code" : "cpname_kokan_sp_coop32_indiaseven",
    "position" : [ 260.723, 13.807, -35.408 ],
    "rotation" : [ 0.0, 0.0, 0.0 ],
    "controlpointid" : -999,
    "layer" : 1
  }, {
    "code" : "cpname_kokan_sp_coop32_golfeight",
    "position" : [ -32.146, 13.925, -138.003 ],
    "rotation" : [ 0.0, 0.0, 0.0 ],
    "controlpointid" : -999,
    "layer" : 1
  }, {
    "code" : "cpname_kokan_sp_coop32_julietten",
    "position" : [ 389.297, 13.692, -468.665 ],
    "rotation" : [ 0.0, 0.0, 0.0 ],
    "controlpointid" : -999,
    "layer" : 1
  }, {
    "code" : "cpname_kokan_sp_coop32_limaeleven",
    "position" : [ 652.245, 14.292, -596.347 ],
    "rotation" : [ 0.0, 0.0, 0.0 ],
    "controlpointid" : -999,
    "layer" : 1
  }, {
    "code" : "cpname_kokan_sp_coop32_kilothirteen",
    "position" : [ 622.78, 12.713, -838.363 ],
    "rotation" : [ 0.0, 0.0, 0.0 ],
    "controlpointid" : -999,
    "layer" : 1
  }, {
    "code" : "cpname_kokan_sp_coop32_talimain",
    "position" : [ 901.276, 11.371, -994.197 ],
    "rotation" : [ 0.0, 0.0, 0.0 ],
    "controlpointid" : -999,
    "layer" : 1
  } ],
  "ostemplates" : [ {
    "code" : "cpname_kokan_sp_coop32_isafbase_gwagon_0",
    "lastuser" : null,
    "objecttemplate_1" : null,
    "objecttemplate_2" : "cf_jep_gwagon",
    "minspawndelay" : 600.0,
    "maxspawndelay" : 600.0,
    "spawndelayatstart" : false,
    "timetolive" : 1200.0,
    "distance" : 100.0,
    "team" : -999,
    "maxNrOfObjectSpawned" : 1,
    "teamonvehicle" : true
  }, {
    "code" : "cpname_kokan_sp_coop32_isafbase_gwagon_1",
    "lastuser" : null,
    "objecttemplate_1" : null,
    "objecttemplate_2" : "cf_jep_gwagon",
    "minspawndelay" : 600.0,
    "maxspawndelay" : 600.0,
    "spawndelayatstart" : false,
    "timetolive" : 1200.0,
    "distance" : 100.0,
    "team" : -999,
    "maxNrOfObjectSpawned" : 1,
    "teamonvehicle" : true
  }, {
    "code" : "cpname_kokan_sp_coop32_isafbase_gwagon_2",
    "lastuser" : null,
    "objecttemplate_1" : null,
    "objecttemplate_2" : "cf_jep_gwagon",
    "minspawndelay" : 600.0,
    "maxspawndelay" : 600.0,
    "spawndelayatstart" : false,
    "timetolive" : 1200.0,
    "distance" : 100.0,
    "team" : -999,
    "maxNrOfObjectSpawned" : 1,
    "teamonvehicle" : true
  }, {
    "code" : "cpname_kokan_sp_coop32_isafbase_gwagon_3",
    "lastuser" : null,
    "objecttemplate_1" : null,
    "objecttemplate_2" : "cf_jep_gwagon",
    "minspawndelay" : 600.0,
    "maxspawndelay" : 600.0,
    "spawndelayatstart" : false,
    "timetolive" : 1200.0,
    "distance" : 100.0,
    "team" : -999,
    "maxNrOfObjectSpawned" : 1,
    "teamonvehicle" : true
  }, {
    "code" : "cpname_kokan_sp_coop32_isafbase_gwagon_4",
    "lastuser" : null,
    "objecttemplate_1" : null,
    "objecttemplate_2" : "cf_jep_gwagon",
    "minspawndelay" : 600.0,
    "maxspawndelay" : 600.0,
    "spawndelayatstart" : false,
    "timetolive" : 1200.0,
    "distance" : 100.0,
    "team" : -999,
    "maxNrOfObjectSpawned" : 1,
    "teamonvehicle" : true
  }, {
    "code" : "cpname_kokan_sp_coop32_isafbase_gwagon_5",
    "lastuser" : null,
    "objecttemplate_1" : null,
    "objecttemplate_2" : "cf_jep_gwagon",
    "minspawndelay" : 600.0,
    "maxspawndelay" : 600.0,
    "spawndelayatstart" : false,
    "timetolive" : 1200.0,
    "distance" : 100.0,
    "team" : -999,
    "maxNrOfObjectSpawned" : 1,
    "teamonvehicle" : true
  }, {
    "code" : "cpname_kokan_sp_coop32_isafbase_depot",
    "lastuser" : null,
    "objecttemplate_1" : null,
    "objecttemplate_2" : "vehicle_depot_cf",
    "minspawndelay" : 0.0,
    "maxspawndelay" : 0.0,
    "spawndelayatstart" : false,
    "timetolive" : 0.0,
    "distance" : 0.0,
    "team" : -999,
    "maxNrOfObjectSpawned" : 1,
    "teamonvehicle" : false
  }, {
    "code" : "cpname_kokan_sp_coop32_isafbase_chinook",
    "lastuser" : null,
    "objecttemplate_1" : null,
    "objecttemplate_2" : "cf_the_chinook",
    "minspawndelay" : 600.0,
    "maxspawndelay" : 600.0,
    "spawndelayatstart" : false,
    "timetolive" : 1200.0,
    "distance" : 100.0,
    "team" : -999,
    "maxNrOfObjectSpawned" : 1,
    "teamonvehicle" : true
  }, {
    "code" : "cpname_kokan_sp_coop32_isafbase_chinook_0",
    "lastuser" : null,
    "objecttemplate_1" : null,
    "objecttemplate_2" : "cf_the_ch146_c6",
    "minspawndelay" : 600.0,
    "maxspawndelay" : 600.0,
    "spawndelayatstart" : false,
    "timetolive" : 1200.0,
    "distance" : 100.0,
    "team" : -999,
    "maxNrOfObjectSpawned" : 1,
    "teamonvehicle" : true
  }, {
    "code" : "cpname_kokan_sp_coop32_isafbase_logi",
    "lastuser" : null,
    "objecttemplate_1" : null,
    "objecttemplate_2" : "cf_trk_logistics",
    "minspawndelay" : 300.0,
    "maxspawndelay" : 300.0,
    "spawndelayatstart" : false,
    "timetolive" : 1200.0,
    "distance" : 100.0,
    "team" : -999,
    "maxNrOfObjectSpawned" : 1,
    "teamonvehicle" : true
  }, {
    "code" : "cpname_kokan_sp_coop32_isafbase_logi_0",
    "lastuser" : null,
    "objecttemplate_1" : null,
    "objecttemplate_2" : "cf_trk_logistics",
    "minspawndelay" : 300.0,
    "maxspawndelay" : 300.0,
    "spawndelayatstart" : false,
    "timetolive" : 1200.0,
    "distance" : 100.0,
    "team" : -999,
    "maxNrOfObjectSpawned" : 1,
    "teamonvehicle" : true
  }, {
    "code" : "cpname_kokan_sp_coop32_talimain_techie",
    "lastuser" : null,
    "objecttemplate_1" : "civ_jep_technical_black",
    "objecttemplate_2" : null,
    "minspawndelay" : 300.0,
    "maxspawndelay" : 300.0,
    "spawndelayatstart" : false,
    "timetolive" : 1200.0,
    "distance" : 100.0,
    "team" : -999,
    "maxNrOfObjectSpawned" : 1,
    "teamonvehicle" : true
  }, {
    "code" : "cpname_kokan_sp_coop32_talimain_techie_0",
    "lastuser" : null,
    "objecttemplate_1" : "civ_jep_technical",
    "objecttemplate_2" : null,
    "minspawndelay" : 300.0,
    "maxspawndelay" : 300.0,
    "spawndelayatstart" : false,
    "timetolive" : 1200.0,
    "distance" : 100.0,
    "team" : -999,
    "maxNrOfObjectSpawned" : 1,
    "teamonvehicle" : true
  }, {
    "code" : "cpname_kokan_sp_coop32_talimain_techie_1",
    "lastuser" : null,
    "objecttemplate_1" : "civ_jep_technical_red",
    "objecttemplate_2" : null,
    "minspawndelay" : 300.0,
    "maxspawndelay" : 300.0,
    "spawndelayatstart" : false,
    "timetolive" : 1200.0,
    "distance" : 100.0,
    "team" : -999,
    "maxNrOfObjectSpawned" : 1,
    "teamonvehicle" : true
  }, {
    "code" : "cpname_kokan_sp_coop32_talimain_depot",
    "lastuser" : null,
    "objecttemplate_1" : "vehicle_depot_tal",
    "objecttemplate_2" : null,
    "minspawndelay" : 0.0,
    "maxspawndelay" : 0.0,
    "spawndelayatstart" : false,
    "timetolive" : 0.0,
    "distance" : 0.0,
    "team" : -999,
    "maxNrOfObjectSpawned" : 1,
    "teamonvehicle" : false
  }, {
    "code" : "cpname_kokan_sp_coop32_talimain_ammo",
    "lastuser" : null,
    "objecttemplate_1" : "civ_jep_support",
    "objecttemplate_2" : null,
    "minspawndelay" : 0.0,
    "maxspawndelay" : 0.0,
    "spawndelayatstart" : false,
    "timetolive" : 0.0,
    "distance" : 0.0,
    "team" : -999,
    "maxNrOfObjectSpawned" : 1,
    "teamonvehicle" : false
  }, {
    "code" : "cpname_kokan_sp_coop32_talimain_car",
    "lastuser" : null,
    "objecttemplate_1" : "civ_jep_car_white",
    "objecttemplate_2" : null,
    "minspawndelay" : 300.0,
    "maxspawndelay" : 300.0,
    "spawndelayatstart" : false,
    "timetolive" : 1200.0,
    "distance" : 100.0,
    "team" : -999,
    "maxNrOfObjectSpawned" : 1,
    "teamonvehicle" : true
  }, {
    "code" : "cpname_kokan_sp_coop32_talimain_car_0",
    "lastuser" : null,
    "objecttemplate_1" : "civ_jep_car_blue",
    "objecttemplate_2" : null,
    "minspawndelay" : 300.0,
    "maxspawndelay" : 300.0,
    "spawndelayatstart" : false,
    "timetolive" : 1200.0,
    "distance" : 100.0,
    "team" : -999,
    "maxNrOfObjectSpawned" : 1,
    "teamonvehicle" : true
  }, {
    "code" : "cpname_kokan_sp_coop32_talimain_car_1",
    "lastuser" : null,
    "objecttemplate_1" : "civ_jep_car",
    "objecttemplate_2" : null,
    "minspawndelay" : 300.0,
    "maxspawndelay" : 300.0,
    "spawndelayatstart" : false,
    "timetolive" : 1200.0,
    "distance" : 100.0,
    "team" : -999,
    "maxNrOfObjectSpawned" : 1,
    "teamonvehicle" : true
  }, {
    "code" : "cpname_kokan_sp_coop32_talimain_car_2",
    "lastuser" : null,
    "objecttemplate_1" : "civ_jep_car_black",
    "objecttemplate_2" : null,
    "minspawndelay" : 300.0,
    "maxspawndelay" : 300.0,
    "spawndelayatstart" : false,
    "timetolive" : 1200.0,
    "distance" : 100.0,
    "team" : -999,
    "maxNrOfObjectSpawned" : 1,
    "teamonvehicle" : true
  }, {
    "code" : "cpname_kokan_sp_coop32_kilothirteen_crate",
    "lastuser" : null,
    "objecttemplate_1" : "fixed_supply_crate_tal",
    "objecttemplate_2" : null,
    "minspawndelay" : 300.0,
    "maxspawndelay" : 300.0,
    "spawndelayatstart" : false,
    "timetolive" : 0.0,
    "distance" : 0.0,
    "team" : -999,
    "maxNrOfObjectSpawned" : 1,
    "teamonvehicle" : true
  }, {
    "code" : "cpname_kokan_sp_coop32_kilothirteen_crate_0",
    "lastuser" : null,
    "objecttemplate_1" : "fixed_supply_crate_tal",
    "objecttemplate_2" : null,
    "minspawndelay" : 300.0,
    "maxspawndelay" : 300.0,
    "spawndelayatstart" : false,
    "timetolive" : 0.0,
    "distance" : 0.0,
    "team" : -999,
    "maxNrOfObjectSpawned" : 1,
    "teamonvehicle" : true
  }, {
    "code" : "cpname_kokan_sp_coop32_kilothirteen_crate_1",
    "lastuser" : null,
    "objecttemplate_1" : "fixed_supply_crate_tal",
    "objecttemplate_2" : null,
    "minspawndelay" : 300.0,
    "maxspawndelay" : 300.0,
    "spawndelayatstart" : false,
    "timetolive" : 0.0,
    "distance" : 0.0,
    "team" : -999,
    "maxNrOfObjectSpawned" : 1,
    "teamonvehicle" : true
  }, {
    "code" : "cpname_kokan_sp_coop32_kilothirteen_crate_2",
    "lastuser" : null,
    "objecttemplate_1" : "fixed_supply_crate_tal",
    "objecttemplate_2" : null,
    "minspawndelay" : 300.0,
    "maxspawndelay" : 300.0,
    "spawndelayatstart" : false,
    "timetolive" : 0.0,
    "distance" : 0.0,
    "team" : -999,
    "maxNrOfObjectSpawned" : 1,
    "teamonvehicle" : true
  }, {
    "code" : "cpname_kokan_sp_coop32_julietten_crate",
    "lastuser" : null,
    "objecttemplate_1" : "fixed_supply_crate_tal",
    "objecttemplate_2" : null,
    "minspawndelay" : 300.0,
    "maxspawndelay" : 300.0,
    "spawndelayatstart" : false,
    "timetolive" : 0.0,
    "distance" : 0.0,
    "team" : -999,
    "maxNrOfObjectSpawned" : 1,
    "teamonvehicle" : true
  }, {
    "code" : "cpname_kokan_sp_coop32_julietten_crate_0",
    "lastuser" : null,
    "objecttemplate_1" : "fixed_supply_crate_tal",
    "objecttemplate_2" : null,
    "minspawndelay" : 300.0,
    "maxspawndelay" : 300.0,
    "spawndelayatstart" : false,
    "timetolive" : 0.0,
    "distance" : 0.0,
    "team" : -999,
    "maxNrOfObjectSpawned" : 1,
    "teamonvehicle" : true
  }, {
    "code" : "cpname_kokan_sp_coop32_julietten_car",
    "lastuser" : null,
    "objecttemplate_1" : "fixed_supply_crate_tal",
    "objecttemplate_2" : null,
    "minspawndelay" : 300.0,
    "maxspawndelay" : 300.0,
    "spawndelayatstart" : false,
    "timetolive" : 0.0,
    "distance" : 0.0,
    "team" : -999,
    "maxNrOfObjectSpawned" : 1,
    "teamonvehicle" : true
  }, {
    "code" : "cpname_kokan_sp_coop32_julietten_crate_1",
    "lastuser" : null,
    "objecttemplate_1" : "fixed_supply_crate_tal",
    "objecttemplate_2" : null,
    "minspawndelay" : 300.0,
    "maxspawndelay" : 300.0,
    "spawndelayatstart" : false,
    "timetolive" : 0.0,
    "distance" : 0.0,
    "team" : -999,
    "maxNrOfObjectSpawned" : 1,
    "teamonvehicle" : true
  }, {
    "code" : "cpname_kokan_sp_coop32_limaeleven_crate",
    "lastuser" : null,
    "objecttemplate_1" : "fixed_supply_crate_tal",
    "objecttemplate_2" : null,
    "minspawndelay" : 300.0,
    "maxspawndelay" : 300.0,
    "spawndelayatstart" : false,
    "timetolive" : 0.0,
    "distance" : 0.0,
    "team" : -999,
    "maxNrOfObjectSpawned" : 1,
    "teamonvehicle" : true
  }, {
    "code" : "cpname_kokan_sp_coop32_limaeleven_crate_0",
    "lastuser" : null,
    "objecttemplate_1" : "fixed_supply_crate_tal",
    "objecttemplate_2" : null,
    "minspawndelay" : 300.0,
    "maxspawndelay" : 300.0,
    "spawndelayatstart" : false,
    "timetolive" : 0.0,
    "distance" : 0.0,
    "team" : -999,
    "maxNrOfObjectSpawned" : 1,
    "teamonvehicle" : true
  }, {
    "code" : "cpname_kokan_sp_coop32_limaeleven_crate_1",
    "lastuser" : null,
    "objecttemplate_1" : "fixed_supply_crate_tal",
    "objecttemplate_2" : null,
    "minspawndelay" : 300.0,
    "maxspawndelay" : 300.0,
    "spawndelayatstart" : false,
    "timetolive" : 0.0,
    "distance" : 0.0,
    "team" : -999,
    "maxNrOfObjectSpawned" : 1,
    "teamonvehicle" : true
  }, {
    "code" : "cpname_kokan_sp_coop32_indiaseven_crate",
    "lastuser" : null,
    "objecttemplate_1" : "fixed_supply_crate_tal",
    "objecttemplate_2" : null,
    "minspawndelay" : 300.0,
    "maxspawndelay" : 300.0,
    "spawndelayatstart" : false,
    "timetolive" : 0.0,
    "distance" : 0.0,
    "team" : -999,
    "maxNrOfObjectSpawned" : 1,
    "teamonvehicle" : true
  }, {
    "code" : "cpname_kokan_sp_coop32_indiaseven_crate_0",
    "lastuser" : null,
    "objecttemplate_1" : "fixed_supply_crate_tal",
    "objecttemplate_2" : null,
    "minspawndelay" : 300.0,
    "maxspawndelay" : 300.0,
    "spawndelayatstart" : false,
    "timetolive" : 0.0,
    "distance" : 0.0,
    "team" : -999,
    "maxNrOfObjectSpawned" : 1,
    "teamonvehicle" : true
  }, {
    "code" : "cpname_kokan_sp_coop32_indiaseven_crate_1",
    "lastuser" : null,
    "objecttemplate_1" : "fixed_supply_crate_tal",
    "objecttemplate_2" : null,
    "minspawndelay" : 300.0,
    "maxspawndelay" : 300.0,
    "spawndelayatstart" : false,
    "timetolive" : 0.0,
    "distance" : 0.0,
    "team" : -999,
    "maxNrOfObjectSpawned" : 1,
    "teamonvehicle" : true
  }, {
    "code" : "cpname_kokan_sp_coop32_indiaseven_crate_2",
    "lastuser" : null,
    "objecttemplate_1" : "fixed_supply_crate_tal",
    "objecttemplate_2" : null,
    "minspawndelay" : 300.0,
    "maxspawndelay" : 300.0,
    "spawndelayatstart" : false,
    "timetolive" : 0.0,
    "distance" : 0.0,
    "team" : -999,
    "maxNrOfObjectSpawned" : 1,
    "teamonvehicle" : true
  }, {
    "code" : "cpname_kokan_sp_coop32_golfeight_crate",
    "lastuser" : null,
    "objecttemplate_1" : "fixed_supply_crate_tal",
    "objecttemplate_2" : null,
    "minspawndelay" : 300.0,
    "maxspawndelay" : 300.0,
    "spawndelayatstart" : false,
    "timetolive" : 0.0,
    "distance" : 0.0,
    "team" : -999,
    "maxNrOfObjectSpawned" : 1,
    "teamonvehicle" : true
  }, {
    "code" : "cpname_kokan_sp_coop32_golfeight_crate_0",
    "lastuser" : null,
    "objecttemplate_1" : "fixed_supply_crate_tal",
    "objecttemplate_2" : null,
    "minspawndelay" : 300.0,
    "maxspawndelay" : 300.0,
    "spawndelayatstart" : false,
    "timetolive" : 0.0,
    "distance" : 0.0,
    "team" : -999,
    "maxNrOfObjectSpawned" : 1,
    "teamonvehicle" : true
  }, {
    "code" : "cpname_kokan_sp_coop32_golfeight_crate_1",
    "lastuser" : null,
    "objecttemplate_1" : "fixed_supply_crate_tal",
    "objecttemplate_2" : null,
    "minspawndelay" : 300.0,
    "maxspawndelay" : 300.0,
    "spawndelayatstart" : false,
    "timetolive" : 0.0,
    "distance" : 0.0,
    "team" : -999,
    "maxNrOfObjectSpawned" : 1,
    "teamonvehicle" : true
  }, {
    "code" : "cpname_kokan_sp_coop32_foxtrotfive_crate",
    "lastuser" : null,
    "objecttemplate_1" : "fixed_supply_crate_tal",
    "objecttemplate_2" : null,
    "minspawndelay" : 300.0,
    "maxspawndelay" : 300.0,
    "spawndelayatstart" : false,
    "timetolive" : 0.0,
    "distance" : 0.0,
    "team" : -999,
    "maxNrOfObjectSpawned" : 1,
    "teamonvehicle" : true
  }, {
    "code" : "cpname_kokan_sp_coop32_foxtrotfive_crate_0",
    "lastuser" : null,
    "objecttemplate_1" : "fixed_supply_crate_tal",
    "objecttemplate_2" : null,
    "minspawndelay" : 300.0,
    "maxspawndelay" : 300.0,
    "spawndelayatstart" : false,
    "timetolive" : 0.0,
    "distance" : 0.0,
    "team" : -999,
    "maxNrOfObjectSpawned" : 1,
    "teamonvehicle" : true
  }, {
    "code" : "cpname_kokan_sp_coop32_foxtrotfive_crate_1",
    "lastuser" : null,
    "objecttemplate_1" : "fixed_supply_crate_tal",
    "objecttemplate_2" : null,
    "minspawndelay" : 300.0,
    "maxspawndelay" : 300.0,
    "spawndelayatstart" : false,
    "timetolive" : 0.0,
    "distance" : 0.0,
    "team" : -999,
    "maxNrOfObjectSpawned" : 1,
    "teamonvehicle" : true
  }, {
    "code" : "cpname_kokan_sp_coop32_foxtrotfive_crate_2",
    "lastuser" : null,
    "objecttemplate_1" : "fixed_supply_crate_tal",
    "objecttemplate_2" : null,
    "minspawndelay" : 300.0,
    "maxspawndelay" : 300.0,
    "spawndelayatstart" : false,
    "timetolive" : 0.0,
    "distance" : 0.0,
    "team" : -999,
    "maxNrOfObjectSpawned" : 1,
    "teamonvehicle" : true
  }, {
    "code" : "cpname_kokan_sp_coop32_foxtrotfive_crate_3",
    "lastuser" : null,
    "objecttemplate_1" : "fixed_supply_crate_tal",
    "objecttemplate_2" : null,
    "minspawndelay" : 300.0,
    "maxspawndelay" : 300.0,
    "spawndelayatstart" : false,
    "timetolive" : 0.0,
    "distance" : 0.0,
    "team" : -999,
    "maxNrOfObjectSpawned" : 1,
    "teamonvehicle" : true
  }, {
    "code" : "cpname_kokan_sp_coop32_isafbase_arty",
    "lastuser" : null,
    "objecttemplate_1" : null,
    "objecttemplate_2" : "artillery_team2",
    "minspawndelay" : 600.0,
    "maxspawndelay" : 600.0,
    "spawndelayatstart" : true,
    "timetolive" : 1200.0,
    "distance" : 0.0,
    "team" : 2,
    "maxNrOfObjectSpawned" : 1,
    "teamonvehicle" : true
  }, {
    "code" : "cpname_kokan_sp_coop32_isafbase_arty_0",
    "lastuser" : null,
    "objecttemplate_1" : null,
    "objecttemplate_2" : "artillery_team2",
    "minspawndelay" : 600.0,
    "maxspawndelay" : 600.0,
    "spawndelayatstart" : true,
    "timetolive" : 1200.0,
    "distance" : 0.0,
    "team" : 2,
    "maxNrOfObjectSpawned" : 1,
    "teamonvehicle" : true
  }, {
    "code" : "cpname_kokan_sp_coop32_isafbase_arty_1",
    "lastuser" : null,
    "objecttemplate_1" : null,
    "objecttemplate_2" : "artillery_team2",
    "minspawndelay" : 600.0,
    "maxspawndelay" : 600.0,
    "spawndelayatstart" : true,
    "timetolive" : 1200.0,
    "distance" : 0.0,
    "team" : 2,
    "maxNrOfObjectSpawned" : 1,
    "teamonvehicle" : true
  }, {
    "code" : "cpname_kokan_sp_coop32_isafbase_arty_2",
    "lastuser" : null,
    "objecttemplate_1" : null,
    "objecttemplate_2" : "artillery_team2",
    "minspawndelay" : 600.0,
    "maxspawndelay" : 600.0,
    "spawndelayatstart" : true,
    "timetolive" : 1200.0,
    "distance" : 0.0,
    "team" : 2,
    "maxNrOfObjectSpawned" : 1,
    "teamonvehicle" : true
  }, {
    "code" : "cpname_kokan_sp_coop32_golfeight_techie",
    "lastuser" : null,
    "objecttemplate_1" : "civ_jep_technical",
    "objecttemplate_2" : null,
    "minspawndelay" : 600.0,
    "maxspawndelay" : 600.0,
    "spawndelayatstart" : false,
    "timetolive" : 1200.0,
    "distance" : 0.0,
    "team" : -999,
    "maxNrOfObjectSpawned" : 1,
    "teamonvehicle" : true
  }, {
    "code" : "cpname_kokan_sp_coop32_indiaseven_techie",
    "lastuser" : null,
    "objecttemplate_1" : "civ_jep_technical_black",
    "objecttemplate_2" : null,
    "minspawndelay" : 600.0,
    "maxspawndelay" : 600.0,
    "spawndelayatstart" : false,
    "timetolive" : 1200.0,
    "distance" : 0.0,
    "team" : -999,
    "maxNrOfObjectSpawned" : 1,
    "teamonvehicle" : true
  }, {
    "code" : "cpname_kokan_sp_coop32_julietten_techie",
    "lastuser" : null,
    "objecttemplate_1" : "civ_jep_technical_blue",
    "objecttemplate_2" : null,
    "minspawndelay" : 600.0,
    "maxspawndelay" : 600.0,
    "spawndelayatstart" : false,
    "timetolive" : 1200.0,
    "distance" : 0.0,
    "team" : -999,
    "maxNrOfObjectSpawned" : 1,
    "teamonvehicle" : true
  }, {
    "code" : "cpname_kokan_sp_coop32_limaeleven_techie",
    "lastuser" : null,
    "objecttemplate_1" : "civ_jep_technical_red",
    "objecttemplate_2" : null,
    "minspawndelay" : 600.0,
    "maxspawndelay" : 600.0,
    "spawndelayatstart" : false,
    "timetolive" : 1200.0,
    "distance" : 0.0,
    "team" : -999,
    "maxNrOfObjectSpawned" : 1,
    "teamonvehicle" : true
  }, {
    "code" : "cpname_kokan_sp_coop32_talimain_rtech",
    "lastuser" : null,
    "objecttemplate_1" : "civ_atm_technical_rocket",
    "objecttemplate_2" : null,
    "minspawndelay" : 300.0,
    "maxspawndelay" : 300.0,
    "spawndelayatstart" : false,
    "timetolive" : 1200.0,
    "distance" : 0.0,
    "team" : -999,
    "maxNrOfObjectSpawned" : 1,
    "teamonvehicle" : true
  }, {
    "code" : "cpname_kokan_sp_coop32_isafbase_can",
    "lastuser" : null,
    "objecttemplate_1" : null,
    "objecttemplate_2" : "cf_apc_lav3",
    "minspawndelay" : 300.0,
    "maxspawndelay" : 300.0,
    "spawndelayatstart" : false,
    "timetolive" : 1200.0,
    "distance" : 0.0,
    "team" : -999,
    "maxNrOfObjectSpawned" : 1,
    "teamonvehicle" : true
  }, {
    "code" : "cpname_kokan_sp_coop32_isafbase_apc",
    "lastuser" : null,
    "objecttemplate_1" : null,
    "objecttemplate_2" : "cf_apc_lav3",
    "minspawndelay" : 300.0,
    "maxspawndelay" : 300.0,
    "spawndelayatstart" : false,
    "timetolive" : 1200.0,
    "distance" : 0.0,
    "team" : -999,
    "maxNrOfObjectSpawned" : 1,
    "teamonvehicle" : true
  }, {
    "code" : "cpname_kokan_sp_coop32_isafbase_support",
    "lastuser" : null,
    "objecttemplate_1" : null,
    "objecttemplate_2" : "cf_trk_support",
    "minspawndelay" : 300.0,
    "maxspawndelay" : 300.0,
    "spawndelayatstart" : false,
    "timetolive" : 1200.0,
    "distance" : 100.0,
    "team" : -999,
    "maxNrOfObjectSpawned" : 1,
    "teamonvehicle" : true
  }, {
    "code" : "cpname_kokan_sp_coop32_isafbase_acv",
    "lastuser" : null,
    "objecttemplate_1" : null,
    "objecttemplate_2" : "cf_acv_lav3cpv",
    "minspawndelay" : 0.0,
    "maxspawndelay" : 0.0,
    "spawndelayatstart" : false,
    "timetolive" : 0.0,
    "distance" : 0.0,
    "team" : -999,
    "maxNrOfObjectSpawned" : 1,
    "teamonvehicle" : false
  }, {
    "code" : "cpname_kokan_sp_coop32_julietten_mortar",
    "lastuser" : null,
    "objecttemplate_1" : "fixed_mortar_ins",
    "objecttemplate_2" : null,
    "minspawndelay" : 600.0,
    "maxspawndelay" : 600.0,
    "spawndelayatstart" : false,
    "timetolive" : 0.0,
    "distance" : 0.0,
    "team" : -999,
    "maxNrOfObjectSpawned" : 1,
    "teamonvehicle" : true
  }, {
    "code" : "cpname_kokan_sp_coop32_kilothirteen_mortar",
    "lastuser" : null,
    "objecttemplate_1" : "fixed_mortar_ins",
    "objecttemplate_2" : null,
    "minspawndelay" : 600.0,
    "maxspawndelay" : 600.0,
    "spawndelayatstart" : false,
    "timetolive" : 0.0,
    "distance" : 0.0,
    "team" : -999,
    "maxNrOfObjectSpawned" : 1,
    "teamonvehicle" : true
  }, {
    "code" : "cpname_kokan_sp_coop32_julietten_mortar_0",
    "lastuser" : null,
    "objecttemplate_1" : "fixed_mortar_ins",
    "objecttemplate_2" : null,
    "minspawndelay" : 600.0,
    "maxspawndelay" : 600.0,
    "spawndelayatstart" : false,
    "timetolive" : 0.0,
    "distance" : 0.0,
    "team" : -999,
    "maxNrOfObjectSpawned" : 1,
    "teamonvehicle" : true
  } ],
  "spawnpoints" : [ {
    "code" : "squadleaderspawnpoint",
    "spawnpositionoffset" : [ 0.0, 0.0, 0.0 ],
    "group" : 0,
    "controlpointid" : 0,
    "allowspawnclosetovehicle" : false,
    "onlyforhuman" : false
  }, {
    "code" : "cpname_kokan_sp_coop32_talimain_1",
    "spawnpositionoffset" : [ 0.0, 1.25, 0.0 ],
    "group" : 0,
    "controlpointid" : 8,
    "allowspawnclosetovehicle" : true,
    "onlyforhuman" : true
  }, {
    "code" : "cpname_kokan_sp_coop32_talimain_2",
    "spawnpositionoffset" : [ 0.0, 1.25, 0.0 ],
    "group" : 0,
    "controlpointid" : 8,
    "allowspawnclosetovehicle" : true,
    "onlyforhuman" : true
  }, {
    "code" : "cpname_kokan_sp_coop32_isafbase_1",
    "spawnpositionoffset" : [ 0.0, 1.25, 0.0 ],
    "group" : 0,
    "controlpointid" : 1,
    "allowspawnclosetovehicle" : true,
    "onlyforhuman" : true
  }, {
    "code" : "cpname_kokan_sp_coop32_isafbase_2",
    "spawnpositionoffset" : [ 0.0, 1.25, 0.0 ],
    "group" : 0,
    "controlpointid" : 1,
    "allowspawnclosetovehicle" : true,
    "onlyforhuman" : true
  }, {
    "code" : "cpname_kokan_sp_coop32_isafbase_5",
    "spawnpositionoffset" : [ 0.0, 1.25, 0.0 ],
    "group" : 0,
    "controlpointid" : 1,
    "allowspawnclosetovehicle" : true,
    "onlyforhuman" : false
  }, {
    "code" : "cpname_kokan_sp_coop32_isafbase_6",
    "spawnpositionoffset" : [ 0.0, 1.25, 0.0 ],
    "group" : 0,
    "controlpointid" : 1,
    "allowspawnclosetovehicle" : true,
    "onlyforhuman" : false
  }, {
    "code" : "cpname_kokan_sp_coop32_isafbase_7",
    "spawnpositionoffset" : [ 0.0, 1.25, 0.0 ],
    "group" : 0,
    "controlpointid" : 1,
    "allowspawnclosetovehicle" : true,
    "onlyforhuman" : false
  }, {
    "code" : "cpname_kokan_sp_coop32_isafbase_8",
    "spawnpositionoffset" : [ 0.0, 1.25, 0.0 ],
    "group" : 0,
    "controlpointid" : 1,
    "allowspawnclosetovehicle" : true,
    "onlyforhuman" : false
  }, {
    "code" : "cpname_kokan_sp_coop32_indiaseven_1",
    "spawnpositionoffset" : [ 0.0, 1.25, 0.0 ],
    "group" : 0,
    "controlpointid" : 3,
    "allowspawnclosetovehicle" : true,
    "onlyforhuman" : false
  }, {
    "code" : "cpname_kokan_sp_coop32_indiaseven_2",
    "spawnpositionoffset" : [ 0.0, 1.25, 0.0 ],
    "group" : 0,
    "controlpointid" : 3,
    "allowspawnclosetovehicle" : true,
    "onlyforhuman" : false
  }, {
    "code" : "cpname_kokan_sp_coop32_indiaseven_3",
    "spawnpositionoffset" : [ 0.0, 1.25, 0.0 ],
    "group" : 0,
    "controlpointid" : 3,
    "allowspawnclosetovehicle" : true,
    "onlyforhuman" : false
  }, {
    "code" : "cpname_kokan_sp_coop32_indiaseven_4",
    "spawnpositionoffset" : [ 0.0, 1.25, 0.0 ],
    "group" : 0,
    "controlpointid" : 3,
    "allowspawnclosetovehicle" : true,
    "onlyforhuman" : false
  }, {
    "code" : "cpname_kokan_sp_coop32_indiaseven_5",
    "spawnpositionoffset" : [ 0.0, 1.25, 0.0 ],
    "group" : 0,
    "controlpointid" : 3,
    "allowspawnclosetovehicle" : true,
    "onlyforhuman" : false
  }, {
    "code" : "cpname_kokan_sp_coop32_indiaseven_6",
    "spawnpositionoffset" : [ 0.0, 1.25, 0.0 ],
    "group" : 0,
    "controlpointid" : 3,
    "allowspawnclosetovehicle" : true,
    "onlyforhuman" : false
  }, {
    "code" : "cpname_kokan_sp_coop32_golfeight_1",
    "spawnpositionoffset" : [ 0.0, 1.25, 0.0 ],
    "group" : 0,
    "controlpointid" : 4,
    "allowspawnclosetovehicle" : true,
    "onlyforhuman" : false
  }, {
    "code" : "cpname_kokan_sp_coop32_golfeight_2",
    "spawnpositionoffset" : [ 0.0, 1.25, 0.0 ],
    "group" : 0,
    "controlpointid" : 4,
    "allowspawnclosetovehicle" : true,
    "onlyforhuman" : false
  }, {
    "code" : "cpname_kokan_sp_coop32_golfeight_3",
    "spawnpositionoffset" : [ 0.0, 1.25, 0.0 ],
    "group" : 0,
    "controlpointid" : 4,
    "allowspawnclosetovehicle" : true,
    "onlyforhuman" : false
  }, {
    "code" : "cpname_kokan_sp_coop32_golfeight_4",
    "spawnpositionoffset" : [ 0.0, 1.25, 0.0 ],
    "group" : 0,
    "controlpointid" : 4,
    "allowspawnclosetovehicle" : true,
    "onlyforhuman" : false
  }, {
    "code" : "cpname_kokan_sp_coop32_golfeight_5",
    "spawnpositionoffset" : [ 0.0, 1.25, 0.0 ],
    "group" : 0,
    "controlpointid" : 4,
    "allowspawnclosetovehicle" : true,
    "onlyforhuman" : false
  }, {
    "code" : "cpname_kokan_sp_coop32_golfeight_6",
    "spawnpositionoffset" : [ 0.0, 1.25, 0.0 ],
    "group" : 0,
    "controlpointid" : 4,
    "allowspawnclosetovehicle" : true,
    "onlyforhuman" : false
  }, {
    "code" : "cpname_kokan_sp_coop32_golfeight_7",
    "spawnpositionoffset" : [ 0.0, 1.25, 0.0 ],
    "group" : 0,
    "controlpointid" : 4,
    "allowspawnclosetovehicle" : true,
    "onlyforhuman" : false
  }, {
    "code" : "cpname_kokan_sp_coop32_golfeight_8",
    "spawnpositionoffset" : [ 0.0, 1.25, 0.0 ],
    "group" : 0,
    "controlpointid" : 4,
    "allowspawnclosetovehicle" : true,
    "onlyforhuman" : false
  }, {
    "code" : "cpname_kokan_sp_coop32_indiaseven_7",
    "spawnpositionoffset" : [ 0.0, 1.25, 0.0 ],
    "group" : 0,
    "controlpointid" : 3,
    "allowspawnclosetovehicle" : true,
    "onlyforhuman" : false
  }, {
    "code" : "cpname_kokan_sp_coop32_julietten_1",
    "spawnpositionoffset" : [ 0.0, 1.25, 0.0 ],
    "group" : 0,
    "controlpointid" : 5,
    "allowspawnclosetovehicle" : true,
    "onlyforhuman" : false
  }, {
    "code" : "cpname_kokan_sp_coop32_julietten_2",
    "spawnpositionoffset" : [ 0.0, 1.25, 0.0 ],
    "group" : 0,
    "controlpointid" : 5,
    "allowspawnclosetovehicle" : true,
    "onlyforhuman" : false
  }, {
    "code" : "cpname_kokan_sp_coop32_julietten_3",
    "spawnpositionoffset" : [ 0.0, 1.25, 0.0 ],
    "group" : 0,
    "controlpointid" : 5,
    "allowspawnclosetovehicle" : true,
    "onlyforhuman" : false
  }, {
    "code" : "cpname_kokan_sp_coop32_julietten_4",
    "spawnpositionoffset" : [ 0.0, 1.25, 0.0 ],
    "group" : 0,
    "controlpointid" : 5,
    "allowspawnclosetovehicle" : true,
    "onlyforhuman" : false
  }, {
    "code" : "cpname_kokan_sp_coop32_julietten_5",
    "spawnpositionoffset" : [ 0.0, 1.25, 0.0 ],
    "group" : 0,
    "controlpointid" : 5,
    "allowspawnclosetovehicle" : true,
    "onlyforhuman" : false
  }, {
    "code" : "cpname_kokan_sp_coop32_julietten_6",
    "spawnpositionoffset" : [ 0.0, 1.25, 0.0 ],
    "group" : 0,
    "controlpointid" : 5,
    "allowspawnclosetovehicle" : true,
    "onlyforhuman" : false
  }, {
    "code" : "cpname_kokan_sp_coop32_julietten_7",
    "spawnpositionoffset" : [ 0.0, 1.25, 0.0 ],
    "group" : 0,
    "controlpointid" : 5,
    "allowspawnclosetovehicle" : true,
    "onlyforhuman" : false
  }, {
    "code" : "cpname_kokan_sp_coop32_julietten_8",
    "spawnpositionoffset" : [ 0.0, 1.25, 0.0 ],
    "group" : 0,
    "controlpointid" : 5,
    "allowspawnclosetovehicle" : true,
    "onlyforhuman" : false
  }, {
    "code" : "cpname_kokan_sp_coop32_limaeleven_1",
    "spawnpositionoffset" : [ 0.0, 1.25, 0.0 ],
    "group" : 0,
    "controlpointid" : 6,
    "allowspawnclosetovehicle" : true,
    "onlyforhuman" : false
  }, {
    "code" : "cpname_kokan_sp_coop32_limaeleven_2",
    "spawnpositionoffset" : [ 0.0, 1.25, 0.0 ],
    "group" : 0,
    "controlpointid" : 6,
    "allowspawnclosetovehicle" : true,
    "onlyforhuman" : false
  }, {
    "code" : "cpname_kokan_sp_coop32_limaeleven_3",
    "spawnpositionoffset" : [ 0.0, 1.25, 0.0 ],
    "group" : 0,
    "controlpointid" : 6,
    "allowspawnclosetovehicle" : true,
    "onlyforhuman" : false
  }, {
    "code" : "cpname_kokan_sp_coop32_limaeleven_4",
    "spawnpositionoffset" : [ 0.0, 1.25, 0.0 ],
    "group" : 0,
    "controlpointid" : 6,
    "allowspawnclosetovehicle" : true,
    "onlyforhuman" : false
  }, {
    "code" : "cpname_kokan_sp_coop32_limaeleven_5",
    "spawnpositionoffset" : [ 0.0, 1.25, 0.0 ],
    "group" : 0,
    "controlpointid" : 6,
    "allowspawnclosetovehicle" : true,
    "onlyforhuman" : false
  }, {
    "code" : "cpname_kokan_sp_coop32_limaeleven_6",
    "spawnpositionoffset" : [ 0.0, 1.25, 0.0 ],
    "group" : 0,
    "controlpointid" : 6,
    "allowspawnclosetovehicle" : true,
    "onlyforhuman" : false
  }, {
    "code" : "cpname_kokan_sp_coop32_limaeleven_7",
    "spawnpositionoffset" : [ 0.0, 1.25, 0.0 ],
    "group" : 0,
    "controlpointid" : 6,
    "allowspawnclosetovehicle" : true,
    "onlyforhuman" : false
  }, {
    "code" : "cpname_kokan_sp_coop32_julietten_9",
    "spawnpositionoffset" : [ 0.0, 1.25, 0.0 ],
    "group" : 0,
    "controlpointid" : 5,
    "allowspawnclosetovehicle" : true,
    "onlyforhuman" : false
  }, {
    "code" : "cpname_kokan_sp_coop32_kilothirteen_1",
    "spawnpositionoffset" : [ 0.0, 1.25, 0.0 ],
    "group" : 0,
    "controlpointid" : 7,
    "allowspawnclosetovehicle" : true,
    "onlyforhuman" : false
  }, {
    "code" : "cpname_kokan_sp_coop32_kilothirteen_2",
    "spawnpositionoffset" : [ 0.0, 1.25, 0.0 ],
    "group" : 0,
    "controlpointid" : 7,
    "allowspawnclosetovehicle" : true,
    "onlyforhuman" : false
  }, {
    "code" : "cpname_kokan_sp_coop32_kilothirteen_3",
    "spawnpositionoffset" : [ 0.0, 1.25, 0.0 ],
    "group" : 0,
    "controlpointid" : 7,
    "allowspawnclosetovehicle" : true,
    "onlyforhuman" : false
  }, {
    "code" : "cpname_kokan_sp_coop32_kilothirteen_4",
    "spawnpositionoffset" : [ 0.0, 1.25, 0.0 ],
    "group" : 0,
    "controlpointid" : 7,
    "allowspawnclosetovehicle" : true,
    "onlyforhuman" : false
  }, {
    "code" : "cpname_kokan_sp_coop32_kilothirteen_5",
    "spawnpositionoffset" : [ 0.0, 1.25, 0.0 ],
    "group" : 0,
    "controlpointid" : 7,
    "allowspawnclosetovehicle" : true,
    "onlyforhuman" : false
  }, {
    "code" : "cpname_kokan_sp_coop32_kilothirteen_6",
    "spawnpositionoffset" : [ 0.0, 1.25, 0.0 ],
    "group" : 0,
    "controlpointid" : 7,
    "allowspawnclosetovehicle" : true,
    "onlyforhuman" : false
  }, {
    "code" : "cpname_kokan_sp_coop32_kilothirteen_7",
    "spawnpositionoffset" : [ 0.0, 1.25, 0.0 ],
    "group" : 0,
    "controlpointid" : 7,
    "allowspawnclosetovehicle" : true,
    "onlyforhuman" : false
  }, {
    "code" : "cpname_kokan_sp_coop32_kilothirteen_8",
    "spawnpositionoffset" : [ 0.0, 1.25, 0.0 ],
    "group" : 0,
    "controlpointid" : 7,
    "allowspawnclosetovehicle" : true,
    "onlyforhuman" : false
  }, {
    "code" : "cpname_kokan_sp_coop32_talimain_3",
    "spawnpositionoffset" : [ 0.0, 1.25, 0.0 ],
    "group" : 0,
    "controlpointid" : 8,
    "allowspawnclosetovehicle" : true,
    "onlyforhuman" : false
  }, {
    "code" : "cpname_kokan_sp_coop32_talimain_4",
    "spawnpositionoffset" : [ 0.0, 1.25, 0.0 ],
    "group" : 0,
    "controlpointid" : 8,
    "allowspawnclosetovehicle" : true,
    "onlyforhuman" : false
  }, {
    "code" : "cpname_kokan_sp_coop32_talimain_5",
    "spawnpositionoffset" : [ 0.0, 1.25, 0.0 ],
    "group" : 0,
    "controlpointid" : 8,
    "allowspawnclosetovehicle" : true,
    "onlyforhuman" : false
  }, {
    "code" : "cpname_kokan_sp_coop32_foxtrotfive_1",
    "spawnpositionoffset" : [ 0.0, 1.25, 0.0 ],
    "group" : 0,
    "controlpointid" : 2,
    "allowspawnclosetovehicle" : true,
    "onlyforhuman" : false
  }, {
    "code" : "cpname_kokan_sp_coop32_foxtrotfive_2",
    "spawnpositionoffset" : [ 0.0, 1.25, 0.0 ],
    "group" : 0,
    "controlpointid" : 2,
    "allowspawnclosetovehicle" : true,
    "onlyforhuman" : false
  }, {
    "code" : "cpname_kokan_sp_coop32_foxtrotfive_3",
    "spawnpositionoffset" : [ 0.0, 1.25, 0.0 ],
    "group" : 0,
    "controlpointid" : 2,
    "allowspawnclosetovehicle" : true,
    "onlyforhuman" : false
  }, {
    "code" : "cpname_kokan_sp_coop32_foxtrotfive_4",
    "spawnpositionoffset" : [ 0.0, 1.25, 0.0 ],
    "group" : 0,
    "controlpointid" : 2,
    "allowspawnclosetovehicle" : true,
    "onlyforhuman" : false
  }, {
    "code" : "cpname_kokan_sp_coop32_foxtrotfive_5",
    "spawnpositionoffset" : [ 0.0, 1.25, 0.0 ],
    "group" : 0,
    "controlpointid" : 2,
    "allowspawnclosetovehicle" : true,
    "onlyforhuman" : false
  }, {
    "code" : "cpname_kokan_sp_coop32_foxtrotfive_6",
    "spawnpositionoffset" : [ 0.0, 1.25, 0.0 ],
    "group" : 0,
    "controlpointid" : 2,
    "allowspawnclosetovehicle" : true,
    "onlyforhuman" : false
  }, {
    "code" : "cpname_kokan_sp_coop32_foxtrotfive_7",
    "spawnpositionoffset" : [ 0.0, 1.25, 0.0 ],
    "group" : 0,
    "controlpointid" : 2,
    "allowspawnclosetovehicle" : true,
    "onlyforhuman" : false
  }, {
    "code" : "cpname_kokan_sp_coop32_foxtrotfive_8",
    "spawnpositionoffset" : [ 0.0, 1.25, 0.0 ],
    "group" : 0,
    "controlpointid" : 2,
    "allowspawnclosetovehicle" : true,
    "onlyforhuman" : false
  }, {
    "code" : "cpname_kokan_sp_coop32_foxtrotfive_9",
    "spawnpositionoffset" : [ 0.0, 1.25, 0.0 ],
    "group" : 0,
    "controlpointid" : 2,
    "allowspawnclosetovehicle" : true,
    "onlyforhuman" : false
  }, {
    "code" : "cpname_kokan_sp_coop32_isafbase_9",
    "spawnpositionoffset" : [ 0.0, 1.25, 0.0 ],
    "group" : 0,
    "controlpointid" : 1,
    "allowspawnclosetovehicle" : true,
    "onlyforhuman" : true
  }, {
    "code" : "cpname_kokan_sp_coop32_isafbase_10",
    "spawnpositionoffset" : [ 0.0, 1.25, 0.0 ],
    "group" : 0,
    "controlpointid" : 1,
    "allowspawnclosetovehicle" : true,
    "onlyforhuman" : true
  }, {
    "code" : "cpname_kokan_sp_coop32_isafbase_11",
    "spawnpositionoffset" : [ 0.0, 1.25, 0.0 ],
    "group" : 0,
    "controlpointid" : 1,
    "allowspawnclosetovehicle" : true,
    "onlyforhuman" : true
  }, {
    "code" : "cpname_kokan_sp_coop32_isafbase_10_0",
    "spawnpositionoffset" : [ 0.0, 1.25, 0.0 ],
    "group" : 0,
    "controlpointid" : 1,
    "allowspawnclosetovehicle" : true,
    "onlyforhuman" : false
  }, {
    "code" : "cpname_kokan_sp_coop32_julietten_10",
    "spawnpositionoffset" : [ 0.0, 1.25, 0.0 ],
    "group" : 0,
    "controlpointid" : 5,
    "allowspawnclosetovehicle" : true,
    "onlyforhuman" : false
  }, {
    "code" : "cpname_kokan_sp_coop32_kilothirteen_9",
    "spawnpositionoffset" : [ 0.0, 1.25, 0.0 ],
    "group" : 0,
    "controlpointid" : 7,
    "allowspawnclosetovehicle" : true,
    "onlyforhuman" : false
  }, {
    "code" : "cpname_kokan_sp_coop32_julietten_11",
    "spawnpositionoffset" : [ 0.0, 1.25, 0.0 ],
    "group" : 0,
    "controlpointid" : 5,
    "allowspawnclosetovehicle" : true,
    "onlyforhuman" : false
  } ],
  "controlpoints" : [ {
    "code" : "cpname_kokan_sp_coop32_isafbase",
    "physicsType" : "mesh",
    "name" : "ISAF Operations Base",
    "team" : 2,
    "controlpointid" : 1,
    "unabletochangeteam" : true,
    "hoistminmax" : null,
    "radius" : 40.0,
    "areavalueteam1" : 0.0,
    "areavalueteam2" : 0.0,
    "timetogetcontrol" : 0.0,
    "timetolosecontrol" : 0.0,
    "supplygroupid" : -999
  }, {
    "code" : "cpname_kokan_sp_coop32_foxtrotfive",
    "physicsType" : "mesh",
    "name" : "Foxtrot Five 60m",
    "team" : 1,
    "controlpointid" : 2,
    "unabletochangeteam" : false,
    "hoistminmax" : null,
    "radius" : 60.0,
    "areavalueteam1" : 80.0,
    "areavalueteam2" : 15.0,
    "timetogetcontrol" : 180.0,
    "timetolosecontrol" : 120.0,
    "supplygroupid" : 5
  }, {
    "code" : "cpname_kokan_sp_coop32_indiaseven",
    "physicsType" : "mesh",
    "name" : "India Seven 45m",
    "team" : 1,
    "controlpointid" : 3,
    "unabletochangeteam" : false,
    "hoistminmax" : null,
    "radius" : 45.0,
    "areavalueteam1" : 15.0,
    "areavalueteam2" : 15.0,
    "timetogetcontrol" : 120.0,
    "timetolosecontrol" : 120.0,
    "supplygroupid" : 4
  }, {
    "code" : "cpname_kokan_sp_coop32_golfeight",
    "physicsType" : "mesh",
    "name" : "Golf Eight 50m",
    "team" : 1,
    "controlpointid" : 4,
    "unabletochangeteam" : false,
    "hoistminmax" : null,
    "radius" : 50.0,
    "areavalueteam1" : 15.0,
    "areavalueteam2" : 15.0,
    "timetogetcontrol" : 120.0,
    "timetolosecontrol" : 120.0,
    "supplygroupid" : 4
  }, {
    "code" : "cpname_kokan_sp_coop32_julietten",
    "physicsType" : "mesh",
    "name" : "Juliett Ten 60m",
    "team" : 1,
    "controlpointid" : 5,
    "unabletochangeteam" : false,
    "hoistminmax" : null,
    "radius" : 60.0,
    "areavalueteam1" : 15.0,
    "areavalueteam2" : 15.0,
    "timetogetcontrol" : 120.0,
    "timetolosecontrol" : 120.0,
    "supplygroupid" : 3
  }, {
    "code" : "cpname_kokan_sp_coop32_limaeleven",
    "physicsType" : "mesh",
    "name" : "Lemur Eleven 40m",
    "team" : 1,
    "controlpointid" : 6,
    "unabletochangeteam" : false,
    "hoistminmax" : null,
    "radius" : 40.0,
    "areavalueteam1" : 15.0,
    "areavalueteam2" : 15.0,
    "timetogetcontrol" : 180.0,
    "timetolosecontrol" : 180.0,
    "supplygroupid" : 3
  }, {
    "code" : "cpname_kokan_sp_coop32_kilothirteen",
    "physicsType" : "mesh",
    "name" : "Kilo Thirteen 35m",
    "team" : 1,
    "controlpointid" : 7,
    "unabletochangeteam" : false,
    "hoistminmax" : null,
    "radius" : 35.0,
    "areavalueteam1" : 10.0,
    "areavalueteam2" : 99999.0,
    "timetogetcontrol" : 120.0,
    "timetolosecontrol" : 120.0,
    "supplygroupid" : 2
  }, {
    "code" : "cpname_kokan_sp_coop32_talimain",
    "physicsType" : "mesh",
    "name" : "Taliban Headquarters",
    "team" : 1,
    "controlpointid" : 8,
    "unabletochangeteam" : true,
    "hoistminmax" : null,
    "radius" : 10.0,
    "areavalueteam1" : 0.0,
    "areavalueteam2" : 0.0,
    "timetogetcontrol" : 0.0,
    "timetolosecontrol" : 0.0,
    "supplygroupid" : 1
  } ],
  "combatareas" : [ {
    "code" : "combatarea_25_default",
    "min" : [ 0.0, 0.0 ],
    "max" : [ 0.0, 0.0 ],
    "areapoints" : [ [ 1024.0, 1024.0 ], [ -1024.0, 1024.0 ], [ -1024.0, -1024.0 ], [ 1024.0, -1024.0 ] ],
    "team" : 0,
    "vehicles" : 5,
    "layer" : 1,
    "inverted" : false
  }, {
    "code" : "combatarea_4_default",
    "min" : [ 0.0, 0.0 ],
    "max" : [ 0.0, 0.0 ],
    "areapoints" : [ [ 972.9735, -1023.37866 ], [ 981.52747, -986.40607 ], [ 961.2118, -955.48346 ], [ 891.974, -949.52014 ], [ 762.89624, -892.2551 ], [ 760.4131, -609.7759 ], [ 692.5458, -328.58923 ], [ 586.6732, -58.480347 ], [ 567.8042, 211.302 ], [ 545.9048, 501.20862 ], [ 362.23364, 649.412 ], [ -285.75134, 908.10645 ], [ -578.55066, 877.42175 ], [ -783.4154, 743.0353 ], [ -766.81067, 549.599 ], [ -704.32294, 393.86987 ], [ -592.55273, 296.80774 ], [ -517.5583, 158.08264 ], [ -503.57983, 116.38867 ], [ -464.21112, 35.394165 ], [ -438.21588, -101.48462 ], [ -414.71112, -317.6079 ], [ -381.14557, -456.43762 ], [ -261.26086, -552.4176 ], [ -123.97662, -765.0178 ], [ 9.768311, -903.4715 ], [ 188.94983, -1015.1924 ], [ 977.3406, -1024.0 ] ],
    "team" : 0,
    "vehicles" : 0,
    "layer" : 1,
    "inverted" : false
  }, {
    "code" : "combatarea_32_default",
    "min" : [ 0.0, 0.0 ],
    "max" : [ 0.0, 0.0 ],
    "areapoints" : [ [ 1024.0, -754.9074 ], [ 831.6317, -736.8739 ], [ 754.08167, -876.2318 ], [ 631.2334, -942.8237 ], [ 595.2053, -997.7927 ], [ 597.9321, -1026.2568 ], [ 1026.8077, -1024.58 ], [ 1024.4492, -758.9636 ] ],
    "team" : 2,
    "vehicles" : 4,
    "layer" : 1,
    "inverted" : true
  }, {
    "code" : "combatarea_40_default",
    "min" : [ 0.0, 0.0 ],
    "max" : [ 0.0, 0.0 ],
    "areapoints" : [ [ -990.4463, 274.62024 ], [ -484.99945, 422.12134 ], [ -225.13947, 535.02356 ], [ 60.885986, 802.1598 ], [ 141.3313, 1020.5497 ], [ -1022.9634, 1024.0 ], [ -1021.8625, 253.82568 ] ],
    "team" : 1,
    "vehicles" : 4,
    "layer" : 1,
    "inverted" : true
  } ],
  "team1" : {
    "id" : 1,
    "name" : "taliban",
    "language" : "mec",
    "flag" : "flag_taliban",
    "kits" : [ "taliban_officer_sp", "taliban_riflemanap_sp", "taliban_rifleman_sp", "taliban_support_sp", "taliban_specialist_sp", "taliban_medic_sp", "taliban_riflemanat_sp" ]
  },
  "team2" : {
    "id" : 2,
    "name" : "cf",
    "language" : "english",
    "flag" : "flag_cf",
    "kits" : [ "cf_officer_sp", "cf_assault_sp", "cf_rifleman_sp", "cf_support_sp", "cf_specialist_sp", "cf_medic_sp", "cf_riflemanat_sp" ]
  },
  "maxviewdistance" : 500,
  "tickets_1" : 500,
  "tickets_2" : 500,
  "timetonextwave" : 8.0,
  "ticketlossatendpermin" : 1000.0,
  "ticketlosspermin_1" : 1.0,
  "ticketlosspermin_2" : 2.0,
  "customtexturesuffix" : "",
  "combatareamanageruse" : true,
  "combatareamanagerdamage" : 20.0,
  "combatareamanagerallowedoutside" : 10.0,
  "heightmapsize" : 2048,
  "heightmap_imgsize" : [ 257, 257 ],
  "heightmapscale" : [ 8.0, 0.64, 8.0 ],
  "heightmapseawaterlevel" : 14.0,
  "fogstartendandbase" : [ 10.0, 540.0, 1.3, 0.85 ],
  "modeType" : "gpm_coop"
}