{
  "modetype" : "gpm_coop",
  "players" : 64,
  "maptype" : "coopfullassets",
  "ai" : false,
  "locid" : null,
  "placements" : [ {
    "code" : "dirtroad_kubra",
    "position" : [ -501.907, 17.7098, 299.956 ],
    "rotation" : [ 0.0, 0.0, 0.0 ],
    "controlpointid" : -999,
    "layer" : -999
  }, {
    "code" : "stryker",
    "position" : [ -567.049, 20.32, 771.902 ],
    "rotation" : [ 50.966, 0.0, 0.0 ],
    "controlpointid" : 1,
    "layer" : 1
  }, {
    "code" : "cpname_kokan_sp_coop64_isafoperations_hmmwv",
    "position" : [ -552.194, 20.32, 762.781 ],
    "rotation" : [ -20.0, 0.0, 0.0 ],
    "controlpointid" : 1,
    "layer" : 1
  }, {
    "code" : "cpname_kokan_sp_coop64_isafoperations_hmmwv_0",
    "position" : [ -548.837, 20.32, 763.984 ],
    "rotation" : [ -20.0, 0.0, 0.0 ],
    "controlpointid" : 1,
    "layer" : 1
  }, {
    "code" : "cpname_kokan_sp_coop64_isafoperations_hmmwv_1",
    "position" : [ -545.869, 20.32, 765.083 ],
    "rotation" : [ -20.0, 0.0, 0.0 ],
    "controlpointid" : 1,
    "layer" : 1
  }, {
    "code" : "cpname_kokan_sp_coop64_isafoperations_hmmwv_2",
    "position" : [ -542.826, 20.32, 766.19 ],
    "rotation" : [ -20.0, 0.0, 0.0 ],
    "controlpointid" : 1,
    "layer" : 1
  }, {
    "code" : "cpname_kokan_sp_coop64_isafoperations_uh60",
    "position" : [ -583.167, 20.32, 779.203 ],
    "rotation" : [ 160.0, 0.0, 0.0 ],
    "controlpointid" : 1,
    "layer" : 1
  }, {
    "code" : "cpname_kokan_sp_coop64_isafoperations_kiowa",
    "position" : [ -565.354, 20.32, 734.002 ],
    "rotation" : [ 70.0, 0.0, 0.0 ],
    "controlpointid" : 1,
    "layer" : 1
  }, {
    "code" : "cpname_kokan_sp_coop64_isafoperations_kiowa_0",
    "position" : [ -557.233, 20.32, 712.784 ],
    "rotation" : [ 70.0, 0.0, 0.0 ],
    "controlpointid" : 1,
    "layer" : 1
  }, {
    "code" : "cpname_kokan_sp_coop64_talimain_techie",
    "position" : [ 903.444, 18.55, -994.505 ],
    "rotation" : [ -59.021, 0.0, 0.0 ],
    "controlpointid" : 7,
    "layer" : 1
  }, {
    "code" : "cpname_kokan_sp_coop64_talimain_techie_0",
    "position" : [ 900.409, 18.542, -999.496 ],
    "rotation" : [ -59.021, 0.0, 0.0 ],
    "controlpointid" : 7,
    "layer" : 1
  }, {
    "code" : "cpname_kokan_sp_coop64_talimain_car",
    "position" : [ 942.033, 18.55, -987.532 ],
    "rotation" : [ -145.6, 0.0, 0.0 ],
    "controlpointid" : 7,
    "layer" : 1
  }, {
    "code" : "cpname_kokan_sp_coop64_talimain_car_0",
    "position" : [ 936.281, 18.55, -983.99 ],
    "rotation" : [ -165.6, 0.0, 0.0 ],
    "controlpointid" : 7,
    "layer" : 1
  }, {
    "code" : "cpname_kokan_sp_coop64_talimain_ammotech",
    "position" : [ 927.123, 18.55, -1006.846 ],
    "rotation" : [ 0.0, 0.0, 0.0 ],
    "controlpointid" : 7,
    "layer" : 1
  }, {
    "code" : "cpname_kokan_sp_coop64_isafoperations_depot",
    "position" : [ -577.683, 20.32, 756.277 ],
    "rotation" : [ -40.0, 0.0, 0.0 ],
    "controlpointid" : 1,
    "layer" : 1
  }, {
    "code" : "cpname_kokan_sp_coop64_isafoperations_acv",
    "position" : [ -527.845, 20.9, 736.002 ],
    "rotation" : [ 70.0, 0.0, 0.0 ],
    "controlpointid" : 1,
    "layer" : 1
  }, {
    "code" : "cpname_kokan_sp_coop64_talibanhq_quad",
    "position" : [ 610.866, 23.53, -800.727 ],
    "rotation" : [ 0.0, 0.0, 0.0 ],
    "controlpointid" : 7,
    "layer" : 1
  }, {
    "code" : "cpname_kokan_sp_coop64_talimain_tow",
    "position" : [ 901.926, 18.55, -997.032 ],
    "rotation" : [ -59.021, 0.0, 0.0 ],
    "controlpointid" : 7,
    "layer" : 1
  }, {
    "code" : "cpname_kokan_sp_coop64_talimain_gary",
    "position" : [ 919.474, 18.55, -1006.8 ],
    "rotation" : [ 0.0, 0.0, 0.0 ],
    "controlpointid" : 7,
    "layer" : 1
  }, {
    "code" : "cpname_kokan_sp_coop64_isafoperations_logi",
    "position" : [ -524.134, 20.32, 725.324 ],
    "rotation" : [ -110.0, 0.0, 0.0 ],
    "controlpointid" : 1,
    "layer" : 1
  }, {
    "code" : "cpname_kokan_sp_coop64_isafoperations_logi_0",
    "position" : [ -525.342, 20.32, 728.644 ],
    "rotation" : [ -110.0, 0.0, 0.0 ],
    "controlpointid" : 1,
    "layer" : 1
  }, {
    "code" : "cpname_kokan_sp_coop64_isafoperations_kiowa_1",
    "position" : [ -370.973, 17.137, 844.866 ],
    "rotation" : [ 180.0, 0.0, 0.0 ],
    "controlpointid" : 1,
    "layer" : 1
  }, {
    "code" : "cpname_kokan_sp_coop64_isafoperations_kiowa_3",
    "position" : [ -406.274, 17.138, 836.66 ],
    "rotation" : [ 180.0, 0.0, 0.0 ],
    "controlpointid" : 1,
    "layer" : 1
  }, {
    "code" : "cpname_kokan_sp_coop64_hotelnine_zpu",
    "position" : [ 212.738, 23.546, -381.624 ],
    "rotation" : [ 0.0, 0.0, 0.0 ],
    "controlpointid" : 5,
    "layer" : 1
  }, {
    "code" : "cpname_kokan_sp_coop64_golfeleven_zpu",
    "position" : [ 1.683, 23.569, -578.676 ],
    "rotation" : [ 90.0, 0.0, 0.0 ],
    "controlpointid" : 4,
    "layer" : 1
  }, {
    "code" : "cpname_kokan_sp_coop64_talimain_depot",
    "position" : [ 946.112, 18.55, -1002.043 ],
    "rotation" : [ 90.0, 0.0, 0.0 ],
    "controlpointid" : 7,
    "layer" : 1
  }, {
    "code" : "cpname_kokan_sp_coop64_talibanhq_crate",
    "position" : [ 604.538, 20.32, -797.867 ],
    "rotation" : [ 0.0, 0.0, 0.0 ],
    "controlpointid" : 7,
    "layer" : 1
  }, {
    "code" : "cpname_kokan_sp_coop64_talibanhq_crate_0",
    "position" : [ 645.496, 20.32, -822.036 ],
    "rotation" : [ 0.0, 0.0, 0.0 ],
    "controlpointid" : 7,
    "layer" : 1
  }, {
    "code" : "cpname_kokan_sp_coop64_talibanhq_crate_1",
    "position" : [ 624.125, 20.32, -852.968 ],
    "rotation" : [ 0.0, 0.0, 0.0 ],
    "controlpointid" : 7,
    "layer" : 1
  }, {
    "code" : "cpname_kokan_sp_coop64_indiatwelve_crate",
    "position" : [ 306.755, 20.32, -726.531 ],
    "rotation" : [ 0.0, 0.0, 0.0 ],
    "controlpointid" : 9,
    "layer" : 1
  }, {
    "code" : "cpname_kokan_sp_coop64_golfeleven_crate",
    "position" : [ -3.048, 20.32, -647.34 ],
    "rotation" : [ 0.0, 0.0, 0.0 ],
    "controlpointid" : 4,
    "layer" : 1
  }, {
    "code" : "cpname_kokan_sp_coop64_golfeleven_crate_0",
    "position" : [ -30.864, 20.32, -613.672 ],
    "rotation" : [ 0.0, 0.0, 0.0 ],
    "controlpointid" : 4,
    "layer" : 1
  }, {
    "code" : "cpname_kokan_sp_coop64_golfeleven_crate_1",
    "position" : [ 16.951, 20.32, -586.618 ],
    "rotation" : [ 0.0, 0.0, 0.0 ],
    "controlpointid" : 4,
    "layer" : 1
  }, {
    "code" : "cpname_kokan_sp_coop64_hotelnine_crate",
    "position" : [ 233.358, 20.32, -329.322 ],
    "rotation" : [ 0.0, 0.0, 0.0 ],
    "controlpointid" : 5,
    "layer" : 1
  }, {
    "code" : "cpname_kokan_sp_coop64_hotelnine_crate_0",
    "position" : [ 198.289, 20.32, -331.716 ],
    "rotation" : [ 0.0, 0.0, 0.0 ],
    "controlpointid" : 5,
    "layer" : 1
  }, {
    "code" : "cpname_kokan_sp_coop64_golfeight_crate",
    "position" : [ -24.731, 20.266, -114.409 ],
    "rotation" : [ 0.0, 0.0, 0.0 ],
    "controlpointid" : 3,
    "layer" : 1
  }, {
    "code" : "cpname_kokan_sp_coop64_golfeight_crate_0",
    "position" : [ -19.433, 20.301, -142.742 ],
    "rotation" : [ 0.0, 0.0, 0.0 ],
    "controlpointid" : 3,
    "layer" : 1
  }, {
    "code" : "cpname_kokan_sp_coop64_deltafive_crate",
    "position" : [ -339.517, 22.12, 329.142 ],
    "rotation" : [ 0.0, 0.0, 0.0 ],
    "controlpointid" : 2,
    "layer" : 1
  }, {
    "code" : "cpname_kokan_sp_coop64_deltafive_crate_0",
    "position" : [ -384.473, 22.12, 359.134 ],
    "rotation" : [ 0.0, 0.0, 0.0 ],
    "controlpointid" : 2,
    "layer" : 1
  }, {
    "code" : "cpname_kokan_sp_coop64_deltafive_crate_1",
    "position" : [ -426.339, 22.119, 310.477 ],
    "rotation" : [ 0.0, 0.0, 0.0 ],
    "controlpointid" : 2,
    "layer" : 1
  }, {
    "code" : "cpname_kokan_sp_coop64_isafoperations_arty",
    "position" : [ -1465.114, 14.72, 1570.384 ],
    "rotation" : [ 0.0, 0.0, 0.0 ],
    "controlpointid" : 1,
    "layer" : 1
  }, {
    "code" : "cpname_kokan_sp_coop64_isafoperations_arty_0",
    "position" : [ -1453.684, 14.72, 1570.384 ],
    "rotation" : [ 0.0, 0.0, 0.0 ],
    "controlpointid" : 1,
    "layer" : 1
  }, {
    "code" : "cpname_kokan_sp_coop64_isafoperations_arty_1",
    "position" : [ -1471.911, 14.72, 1570.384 ],
    "rotation" : [ 0.0, 0.0, 0.0 ],
    "controlpointid" : 1,
    "layer" : 1
  }, {
    "code" : "cpname_kokan_sp_coop64_isafoperations_arty_2",
    "position" : [ -1458.676, 14.72, 1570.384 ],
    "rotation" : [ 0.0, 0.0, 0.0 ],
    "controlpointid" : 1,
    "layer" : 1
  }, {
    "code" : "cpname_kokan_sp_coop64_talimain_techie_1",
    "position" : [ 898.828, 18.855, -1001.941 ],
    "rotation" : [ -59.021, 0.0, 0.0 ],
    "controlpointid" : 7,
    "layer" : 1
  }, {
    "code" : "cpname_kokan_sp_coop64_talimain_mortar",
    "position" : [ 1078.812, 14.72, -1684.201 ],
    "rotation" : [ 0.0, 0.0, 0.0 ],
    "controlpointid" : 7,
    "layer" : 1
  }, {
    "code" : "cpname_kokan_sp_coop64_talimain_mortar_0",
    "position" : [ 1083.516, 14.72, -1683.335 ],
    "rotation" : [ 0.0, 0.0, 0.0 ],
    "controlpointid" : 7,
    "layer" : 1
  }, {
    "code" : "cpname_kokan_sp_coop64_talimain_mortar_1",
    "position" : [ 1083.414, 14.72, -1697.1 ],
    "rotation" : [ 0.0, 0.0, 0.0 ],
    "controlpointid" : 7,
    "layer" : 1
  }, {
    "code" : "cpname_kokan_sp_coop64_talimain_mortar_2",
    "position" : [ 1077.813, 14.72, -1697.876 ],
    "rotation" : [ 0.0, 0.0, 0.0 ],
    "controlpointid" : 7,
    "layer" : 1
  }, {
    "code" : "cpname_kokan_sp_coop64_indiatwelve_zpu4",
    "position" : [ 414.95, 23.537, -634.107 ],
    "rotation" : [ -41.658, 0.0, 0.0 ],
    "controlpointid" : 9,
    "layer" : 1
  }, {
    "code" : "cpname_kokan_sp_coop64_golfeight_rally",
    "position" : [ -21.184, 19.893, -131.772 ],
    "rotation" : [ 0.0, 0.0, 0.0 ],
    "controlpointid" : 3,
    "layer" : 1
  }, {
    "code" : "cpname_kokan_sp_coop64_hotelnine_rally",
    "position" : [ 230.161, 20.32, -335.205 ],
    "rotation" : [ 0.0, 0.0, 0.0 ],
    "controlpointid" : 5,
    "layer" : 1
  }, {
    "code" : "cpname_kokan_sp_coop64_golfeleven_rally",
    "position" : [ -37.925, 20.32, -623.057 ],
    "rotation" : [ 0.0, 0.0, 0.0 ],
    "controlpointid" : 4,
    "layer" : 1
  }, {
    "code" : "cpname_kokan_sp_coop64_indiatwelve_rally",
    "position" : [ 303.911, 20.32, -733.268 ],
    "rotation" : [ 0.0, 0.0, 0.0 ],
    "controlpointid" : 9,
    "layer" : 1
  }, {
    "code" : "cpname_kokan_sp_coop64_isafoperations_crows",
    "position" : [ -539.042, 20.32, 710.416 ],
    "rotation" : [ -20.0, 0.0, 0.0 ],
    "controlpointid" : 1,
    "layer" : 1
  }, {
    "code" : "cpname_kokan_sp_coop64_isafoperations_crows_0",
    "position" : [ -535.685, 20.32, 711.619 ],
    "rotation" : [ -20.0, 0.0, 0.0 ],
    "controlpointid" : 1,
    "layer" : 1
  }, {
    "code" : "cpname_kokan_sp_coop64_isafoperations_support",
    "position" : [ -523.024, 20.32, 721.966 ],
    "rotation" : [ -110.0, 0.0, 0.0 ],
    "controlpointid" : 1,
    "layer" : 1
  }, {
    "code" : "cpname_kokan_sp_coop64_indiatwelve_techie",
    "position" : [ 344.232, 20.308, -712.436 ],
    "rotation" : [ -60.0, 0.0, 0.0 ],
    "controlpointid" : 9,
    "layer" : 1
  }, {
    "code" : "cpname_kokan_sp_coop64_golfeleven_techie",
    "position" : [ -20.219, 20.32, -631.559 ],
    "rotation" : [ 120.0, 0.0, 0.0 ],
    "controlpointid" : 4,
    "layer" : 1
  }, {
    "code" : "cpname_kokan_sp_coop64_hotelnine_techie",
    "position" : [ 220.859, 20.32, -377.042 ],
    "rotation" : [ 120.0, 0.0, 0.0 ],
    "controlpointid" : 5,
    "layer" : 1
  }, {
    "code" : "cpname_kokan_sp_coop64_golfeight_techie",
    "position" : [ -27.038, 19.827, -125.097 ],
    "rotation" : [ 60.0, 0.0, 0.0 ],
    "controlpointid" : 3,
    "layer" : 1
  }, {
    "code" : "cpname_kokan_sp_coop64_isafoperations_crate",
    "position" : [ -689.685, 14.679, 647.955 ],
    "rotation" : [ 0.0, 0.0, 0.0 ],
    "controlpointid" : 1,
    "layer" : 1
  }, {
    "code" : "cpname_kokan_sp_coop64_isafoperations_boat",
    "position" : [ -690.035, 14.0, 651.368 ],
    "rotation" : [ -115.744, 0.0, 0.0 ],
    "controlpointid" : 1,
    "layer" : 1
  }, {
    "code" : "cpname_kokan_sp_coop64_isafoperations_boat_0",
    "position" : [ -686.658, 14.0, 644.579 ],
    "rotation" : [ -120.0, 0.0, 0.0 ],
    "controlpointid" : 1,
    "layer" : 1
  }, {
    "code" : "cpname_kokan_sp_coop64_golfeleven_mortar",
    "position" : [ 25.955, 20.32, -478.008 ],
    "rotation" : [ 0.0, 0.0, 0.0 ],
    "controlpointid" : 4,
    "layer" : 1
  }, {
    "code" : "cpname_kokan_sp_coop64_indiatwelve_mortar",
    "position" : [ 394.748, 20.32, -950.587 ],
    "rotation" : [ 0.0, 0.0, 0.0 ],
    "controlpointid" : 9,
    "layer" : 1
  }, {
    "code" : "cpname_kokan_sp_coop64_hotelnine_mortar",
    "position" : [ 369.853, 20.32, -457.234 ],
    "rotation" : [ -120.0, 0.0, 0.0 ],
    "controlpointid" : 5,
    "layer" : 1
  }, {
    "code" : "cpname_kokan_sp_coop64_deltafive_1",
    "position" : [ -394.005, 21.879, 277.183 ],
    "rotation" : [ 5.33, 0.0, 0.0 ],
    "controlpointid" : -999,
    "layer" : 1
  }, {
    "code" : "cpname_kokan_sp_coop64_deltafive_2",
    "position" : [ -423.889, 22.12, 381.047 ],
    "rotation" : [ 139.719, 0.0, 0.0 ],
    "controlpointid" : -999,
    "layer" : 1
  }, {
    "code" : "cpname_kokan_sp_coop64_deltafive_3",
    "position" : [ -399.755, 22.12, 335.134 ],
    "rotation" : [ 71.523, 0.0, 0.0 ],
    "controlpointid" : -999,
    "layer" : 1
  }, {
    "code" : "cpname_kokan_sp_coop64_deltafive_4",
    "position" : [ -397.523, 22.12, 361.463 ],
    "rotation" : [ 157.56, 0.0, 0.0 ],
    "controlpointid" : -999,
    "layer" : 1
  }, {
    "code" : "cpname_kokan_sp_coop64_deltafive_5",
    "position" : [ -377.954, 22.12, 360.044 ],
    "rotation" : [ -153.971, 0.0, 0.0 ],
    "controlpointid" : -999,
    "layer" : 1
  }, {
    "code" : "cpname_kokan_sp_coop64_deltafive_6",
    "position" : [ -365.409, 22.12, 316.012 ],
    "rotation" : [ -44.825, 0.0, 0.0 ],
    "controlpointid" : -999,
    "layer" : 1
  }, {
    "code" : "cpname_kokan_sp_coop64_deltafive_7",
    "position" : [ -343.028, 22.12, 340.752 ],
    "rotation" : [ -92.242, 0.0, 0.0 ],
    "controlpointid" : -999,
    "layer" : 1
  }, {
    "code" : "cpname_kokan_sp_coop64_deltafive_8",
    "position" : [ -399.124, 22.12, 300.977 ],
    "rotation" : [ 15.982, 0.0, 0.0 ],
    "controlpointid" : -999,
    "layer" : 1
  }, {
    "code" : "cpname_kokan_sp_coop64_golfeight_1",
    "position" : [ 55.155, 20.32, -129.66 ],
    "rotation" : [ -79.492, 0.0, 0.0 ],
    "controlpointid" : -999,
    "layer" : 1
  }, {
    "code" : "cpname_kokan_sp_coop64_golfeight_2",
    "position" : [ 48.122, 20.32, -116.994 ],
    "rotation" : [ -88.598, 0.0, 0.0 ],
    "controlpointid" : -999,
    "layer" : 1
  }, {
    "code" : "cpname_kokan_sp_coop64_golfeight_3",
    "position" : [ 20.076, 19.917, -148.338 ],
    "rotation" : [ -58.401, 0.0, 0.0 ],
    "controlpointid" : -999,
    "layer" : 1
  }, {
    "code" : "cpname_kokan_sp_coop64_golfeight_4",
    "position" : [ -20.914, 18.653, -176.808 ],
    "rotation" : [ -15.273, 0.0, 0.0 ],
    "controlpointid" : -999,
    "layer" : 1
  }, {
    "code" : "cpname_kokan_sp_coop64_golfeight_5",
    "position" : [ -121.737, 20.32, -177.268 ],
    "rotation" : [ 52.008, 0.0, 0.0 ],
    "controlpointid" : -999,
    "layer" : 1
  }, {
    "code" : "cpname_kokan_sp_coop64_golfeight_6",
    "position" : [ -77.977, 20.32, -86.014 ],
    "rotation" : [ 123.663, 0.0, 0.0 ],
    "controlpointid" : -999,
    "layer" : 1
  }, {
    "code" : "cpname_kokan_sp_coop64_hotelnine_1",
    "position" : [ 212.594, 24.149, -382.128 ],
    "rotation" : [ 15.291, 0.0, 0.0 ],
    "controlpointid" : -999,
    "layer" : 1
  }, {
    "code" : "cpname_kokan_sp_coop64_hotelnine_2",
    "position" : [ 277.325, 17.2, -373.85 ],
    "rotation" : [ -56.857, 0.0, 0.0 ],
    "controlpointid" : -999,
    "layer" : 1
  }, {
    "code" : "cpname_kokan_sp_coop64_hotelnine_3",
    "position" : [ 221.789, 20.32, -270.957 ],
    "rotation" : [ 173.774, 0.0, 0.0 ],
    "controlpointid" : -999,
    "layer" : 1
  }, {
    "code" : "cpname_kokan_sp_coop64_hotelnine_4",
    "position" : [ 271.492, 20.32, -342.339 ],
    "rotation" : [ -137.803, 0.0, 0.0 ],
    "controlpointid" : -999,
    "layer" : 1
  }, {
    "code" : "cpname_kokan_sp_coop64_hotelnine_5",
    "position" : [ 210.91, 20.32, -320.375 ],
    "rotation" : [ 135.477, 0.0, 0.0 ],
    "controlpointid" : -999,
    "layer" : 1
  }, {
    "code" : "cpname_kokan_sp_coop64_hotelnine_6",
    "position" : [ 298.025, 20.32, -411.833 ],
    "rotation" : [ -43.188, 0.0, 0.0 ],
    "controlpointid" : -999,
    "layer" : 1
  }, {
    "code" : "cpname_kokan_sp_coop64_hotelnine_7",
    "position" : [ 323.154, 20.32, -389.854 ],
    "rotation" : [ -63.981, 0.0, 0.0 ],
    "controlpointid" : -999,
    "layer" : 1
  }, {
    "code" : "cpname_kokan_sp_coop64_hotelnine_8",
    "position" : [ 161.074, 20.32, -454.275 ],
    "rotation" : [ 36.053, 0.0, 0.0 ],
    "controlpointid" : -999,
    "layer" : 1
  }, {
    "code" : "cpname_kokan_sp_coop64_golfeleven_1",
    "position" : [ 62.92, 20.32, -555.276 ],
    "rotation" : [ -133.607, 0.0, 0.0 ],
    "controlpointid" : -999,
    "layer" : 1
  }, {
    "code" : "cpname_kokan_sp_coop64_golfeleven_2",
    "position" : [ 39.933, 20.32, -595.747 ],
    "rotation" : [ -139.18, 0.0, 0.0 ],
    "controlpointid" : -999,
    "layer" : 1
  }, {
    "code" : "cpname_kokan_sp_coop64_golfeleven_3",
    "position" : [ 20.277, 20.32, -575.014 ],
    "rotation" : [ -148.663, 0.0, 0.0 ],
    "controlpointid" : -999,
    "layer" : 1
  }, {
    "code" : "cpname_kokan_sp_coop64_golfeleven_4",
    "position" : [ 7.39, 20.32, -668.832 ],
    "rotation" : [ -21.509, 0.0, 0.0 ],
    "controlpointid" : -999,
    "layer" : 1
  }, {
    "code" : "cpname_kokan_sp_coop64_golfeleven_5",
    "position" : [ -52.285, 23.61, -620.507 ],
    "rotation" : [ 96.537, 0.0, 0.0 ],
    "controlpointid" : -999,
    "layer" : 1
  }, {
    "code" : "cpname_kokan_sp_coop64_golfeleven_6",
    "position" : [ -51.478, 26.828, -612.394 ],
    "rotation" : [ 106.553, 0.0, 0.0 ],
    "controlpointid" : -999,
    "layer" : 1
  }, {
    "code" : "cpname_kokan_sp_coop64_golfeleven_7",
    "position" : [ -2.836, 20.32, -661.63 ],
    "rotation" : [ -10.974, 0.0, 0.0 ],
    "controlpointid" : -999,
    "layer" : 1
  }, {
    "code" : "cpname_kokan_sp_coop64_golfeleven_8",
    "position" : [ 29.066, 20.32, -682.908 ],
    "rotation" : [ -33.873, 0.0, 0.0 ],
    "controlpointid" : -999,
    "layer" : 1
  }, {
    "code" : "cpname_kokan_sp_coop64_indiatwelve_1",
    "position" : [ 328.008, 20.32, -693.295 ],
    "rotation" : [ -152.198, 0.0, 0.0 ],
    "controlpointid" : -999,
    "layer" : 1
  }, {
    "code" : "cpname_kokan_sp_coop64_indiatwelve_2",
    "position" : [ 289.937, 20.32, -757.945 ],
    "rotation" : [ 44.077, 0.0, 0.0 ],
    "controlpointid" : -999,
    "layer" : 1
  }, {
    "code" : "cpname_kokan_sp_coop64_golfeight_7",
    "position" : [ -33.713, 20.32, -141.836 ],
    "rotation" : [ -9.265, 0.0, 0.0 ],
    "controlpointid" : -999,
    "layer" : 1
  }, {
    "code" : "cpname_kokan_sp_coop64_indiatwelve_3",
    "position" : [ 333.78, 20.32, -730.456 ],
    "rotation" : [ -106.839, 0.0, 0.0 ],
    "controlpointid" : -999,
    "layer" : 1
  }, {
    "code" : "cpname_kokan_sp_coop64_indiatwelve_4",
    "position" : [ 340.322, 20.32, -717.5 ],
    "rotation" : [ -123.335, 0.0, 0.0 ],
    "controlpointid" : -999,
    "layer" : 1
  }, {
    "code" : "cpname_kokan_sp_coop64_indiatwelve_5",
    "position" : [ 293.857, 20.32, -736.852 ],
    "rotation" : [ 93.603, 0.0, 0.0 ],
    "controlpointid" : -999,
    "layer" : 1
  }, {
    "code" : "cpname_kokan_sp_coop64_indiatwelve_6",
    "position" : [ 241.525, 20.32, -756.778 ],
    "rotation" : [ 74.406, 0.0, 0.0 ],
    "controlpointid" : -999,
    "layer" : 1
  }, {
    "code" : "cpname_kokan_sp_coop64_indiatwelve_7",
    "position" : [ 463.14, 20.32, -699.162 ],
    "rotation" : [ -104.119, 0.0, 0.0 ],
    "controlpointid" : -999,
    "layer" : 1
  }, {
    "code" : "cpname_kokan_sp_coop64_indiatwelve_8",
    "position" : [ 377.005, 20.32, -653.81 ],
    "rotation" : [ -141.185, 0.0, 0.0 ],
    "controlpointid" : -999,
    "layer" : 1
  }, {
    "code" : "cpname_kokan_sp_coop64_talibanhq_1",
    "position" : [ 580.535, 20.32, -821.728 ],
    "rotation" : [ 113.224, 0.0, 0.0 ],
    "controlpointid" : -999,
    "layer" : 1
  }, {
    "code" : "cpname_kokan_sp_coop64_talibanhq_2",
    "position" : [ 672.853, 20.32, -735.708 ],
    "rotation" : [ -154.37, 0.0, 0.0 ],
    "controlpointid" : -999,
    "layer" : 1
  }, {
    "code" : "cpname_kokan_sp_coop64_talibanhq_3",
    "position" : [ 680.662, 16.464, -945.636 ],
    "rotation" : [ -28.658, 0.0, 0.0 ],
    "controlpointid" : -999,
    "layer" : 1
  }, {
    "code" : "cpname_kokan_sp_coop64_talibanhq_4",
    "position" : [ 657.281, 23.664, -871.908 ],
    "rotation" : [ -47.066, 0.0, 0.0 ],
    "controlpointid" : -999,
    "layer" : 1
  }, {
    "code" : "cpname_kokan_sp_coop64_talibanhq_5",
    "position" : [ 618.148, 23.613, -853.029 ],
    "rotation" : [ 19.769, 0.0, 0.0 ],
    "controlpointid" : -999,
    "layer" : 1
  }, {
    "code" : "cpname_kokan_sp_coop64_talibanhq_6",
    "position" : [ 608.68, 26.823, -845.19 ],
    "rotation" : [ 75.126, 0.0, 0.0 ],
    "controlpointid" : -999,
    "layer" : 1
  }, {
    "code" : "cpname_kokan_sp_coop64_talibanhq_7",
    "position" : [ 631.94, 26.857, -844.602 ],
    "rotation" : [ -62.564, 0.0, 0.0 ],
    "controlpointid" : -999,
    "layer" : 1
  }, {
    "code" : "cpname_kokan_sp_coop64_talibanhq_8",
    "position" : [ 614.641, 23.57, -835.489 ],
    "rotation" : [ 118.157, 0.0, 0.0 ],
    "controlpointid" : -999,
    "layer" : 1
  }, {
    "code" : "cpname_kokan_sp_coop64_isafoperations_1",
    "position" : [ -406.75, 17.137, 836.802 ],
    "rotation" : [ -117.973, 0.0, 0.0 ],
    "controlpointid" : -999,
    "layer" : 1
  }, {
    "code" : "cpname_kokan_sp_coop64_isafoperations_2",
    "position" : [ -370.988, 17.137, 845.106 ],
    "rotation" : [ -120.945, 0.0, 0.0 ],
    "controlpointid" : -999,
    "layer" : 1
  }, {
    "code" : "cpname_kokan_sp_coop64_isafoperations_3",
    "position" : [ -550.374, 20.32, 763.151 ],
    "rotation" : [ -17.045, 0.0, 0.0 ],
    "controlpointid" : -999,
    "layer" : 1
  }, {
    "code" : "cpname_kokan_sp_coop64_isafoperations_4",
    "position" : [ -544.459, 20.32, 765.438 ],
    "rotation" : [ -24.185, 0.0, 0.0 ],
    "controlpointid" : -999,
    "layer" : 1
  }, {
    "code" : "cpname_kokan_sp_coop64_isafoperations_5",
    "position" : [ -566.194, 20.32, 770.648 ],
    "rotation" : [ 82.545, 0.0, 0.0 ],
    "controlpointid" : -999,
    "layer" : 1
  }, {
    "code" : "cpname_kokan_sp_coop64_isafoperations_6",
    "position" : [ -544.936, 20.32, 754.492 ],
    "rotation" : [ -53.63, 0.0, 0.0 ],
    "controlpointid" : -999,
    "layer" : 1
  }, {
    "code" : "cpname_kokan_sp_coop64_isafoperations_7",
    "position" : [ -540.587, 20.32, 742.178 ],
    "rotation" : [ -33.055, 0.0, 0.0 ],
    "controlpointid" : -999,
    "layer" : 1
  }, {
    "code" : "cpname_kokan_sp_coop64_isafoperations_8",
    "position" : [ -544.869, 20.32, 758.106 ],
    "rotation" : [ -77.556, 0.0, 0.0 ],
    "controlpointid" : -999,
    "layer" : 1
  }, {
    "code" : "cpname_kokan_sp_coop64_isafoperations_9",
    "position" : [ -537.251, 20.32, 743.814 ],
    "rotation" : [ -42.869, 0.0, 0.0 ],
    "controlpointid" : -999,
    "layer" : 1
  }, {
    "code" : "cpname_kokan_sp_coop64_talimain_1",
    "position" : [ 907.563, 18.55, -1010.139 ],
    "rotation" : [ 55.869, 0.0, 0.0 ],
    "controlpointid" : -999,
    "layer" : 1
  }, {
    "code" : "cpname_kokan_sp_coop64_talimain_2",
    "position" : [ 907.168, 18.55, -998.714 ],
    "rotation" : [ 78.499, 0.0, 0.0 ],
    "controlpointid" : -999,
    "layer" : 1
  }, {
    "code" : "cpname_kokan_sp_coop64_talimain_3",
    "position" : [ 907.785, 18.55, -1002.36 ],
    "rotation" : [ 70.181, 0.0, 0.0 ],
    "controlpointid" : -999,
    "layer" : 1
  }, {
    "code" : "cpname_kokan_sp_coop64_talimain_4",
    "position" : [ 900.291, 18.541, -999.984 ],
    "rotation" : [ 79.249, 0.0, 0.0 ],
    "controlpointid" : -999,
    "layer" : 1
  }, {
    "code" : "cpname_kokan_sp_coop64_talimain_5",
    "position" : [ 901.611, 18.55, -996.682 ],
    "rotation" : [ 84.36, 0.0, 0.0 ],
    "controlpointid" : -999,
    "layer" : 1
  }, {
    "code" : "cpname_kokan_sp_coop64_talimain_6",
    "position" : [ 903.502, 18.55, -994.186 ],
    "rotation" : [ 89.015, 0.0, 0.0 ],
    "controlpointid" : -999,
    "layer" : 1
  }, {
    "code" : "cpname_kokan_sp_coop64_deltafive_9",
    "position" : [ -370.571, 22.12, 385.774 ],
    "rotation" : [ -159.314, 0.0, 0.0 ],
    "controlpointid" : -999,
    "layer" : 1
  }, {
    "code" : "cpname_kokan_sp_coop64_deltafive_10",
    "position" : [ -343.441, 22.12, 319.753 ],
    "rotation" : [ -66.769, 0.0, 0.0 ],
    "controlpointid" : -999,
    "layer" : 1
  }, {
    "code" : "cpname_kokan_sp_coop64_talibanhq_9",
    "position" : [ 610.542, 23.53, -800.922 ],
    "rotation" : [ 166.587, 0.0, 0.0 ],
    "controlpointid" : -999,
    "layer" : 1
  }, {
    "code" : "cpname_kokan_sp_coop64_golfeleven_9",
    "position" : [ 1.699, 24.0, -578.877 ],
    "rotation" : [ -164.479, 0.0, 0.0 ],
    "controlpointid" : -999,
    "layer" : 1
  }, {
    "code" : "cpname_kokan_sp_coop64_talimain_7",
    "position" : [ 898.71, 18.912, -1002.429 ],
    "rotation" : [ 79.249, 0.0, 0.0 ],
    "controlpointid" : -999,
    "layer" : 1
  }, {
    "code" : "cpname_kokan_sp_coop64_indiatwelve_9",
    "position" : [ 414.636, 23.683, -633.475 ],
    "rotation" : [ -134.763, 0.0, 0.0 ],
    "controlpointid" : -999,
    "layer" : 1
  }, {
    "code" : "cpname_kokan_sp_coop64_isafoperations_10",
    "position" : [ -537.222, 20.32, 710.786 ],
    "rotation" : [ -17.045, 0.0, 0.0 ],
    "controlpointid" : -999,
    "layer" : 1
  }, {
    "code" : "cpname_kokan_sp_coop64_golfeight_8",
    "position" : [ -10.086, 20.32, -119.183 ],
    "rotation" : [ -136.387, 0.0, 0.0 ],
    "controlpointid" : -999,
    "layer" : 1
  }, {
    "code" : "cpname_kokan_sp_coop64_hotelnine_9",
    "position" : [ 200.697, 20.32, -347.548 ],
    "rotation" : [ 91.09, 0.0, 0.0 ],
    "controlpointid" : -999,
    "layer" : 1
  }, {
    "code" : "cpname_kokan_sp_coop64_hotelnine_10",
    "position" : [ 242.472, 20.32, -299.609 ],
    "rotation" : [ -175.591, 0.0, 0.0 ],
    "controlpointid" : -999,
    "layer" : 1
  }, {
    "code" : "cpname_kokan_sp_coop64_indiatwelve_10",
    "position" : [ 186.091, 20.32, -728.467 ],
    "rotation" : [ 94.342, 0.0, 0.0 ],
    "controlpointid" : -999,
    "layer" : 1
  }, {
    "code" : "cpname_kokan_sp_coop64_indiatwelve_11",
    "position" : [ 231.482, 20.32, -942.872 ],
    "rotation" : [ 20.537, 0.0, 0.0 ],
    "controlpointid" : -999,
    "layer" : 1
  }, {
    "code" : "cpname_kokan_sp_coop64_indiatwelve_12",
    "position" : [ 180.635, 20.32, -809.224 ],
    "rotation" : [ -20.455, 0.0, 0.0 ],
    "controlpointid" : -999,
    "layer" : 1
  }, {
    "code" : "cpname_kokan_sp_coop64_talibanhq_17",
    "position" : [ 645.649, 20.32, -808.517 ],
    "rotation" : [ -144.02, 0.0, 0.0 ],
    "controlpointid" : -999,
    "layer" : 1
  }, {
    "code" : "cpname_kokan_sp_coop64_talibanhq_18",
    "position" : [ 630.979, 20.32, -881.862 ],
    "rotation" : [ -10.937, 0.0, 0.0 ],
    "controlpointid" : -999,
    "layer" : 1
  }, {
    "code" : "cpname_kokan_sp_coop64_indiatwelve_13",
    "position" : [ 394.854, 20.32, -950.905 ],
    "rotation" : [ -21.85, 0.0, 0.0 ],
    "controlpointid" : -999,
    "layer" : 1
  }, {
    "code" : "cpname_kokan_sp_coop64_hotelnine_11",
    "position" : [ 370.103, 20.32, -458.351 ],
    "rotation" : [ -52.566, 0.0, 0.0 ],
    "controlpointid" : -999,
    "layer" : 1
  }, {
    "code" : "cpname_kokan_sp_coop64_indiatwelve_14",
    "position" : [ 371.233, 20.32, -457.177 ],
    "rotation" : [ -151.626, 0.0, 0.0 ],
    "controlpointid" : -999,
    "layer" : 1
  }, {
    "code" : "cpname_kokan_sp_coop64_golfeleven_10",
    "position" : [ 25.092, 20.32, -477.84 ],
    "rotation" : [ -166.566, 0.0, 0.0 ],
    "controlpointid" : -999,
    "layer" : 1
  }, {
    "code" : "cpname_kokan_sp_coop64_isafoperations",
    "position" : [ -549.383, 23.963, 746.313 ],
    "rotation" : [ 0.0, 0.0, 0.0 ],
    "controlpointid" : -999,
    "layer" : 1
  }, {
    "code" : "cpname_kokan_sp_coop64_talibanhq",
    "position" : [ 622.869, 13.206, -839.893 ],
    "rotation" : [ 0.0, 0.0, 0.0 ],
    "controlpointid" : -999,
    "layer" : 1
  }, {
    "code" : "cpname_kokan_sp_coop64_deltafive",
    "position" : [ -388.239, 15.756, 338.982 ],
    "rotation" : [ 0.0, 0.0, 0.0 ],
    "controlpointid" : -999,
    "layer" : 1
  }, {
    "code" : "cpname_kokan_sp_coop64_golfeight",
    "position" : [ -33.918, 18.274, -145.268 ],
    "rotation" : [ 0.0, 0.0, 0.0 ],
    "controlpointid" : -999,
    "layer" : 1
  }, {
    "code" : "cpname_kokan_sp_coop64_golfeleven",
    "position" : [ -9.992, 13.774, -624.725 ],
    "rotation" : [ 0.0, 0.0, 0.0 ],
    "controlpointid" : -999,
    "layer" : 1
  }, {
    "code" : "cpname_kokan_sp_coop64_hotelnine",
    "position" : [ 216.812, 17.947, -341.007 ],
    "rotation" : [ 0.0, 0.0, 0.0 ],
    "controlpointid" : -999,
    "layer" : 1
  }, {
    "code" : "cpname_kokan_sp_coop64_indiatwelve",
    "position" : [ 309.413, 14.06, -737.831 ],
    "rotation" : [ 0.0, 0.0, 0.0 ],
    "controlpointid" : -999,
    "layer" : 1
  } ],
  "ostemplates" : [ {
    "code" : "stryker",
    "lastuser" : null,
    "objecttemplate_1" : null,
    "objecttemplate_2" : "us_apc_stryker",
    "minspawndelay" : 300.0,
    "maxspawndelay" : 300.0,
    "spawndelayatstart" : false,
    "timetolive" : 1200.0,
    "distance" : 100.0,
    "team" : 2,
    "maxNrOfObjectSpawned" : 1,
    "teamonvehicle" : true
  }, {
    "code" : "cpname_kokan_sp_coop64_isafoperations_hmmwv",
    "lastuser" : null,
    "objecttemplate_1" : null,
    "objecttemplate_2" : "us_jep_hmmwv_uparmored",
    "minspawndelay" : 600.0,
    "maxspawndelay" : 600.0,
    "spawndelayatstart" : false,
    "timetolive" : 1200.0,
    "distance" : 100.0,
    "team" : -999,
    "maxNrOfObjectSpawned" : 1,
    "teamonvehicle" : true
  }, {
    "code" : "cpname_kokan_sp_coop64_isafoperations_hmmwv_0",
    "lastuser" : null,
    "objecttemplate_1" : null,
    "objecttemplate_2" : "us_jep_hmmwv_uparmored",
    "minspawndelay" : 600.0,
    "maxspawndelay" : 600.0,
    "spawndelayatstart" : false,
    "timetolive" : 1200.0,
    "distance" : 100.0,
    "team" : -999,
    "maxNrOfObjectSpawned" : 1,
    "teamonvehicle" : true
  }, {
    "code" : "cpname_kokan_sp_coop64_isafoperations_hmmwv_1",
    "lastuser" : null,
    "objecttemplate_1" : null,
    "objecttemplate_2" : "us_jep_hmmwv_uparmored_mk19",
    "minspawndelay" : 600.0,
    "maxspawndelay" : 600.0,
    "spawndelayatstart" : false,
    "timetolive" : 1200.0,
    "distance" : 100.0,
    "team" : -999,
    "maxNrOfObjectSpawned" : 1,
    "teamonvehicle" : true
  }, {
    "code" : "cpname_kokan_sp_coop64_isafoperations_hmmwv_2",
    "lastuser" : null,
    "objecttemplate_1" : null,
    "objecttemplate_2" : "us_jep_hmmwv_uparmored_mk19",
    "minspawndelay" : 600.0,
    "maxspawndelay" : 600.0,
    "spawndelayatstart" : false,
    "timetolive" : 1200.0,
    "distance" : 100.0,
    "team" : -999,
    "maxNrOfObjectSpawned" : 1,
    "teamonvehicle" : true
  }, {
    "code" : "cpname_kokan_sp_coop64_isafoperations_uh60",
    "lastuser" : null,
    "objecttemplate_1" : null,
    "objecttemplate_2" : "us_the_uh60",
    "minspawndelay" : 300.0,
    "maxspawndelay" : 300.0,
    "spawndelayatstart" : false,
    "timetolive" : 1200.0,
    "distance" : 100.0,
    "team" : -999,
    "maxNrOfObjectSpawned" : 1,
    "teamonvehicle" : true
  }, {
    "code" : "cpname_kokan_sp_coop64_isafoperations_kiowa",
    "lastuser" : null,
    "objecttemplate_1" : null,
    "objecttemplate_2" : "us_ahe_kiowa",
    "minspawndelay" : 300.0,
    "maxspawndelay" : 300.0,
    "spawndelayatstart" : false,
    "timetolive" : 1200.0,
    "distance" : 100.0,
    "team" : -999,
    "maxNrOfObjectSpawned" : 1,
    "teamonvehicle" : true
  }, {
    "code" : "cpname_kokan_sp_coop64_isafoperations_kiowa_0",
    "lastuser" : null,
    "objecttemplate_1" : null,
    "objecttemplate_2" : "us_ahe_kiowa_alt2",
    "minspawndelay" : 300.0,
    "maxspawndelay" : 300.0,
    "spawndelayatstart" : false,
    "timetolive" : 1200.0,
    "distance" : 100.0,
    "team" : -999,
    "maxNrOfObjectSpawned" : 1,
    "teamonvehicle" : true
  }, {
    "code" : "cpname_kokan_sp_coop64_talimain_techie",
    "lastuser" : null,
    "objecttemplate_1" : "civ_jep_technical",
    "objecttemplate_2" : null,
    "minspawndelay" : 600.0,
    "maxspawndelay" : 600.0,
    "spawndelayatstart" : false,
    "timetolive" : 1200.0,
    "distance" : 100.0,
    "team" : -999,
    "maxNrOfObjectSpawned" : 1,
    "teamonvehicle" : true
  }, {
    "code" : "cpname_kokan_sp_coop64_talimain_techie_0",
    "lastuser" : null,
    "objecttemplate_1" : "civ_jep_technical_black",
    "objecttemplate_2" : null,
    "minspawndelay" : 600.0,
    "maxspawndelay" : 600.0,
    "spawndelayatstart" : false,
    "timetolive" : 1200.0,
    "distance" : 100.0,
    "team" : -999,
    "maxNrOfObjectSpawned" : 1,
    "teamonvehicle" : true
  }, {
    "code" : "cpname_kokan_sp_coop64_talimain_car",
    "lastuser" : null,
    "objecttemplate_1" : "civ_jep_car_black",
    "objecttemplate_2" : null,
    "minspawndelay" : 300.0,
    "maxspawndelay" : 300.0,
    "spawndelayatstart" : false,
    "timetolive" : 1200.0,
    "distance" : 100.0,
    "team" : -999,
    "maxNrOfObjectSpawned" : 1,
    "teamonvehicle" : true
  }, {
    "code" : "cpname_kokan_sp_coop64_talimain_car_0",
    "lastuser" : null,
    "objecttemplate_1" : "civ_jep_car",
    "objecttemplate_2" : null,
    "minspawndelay" : 300.0,
    "maxspawndelay" : 300.0,
    "spawndelayatstart" : false,
    "timetolive" : 1200.0,
    "distance" : 100.0,
    "team" : -999,
    "maxNrOfObjectSpawned" : 1,
    "teamonvehicle" : true
  }, {
    "code" : "cpname_kokan_sp_coop64_talimain_ammotech",
    "lastuser" : null,
    "objecttemplate_1" : "civ_jep_support",
    "objecttemplate_2" : null,
    "minspawndelay" : 300.0,
    "maxspawndelay" : 300.0,
    "spawndelayatstart" : false,
    "timetolive" : 1200.0,
    "distance" : 100.0,
    "team" : -999,
    "maxNrOfObjectSpawned" : 1,
    "teamonvehicle" : true
  }, {
    "code" : "cpname_kokan_sp_coop64_isafoperations_depot",
    "lastuser" : null,
    "objecttemplate_1" : null,
    "objecttemplate_2" : "vehicle_depot_us",
    "minspawndelay" : 0.0,
    "maxspawndelay" : 0.0,
    "spawndelayatstart" : false,
    "timetolive" : 0.0,
    "distance" : 0.0,
    "team" : -999,
    "maxNrOfObjectSpawned" : 1,
    "teamonvehicle" : false
  }, {
    "code" : "cpname_kokan_sp_coop64_isafoperations_acv",
    "lastuser" : null,
    "objecttemplate_1" : null,
    "objecttemplate_2" : "us_acv_stryker",
    "minspawndelay" : 0.0,
    "maxspawndelay" : 0.0,
    "spawndelayatstart" : false,
    "timetolive" : 0.0,
    "distance" : 0.0,
    "team" : -999,
    "maxNrOfObjectSpawned" : 1,
    "teamonvehicle" : false
  }, {
    "code" : "cpname_kokan_sp_coop64_talibanhq_quad",
    "lastuser" : null,
    "objecttemplate_1" : "zpu4",
    "objecttemplate_2" : null,
    "minspawndelay" : 1200.0,
    "maxspawndelay" : 1200.0,
    "spawndelayatstart" : false,
    "timetolive" : 1200.0,
    "distance" : 100.0,
    "team" : -999,
    "maxNrOfObjectSpawned" : 1,
    "teamonvehicle" : true
  }, {
    "code" : "cpname_kokan_sp_coop64_talimain_tow",
    "lastuser" : null,
    "objecttemplate_1" : "civ_jep_technical_blue",
    "objecttemplate_2" : null,
    "minspawndelay" : 600.0,
    "maxspawndelay" : 600.0,
    "spawndelayatstart" : false,
    "timetolive" : 1200.0,
    "distance" : 100.0,
    "team" : -999,
    "maxNrOfObjectSpawned" : 1,
    "teamonvehicle" : true
  }, {
    "code" : "cpname_kokan_sp_coop64_talimain_gary",
    "lastuser" : null,
    "objecttemplate_1" : "civ_jep_car_white",
    "objecttemplate_2" : null,
    "minspawndelay" : 600.0,
    "maxspawndelay" : 600.0,
    "spawndelayatstart" : false,
    "timetolive" : 1200.0,
    "distance" : 100.0,
    "team" : -999,
    "maxNrOfObjectSpawned" : 1,
    "teamonvehicle" : true
  }, {
    "code" : "cpname_kokan_sp_coop64_isafoperations_logi",
    "lastuser" : null,
    "objecttemplate_1" : null,
    "objecttemplate_2" : "us_trk_logistics",
    "minspawndelay" : 300.0,
    "maxspawndelay" : 300.0,
    "spawndelayatstart" : false,
    "timetolive" : 1200.0,
    "distance" : 100.0,
    "team" : -999,
    "maxNrOfObjectSpawned" : 1,
    "teamonvehicle" : true
  }, {
    "code" : "cpname_kokan_sp_coop64_isafoperations_logi_0",
    "lastuser" : null,
    "objecttemplate_1" : null,
    "objecttemplate_2" : "us_trk_logistics",
    "minspawndelay" : 300.0,
    "maxspawndelay" : 300.0,
    "spawndelayatstart" : false,
    "timetolive" : 1200.0,
    "distance" : 100.0,
    "team" : -999,
    "maxNrOfObjectSpawned" : 1,
    "teamonvehicle" : true
  }, {
    "code" : "cpname_kokan_sp_coop64_isafoperations_kiowa_1",
    "lastuser" : null,
    "objecttemplate_1" : null,
    "objecttemplate_2" : "us_ahe_kiowa_sp",
    "minspawndelay" : 300.0,
    "maxspawndelay" : 300.0,
    "spawndelayatstart" : false,
    "timetolive" : 1200.0,
    "distance" : 100.0,
    "team" : 2,
    "maxNrOfObjectSpawned" : 1,
    "teamonvehicle" : true
  }, {
    "code" : "cpname_kokan_sp_coop64_isafoperations_kiowa_3",
    "lastuser" : null,
    "objecttemplate_1" : null,
    "objecttemplate_2" : "us_ahe_kiowa_sp",
    "minspawndelay" : 300.0,
    "maxspawndelay" : 300.0,
    "spawndelayatstart" : false,
    "timetolive" : 1200.0,
    "distance" : 100.0,
    "team" : 2,
    "maxNrOfObjectSpawned" : 1,
    "teamonvehicle" : true
  }, {
    "code" : "cpname_kokan_sp_coop64_hotelnine_zpu",
    "lastuser" : null,
    "objecttemplate_1" : "zpu4",
    "objecttemplate_2" : null,
    "minspawndelay" : 900.0,
    "maxspawndelay" : 900.0,
    "spawndelayatstart" : false,
    "timetolive" : 1200.0,
    "distance" : 0.0,
    "team" : -999,
    "maxNrOfObjectSpawned" : 1,
    "teamonvehicle" : true
  }, {
    "code" : "cpname_kokan_sp_coop64_golfeleven_zpu",
    "lastuser" : null,
    "objecttemplate_1" : "zpu4",
    "objecttemplate_2" : null,
    "minspawndelay" : 900.0,
    "maxspawndelay" : 900.0,
    "spawndelayatstart" : false,
    "timetolive" : 1200.0,
    "distance" : 0.0,
    "team" : -999,
    "maxNrOfObjectSpawned" : 1,
    "teamonvehicle" : true
  }, {
    "code" : "cpname_kokan_sp_coop64_talimain_depot",
    "lastuser" : null,
    "objecttemplate_1" : "vehicle_depot_tal",
    "objecttemplate_2" : null,
    "minspawndelay" : 0.0,
    "maxspawndelay" : 0.0,
    "spawndelayatstart" : false,
    "timetolive" : 0.0,
    "distance" : 0.0,
    "team" : 1,
    "maxNrOfObjectSpawned" : 1,
    "teamonvehicle" : true
  }, {
    "code" : "cpname_kokan_sp_coop64_talibanhq_crate",
    "lastuser" : null,
    "objecttemplate_1" : "fixed_supply_crate_tal",
    "objecttemplate_2" : null,
    "minspawndelay" : 0.0,
    "maxspawndelay" : 0.0,
    "spawndelayatstart" : false,
    "timetolive" : 0.0,
    "distance" : 0.0,
    "team" : -999,
    "maxNrOfObjectSpawned" : 1,
    "teamonvehicle" : true
  }, {
    "code" : "cpname_kokan_sp_coop64_talibanhq_crate_0",
    "lastuser" : null,
    "objecttemplate_1" : "fixed_supply_crate_tal",
    "objecttemplate_2" : null,
    "minspawndelay" : 0.0,
    "maxspawndelay" : 0.0,
    "spawndelayatstart" : false,
    "timetolive" : 0.0,
    "distance" : 0.0,
    "team" : -999,
    "maxNrOfObjectSpawned" : 1,
    "teamonvehicle" : true
  }, {
    "code" : "cpname_kokan_sp_coop64_talibanhq_crate_1",
    "lastuser" : null,
    "objecttemplate_1" : "fixed_supply_crate_tal",
    "objecttemplate_2" : null,
    "minspawndelay" : 0.0,
    "maxspawndelay" : 0.0,
    "spawndelayatstart" : false,
    "timetolive" : 0.0,
    "distance" : 0.0,
    "team" : -999,
    "maxNrOfObjectSpawned" : 1,
    "teamonvehicle" : true
  }, {
    "code" : "cpname_kokan_sp_coop64_indiatwelve_crate",
    "lastuser" : null,
    "objecttemplate_1" : "fixed_supply_crate_tal",
    "objecttemplate_2" : null,
    "minspawndelay" : 0.0,
    "maxspawndelay" : 0.0,
    "spawndelayatstart" : false,
    "timetolive" : 0.0,
    "distance" : 0.0,
    "team" : -999,
    "maxNrOfObjectSpawned" : 1,
    "teamonvehicle" : true
  }, {
    "code" : "cpname_kokan_sp_coop64_golfeleven_crate",
    "lastuser" : null,
    "objecttemplate_1" : "fixed_supply_crate_tal",
    "objecttemplate_2" : null,
    "minspawndelay" : 0.0,
    "maxspawndelay" : 0.0,
    "spawndelayatstart" : false,
    "timetolive" : 0.0,
    "distance" : 0.0,
    "team" : -999,
    "maxNrOfObjectSpawned" : 1,
    "teamonvehicle" : true
  }, {
    "code" : "cpname_kokan_sp_coop64_golfeleven_crate_0",
    "lastuser" : null,
    "objecttemplate_1" : "fixed_supply_crate_tal",
    "objecttemplate_2" : null,
    "minspawndelay" : 0.0,
    "maxspawndelay" : 0.0,
    "spawndelayatstart" : false,
    "timetolive" : 0.0,
    "distance" : 0.0,
    "team" : -999,
    "maxNrOfObjectSpawned" : 1,
    "teamonvehicle" : true
  }, {
    "code" : "cpname_kokan_sp_coop64_golfeleven_crate_1",
    "lastuser" : null,
    "objecttemplate_1" : "fixed_supply_crate_tal",
    "objecttemplate_2" : null,
    "minspawndelay" : 0.0,
    "maxspawndelay" : 0.0,
    "spawndelayatstart" : false,
    "timetolive" : 0.0,
    "distance" : 0.0,
    "team" : -999,
    "maxNrOfObjectSpawned" : 1,
    "teamonvehicle" : true
  }, {
    "code" : "cpname_kokan_sp_coop64_hotelnine_crate",
    "lastuser" : null,
    "objecttemplate_1" : "fixed_supply_crate_tal",
    "objecttemplate_2" : null,
    "minspawndelay" : 0.0,
    "maxspawndelay" : 0.0,
    "spawndelayatstart" : false,
    "timetolive" : 0.0,
    "distance" : 0.0,
    "team" : -999,
    "maxNrOfObjectSpawned" : 1,
    "teamonvehicle" : true
  }, {
    "code" : "cpname_kokan_sp_coop64_hotelnine_crate_0",
    "lastuser" : null,
    "objecttemplate_1" : "fixed_supply_crate_tal",
    "objecttemplate_2" : null,
    "minspawndelay" : 0.0,
    "maxspawndelay" : 0.0,
    "spawndelayatstart" : false,
    "timetolive" : 0.0,
    "distance" : 0.0,
    "team" : -999,
    "maxNrOfObjectSpawned" : 1,
    "teamonvehicle" : true
  }, {
    "code" : "cpname_kokan_sp_coop64_golfeight_crate",
    "lastuser" : null,
    "objecttemplate_1" : "fixed_supply_crate_tal",
    "objecttemplate_2" : null,
    "minspawndelay" : 0.0,
    "maxspawndelay" : 0.0,
    "spawndelayatstart" : false,
    "timetolive" : 0.0,
    "distance" : 0.0,
    "team" : -999,
    "maxNrOfObjectSpawned" : 1,
    "teamonvehicle" : true
  }, {
    "code" : "cpname_kokan_sp_coop64_golfeight_crate_0",
    "lastuser" : null,
    "objecttemplate_1" : "fixed_supply_crate_tal",
    "objecttemplate_2" : null,
    "minspawndelay" : 0.0,
    "maxspawndelay" : 0.0,
    "spawndelayatstart" : false,
    "timetolive" : 0.0,
    "distance" : 0.0,
    "team" : -999,
    "maxNrOfObjectSpawned" : 1,
    "teamonvehicle" : true
  }, {
    "code" : "cpname_kokan_sp_coop64_deltafive_crate",
    "lastuser" : null,
    "objecttemplate_1" : "fixed_supply_crate_tal",
    "objecttemplate_2" : null,
    "minspawndelay" : 0.0,
    "maxspawndelay" : 0.0,
    "spawndelayatstart" : false,
    "timetolive" : 0.0,
    "distance" : 0.0,
    "team" : -999,
    "maxNrOfObjectSpawned" : 1,
    "teamonvehicle" : true
  }, {
    "code" : "cpname_kokan_sp_coop64_deltafive_crate_0",
    "lastuser" : null,
    "objecttemplate_1" : "fixed_supply_crate_tal",
    "objecttemplate_2" : null,
    "minspawndelay" : 0.0,
    "maxspawndelay" : 0.0,
    "spawndelayatstart" : false,
    "timetolive" : 0.0,
    "distance" : 0.0,
    "team" : -999,
    "maxNrOfObjectSpawned" : 1,
    "teamonvehicle" : true
  }, {
    "code" : "cpname_kokan_sp_coop64_deltafive_crate_1",
    "lastuser" : null,
    "objecttemplate_1" : "fixed_supply_crate_tal",
    "objecttemplate_2" : null,
    "minspawndelay" : 0.0,
    "maxspawndelay" : 0.0,
    "spawndelayatstart" : false,
    "timetolive" : 0.0,
    "distance" : 0.0,
    "team" : -999,
    "maxNrOfObjectSpawned" : 1,
    "teamonvehicle" : true
  }, {
    "code" : "cpname_kokan_sp_coop64_isafoperations_arty",
    "lastuser" : null,
    "objecttemplate_1" : null,
    "objecttemplate_2" : "artillery_team2",
    "minspawndelay" : 900.0,
    "maxspawndelay" : 900.0,
    "spawndelayatstart" : false,
    "timetolive" : 0.0,
    "distance" : 0.0,
    "team" : -999,
    "maxNrOfObjectSpawned" : 1,
    "teamonvehicle" : true
  }, {
    "code" : "cpname_kokan_sp_coop64_isafoperations_arty_0",
    "lastuser" : null,
    "objecttemplate_1" : null,
    "objecttemplate_2" : "artillery_team2",
    "minspawndelay" : 900.0,
    "maxspawndelay" : 900.0,
    "spawndelayatstart" : false,
    "timetolive" : 0.0,
    "distance" : 0.0,
    "team" : -999,
    "maxNrOfObjectSpawned" : 1,
    "teamonvehicle" : true
  }, {
    "code" : "cpname_kokan_sp_coop64_isafoperations_arty_1",
    "lastuser" : null,
    "objecttemplate_1" : null,
    "objecttemplate_2" : "artillery_team2",
    "minspawndelay" : 900.0,
    "maxspawndelay" : 900.0,
    "spawndelayatstart" : false,
    "timetolive" : 0.0,
    "distance" : 0.0,
    "team" : -999,
    "maxNrOfObjectSpawned" : 1,
    "teamonvehicle" : true
  }, {
    "code" : "cpname_kokan_sp_coop64_isafoperations_arty_2",
    "lastuser" : null,
    "objecttemplate_1" : null,
    "objecttemplate_2" : "artillery_team2",
    "minspawndelay" : 900.0,
    "maxspawndelay" : 900.0,
    "spawndelayatstart" : false,
    "timetolive" : 0.0,
    "distance" : 0.0,
    "team" : -999,
    "maxNrOfObjectSpawned" : 1,
    "teamonvehicle" : true
  }, {
    "code" : "cpname_kokan_sp_coop64_talimain_techie_1",
    "lastuser" : null,
    "objecttemplate_1" : "civ_jep_technical_red",
    "objecttemplate_2" : null,
    "minspawndelay" : 600.0,
    "maxspawndelay" : 600.0,
    "spawndelayatstart" : false,
    "timetolive" : 1200.0,
    "distance" : 100.0,
    "team" : -999,
    "maxNrOfObjectSpawned" : 1,
    "teamonvehicle" : true
  }, {
    "code" : "cpname_kokan_sp_coop64_talimain_mortar",
    "lastuser" : null,
    "objecttemplate_1" : "mortar_team1",
    "objecttemplate_2" : null,
    "minspawndelay" : 600.0,
    "maxspawndelay" : 600.0,
    "spawndelayatstart" : true,
    "timetolive" : 0.0,
    "distance" : 0.0,
    "team" : 1,
    "maxNrOfObjectSpawned" : 1,
    "teamonvehicle" : true
  }, {
    "code" : "cpname_kokan_sp_coop64_talimain_mortar_0",
    "lastuser" : null,
    "objecttemplate_1" : "mortar_team1",
    "objecttemplate_2" : null,
    "minspawndelay" : 600.0,
    "maxspawndelay" : 600.0,
    "spawndelayatstart" : true,
    "timetolive" : 0.0,
    "distance" : 0.0,
    "team" : 1,
    "maxNrOfObjectSpawned" : 1,
    "teamonvehicle" : true
  }, {
    "code" : "cpname_kokan_sp_coop64_talimain_mortar_1",
    "lastuser" : null,
    "objecttemplate_1" : "mortar_team1",
    "objecttemplate_2" : null,
    "minspawndelay" : 600.0,
    "maxspawndelay" : 600.0,
    "spawndelayatstart" : true,
    "timetolive" : 0.0,
    "distance" : 0.0,
    "team" : 1,
    "maxNrOfObjectSpawned" : 1,
    "teamonvehicle" : true
  }, {
    "code" : "cpname_kokan_sp_coop64_talimain_mortar_2",
    "lastuser" : null,
    "objecttemplate_1" : "mortar_team1",
    "objecttemplate_2" : null,
    "minspawndelay" : 600.0,
    "maxspawndelay" : 600.0,
    "spawndelayatstart" : true,
    "timetolive" : 0.0,
    "distance" : 0.0,
    "team" : 1,
    "maxNrOfObjectSpawned" : 1,
    "teamonvehicle" : true
  }, {
    "code" : "cpname_kokan_sp_coop64_indiatwelve_zpu4",
    "lastuser" : null,
    "objecttemplate_1" : "zpu4",
    "objecttemplate_2" : null,
    "minspawndelay" : 900.0,
    "maxspawndelay" : 900.0,
    "spawndelayatstart" : false,
    "timetolive" : 1200.0,
    "distance" : 0.0,
    "team" : -999,
    "maxNrOfObjectSpawned" : 1,
    "teamonvehicle" : true
  }, {
    "code" : "cpname_kokan_sp_coop64_golfeight_rally",
    "lastuser" : null,
    "objecttemplate_1" : "rallypoint_taliban_placeable_noexpire",
    "objecttemplate_2" : null,
    "minspawndelay" : 180.0,
    "maxspawndelay" : 180.0,
    "spawndelayatstart" : false,
    "timetolive" : 0.0,
    "distance" : 0.0,
    "team" : -999,
    "maxNrOfObjectSpawned" : 1,
    "teamonvehicle" : true
  }, {
    "code" : "cpname_kokan_sp_coop64_hotelnine_rally",
    "lastuser" : null,
    "objecttemplate_1" : "rallypoint_taliban_placeable_noexpire",
    "objecttemplate_2" : null,
    "minspawndelay" : 180.0,
    "maxspawndelay" : 180.0,
    "spawndelayatstart" : false,
    "timetolive" : 0.0,
    "distance" : 0.0,
    "team" : -999,
    "maxNrOfObjectSpawned" : 1,
    "teamonvehicle" : true
  }, {
    "code" : "cpname_kokan_sp_coop64_golfeleven_rally",
    "lastuser" : null,
    "objecttemplate_1" : "rallypoint_taliban_placeable_noexpire",
    "objecttemplate_2" : null,
    "minspawndelay" : 180.0,
    "maxspawndelay" : 180.0,
    "spawndelayatstart" : false,
    "timetolive" : 0.0,
    "distance" : 0.0,
    "team" : -999,
    "maxNrOfObjectSpawned" : 1,
    "teamonvehicle" : true
  }, {
    "code" : "cpname_kokan_sp_coop64_indiatwelve_rally",
    "lastuser" : null,
    "objecttemplate_1" : "rallypoint_taliban_placeable_noexpire",
    "objecttemplate_2" : null,
    "minspawndelay" : 180.0,
    "maxspawndelay" : 180.0,
    "spawndelayatstart" : false,
    "timetolive" : 0.0,
    "distance" : 0.0,
    "team" : -999,
    "maxNrOfObjectSpawned" : 1,
    "teamonvehicle" : true
  }, {
    "code" : "cpname_kokan_sp_coop64_isafoperations_crows",
    "lastuser" : null,
    "objecttemplate_1" : null,
    "objecttemplate_2" : "us_jep_hmmwv_uparmored_alt",
    "minspawndelay" : 300.0,
    "maxspawndelay" : 300.0,
    "spawndelayatstart" : false,
    "timetolive" : 1200.0,
    "distance" : 100.0,
    "team" : -999,
    "maxNrOfObjectSpawned" : 1,
    "teamonvehicle" : true
  }, {
    "code" : "cpname_kokan_sp_coop64_isafoperations_crows_0",
    "lastuser" : null,
    "objecttemplate_1" : null,
    "objecttemplate_2" : "us_jep_hmmwv_uparmored_alt",
    "minspawndelay" : 300.0,
    "maxspawndelay" : 300.0,
    "spawndelayatstart" : false,
    "timetolive" : 1200.0,
    "distance" : 100.0,
    "team" : -999,
    "maxNrOfObjectSpawned" : 1,
    "teamonvehicle" : true
  }, {
    "code" : "cpname_kokan_sp_coop64_isafoperations_support",
    "lastuser" : null,
    "objecttemplate_1" : null,
    "objecttemplate_2" : "us_trk_support",
    "minspawndelay" : 300.0,
    "maxspawndelay" : 300.0,
    "spawndelayatstart" : false,
    "timetolive" : 1200.0,
    "distance" : 100.0,
    "team" : -999,
    "maxNrOfObjectSpawned" : 1,
    "teamonvehicle" : true
  }, {
    "code" : "cpname_kokan_sp_coop64_indiatwelve_techie",
    "lastuser" : null,
    "objecttemplate_1" : "civ_jep_technical_blue",
    "objecttemplate_2" : null,
    "minspawndelay" : 600.0,
    "maxspawndelay" : 600.0,
    "spawndelayatstart" : false,
    "timetolive" : 1200.0,
    "distance" : 0.0,
    "team" : -999,
    "maxNrOfObjectSpawned" : 1,
    "teamonvehicle" : true
  }, {
    "code" : "cpname_kokan_sp_coop64_golfeleven_techie",
    "lastuser" : null,
    "objecttemplate_1" : "civ_jep_technical2",
    "objecttemplate_2" : null,
    "minspawndelay" : 600.0,
    "maxspawndelay" : 600.0,
    "spawndelayatstart" : false,
    "timetolive" : 1200.0,
    "distance" : 0.0,
    "team" : -999,
    "maxNrOfObjectSpawned" : 1,
    "teamonvehicle" : true
  }, {
    "code" : "cpname_kokan_sp_coop64_hotelnine_techie",
    "lastuser" : null,
    "objecttemplate_1" : "civ_jep_technical2",
    "objecttemplate_2" : null,
    "minspawndelay" : 600.0,
    "maxspawndelay" : 600.0,
    "spawndelayatstart" : false,
    "timetolive" : 1200.0,
    "distance" : 0.0,
    "team" : -999,
    "maxNrOfObjectSpawned" : 1,
    "teamonvehicle" : true
  }, {
    "code" : "cpname_kokan_sp_coop64_golfeight_techie",
    "lastuser" : null,
    "objecttemplate_1" : "civ_jep_technical_red",
    "objecttemplate_2" : null,
    "minspawndelay" : 600.0,
    "maxspawndelay" : 600.0,
    "spawndelayatstart" : false,
    "timetolive" : 1200.0,
    "distance" : 0.0,
    "team" : -999,
    "maxNrOfObjectSpawned" : 1,
    "teamonvehicle" : true
  }, {
    "code" : "cpname_kokan_sp_coop64_isafoperations_crate",
    "lastuser" : null,
    "objecttemplate_1" : null,
    "objecttemplate_2" : "fixed_supply_crate_us",
    "minspawndelay" : 0.0,
    "maxspawndelay" : 0.0,
    "spawndelayatstart" : false,
    "timetolive" : 0.0,
    "distance" : 0.0,
    "team" : -999,
    "maxNrOfObjectSpawned" : 1,
    "teamonvehicle" : true
  }, {
    "code" : "cpname_kokan_sp_coop64_isafoperations_boat",
    "lastuser" : null,
    "objecttemplate_1" : null,
    "objecttemplate_2" : "boat_rib_gpmg_m240b",
    "minspawndelay" : 600.0,
    "maxspawndelay" : 600.0,
    "spawndelayatstart" : false,
    "timetolive" : 1200.0,
    "distance" : 0.0,
    "team" : -999,
    "maxNrOfObjectSpawned" : 1,
    "teamonvehicle" : true
  }, {
    "code" : "cpname_kokan_sp_coop64_isafoperations_boat_0",
    "lastuser" : null,
    "objecttemplate_1" : null,
    "objecttemplate_2" : "boat_rib_gpmg_m240b",
    "minspawndelay" : 600.0,
    "maxspawndelay" : 600.0,
    "spawndelayatstart" : false,
    "timetolive" : 1200.0,
    "distance" : 0.0,
    "team" : -999,
    "maxNrOfObjectSpawned" : 1,
    "teamonvehicle" : true
  }, {
    "code" : "cpname_kokan_sp_coop64_golfeleven_mortar",
    "lastuser" : null,
    "objecttemplate_1" : "fixed_mortar_ins",
    "objecttemplate_2" : null,
    "minspawndelay" : 600.0,
    "maxspawndelay" : 600.0,
    "spawndelayatstart" : false,
    "timetolive" : 0.0,
    "distance" : 0.0,
    "team" : -999,
    "maxNrOfObjectSpawned" : 1,
    "teamonvehicle" : true
  }, {
    "code" : "cpname_kokan_sp_coop64_indiatwelve_mortar",
    "lastuser" : null,
    "objecttemplate_1" : "fixed_mortar_ins",
    "objecttemplate_2" : null,
    "minspawndelay" : 600.0,
    "maxspawndelay" : 600.0,
    "spawndelayatstart" : false,
    "timetolive" : 0.0,
    "distance" : 0.0,
    "team" : -999,
    "maxNrOfObjectSpawned" : 1,
    "teamonvehicle" : true
  }, {
    "code" : "cpname_kokan_sp_coop64_hotelnine_mortar",
    "lastuser" : null,
    "objecttemplate_1" : "fixed_mortar_ins",
    "objecttemplate_2" : null,
    "minspawndelay" : 600.0,
    "maxspawndelay" : 600.0,
    "spawndelayatstart" : false,
    "timetolive" : 0.0,
    "distance" : 0.0,
    "team" : -999,
    "maxNrOfObjectSpawned" : 1,
    "teamonvehicle" : true
  } ],
  "spawnpoints" : [ {
    "code" : "squadleaderspawnpoint",
    "spawnpositionoffset" : [ 0.0, 0.0, 0.0 ],
    "group" : 0,
    "controlpointid" : 0,
    "allowspawnclosetovehicle" : false,
    "onlyforhuman" : false
  }, {
    "code" : "cpname_kokan_sp_coop64_deltafive_1",
    "spawnpositionoffset" : [ 0.0, 1.25, 0.0 ],
    "group" : 0,
    "controlpointid" : 2,
    "allowspawnclosetovehicle" : true,
    "onlyforhuman" : false
  }, {
    "code" : "cpname_kokan_sp_coop64_deltafive_2",
    "spawnpositionoffset" : [ 0.0, 1.25, 0.0 ],
    "group" : 0,
    "controlpointid" : 2,
    "allowspawnclosetovehicle" : true,
    "onlyforhuman" : false
  }, {
    "code" : "cpname_kokan_sp_coop64_deltafive_3",
    "spawnpositionoffset" : [ 0.0, 1.25, 0.0 ],
    "group" : 0,
    "controlpointid" : 2,
    "allowspawnclosetovehicle" : true,
    "onlyforhuman" : false
  }, {
    "code" : "cpname_kokan_sp_coop64_deltafive_4",
    "spawnpositionoffset" : [ 0.0, 1.25, 0.0 ],
    "group" : 0,
    "controlpointid" : 2,
    "allowspawnclosetovehicle" : true,
    "onlyforhuman" : false
  }, {
    "code" : "cpname_kokan_sp_coop64_deltafive_5",
    "spawnpositionoffset" : [ 0.0, 1.25, 0.0 ],
    "group" : 0,
    "controlpointid" : 2,
    "allowspawnclosetovehicle" : true,
    "onlyforhuman" : false
  }, {
    "code" : "cpname_kokan_sp_coop64_deltafive_6",
    "spawnpositionoffset" : [ 0.0, 1.25, 0.0 ],
    "group" : 0,
    "controlpointid" : 2,
    "allowspawnclosetovehicle" : true,
    "onlyforhuman" : false
  }, {
    "code" : "cpname_kokan_sp_coop64_deltafive_7",
    "spawnpositionoffset" : [ 0.0, 1.25, 0.0 ],
    "group" : 0,
    "controlpointid" : 2,
    "allowspawnclosetovehicle" : true,
    "onlyforhuman" : false
  }, {
    "code" : "cpname_kokan_sp_coop64_deltafive_8",
    "spawnpositionoffset" : [ 0.0, 1.25, 0.0 ],
    "group" : 0,
    "controlpointid" : 2,
    "allowspawnclosetovehicle" : true,
    "onlyforhuman" : false
  }, {
    "code" : "cpname_kokan_sp_coop64_golfeight_1",
    "spawnpositionoffset" : [ 0.0, 1.25, 0.0 ],
    "group" : 0,
    "controlpointid" : 3,
    "allowspawnclosetovehicle" : true,
    "onlyforhuman" : false
  }, {
    "code" : "cpname_kokan_sp_coop64_golfeight_2",
    "spawnpositionoffset" : [ 0.0, 1.25, 0.0 ],
    "group" : 0,
    "controlpointid" : 3,
    "allowspawnclosetovehicle" : true,
    "onlyforhuman" : false
  }, {
    "code" : "cpname_kokan_sp_coop64_golfeight_3",
    "spawnpositionoffset" : [ 0.0, 1.25, 0.0 ],
    "group" : 0,
    "controlpointid" : 3,
    "allowspawnclosetovehicle" : true,
    "onlyforhuman" : false
  }, {
    "code" : "cpname_kokan_sp_coop64_golfeight_4",
    "spawnpositionoffset" : [ 0.0, 1.25, 0.0 ],
    "group" : 0,
    "controlpointid" : 3,
    "allowspawnclosetovehicle" : true,
    "onlyforhuman" : false
  }, {
    "code" : "cpname_kokan_sp_coop64_golfeight_5",
    "spawnpositionoffset" : [ 0.0, 1.25, 0.0 ],
    "group" : 0,
    "controlpointid" : 3,
    "allowspawnclosetovehicle" : true,
    "onlyforhuman" : false
  }, {
    "code" : "cpname_kokan_sp_coop64_golfeight_6",
    "spawnpositionoffset" : [ 0.0, 1.25, 0.0 ],
    "group" : 0,
    "controlpointid" : 3,
    "allowspawnclosetovehicle" : true,
    "onlyforhuman" : false
  }, {
    "code" : "cpname_kokan_sp_coop64_hotelnine_1",
    "spawnpositionoffset" : [ 0.0, 1.25, 0.0 ],
    "group" : 0,
    "controlpointid" : 5,
    "allowspawnclosetovehicle" : true,
    "onlyforhuman" : false
  }, {
    "code" : "cpname_kokan_sp_coop64_hotelnine_2",
    "spawnpositionoffset" : [ 0.0, 1.25, 0.0 ],
    "group" : 0,
    "controlpointid" : 5,
    "allowspawnclosetovehicle" : true,
    "onlyforhuman" : false
  }, {
    "code" : "cpname_kokan_sp_coop64_hotelnine_3",
    "spawnpositionoffset" : [ 0.0, 1.25, 0.0 ],
    "group" : 0,
    "controlpointid" : 5,
    "allowspawnclosetovehicle" : true,
    "onlyforhuman" : false
  }, {
    "code" : "cpname_kokan_sp_coop64_hotelnine_4",
    "spawnpositionoffset" : [ 0.0, 1.25, 0.0 ],
    "group" : 0,
    "controlpointid" : 5,
    "allowspawnclosetovehicle" : true,
    "onlyforhuman" : false
  }, {
    "code" : "cpname_kokan_sp_coop64_hotelnine_5",
    "spawnpositionoffset" : [ 0.0, 1.25, 0.0 ],
    "group" : 0,
    "controlpointid" : 5,
    "allowspawnclosetovehicle" : true,
    "onlyforhuman" : false
  }, {
    "code" : "cpname_kokan_sp_coop64_hotelnine_6",
    "spawnpositionoffset" : [ 0.0, 1.25, 0.0 ],
    "group" : 0,
    "controlpointid" : 5,
    "allowspawnclosetovehicle" : true,
    "onlyforhuman" : false
  }, {
    "code" : "cpname_kokan_sp_coop64_hotelnine_7",
    "spawnpositionoffset" : [ 0.0, 1.25, 0.0 ],
    "group" : 0,
    "controlpointid" : 5,
    "allowspawnclosetovehicle" : true,
    "onlyforhuman" : false
  }, {
    "code" : "cpname_kokan_sp_coop64_hotelnine_8",
    "spawnpositionoffset" : [ 0.0, 1.25, 0.0 ],
    "group" : 0,
    "controlpointid" : 5,
    "allowspawnclosetovehicle" : true,
    "onlyforhuman" : false
  }, {
    "code" : "cpname_kokan_sp_coop64_golfeleven_1",
    "spawnpositionoffset" : [ 0.0, 1.25, 0.0 ],
    "group" : 0,
    "controlpointid" : 4,
    "allowspawnclosetovehicle" : true,
    "onlyforhuman" : false
  }, {
    "code" : "cpname_kokan_sp_coop64_golfeleven_2",
    "spawnpositionoffset" : [ 0.0, 1.25, 0.0 ],
    "group" : 0,
    "controlpointid" : 4,
    "allowspawnclosetovehicle" : true,
    "onlyforhuman" : false
  }, {
    "code" : "cpname_kokan_sp_coop64_golfeleven_3",
    "spawnpositionoffset" : [ 0.0, 1.25, 0.0 ],
    "group" : 0,
    "controlpointid" : 4,
    "allowspawnclosetovehicle" : true,
    "onlyforhuman" : false
  }, {
    "code" : "cpname_kokan_sp_coop64_golfeleven_4",
    "spawnpositionoffset" : [ 0.0, 1.25, 0.0 ],
    "group" : 0,
    "controlpointid" : 4,
    "allowspawnclosetovehicle" : true,
    "onlyforhuman" : false
  }, {
    "code" : "cpname_kokan_sp_coop64_golfeleven_5",
    "spawnpositionoffset" : [ 0.0, 1.25, 0.0 ],
    "group" : 0,
    "controlpointid" : 4,
    "allowspawnclosetovehicle" : true,
    "onlyforhuman" : false
  }, {
    "code" : "cpname_kokan_sp_coop64_golfeleven_6",
    "spawnpositionoffset" : [ 0.0, 1.25, 0.0 ],
    "group" : 0,
    "controlpointid" : 4,
    "allowspawnclosetovehicle" : true,
    "onlyforhuman" : false
  }, {
    "code" : "cpname_kokan_sp_coop64_golfeleven_7",
    "spawnpositionoffset" : [ 0.0, 1.25, 0.0 ],
    "group" : 0,
    "controlpointid" : 4,
    "allowspawnclosetovehicle" : true,
    "onlyforhuman" : false
  }, {
    "code" : "cpname_kokan_sp_coop64_golfeleven_8",
    "spawnpositionoffset" : [ 0.0, 1.25, 0.0 ],
    "group" : 0,
    "controlpointid" : 4,
    "allowspawnclosetovehicle" : true,
    "onlyforhuman" : false
  }, {
    "code" : "cpname_kokan_sp_coop64_indiatwelve_1",
    "spawnpositionoffset" : [ 0.0, 1.25, 0.0 ],
    "group" : 0,
    "controlpointid" : 9,
    "allowspawnclosetovehicle" : true,
    "onlyforhuman" : false
  }, {
    "code" : "cpname_kokan_sp_coop64_indiatwelve_2",
    "spawnpositionoffset" : [ 0.0, 1.25, 0.0 ],
    "group" : 0,
    "controlpointid" : 9,
    "allowspawnclosetovehicle" : true,
    "onlyforhuman" : false
  }, {
    "code" : "cpname_kokan_sp_coop64_golfeight_7",
    "spawnpositionoffset" : [ 0.0, 1.25, 0.0 ],
    "group" : 0,
    "controlpointid" : 3,
    "allowspawnclosetovehicle" : true,
    "onlyforhuman" : false
  }, {
    "code" : "cpname_kokan_sp_coop64_indiatwelve_3",
    "spawnpositionoffset" : [ 0.0, 1.25, 0.0 ],
    "group" : 0,
    "controlpointid" : 9,
    "allowspawnclosetovehicle" : true,
    "onlyforhuman" : false
  }, {
    "code" : "cpname_kokan_sp_coop64_indiatwelve_4",
    "spawnpositionoffset" : [ 0.0, 1.25, 0.0 ],
    "group" : 0,
    "controlpointid" : 9,
    "allowspawnclosetovehicle" : true,
    "onlyforhuman" : false
  }, {
    "code" : "cpname_kokan_sp_coop64_indiatwelve_5",
    "spawnpositionoffset" : [ 0.0, 1.25, 0.0 ],
    "group" : 0,
    "controlpointid" : 9,
    "allowspawnclosetovehicle" : true,
    "onlyforhuman" : false
  }, {
    "code" : "cpname_kokan_sp_coop64_indiatwelve_6",
    "spawnpositionoffset" : [ 0.0, 1.25, 0.0 ],
    "group" : 0,
    "controlpointid" : 9,
    "allowspawnclosetovehicle" : true,
    "onlyforhuman" : false
  }, {
    "code" : "cpname_kokan_sp_coop64_indiatwelve_7",
    "spawnpositionoffset" : [ 0.0, 1.25, 0.0 ],
    "group" : 0,
    "controlpointid" : 9,
    "allowspawnclosetovehicle" : true,
    "onlyforhuman" : false
  }, {
    "code" : "cpname_kokan_sp_coop64_indiatwelve_8",
    "spawnpositionoffset" : [ 0.0, 1.25, 0.0 ],
    "group" : 0,
    "controlpointid" : 9,
    "allowspawnclosetovehicle" : true,
    "onlyforhuman" : false
  }, {
    "code" : "cpname_kokan_sp_coop64_talibanhq_1",
    "spawnpositionoffset" : [ 0.0, 1.25, 0.0 ],
    "group" : 0,
    "controlpointid" : 7,
    "allowspawnclosetovehicle" : true,
    "onlyforhuman" : false
  }, {
    "code" : "cpname_kokan_sp_coop64_talibanhq_2",
    "spawnpositionoffset" : [ 0.0, 1.25, 0.0 ],
    "group" : 0,
    "controlpointid" : 7,
    "allowspawnclosetovehicle" : true,
    "onlyforhuman" : false
  }, {
    "code" : "cpname_kokan_sp_coop64_talibanhq_3",
    "spawnpositionoffset" : [ 0.0, 1.25, 0.0 ],
    "group" : 0,
    "controlpointid" : 7,
    "allowspawnclosetovehicle" : true,
    "onlyforhuman" : false
  }, {
    "code" : "cpname_kokan_sp_coop64_talibanhq_4",
    "spawnpositionoffset" : [ 0.0, 1.25, 0.0 ],
    "group" : 0,
    "controlpointid" : 7,
    "allowspawnclosetovehicle" : true,
    "onlyforhuman" : false
  }, {
    "code" : "cpname_kokan_sp_coop64_talibanhq_5",
    "spawnpositionoffset" : [ 0.0, 1.25, 0.0 ],
    "group" : 0,
    "controlpointid" : 7,
    "allowspawnclosetovehicle" : true,
    "onlyforhuman" : false
  }, {
    "code" : "cpname_kokan_sp_coop64_talibanhq_6",
    "spawnpositionoffset" : [ 0.0, 1.25, 0.0 ],
    "group" : 0,
    "controlpointid" : 7,
    "allowspawnclosetovehicle" : true,
    "onlyforhuman" : false
  }, {
    "code" : "cpname_kokan_sp_coop64_talibanhq_7",
    "spawnpositionoffset" : [ 0.0, 1.25, 0.0 ],
    "group" : 0,
    "controlpointid" : 7,
    "allowspawnclosetovehicle" : true,
    "onlyforhuman" : false
  }, {
    "code" : "cpname_kokan_sp_coop64_talibanhq_8",
    "spawnpositionoffset" : [ 0.0, 1.25, 0.0 ],
    "group" : 0,
    "controlpointid" : 7,
    "allowspawnclosetovehicle" : true,
    "onlyforhuman" : false
  }, {
    "code" : "cpname_kokan_sp_coop64_isafoperations_1",
    "spawnpositionoffset" : [ 0.0, 1.25, 0.0 ],
    "group" : 0,
    "controlpointid" : 1,
    "allowspawnclosetovehicle" : true,
    "onlyforhuman" : false
  }, {
    "code" : "cpname_kokan_sp_coop64_isafoperations_2",
    "spawnpositionoffset" : [ 0.0, 1.25, 0.0 ],
    "group" : 0,
    "controlpointid" : 1,
    "allowspawnclosetovehicle" : true,
    "onlyforhuman" : false
  }, {
    "code" : "cpname_kokan_sp_coop64_isafoperations_3",
    "spawnpositionoffset" : [ 0.0, 1.25, 0.0 ],
    "group" : 0,
    "controlpointid" : 1,
    "allowspawnclosetovehicle" : true,
    "onlyforhuman" : false
  }, {
    "code" : "cpname_kokan_sp_coop64_isafoperations_4",
    "spawnpositionoffset" : [ 0.0, 1.25, 0.0 ],
    "group" : 0,
    "controlpointid" : 1,
    "allowspawnclosetovehicle" : true,
    "onlyforhuman" : false
  }, {
    "code" : "cpname_kokan_sp_coop64_isafoperations_5",
    "spawnpositionoffset" : [ 0.0, 1.25, 0.0 ],
    "group" : 0,
    "controlpointid" : 1,
    "allowspawnclosetovehicle" : true,
    "onlyforhuman" : false
  }, {
    "code" : "cpname_kokan_sp_coop64_isafoperations_6",
    "spawnpositionoffset" : [ 0.0, 1.25, 0.0 ],
    "group" : 0,
    "controlpointid" : 1,
    "allowspawnclosetovehicle" : true,
    "onlyforhuman" : true
  }, {
    "code" : "cpname_kokan_sp_coop64_isafoperations_7",
    "spawnpositionoffset" : [ 0.0, 1.25, 0.0 ],
    "group" : 0,
    "controlpointid" : 1,
    "allowspawnclosetovehicle" : true,
    "onlyforhuman" : true
  }, {
    "code" : "cpname_kokan_sp_coop64_isafoperations_8",
    "spawnpositionoffset" : [ 0.0, 1.25, 0.0 ],
    "group" : 0,
    "controlpointid" : 1,
    "allowspawnclosetovehicle" : true,
    "onlyforhuman" : true
  }, {
    "code" : "cpname_kokan_sp_coop64_isafoperations_9",
    "spawnpositionoffset" : [ 0.0, 1.25, 0.0 ],
    "group" : 0,
    "controlpointid" : 1,
    "allowspawnclosetovehicle" : true,
    "onlyforhuman" : true
  }, {
    "code" : "cpname_kokan_sp_coop64_talimain_1",
    "spawnpositionoffset" : [ 0.0, 1.25, 0.0 ],
    "group" : 0,
    "controlpointid" : 7,
    "allowspawnclosetovehicle" : true,
    "onlyforhuman" : true
  }, {
    "code" : "cpname_kokan_sp_coop64_talimain_2",
    "spawnpositionoffset" : [ 0.0, 1.25, 0.0 ],
    "group" : 0,
    "controlpointid" : 7,
    "allowspawnclosetovehicle" : true,
    "onlyforhuman" : true
  }, {
    "code" : "cpname_kokan_sp_coop64_talimain_3",
    "spawnpositionoffset" : [ 0.0, 1.25, 0.0 ],
    "group" : 0,
    "controlpointid" : 7,
    "allowspawnclosetovehicle" : true,
    "onlyforhuman" : true
  }, {
    "code" : "cpname_kokan_sp_coop64_talimain_4",
    "spawnpositionoffset" : [ 0.0, 1.25, 0.0 ],
    "group" : 0,
    "controlpointid" : 7,
    "allowspawnclosetovehicle" : true,
    "onlyforhuman" : false
  }, {
    "code" : "cpname_kokan_sp_coop64_talimain_5",
    "spawnpositionoffset" : [ 0.0, 1.25, 0.0 ],
    "group" : 0,
    "controlpointid" : 7,
    "allowspawnclosetovehicle" : true,
    "onlyforhuman" : false
  }, {
    "code" : "cpname_kokan_sp_coop64_talimain_6",
    "spawnpositionoffset" : [ 0.0, 1.25, 0.0 ],
    "group" : 0,
    "controlpointid" : 7,
    "allowspawnclosetovehicle" : true,
    "onlyforhuman" : false
  }, {
    "code" : "cpname_kokan_sp_coop64_deltafive_9",
    "spawnpositionoffset" : [ 0.0, 1.25, 0.0 ],
    "group" : 0,
    "controlpointid" : 2,
    "allowspawnclosetovehicle" : true,
    "onlyforhuman" : false
  }, {
    "code" : "cpname_kokan_sp_coop64_deltafive_10",
    "spawnpositionoffset" : [ 0.0, 1.25, 0.0 ],
    "group" : 0,
    "controlpointid" : 2,
    "allowspawnclosetovehicle" : true,
    "onlyforhuman" : false
  }, {
    "code" : "cpname_kokan_sp_coop64_talibanhq_9",
    "spawnpositionoffset" : [ 0.0, 1.25, 0.0 ],
    "group" : 0,
    "controlpointid" : 7,
    "allowspawnclosetovehicle" : true,
    "onlyforhuman" : false
  }, {
    "code" : "cpname_kokan_sp_coop64_golfeleven_9",
    "spawnpositionoffset" : [ 0.0, 1.25, 0.0 ],
    "group" : 0,
    "controlpointid" : 4,
    "allowspawnclosetovehicle" : true,
    "onlyforhuman" : false
  }, {
    "code" : "cpname_kokan_sp_coop64_talimain_7",
    "spawnpositionoffset" : [ 0.0, 1.25, 0.0 ],
    "group" : 0,
    "controlpointid" : 7,
    "allowspawnclosetovehicle" : true,
    "onlyforhuman" : false
  }, {
    "code" : "cpname_kokan_sp_coop64_indiatwelve_9",
    "spawnpositionoffset" : [ 0.0, 1.25, 0.0 ],
    "group" : 0,
    "controlpointid" : 9,
    "allowspawnclosetovehicle" : true,
    "onlyforhuman" : false
  }, {
    "code" : "cpname_kokan_sp_coop64_isafoperations_10",
    "spawnpositionoffset" : [ 0.0, 1.25, 0.0 ],
    "group" : 0,
    "controlpointid" : 1,
    "allowspawnclosetovehicle" : true,
    "onlyforhuman" : false
  }, {
    "code" : "cpname_kokan_sp_coop64_golfeight_8",
    "spawnpositionoffset" : [ 0.0, 1.25, 0.0 ],
    "group" : 0,
    "controlpointid" : 3,
    "allowspawnclosetovehicle" : true,
    "onlyforhuman" : false
  }, {
    "code" : "cpname_kokan_sp_coop64_hotelnine_9",
    "spawnpositionoffset" : [ 0.0, 1.25, 0.0 ],
    "group" : 0,
    "controlpointid" : 5,
    "allowspawnclosetovehicle" : true,
    "onlyforhuman" : false
  }, {
    "code" : "cpname_kokan_sp_coop64_hotelnine_10",
    "spawnpositionoffset" : [ 0.0, 1.25, 0.0 ],
    "group" : 0,
    "controlpointid" : 5,
    "allowspawnclosetovehicle" : true,
    "onlyforhuman" : false
  }, {
    "code" : "cpname_kokan_sp_coop64_indiatwelve_10",
    "spawnpositionoffset" : [ 0.0, 1.25, 0.0 ],
    "group" : 0,
    "controlpointid" : 9,
    "allowspawnclosetovehicle" : true,
    "onlyforhuman" : false
  }, {
    "code" : "cpname_kokan_sp_coop64_indiatwelve_11",
    "spawnpositionoffset" : [ 0.0, 1.25, 0.0 ],
    "group" : 0,
    "controlpointid" : 9,
    "allowspawnclosetovehicle" : true,
    "onlyforhuman" : false
  }, {
    "code" : "cpname_kokan_sp_coop64_indiatwelve_12",
    "spawnpositionoffset" : [ 0.0, 1.25, 0.0 ],
    "group" : 0,
    "controlpointid" : 9,
    "allowspawnclosetovehicle" : true,
    "onlyforhuman" : false
  }, {
    "code" : "cpname_kokan_sp_coop64_talibanhq_17",
    "spawnpositionoffset" : [ 0.0, 1.25, 0.0 ],
    "group" : 0,
    "controlpointid" : 7,
    "allowspawnclosetovehicle" : true,
    "onlyforhuman" : false
  }, {
    "code" : "cpname_kokan_sp_coop64_talibanhq_18",
    "spawnpositionoffset" : [ 0.0, 1.25, 0.0 ],
    "group" : 0,
    "controlpointid" : 7,
    "allowspawnclosetovehicle" : true,
    "onlyforhuman" : false
  }, {
    "code" : "cpname_kokan_sp_coop64_indiatwelve_13",
    "spawnpositionoffset" : [ 0.0, 1.25, 0.0 ],
    "group" : 0,
    "controlpointid" : 9,
    "allowspawnclosetovehicle" : true,
    "onlyforhuman" : false
  }, {
    "code" : "cpname_kokan_sp_coop64_hotelnine_11",
    "spawnpositionoffset" : [ 0.0, 1.25, 0.0 ],
    "group" : 0,
    "controlpointid" : 5,
    "allowspawnclosetovehicle" : true,
    "onlyforhuman" : false
  }, {
    "code" : "cpname_kokan_sp_coop64_indiatwelve_14",
    "spawnpositionoffset" : [ 0.0, 1.25, 0.0 ],
    "group" : 0,
    "controlpointid" : 9,
    "allowspawnclosetovehicle" : true,
    "onlyforhuman" : false
  }, {
    "code" : "cpname_kokan_sp_coop64_golfeleven_10",
    "spawnpositionoffset" : [ 0.0, 1.25, 0.0 ],
    "group" : 0,
    "controlpointid" : 4,
    "allowspawnclosetovehicle" : true,
    "onlyforhuman" : false
  } ],
  "controlpoints" : [ {
    "code" : "cpname_kokan_sp_coop64_isafoperations",
    "physicsType" : "mesh",
    "name" : "ISAF Operations Base",
    "team" : 2,
    "controlpointid" : 1,
    "unabletochangeteam" : true,
    "hoistminmax" : null,
    "radius" : 40.0,
    "areavalueteam1" : 0.0,
    "areavalueteam2" : 0.0,
    "timetogetcontrol" : 0.0,
    "timetolosecontrol" : 0.0,
    "supplygroupid" : -999
  }, {
    "code" : "cpname_kokan_sp_coop64_talibanhq",
    "physicsType" : "mesh",
    "name" : "Taliban Stronghold 30m",
    "team" : 1,
    "controlpointid" : 7,
    "unabletochangeteam" : false,
    "hoistminmax" : null,
    "radius" : 30.0,
    "areavalueteam1" : 0.0,
    "areavalueteam2" : 99999.0,
    "timetogetcontrol" : 120.0,
    "timetolosecontrol" : 120.0,
    "supplygroupid" : 1
  }, {
    "code" : "cpname_kokan_sp_coop64_deltafive",
    "physicsType" : "mesh",
    "name" : "Delta Five 50m",
    "team" : 1,
    "controlpointid" : 2,
    "unabletochangeteam" : false,
    "hoistminmax" : null,
    "radius" : 50.0,
    "areavalueteam1" : 20.0,
    "areavalueteam2" : 20.0,
    "timetogetcontrol" : 180.0,
    "timetolosecontrol" : 120.0,
    "supplygroupid" : 5
  }, {
    "code" : "cpname_kokan_sp_coop64_golfeight",
    "physicsType" : "mesh",
    "name" : "Golf Eight 50m",
    "team" : 1,
    "controlpointid" : 3,
    "unabletochangeteam" : false,
    "hoistminmax" : null,
    "radius" : 50.0,
    "areavalueteam1" : 20.0,
    "areavalueteam2" : 20.0,
    "timetogetcontrol" : 120.0,
    "timetolosecontrol" : 120.0,
    "supplygroupid" : 4
  }, {
    "code" : "cpname_kokan_sp_coop64_golfeleven",
    "physicsType" : "mesh",
    "name" : "Golf Eleven 50m",
    "team" : 1,
    "controlpointid" : 4,
    "unabletochangeteam" : false,
    "hoistminmax" : null,
    "radius" : 50.0,
    "areavalueteam1" : 20.0,
    "areavalueteam2" : 20.0,
    "timetogetcontrol" : 120.0,
    "timetolosecontrol" : 180.0,
    "supplygroupid" : 3
  }, {
    "code" : "cpname_kokan_sp_coop64_hotelnine",
    "physicsType" : "mesh",
    "name" : "Hotel Nine 40m",
    "team" : 1,
    "controlpointid" : 5,
    "unabletochangeteam" : false,
    "hoistminmax" : null,
    "radius" : 40.0,
    "areavalueteam1" : 20.0,
    "areavalueteam2" : 20.0,
    "timetogetcontrol" : 180.0,
    "timetolosecontrol" : 180.0,
    "supplygroupid" : 3
  }, {
    "code" : "cpname_kokan_sp_coop64_indiatwelve",
    "physicsType" : "mesh",
    "name" : "India Twelve 40m",
    "team" : 1,
    "controlpointid" : 9,
    "unabletochangeteam" : false,
    "hoistminmax" : null,
    "radius" : 40.0,
    "areavalueteam1" : 20.0,
    "areavalueteam2" : 20.0,
    "timetogetcontrol" : 120.0,
    "timetolosecontrol" : 180.0,
    "supplygroupid" : 2
  } ],
  "combatareas" : [ {
    "code" : "combatarea_25_default",
    "min" : [ 0.0, 0.0 ],
    "max" : [ 0.0, 0.0 ],
    "areapoints" : [ [ 1024.0, 1024.0 ], [ -1024.0, 1024.0 ], [ -1024.0, -1024.0 ], [ 1024.0, -1024.0 ] ],
    "team" : 0,
    "vehicles" : 5,
    "layer" : 1,
    "inverted" : false
  }, {
    "code" : "combatarea_4_default",
    "min" : [ 0.0, 0.0 ],
    "max" : [ 0.0, 0.0 ],
    "areapoints" : [ [ -519.949, 842.32764 ], [ -627.92444, 794.275 ], [ -745.76227, 668.9064 ], [ -732.78296, 534.97253 ], [ -718.8187, 503.0338 ], [ -697.34155, 474.92358 ], [ -693.4259, 466.33264 ], [ -688.10767, 437.44507 ], [ -683.2516, 418.4624 ], [ -674.3202, 404.1001 ], [ -653.25684, 379.78235 ], [ -622.82654, 351.20935 ], [ -598.5974, 339.67285 ], [ -555.8493, 329.66602 ], [ -526.2761, 328.3235 ], [ -502.15112, 316.85022 ], [ -491.44702, 292.109 ], [ -473.71478, 256.172 ], [ -466.60944, 233.26587 ], [ -470.1164, 214.53125 ], [ -494.06805, 157.38489 ], [ -492.78778, 135.15295 ], [ -484.29126, 119.043335 ], [ -459.722, 100.92468 ], [ -418.1485, 58.552612 ], [ -382.37378, 30.447388 ], [ -367.28113, -0.018982 ], [ -368.29034, -13.499023 ], [ -361.0971, -70.93677 ], [ -351.13904, -99.8172 ], [ -340.5714, -119.512146 ], [ -337.76312, -151.84564 ], [ -341.54443, -181.07599 ], [ -348.17706, -196.61108 ], [ -358.42865, -234.18396 ], [ -363.1245, -279.64496 ], [ -346.33417, -358.04834 ], [ -345.12073, -377.48248 ], [ -338.63538, -396.68945 ], [ -309.33014, -430.6314 ], [ -286.00793, -445.36462 ], [ -272.20984, -451.0357 ], [ -256.26495, -448.32556 ], [ -247.15369, -443.6178 ], [ -227.74701, -441.73718 ], [ -217.2049, -442.3341 ], [ -203.41058, -437.66656 ], [ -194.46448, -432.7 ], [ -145.10303, -435.4442 ], [ -122.744934, -460.2105 ], [ -122.35022, -482.07343 ], [ -132.80035, -531.35425 ], [ -149.31525, -574.02826 ], [ -153.40155, -594.4071 ], [ -141.52515, -629.6219 ], [ -125.27612, -653.079 ], [ -121.951416, -664.4579 ], [ -117.660645, -667.2856 ], [ -114.09155, -667.4109 ], [ -112.445435, -669.71027 ], [ -111.62695, -674.4851 ], [ -108.17389, -677.4695 ], [ -95.54492, -681.3647 ], [ -85.56067, -690.19995 ], [ -47.986206, -713.5325 ], [ -34.173706, -729.18774 ], [ -47.398315, -766.31714 ], [ -52.902954, -795.53375 ], [ -60.79901, -801.59204 ], [ -68.56885, -819.0107 ], [ -64.37933, -855.23065 ], [ -59.27527, -877.36084 ], [ -49.348206, -890.77637 ], [ -49.675415, -907.5163 ], [ -43.82202, -922.96606 ], [ 15.61499, -973.8698 ], [ 172.43774, -1004.85803 ], [ 198.42651, -1021.44946 ], [ 183.73914, -1010.9166 ], [ 335.8269, -1013.8151 ], [ 406.5918, -1011.4694 ], [ 514.41785, -1014.88763 ], [ 608.3782, -1013.43915 ], [ 699.08093, -1013.86646 ], [ 904.8325, -1016.1162 ], [ 954.6356, -1015.0663 ], [ 954.6272, -971.4248 ], [ 916.8943, -969.82117 ], [ 875.24805, -987.738 ], [ 762.0552, -984.5999 ], [ 729.86694, -845.7001 ], [ 729.0359, -580.7272 ], [ 632.8014, -270.24872 ], [ 560.5773, -43.854797 ], [ 551.75085, 212.33228 ], [ 527.944, 487.46045 ], [ 371.37903, 672.0364 ] ],
    "team" : 0,
    "vehicles" : 4,
    "layer" : 1,
    "inverted" : false
  } ],
  "team1" : {
    "id" : 1,
    "name" : "taliban",
    "language" : "mec",
    "flag" : "flag_taliban",
    "kits" : [ "taliban_officer_sp", "taliban_riflemanap_sp", "taliban_rifleman_sp", "taliban_support_sp", "taliban_specialist_sp", "taliban_medic_sp", "taliban_riflemanat_sp" ]
  },
  "team2" : {
    "id" : 2,
    "name" : "usa",
    "language" : "english",
    "flag" : "flag_us",
    "kits" : [ "usa_officer_sp", "usa_assault_sp", "usa_rifleman_sp", "usa_support_sp", "usa_specialist_sp", "usa_medic_sp", "usa_riflemanat_sp" ]
  },
  "maxviewdistance" : 500,
  "tickets_1" : 500,
  "tickets_2" : 500,
  "timetonextwave" : 8.0,
  "ticketlossatendpermin" : 1000.0,
  "ticketlosspermin_1" : 1.0,
  "ticketlosspermin_2" : 2.0,
  "customtexturesuffix" : "",
  "combatareamanageruse" : true,
  "combatareamanagerdamage" : 20.0,
  "combatareamanagerallowedoutside" : 10.0,
  "heightmapsize" : 2048,
  "heightmap_imgsize" : [ 257, 257 ],
  "heightmapscale" : [ 8.0, 0.64, 8.0 ],
  "heightmapseawaterlevel" : 14.0,
  "fogstartendandbase" : [ 10.0, 540.0, 1.3, 0.85 ],
  "modeType" : "gpm_coop"
}