{
  "team1":"mec",
  "team2":"fr",
  "team1tickets":"200",
  "team2tickets":"250",
  "mapsize":"2048",
  "viewdistance":"600",
  "combatareause":"true",
  "combatareadamage":"20.0",
  "combatareaallowoutside":"10.0",
  "routes": [
    [
      [
        "cpname_operation_marlin_coop16_constructionsite"
      ],
      [
        "cpname_operation_marlin_coop16_delta"
      ],
      [
        "cpname_operation_marlin_coop16_alley"
      ],
      [
        "cpname_operation_marlin_coop16_constructionsite_0",
        "cpname_operation_marlin_coop16_apartments"
      ],
      [
        "cpname_operation_marlin_coop16_bravo",
        "cpname_operation_marlin_coop16_gasstation"
      ],
      [
        "cpname_operation_marlin_coop16_frenchstagingarea"
      ]
    ]
  ],
  "type": "FeatureCollection",
  "features": [
    {
      "type": "Feature",
      "geometry": {
        "type": "Point",
        "coordinates": [1799.227, -524.07],
        "size": [16, 16]
      },
      "properties": {
        "iconurl": "icons/mini_map/repairdepot.png",
        "iconrotate": "0",
        "popupContent": "Amazing information about null will be found here!"
      },
      "bf2props": {
        "name": "cpname_operation_marlin_coop16_frenchstagingarea_depot",
        "class": "ObjectSpawner",
        "name_object": "Vehicle Depot",
        "team": "2",
        "obj1": "null",
        "obj2": "vehicle_depot_fr",
        "maxspawn": "0.0",
        "minspawn": "0.0",
        "spawndelay": "false",
        "ttl": "0.0",
        "cpid": "6"
      }
    },
    {
      "type": "Feature",
      "geometry": {
        "type": "Point",
        "coordinates": [1780.061, -556.683],
        "size": [16, 16]
      },
      "properties": {
        "iconurl": "icons/vehicles_map/mini_apc_light.png",
        "iconrotate": "-29.978",
        "popupContent": "Amazing information about null will be found here!"
      },
      "bf2props": {
        "name": "cpname_operation_marlin_coop16_frenchstagingarea_vab",
        "class": "ObjectSpawner",
        "name_object": "VAB VTT",
        "team": "2",
        "obj1": "null",
        "obj2": "fr_apc_vab",
        "maxspawn": "600.0",
        "minspawn": "600.0",
        "spawndelay": "false",
        "ttl": "1200.0",
        "cpid": "6"
      }
    },
    {
      "type": "Feature",
      "geometry": {
        "type": "Point",
        "coordinates": [1789.521, -550.23303],
        "size": [16, 16]
      },
      "properties": {
        "iconurl": "icons/vehicles_map/mini_apc_light.png",
        "iconrotate": "-29.978",
        "popupContent": "Amazing information about null will be found here!"
      },
      "bf2props": {
        "name": "cpname_operation_marlin_coop16_frenchstagingarea_vab_0",
        "class": "ObjectSpawner",
        "name_object": "VAB VTT",
        "team": "2",
        "obj1": "null",
        "obj2": "fr_apc_vab",
        "maxspawn": "600.0",
        "minspawn": "600.0",
        "spawndelay": "false",
        "ttl": "1200.0",
        "cpid": "6"
      }
    },
    {
      "type": "Feature",
      "geometry": {
        "type": "Point",
        "coordinates": [1687.651, -596.338],
        "size": [16, 16]
      },
      "properties": {
        "iconurl": "icons/vehicles_map/mini_trk_logistics.png",
        "iconrotate": "92.489",
        "popupContent": "Amazing information about null will be found here!"
      },
      "bf2props": {
        "name": "cpname_operation_marlin_coop16_frenchstagingarea_logi",
        "class": "ObjectSpawner",
        "name_object": "GBC 180 Logistics",
        "team": "2",
        "obj1": "null",
        "obj2": "fr_trk_logistics",
        "maxspawn": "300.0",
        "minspawn": "300.0",
        "spawndelay": "false",
        "ttl": "1200.0",
        "cpid": "6"
      }
    },
    {
      "type": "Feature",
      "geometry": {
        "type": "Point",
        "coordinates": [1093.861, -1324.139],
        "size": [16, 16]
      },
      "properties": {
        "iconurl": "icons/mini_map/repairdepot.png",
        "iconrotate": "0",
        "popupContent": "Amazing information about Vehicle Depot will be found here!"
      },
      "bf2props": {
        "name": "cpname_operation_marlin_coop16_constructionsite_depot",
        "class": "ObjectSpawner",
        "name_object": "Vehicle Depot",
        "team": "1",
        "obj1": "vehicle_depot_mec",
        "obj2": "null",
        "maxspawn": "0.0",
        "minspawn": "0.0",
        "spawndelay": "false",
        "ttl": "0.0",
        "cpid": "1"
      }
    },
    {
      "type": "Feature",
      "geometry": {
        "type": "Point",
        "coordinates": [1095.358, -1324.035],
        "size": [16, 16]
      },
      "properties": {
        "iconurl": "icons/vehicles_map/mini_trk_logistics.png",
        "iconrotate": "90.0",
        "popupContent": "Amazing information about Ural-4320 Logistics will be found here!"
      },
      "bf2props": {
        "name": "cpname_operation_marlin_coop16_constructionsite_logi",
        "class": "ObjectSpawner",
        "name_object": "Ural-4320 Logistics",
        "team": "1",
        "obj1": "mec_trk_logistics",
        "obj2": "null",
        "maxspawn": "180.0",
        "minspawn": "180.0",
        "spawndelay": "false",
        "ttl": "1200.0",
        "cpid": "1"
      }
    },
    {
      "type": "Feature",
      "geometry": {
        "type": "Point",
        "coordinates": [1162.686, -1006.514],
        "size": [16, 16]
      },
      "properties": {
        "iconurl": "icons/vehicles_map/mini_stw_mortar.png",
        "iconrotate": "0.0",
        "popupContent": "Amazing information about fixed_mortar will be found here!"
      },
      "bf2props": {
        "name": "cpname_operation_marlin_coop16_delta_mortar",
        "class": "ObjectSpawner",
        "name_object": "fixed_mortar",
        "team": "1",
        "obj1": "fixed_mortar",
        "obj2": "null",
        "maxspawn": "1200.0",
        "minspawn": "1200.0",
        "spawndelay": "false",
        "ttl": "0.0",
        "cpid": "2"
      }
    },
    {
      "type": "Feature",
      "geometry": {
        "type": "Point",
        "coordinates": [1126.618, -1221.198],
        "size": [33, 33],
        "radius": "30.0"
      },
      "properties": {
        "iconurl": "icons/flags_map/mec/minimap_cp.png",
        "iconrotate": "0",
        "popupContent": "Amazing information about MEC Staging Area will be found here!"
      },
      "bf2props": {
        "name": "cpname_operation_marlin_coop16_constructionsite",
        "class": "ControlPoint",
        "name_object": "MEC Staging Area",
        "team": "1",
        "areavalue1": "0.0",
        "areavalue2": "0.0",
        "cpid": "1",
        "sgid": "1",
        "uncap": "false",
        "ttgc": "90.0",
        "ttlc": "90.0"
      }
    },
    {
      "type": "Feature",
      "geometry": {
        "type": "Point",
        "coordinates": [1133.101, -1004.401],
        "size": [33, 33],
        "radius": "30.0"
      },
      "properties": {
        "iconurl": "icons/flags_map/neutral/minimap_cp.png",
        "iconrotate": "0",
        "popupContent": "Amazing information about Objective Delta will be found here!"
      },
      "bf2props": {
        "name": "cpname_operation_marlin_coop16_delta",
        "class": "ControlPoint",
        "name_object": "Objective Delta",
        "team": "0",
        "areavalue1": "0.0",
        "areavalue2": "0.0",
        "cpid": "2",
        "sgid": "2",
        "uncap": "false",
        "ttgc": "90.0",
        "ttlc": "90.0"
      }
    },
    {
      "type": "Feature",
      "geometry": {
        "type": "Point",
        "coordinates": [1123.677, -830.99097],
        "size": [33, 33],
        "radius": "20.0"
      },
      "properties": {
        "iconurl": "icons/flags_map/neutral/minimap_cp.png",
        "iconrotate": "0",
        "popupContent": "Amazing information about Alley will be found here!"
      },
      "bf2props": {
        "name": "cpname_operation_marlin_coop16_alley",
        "class": "ControlPoint",
        "name_object": "Alley",
        "team": "0",
        "areavalue1": "0.0",
        "areavalue2": "0.0",
        "cpid": "3",
        "sgid": "3",
        "uncap": "false",
        "ttgc": "90.0",
        "ttlc": "90.0"
      }
    },
    {
      "type": "Feature",
      "geometry": {
        "type": "Point",
        "coordinates": [1291.8201, -762.771],
        "size": [33, 33],
        "radius": "20.0"
      },
      "properties": {
        "iconurl": "icons/flags_map/neutral/minimap_cp.png",
        "iconrotate": "0",
        "popupContent": "Amazing information about Building Site will be found here!"
      },
      "bf2props": {
        "name": "cpname_operation_marlin_coop16_constructionsite_0",
        "class": "ControlPoint",
        "name_object": "Building Site",
        "team": "0",
        "areavalue1": "0.0",
        "areavalue2": "0.0",
        "cpid": "4",
        "sgid": "4",
        "uncap": "false",
        "ttgc": "90.0",
        "ttlc": "90.0"
      }
    },
    {
      "type": "Feature",
      "geometry": {
        "type": "Point",
        "coordinates": [1669.7471, -555.45496],
        "size": [33, 33],
        "radius": "20.0"
      },
      "properties": {
        "iconurl": "icons/flags_map/fr/minimap_cp.png",
        "iconrotate": "0",
        "popupContent": "Amazing information about French Staging Area will be found here!"
      },
      "bf2props": {
        "name": "cpname_operation_marlin_coop16_frenchstagingarea",
        "class": "ControlPoint",
        "name_object": "French Staging Area",
        "team": "2",
        "areavalue1": "0.0",
        "areavalue2": "0.0",
        "cpid": "6",
        "sgid": "6",
        "uncap": "false",
        "ttgc": "90.0",
        "ttlc": "90.0"
      }
    },
    {
      "type": "Feature",
      "geometry": {
        "type": "Point",
        "coordinates": [1146.4089, -715.907],
        "size": [33, 33],
        "radius": "20.0"
      },
      "properties": {
        "iconurl": "icons/flags_map/neutral/minimap_cp.png",
        "iconrotate": "0",
        "popupContent": "Amazing information about Apartments will be found here!"
      },
      "bf2props": {
        "name": "cpname_operation_marlin_coop16_apartments",
        "class": "ControlPoint",
        "name_object": "Apartments",
        "team": "0",
        "areavalue1": "0.0",
        "areavalue2": "0.0",
        "cpid": "7",
        "sgid": "4",
        "uncap": "false",
        "ttgc": "90.0",
        "ttlc": "90.0"
      }
    },
    {
      "type": "Feature",
      "geometry": {
        "type": "Point",
        "coordinates": [1180.42, -478.161],
        "size": [33, 33],
        "radius": "20.0"
      },
      "properties": {
        "iconurl": "icons/flags_map/neutral/minimap_cp.png",
        "iconrotate": "0",
        "popupContent": "Amazing information about Objective Bravo will be found here!"
      },
      "bf2props": {
        "name": "cpname_operation_marlin_coop16_bravo",
        "class": "ControlPoint",
        "name_object": "Objective Bravo",
        "team": "0",
        "areavalue1": "0.0",
        "areavalue2": "0.0",
        "cpid": "8",
        "sgid": "5",
        "uncap": "false",
        "ttgc": "90.0",
        "ttlc": "90.0"
      }
    },
    {
      "type": "Feature",
      "geometry": {
        "type": "Point",
        "coordinates": [1290.17, -567.631],
        "size": [33, 33],
        "radius": "30.0"
      },
      "properties": {
        "iconurl": "icons/flags_map/neutral/minimap_cp.png",
        "iconrotate": "0",
        "popupContent": "Amazing information about Gas Station will be found here!"
      },
      "bf2props": {
        "name": "cpname_operation_marlin_coop16_gasstation",
        "class": "ControlPoint",
        "name_object": "Gas Station",
        "team": "0",
        "areavalue1": "0.0",
        "areavalue2": "0.0",
        "cpid": "5",
        "sgid": "5",
        "uncap": "false",
        "ttgc": "90.0",
        "ttlc": "90.0"
      }
    },
    {
      "type": "Feature",
      "geometry": {
        "type": "Polygon",
        "coordinates": [
          [
            [0,0],
            [0,-2048],
            [2048,-2048],
            [2048,0]
          ],[
            [1828.9706, -552.0062],
            [1820.0638, -494.24463],
            [1786.688, -415.03503],
            [1749.2998, -385.21667],
            [1581.8248, -390.3246],
            [1561.5667, -392.2721],
            [1461.4043, -350.85767],
            [1362.1115, -347.2079],
            [1114.1907, -304.40015],
            [1045.5089, -319.94336],
            [1025.2606, -362.14514],
            [1037.5199, -1358.9666],
            [1047.5704, -1412.4512],
            [1108.5123, -1418.2739],
            [1263.7385, -1397.4739],
            [1312.7673, -1342.8594],
            [1317.508, -1089.6755],
            [1332.016, -817.73315],
            [1371.8845, -756.3179],
            [1432.8842, -740.63855],
            [1539.7982, -751.5121],
            [1565.0706, -782.33545],
            [1584.9319, -791.702],
            [1723.2952, -770.91235],
            [1778.8885, -735.94824],
            [1826.1364, -556.21814]
          ]
        ]
      },
      "bf2props": {
        "code": "combatarea_0_default",
        "class": "CombatArea",
        "team": "0",
        "vehicles": "4",
        "layer": "1",
        "inverted": "false",
        "max": [0.0, 0.0],
        "min": [0.0, 0.0]
      }
    }
  ]
}