{
  "team1":"meinsurgent",
  "team2":"gb",
  "team1tickets":"200",
  "team2tickets":"250",
  "mapsize":"2048",
  "viewdistance":"700",
  "combatareause":"true",
  "combatareadamage":"2.8",
  "combatareaallowoutside":"5.0",
  "routes": [
    [
      [
        "cpname_albasrah_2_coop16_mosque"
      ],
      [
        "cpname_albasrah_2_coop16_square",
        "cpname_albasrah_2_coop16_offices"
      ],
      [
        "cpname_albasrah_2_coop16_facility",
        "cpname_albasrah_2_coop16_shanty"
      ],
      [
        "cpname_albasrah_2_coop16_southcheckpoint"
      ]
    ]
  ],
  "type": "FeatureCollection",
  "features": [
    {
      "type": "Feature",
      "geometry": {
        "type": "Point",
        "coordinates": [1457.995, -1271.814],
        "size": [16, 16]
      },
      "properties": {
        "iconurl": "icons/vehicles_map/mini_jep_light.png",
        "iconrotate": "-45.02",
        "popupContent": "Amazing information about DShKM Technical will be found here!"
      },
      "bf2props": {
        "name": "cpname_ab_16_mosque_spawner",
        "class": "ObjectSpawner",
        "name_object": "DShKM Technical",
        "team": "1",
        "obj1": "civ_jep_technical",
        "obj2": "null",
        "maxspawn": "300.0",
        "minspawn": "300.0",
        "spawndelay": "false",
        "ttl": "1200.0",
        "cpid": "1"
      }
    },
    {
      "type": "Feature",
      "geometry": {
        "type": "Point",
        "coordinates": [1445.955, -1423.198],
        "size": [16, 16]
      },
      "properties": {
        "iconurl": "icons/vehicles_map/mini_jep_light.png",
        "iconrotate": "75.171",
        "popupContent": "Amazing information about M2HB Technical will be found here!"
      },
      "bf2props": {
        "name": "cpname_ab_16_mosque_spawner_0",
        "class": "ObjectSpawner",
        "name_object": "M2HB Technical",
        "team": "1",
        "obj1": "civ_jep_technical_black",
        "obj2": "null",
        "maxspawn": "300.0",
        "minspawn": "300.0",
        "spawndelay": "false",
        "ttl": "1200.0",
        "cpid": "1"
      }
    },
    {
      "type": "Feature",
      "geometry": {
        "type": "Point",
        "coordinates": [874.376, -1516.537],
        "size": [16, 16]
      },
      "properties": {
        "iconurl": "icons/vehicles_map/mini_jep_light.png",
        "iconrotate": "0.0",
        "popupContent": "Amazing information about null will be found here!"
      },
      "bf2props": {
        "name": "cpname_ab_16_southcheckpoint_gb_mec_lightjeep",
        "class": "ObjectSpawner",
        "name_object": "Land Rover",
        "team": "2",
        "obj1": "null",
        "obj2": "gb_jep_landrover",
        "maxspawn": "300.0",
        "minspawn": "300.0",
        "spawndelay": "false",
        "ttl": "1200.0",
        "cpid": "5"
      }
    },
    {
      "type": "Feature",
      "geometry": {
        "type": "Point",
        "coordinates": [1052.248, -1605.8611],
        "size": [16, 16]
      },
      "properties": {
        "iconurl": "icons/vehicles_map/mini_jep_light.png",
        "iconrotate": "-42.181",
        "popupContent": "Amazing information about null will be found here!"
      },
      "bf2props": {
        "name": "cpname_ab_16_southcheckpoint_gb_mec_lightjeep_0",
        "class": "ObjectSpawner",
        "name_object": "Land Rover",
        "team": "2",
        "obj1": "null",
        "obj2": "gb_jep_landrover",
        "maxspawn": "300.0",
        "minspawn": "300.0",
        "spawndelay": "false",
        "ttl": "1200.0",
        "cpid": "5"
      }
    },
    {
      "type": "Feature",
      "geometry": {
        "type": "Point",
        "coordinates": [1327.817, -1329.282],
        "size": [16, 16]
      },
      "properties": {
        "iconurl": "icons/vehicles_map/mini_smgsmall.png",
        "iconrotate": "-86.659",
        "popupContent": "Amazing information about Stationary BIPOD will be found here!"
      },
      "bf2props": {
        "name": "cpname_ab_16_mosque_me_usmc_smg",
        "class": "ObjectSpawner",
        "name_object": "Stationary BIPOD | Stationary BIPOD",
        "team": "1",
        "obj1": "insrg_bipod",
        "obj2": "gb_bipod",
        "maxspawn": "0.0",
        "minspawn": "0.0",
        "spawndelay": "false",
        "ttl": "0.0",
        "cpid": "1"
      }
    },
    {
      "type": "Feature",
      "geometry": {
        "type": "Point",
        "coordinates": [1327.8259, -1368.636],
        "size": [16, 16]
      },
      "properties": {
        "iconurl": "icons/vehicles_map/mini_smgsmall.png",
        "iconrotate": "-86.383",
        "popupContent": "Amazing information about Stationary BIPOD will be found here!"
      },
      "bf2props": {
        "name": "cpname_ab_16_mosque_me_usmc_smg_0",
        "class": "ObjectSpawner",
        "name_object": "Stationary BIPOD | Stationary BIPOD",
        "team": "1",
        "obj1": "insrg_bipod",
        "obj2": "gb_bipod",
        "maxspawn": "0.0",
        "minspawn": "0.0",
        "spawndelay": "false",
        "ttl": "0.0",
        "cpid": "1"
      }
    },
    {
      "type": "Feature",
      "geometry": {
        "type": "Point",
        "coordinates": [969.346, -1602.746],
        "size": [16, 16]
      },
      "properties": {
        "iconurl": "icons/mini_map/uavtrailer.png",
        "iconrotate": "0",
        "popupContent": "Amazing information about null will be found here!"
      },
      "bf2props": {
        "name": "cpname_ab_16_southcheckpoint_gb_commandpost",
        "class": "ObjectSpawner",
        "name_object": "UAV Terminal",
        "team": "2",
        "obj1": "null",
        "obj2": "gb_acv_sultan",
        "maxspawn": "0.0",
        "minspawn": "0.0",
        "spawndelay": "false",
        "ttl": "99999.0",
        "cpid": "5"
      }
    },
    {
      "type": "Feature",
      "geometry": {
        "type": "Point",
        "coordinates": [1396.0, -1311.0],
        "size": [16, 16]
      },
      "properties": {
        "iconurl": "icons/vehicles_map/firebase_mini_white.png",
        "iconrotate": "0",
        "popupContent": "Amazing information about Hideout will be found here!"
      },
      "bf2props": {
        "name": "cpname_ab_16_mosque_mec_commandpost",
        "class": "ObjectSpawner",
        "name_object": "Hideout",
        "team": "1",
        "obj1": "deployable_commandpost_meins",
        "obj2": "null",
        "maxspawn": "0.0",
        "minspawn": "0.0",
        "spawndelay": "false",
        "ttl": "99999.0",
        "cpid": "1"
      }
    },
    {
      "type": "Feature",
      "geometry": {
        "type": "Point",
        "coordinates": [969.995, -1579.419],
        "size": [16, 16]
      },
      "properties": {
        "iconurl": "icons/vehicles_map/firebase_mini_white.png",
        "iconrotate": "0",
        "popupContent": "Amazing information about null will be found here!"
      },
      "bf2props": {
        "name": "cpname_ab_16_southcheckpoint_gb_fixedfirebase",
        "class": "ObjectSpawner",
        "name_object": "Firebase",
        "team": "2",
        "obj1": "null",
        "obj2": "fixed_firebase",
        "maxspawn": "300.0",
        "minspawn": "300.0",
        "spawndelay": "false",
        "ttl": "0.0",
        "cpid": "5"
      }
    },
    {
      "type": "Feature",
      "geometry": {
        "type": "Point",
        "coordinates": [1018.577, -1580.814],
        "size": [16, 16]
      },
      "properties": {
        "iconurl": "icons/mini_map/repairdepot.png",
        "iconrotate": "0",
        "popupContent": "Amazing information about null will be found here!"
      },
      "bf2props": {
        "name": "cpname_albasrah_2_coop16_southcheckpoint_depot",
        "class": "ObjectSpawner",
        "name_object": "Vehicle Depot",
        "team": "2",
        "obj1": "null",
        "obj2": "vehicle_depot_gb",
        "maxspawn": "0.0",
        "minspawn": "0.0",
        "spawndelay": "false",
        "ttl": "0.0",
        "cpid": "5"
      }
    },
    {
      "type": "Feature",
      "geometry": {
        "type": "Point",
        "coordinates": [1270.303, -1319.809],
        "size": [16, 16]
      },
      "properties": {
        "iconurl": "icons/mini_map/repairdepot.png",
        "iconrotate": "0",
        "popupContent": "Amazing information about Vehicle Depot will be found here!"
      },
      "bf2props": {
        "name": "cpname_albasrah_2_coop16_mosque_depot",
        "class": "ObjectSpawner",
        "name_object": "Vehicle Depot",
        "team": "1",
        "obj1": "vehicle_depot",
        "obj2": "null",
        "maxspawn": "0.0",
        "minspawn": "0.0",
        "spawndelay": "false",
        "ttl": "0.0",
        "cpid": "1"
      }
    },
    {
      "type": "Feature",
      "geometry": {
        "type": "Point",
        "coordinates": [1358.3511, -1343.1],
        "size": [33, 33],
        "radius": "38.0"
      },
      "properties": {
        "iconurl": "icons/flags_map/meinsurgent/minimap_cp.png",
        "iconrotate": "0",
        "popupContent": "Amazing information about Mosque will be found here!"
      },
      "bf2props": {
        "name": "cpname_albasrah_2_coop16_mosque",
        "class": "ControlPoint",
        "name_object": "Mosque",
        "team": "1",
        "areavalue1": "0.0",
        "areavalue2": "10000.0",
        "cpid": "1",
        "sgid": "1",
        "uncap": "false",
        "ttgc": "120.0",
        "ttlc": "60.0"
      }
    },
    {
      "type": "Feature",
      "geometry": {
        "type": "Point",
        "coordinates": [1197.896, -1287.2161],
        "size": [33, 33],
        "radius": "28.0"
      },
      "properties": {
        "iconurl": "icons/flags_map/meinsurgent/minimap_cp.png",
        "iconrotate": "0",
        "popupContent": "Amazing information about Square will be found here!"
      },
      "bf2props": {
        "name": "cpname_albasrah_2_coop16_square",
        "class": "ControlPoint",
        "name_object": "Square",
        "team": "1",
        "areavalue1": "50.0",
        "areavalue2": "50.0",
        "cpid": "2",
        "sgid": "2",
        "uncap": "false",
        "ttgc": "90.0",
        "ttlc": "30.0"
      }
    },
    {
      "type": "Feature",
      "geometry": {
        "type": "Point",
        "coordinates": [1109.9661, -1421.0181],
        "size": [33, 33],
        "radius": "25.0"
      },
      "properties": {
        "iconurl": "icons/flags_map/neutral/minimap_cp.png",
        "iconrotate": "0",
        "popupContent": "Amazing information about Facility will be found here!"
      },
      "bf2props": {
        "name": "cpname_albasrah_2_coop16_facility",
        "class": "ControlPoint",
        "name_object": "Facility",
        "team": "0",
        "areavalue1": "50.0",
        "areavalue2": "50.0",
        "cpid": "3",
        "sgid": "3",
        "uncap": "false",
        "ttgc": "90.0",
        "ttlc": "30.0"
      }
    },
    {
      "type": "Feature",
      "geometry": {
        "type": "Point",
        "coordinates": [1007.755, -1293.781],
        "size": [33, 33],
        "radius": "25.0"
      },
      "properties": {
        "iconurl": "icons/flags_map/neutral/minimap_cp.png",
        "iconrotate": "0",
        "popupContent": "Amazing information about Shanty will be found here!"
      },
      "bf2props": {
        "name": "cpname_albasrah_2_coop16_shanty",
        "class": "ControlPoint",
        "name_object": "Shanty",
        "team": "0",
        "areavalue1": "50.0",
        "areavalue2": "50.0",
        "cpid": "4",
        "sgid": "3",
        "uncap": "false",
        "ttgc": "90.0",
        "ttlc": "30.0"
      }
    },
    {
      "type": "Feature",
      "geometry": {
        "type": "Point",
        "coordinates": [1005.846, -1581.917],
        "size": [33, 33],
        "radius": "20.0"
      },
      "properties": {
        "iconurl": "icons/flags_map/gb/minimap_cp.png",
        "iconrotate": "0",
        "popupContent": "Amazing information about South Checkpoint will be found here!"
      },
      "bf2props": {
        "name": "cpname_albasrah_2_coop16_southcheckpoint",
        "class": "ControlPoint",
        "name_object": "South Checkpoint",
        "team": "2",
        "areavalue1": "10000.0",
        "areavalue2": "0.0",
        "cpid": "5",
        "sgid": "4",
        "uncap": "false",
        "ttgc": "120.0",
        "ttlc": "60.0"
      }
    },
    {
      "type": "Feature",
      "geometry": {
        "type": "Point",
        "coordinates": [1303.913, -1517.052],
        "size": [33, 33],
        "radius": "20.0"
      },
      "properties": {
        "iconurl": "icons/flags_map/meinsurgent/minimap_cp.png",
        "iconrotate": "0",
        "popupContent": "Amazing information about Offices will be found here!"
      },
      "bf2props": {
        "name": "cpname_albasrah_2_coop16_offices",
        "class": "ControlPoint",
        "name_object": "Offices",
        "team": "1",
        "areavalue1": "50.0",
        "areavalue2": "50.0",
        "cpid": "6",
        "sgid": "2",
        "uncap": "false",
        "ttgc": "120.0",
        "ttlc": "80.0"
      }
    },
    {
      "type": "Feature",
      "geometry": {
        "type": "Polygon",
        "coordinates": [
          [
            [0,0],
            [0,-2048],
            [2048,-2048],
            [2048,0]
          ],[
            [1489.0815, -1248.4276],
            [1433.2297, -1246.9319],
            [1313.6805, -1243.528],
            [1283.2886, -1217.8948],
            [1219.06, -1208.718],
            [894.4081, -1206.3743],
            [809.79, -1481.9095],
            [810.8114, -1554.1509],
            [875.9582, -1623.3295],
            [1037.2538, -1618.4891],
            [1456.3624, -1608.2688],
            [1467.1948, -1531.1797],
            [1469.016, -1445.0415],
            [1482.6885, -1443.2599],
            [1484.4376, -1423.1489]
          ]
        ]
      },
      "bf2props": {
        "code": "combatarea_0_default",
        "class": "CombatArea",
        "team": "0",
        "vehicles": "4",
        "layer": "9",
        "inverted": "false",
        "max": [0.0, 0.0],
        "min": [0.0, 0.0]
      }
    }
  ]
}