{
  "team1":"mec",
  "team2":"idf",
  "team1tickets":"200",
  "team2tickets":"200",
  "mapsize":"4096",
  "viewdistance":"1300",
  "combatareause":"true",
  "combatareadamage":"20.0",
  "combatareaallowoutside":"10.0",
  "routes": [
    [
      [
        "cpname_bijar_canyons_vehicles64_mecbase"
      ],
      [
        "cpname_bijar_canyons_vehicles64_eastcanyon"
      ],
      [
        "cpname_bijar_canyons_vehicles64_bijarcity",
        "cpname_bijar_canyons_vehicles64_alkomin"
      ],
      [
        "cpname_bijar_canyons_vehicles64_bridge"
      ],
      [
        "cpname_bijar_canyons_vehicles64_idfbase"
      ]
    ]
  ],
  "type": "FeatureCollection",
  "features": [
    {
      "type": "Feature",
      "geometry": {
        "type": "Point",
        "coordinates": [3964.0, -346.0],
        "size": [16, 16]
      },
      "properties": {
        "iconurl": "icons/vehicles_map/mini_tank_heavy.png",
        "iconrotate": "-90.0",
        "popupContent": "Amazing information about T-72S will be found here!"
      },
      "bf2props": {
        "name": "cpname_bijar_canyons_vehicles64_mecbase_t",
        "class": "ObjectSpawner",
        "name_object": "T-72S",
        "team": "1",
        "obj1": "mec_tnk_t72s_alt",
        "obj2": "null",
        "maxspawn": "300.0",
        "minspawn": "300.0",
        "spawndelay": "false",
        "ttl": "99999.0",
        "cpid": "801"
      }
    },
    {
      "type": "Feature",
      "geometry": {
        "type": "Point",
        "coordinates": [3964.0, -338.0],
        "size": [16, 16]
      },
      "properties": {
        "iconurl": "icons/vehicles_map/mini_tank_heavy.png",
        "iconrotate": "-90.0",
        "popupContent": "Amazing information about T-72S will be found here!"
      },
      "bf2props": {
        "name": "cpname_bijar_canyons_vehicles64_mecbase_t_0",
        "class": "ObjectSpawner",
        "name_object": "T-72S",
        "team": "1",
        "obj1": "mec_tnk_t72s_alt",
        "obj2": "null",
        "maxspawn": "300.0",
        "minspawn": "300.0",
        "spawndelay": "false",
        "ttl": "99999.0",
        "cpid": "801"
      }
    },
    {
      "type": "Feature",
      "geometry": {
        "type": "Point",
        "coordinates": [3978.0, -346.0],
        "size": [16, 16]
      },
      "properties": {
        "iconurl": "icons/vehicles_map/mini_tank_heavy.png",
        "iconrotate": "-90.0",
        "popupContent": "Amazing information about T-72S will be found here!"
      },
      "bf2props": {
        "name": "cpname_bijar_canyons_vehicles64_mecbase_t_1",
        "class": "ObjectSpawner",
        "name_object": "T-72S",
        "team": "1",
        "obj1": "mec_tnk_t72s_alt",
        "obj2": "null",
        "maxspawn": "300.0",
        "minspawn": "300.0",
        "spawndelay": "false",
        "ttl": "99999.0",
        "cpid": "801"
      }
    },
    {
      "type": "Feature",
      "geometry": {
        "type": "Point",
        "coordinates": [3978.0, -338.0],
        "size": [16, 16]
      },
      "properties": {
        "iconurl": "icons/vehicles_map/mini_tank_heavy.png",
        "iconrotate": "-90.0",
        "popupContent": "Amazing information about T-72S will be found here!"
      },
      "bf2props": {
        "name": "cpname_bijar_canyons_vehicles64_mecbase_t_2",
        "class": "ObjectSpawner",
        "name_object": "T-72S",
        "team": "1",
        "obj1": "mec_tnk_t72s_alt",
        "obj2": "null",
        "maxspawn": "300.0",
        "minspawn": "300.0",
        "spawndelay": "false",
        "ttl": "99999.0",
        "cpid": "801"
      }
    },
    {
      "type": "Feature",
      "geometry": {
        "type": "Point",
        "coordinates": [3964.0, -330.0],
        "size": [16, 16]
      },
      "properties": {
        "iconurl": "icons/vehicles_map/mini_tank_heavy.png",
        "iconrotate": "-90.0",
        "popupContent": "Amazing information about T-72S will be found here!"
      },
      "bf2props": {
        "name": "cpname_bijar_canyons_vehicles64_mecbase_t_3",
        "class": "ObjectSpawner",
        "name_object": "T-72S",
        "team": "1",
        "obj1": "mec_tnk_t72s_alt",
        "obj2": "null",
        "maxspawn": "300.0",
        "minspawn": "300.0",
        "spawndelay": "false",
        "ttl": "99999.0",
        "cpid": "801"
      }
    },
    {
      "type": "Feature",
      "geometry": {
        "type": "Point",
        "coordinates": [3964.0, -322.0],
        "size": [16, 16]
      },
      "properties": {
        "iconurl": "icons/vehicles_map/mini_tank_heavy.png",
        "iconrotate": "-90.0",
        "popupContent": "Amazing information about T-72S will be found here!"
      },
      "bf2props": {
        "name": "cpname_bijar_canyons_vehicles64_mecbase_t_4",
        "class": "ObjectSpawner",
        "name_object": "T-72S",
        "team": "1",
        "obj1": "mec_tnk_t72s_alt",
        "obj2": "null",
        "maxspawn": "300.0",
        "minspawn": "300.0",
        "spawndelay": "false",
        "ttl": "99999.0",
        "cpid": "801"
      }
    },
    {
      "type": "Feature",
      "geometry": {
        "type": "Point",
        "coordinates": [3978.0, -330.0],
        "size": [16, 16]
      },
      "properties": {
        "iconurl": "icons/vehicles_map/mini_tank_heavy.png",
        "iconrotate": "-90.0",
        "popupContent": "Amazing information about T-72S will be found here!"
      },
      "bf2props": {
        "name": "cpname_bijar_canyons_vehicles64_mecbase_t_5",
        "class": "ObjectSpawner",
        "name_object": "T-72S",
        "team": "1",
        "obj1": "mec_tnk_t72s_alt",
        "obj2": "null",
        "maxspawn": "300.0",
        "minspawn": "300.0",
        "spawndelay": "false",
        "ttl": "99999.0",
        "cpid": "801"
      }
    },
    {
      "type": "Feature",
      "geometry": {
        "type": "Point",
        "coordinates": [3978.0, -322.0],
        "size": [16, 16]
      },
      "properties": {
        "iconurl": "icons/vehicles_map/mini_tank_heavy.png",
        "iconrotate": "-90.0",
        "popupContent": "Amazing information about T-72S will be found here!"
      },
      "bf2props": {
        "name": "cpname_bijar_canyons_vehicles64_mecbase_t_6",
        "class": "ObjectSpawner",
        "name_object": "T-72S",
        "team": "1",
        "obj1": "mec_tnk_t72s_alt",
        "obj2": "null",
        "maxspawn": "300.0",
        "minspawn": "300.0",
        "spawndelay": "false",
        "ttl": "99999.0",
        "cpid": "801"
      }
    },
    {
      "type": "Feature",
      "geometry": {
        "type": "Point",
        "coordinates": [3996.0, -346.0],
        "size": [16, 16]
      },
      "properties": {
        "iconurl": "icons/vehicles_map/mini_tank_heavy.png",
        "iconrotate": "-90.0",
        "popupContent": "Amazing information about T-72S will be found here!"
      },
      "bf2props": {
        "name": "cpname_bijar_canyons_vehicles64_mecbase_t_7",
        "class": "ObjectSpawner",
        "name_object": "T-72S",
        "team": "1",
        "obj1": "mec_tnk_t72s_alt",
        "obj2": "null",
        "maxspawn": "300.0",
        "minspawn": "300.0",
        "spawndelay": "false",
        "ttl": "99999.0",
        "cpid": "801"
      }
    },
    {
      "type": "Feature",
      "geometry": {
        "type": "Point",
        "coordinates": [3996.0, -338.0],
        "size": [16, 16]
      },
      "properties": {
        "iconurl": "icons/vehicles_map/mini_tank_heavy.png",
        "iconrotate": "-90.0",
        "popupContent": "Amazing information about T-72S will be found here!"
      },
      "bf2props": {
        "name": "cpname_bijar_canyons_vehicles64_mecbase_t_8",
        "class": "ObjectSpawner",
        "name_object": "T-72S",
        "team": "1",
        "obj1": "mec_tnk_t72s_alt",
        "obj2": "null",
        "maxspawn": "300.0",
        "minspawn": "300.0",
        "spawndelay": "false",
        "ttl": "99999.0",
        "cpid": "801"
      }
    },
    {
      "type": "Feature",
      "geometry": {
        "type": "Point",
        "coordinates": [4010.0, -346.0],
        "size": [16, 16]
      },
      "properties": {
        "iconurl": "icons/vehicles_map/mini_tank_heavy.png",
        "iconrotate": "-90.0",
        "popupContent": "Amazing information about T-72S will be found here!"
      },
      "bf2props": {
        "name": "cpname_bijar_canyons_vehicles64_mecbase_t_9",
        "class": "ObjectSpawner",
        "name_object": "T-72S",
        "team": "1",
        "obj1": "mec_tnk_t72s_alt",
        "obj2": "null",
        "maxspawn": "300.0",
        "minspawn": "300.0",
        "spawndelay": "false",
        "ttl": "99999.0",
        "cpid": "801"
      }
    },
    {
      "type": "Feature",
      "geometry": {
        "type": "Point",
        "coordinates": [4010.0, -338.0],
        "size": [16, 16]
      },
      "properties": {
        "iconurl": "icons/vehicles_map/mini_tank_heavy.png",
        "iconrotate": "-90.0",
        "popupContent": "Amazing information about T-72S will be found here!"
      },
      "bf2props": {
        "name": "cpname_bijar_canyons_vehicles64_mecbase_t_10",
        "class": "ObjectSpawner",
        "name_object": "T-72S",
        "team": "1",
        "obj1": "mec_tnk_t72s_alt",
        "obj2": "null",
        "maxspawn": "300.0",
        "minspawn": "300.0",
        "spawndelay": "false",
        "ttl": "99999.0",
        "cpid": "801"
      }
    },
    {
      "type": "Feature",
      "geometry": {
        "type": "Point",
        "coordinates": [3996.0, -330.0],
        "size": [16, 16]
      },
      "properties": {
        "iconurl": "icons/vehicles_map/mini_tank_heavy.png",
        "iconrotate": "-90.0",
        "popupContent": "Amazing information about T-72S will be found here!"
      },
      "bf2props": {
        "name": "cpname_bijar_canyons_vehicles64_mecbase_t_11",
        "class": "ObjectSpawner",
        "name_object": "T-72S",
        "team": "1",
        "obj1": "mec_tnk_t72s_alt",
        "obj2": "null",
        "maxspawn": "300.0",
        "minspawn": "300.0",
        "spawndelay": "false",
        "ttl": "99999.0",
        "cpid": "801"
      }
    },
    {
      "type": "Feature",
      "geometry": {
        "type": "Point",
        "coordinates": [3996.0, -322.0],
        "size": [16, 16]
      },
      "properties": {
        "iconurl": "icons/vehicles_map/mini_tank_heavy.png",
        "iconrotate": "-90.0",
        "popupContent": "Amazing information about T-72S will be found here!"
      },
      "bf2props": {
        "name": "cpname_bijar_canyons_vehicles64_mecbase_t_12",
        "class": "ObjectSpawner",
        "name_object": "T-72S",
        "team": "1",
        "obj1": "mec_tnk_t72s_alt",
        "obj2": "null",
        "maxspawn": "300.0",
        "minspawn": "300.0",
        "spawndelay": "false",
        "ttl": "99999.0",
        "cpid": "801"
      }
    },
    {
      "type": "Feature",
      "geometry": {
        "type": "Point",
        "coordinates": [4010.0, -330.0],
        "size": [16, 16]
      },
      "properties": {
        "iconurl": "icons/vehicles_map/mini_tank_heavy.png",
        "iconrotate": "-90.0",
        "popupContent": "Amazing information about T-72S will be found here!"
      },
      "bf2props": {
        "name": "cpname_bijar_canyons_vehicles64_mecbase_t_13",
        "class": "ObjectSpawner",
        "name_object": "T-72S",
        "team": "1",
        "obj1": "mec_tnk_t72s_alt",
        "obj2": "null",
        "maxspawn": "300.0",
        "minspawn": "300.0",
        "spawndelay": "false",
        "ttl": "99999.0",
        "cpid": "801"
      }
    },
    {
      "type": "Feature",
      "geometry": {
        "type": "Point",
        "coordinates": [4010.0, -322.0],
        "size": [16, 16]
      },
      "properties": {
        "iconurl": "icons/vehicles_map/mini_tank_heavy.png",
        "iconrotate": "-90.0",
        "popupContent": "Amazing information about T-72S will be found here!"
      },
      "bf2props": {
        "name": "cpname_bijar_canyons_vehicles64_mecbase_t_14",
        "class": "ObjectSpawner",
        "name_object": "T-72S",
        "team": "1",
        "obj1": "mec_tnk_t72s_alt",
        "obj2": "null",
        "maxspawn": "300.0",
        "minspawn": "300.0",
        "spawndelay": "false",
        "ttl": "99999.0",
        "cpid": "801"
      }
    },
    {
      "type": "Feature",
      "geometry": {
        "type": "Point",
        "coordinates": [3904.0, -304.0],
        "size": [16, 16]
      },
      "properties": {
        "iconurl": "icons/mini_map/repairdepot.png",
        "iconrotate": "0",
        "popupContent": "Amazing information about Vehicle Depot will be found here!"
      },
      "bf2props": {
        "name": "cpname_bijar_canyons_vehicles64_mecbase_vehdepo",
        "class": "ObjectSpawner",
        "name_object": "Vehicle Depot",
        "team": "1",
        "obj1": "vehicle_depot_mec",
        "obj2": "null",
        "maxspawn": "0.0",
        "minspawn": "0.0",
        "spawndelay": "false",
        "ttl": "0.0",
        "cpid": "801"
      }
    },
    {
      "type": "Feature",
      "geometry": {
        "type": "Point",
        "coordinates": [3928.0, -306.0],
        "size": [16, 16]
      },
      "properties": {
        "iconurl": "icons/mini_map/repairdepot.png",
        "iconrotate": "0",
        "popupContent": "Amazing information about Vehicle Depot will be found here!"
      },
      "bf2props": {
        "name": "cpname_bijar_canyons_vehicles64_mecbase_vehde",
        "class": "ObjectSpawner",
        "name_object": "Vehicle Depot",
        "team": "1",
        "obj1": "vehicle_depot_mec",
        "obj2": "null",
        "maxspawn": "0.0",
        "minspawn": "0.0",
        "spawndelay": "false",
        "ttl": "0.0",
        "cpid": "801"
      }
    },
    {
      "type": "Feature",
      "geometry": {
        "type": "Point",
        "coordinates": [88.0, -3832.0],
        "size": [16, 16]
      },
      "properties": {
        "iconurl": "icons/mini_map/repairdepot.png",
        "iconrotate": "0",
        "popupContent": "Amazing information about null will be found here!"
      },
      "bf2props": {
        "name": "cpname_bijar_canyons_vehicles64_idfbase_vehd",
        "class": "ObjectSpawner",
        "name_object": "Vehicle Depot",
        "team": "2",
        "obj1": "null",
        "obj2": "vehicle_depot_idf",
        "maxspawn": "0.0",
        "minspawn": "0.0",
        "spawndelay": "false",
        "ttl": "0.0",
        "cpid": "806"
      }
    },
    {
      "type": "Feature",
      "geometry": {
        "type": "Point",
        "coordinates": [112.0, -3832.0],
        "size": [16, 16]
      },
      "properties": {
        "iconurl": "icons/mini_map/repairdepot.png",
        "iconrotate": "0",
        "popupContent": "Amazing information about null will be found here!"
      },
      "bf2props": {
        "name": "cpname_bijar_canyons_vehicles64_idfbase_vehde",
        "class": "ObjectSpawner",
        "name_object": "Vehicle Depot",
        "team": "2",
        "obj1": "null",
        "obj2": "vehicle_depot_idf",
        "maxspawn": "0.0",
        "minspawn": "0.0",
        "spawndelay": "false",
        "ttl": "0.0",
        "cpid": "806"
      }
    },
    {
      "type": "Feature",
      "geometry": {
        "type": "Point",
        "coordinates": [76.0, -3866.0],
        "size": [16, 16]
      },
      "properties": {
        "iconurl": "icons/vehicles_map/mini_tank_heavy.png",
        "iconrotate": "90.0",
        "popupContent": "Amazing information about null will be found here!"
      },
      "bf2props": {
        "name": "cpname_bijar_canyons_vehicles64_idfbase_t",
        "class": "ObjectSpawner",
        "name_object": "Merkava Mark IV",
        "team": "2",
        "obj1": "null",
        "obj2": "idf_tnk_merkava",
        "maxspawn": "300.0",
        "minspawn": "300.0",
        "spawndelay": "false",
        "ttl": "99999.0",
        "cpid": "806"
      }
    },
    {
      "type": "Feature",
      "geometry": {
        "type": "Point",
        "coordinates": [90.0, -3866.0],
        "size": [16, 16]
      },
      "properties": {
        "iconurl": "icons/vehicles_map/mini_tank_heavy.png",
        "iconrotate": "90.0",
        "popupContent": "Amazing information about null will be found here!"
      },
      "bf2props": {
        "name": "cpname_bijar_canyons_vehicles64_idfbase_t_0",
        "class": "ObjectSpawner",
        "name_object": "Merkava Mark IV",
        "team": "2",
        "obj1": "null",
        "obj2": "idf_tnk_merkava",
        "maxspawn": "300.0",
        "minspawn": "300.0",
        "spawndelay": "false",
        "ttl": "99999.0",
        "cpid": "806"
      }
    },
    {
      "type": "Feature",
      "geometry": {
        "type": "Point",
        "coordinates": [76.0, -3874.0],
        "size": [16, 16]
      },
      "properties": {
        "iconurl": "icons/vehicles_map/mini_tank_heavy.png",
        "iconrotate": "90.0",
        "popupContent": "Amazing information about null will be found here!"
      },
      "bf2props": {
        "name": "cpname_bijar_canyons_vehicles64_idfbase_t_1",
        "class": "ObjectSpawner",
        "name_object": "Merkava Mark IV",
        "team": "2",
        "obj1": "null",
        "obj2": "idf_tnk_merkava",
        "maxspawn": "300.0",
        "minspawn": "300.0",
        "spawndelay": "false",
        "ttl": "99999.0",
        "cpid": "806"
      }
    },
    {
      "type": "Feature",
      "geometry": {
        "type": "Point",
        "coordinates": [90.0, -3874.0],
        "size": [16, 16]
      },
      "properties": {
        "iconurl": "icons/vehicles_map/mini_tank_heavy.png",
        "iconrotate": "90.0",
        "popupContent": "Amazing information about null will be found here!"
      },
      "bf2props": {
        "name": "cpname_bijar_canyons_vehicles64_idfbase_t_2",
        "class": "ObjectSpawner",
        "name_object": "Merkava Mark IV",
        "team": "2",
        "obj1": "null",
        "obj2": "idf_tnk_merkava",
        "maxspawn": "300.0",
        "minspawn": "300.0",
        "spawndelay": "false",
        "ttl": "99999.0",
        "cpid": "806"
      }
    },
    {
      "type": "Feature",
      "geometry": {
        "type": "Point",
        "coordinates": [76.0, -3882.0],
        "size": [16, 16]
      },
      "properties": {
        "iconurl": "icons/vehicles_map/mini_tank_heavy.png",
        "iconrotate": "90.0",
        "popupContent": "Amazing information about null will be found here!"
      },
      "bf2props": {
        "name": "cpname_bijar_canyons_vehicles64_idfbase_t_3",
        "class": "ObjectSpawner",
        "name_object": "Merkava Mark IV",
        "team": "2",
        "obj1": "null",
        "obj2": "idf_tnk_merkava",
        "maxspawn": "300.0",
        "minspawn": "300.0",
        "spawndelay": "false",
        "ttl": "99999.0",
        "cpid": "806"
      }
    },
    {
      "type": "Feature",
      "geometry": {
        "type": "Point",
        "coordinates": [90.0, -3882.0],
        "size": [16, 16]
      },
      "properties": {
        "iconurl": "icons/vehicles_map/mini_tank_heavy.png",
        "iconrotate": "90.0",
        "popupContent": "Amazing information about null will be found here!"
      },
      "bf2props": {
        "name": "cpname_bijar_canyons_vehicles64_idfbase_t_4",
        "class": "ObjectSpawner",
        "name_object": "Merkava Mark IV",
        "team": "2",
        "obj1": "null",
        "obj2": "idf_tnk_merkava",
        "maxspawn": "300.0",
        "minspawn": "300.0",
        "spawndelay": "false",
        "ttl": "99999.0",
        "cpid": "806"
      }
    },
    {
      "type": "Feature",
      "geometry": {
        "type": "Point",
        "coordinates": [76.0, -3890.0],
        "size": [16, 16]
      },
      "properties": {
        "iconurl": "icons/vehicles_map/mini_tank_heavy.png",
        "iconrotate": "90.0",
        "popupContent": "Amazing information about null will be found here!"
      },
      "bf2props": {
        "name": "cpname_bijar_canyons_vehicles64_idfbase_t_5",
        "class": "ObjectSpawner",
        "name_object": "Merkava Mark IV",
        "team": "2",
        "obj1": "null",
        "obj2": "idf_tnk_merkava",
        "maxspawn": "300.0",
        "minspawn": "300.0",
        "spawndelay": "false",
        "ttl": "99999.0",
        "cpid": "806"
      }
    },
    {
      "type": "Feature",
      "geometry": {
        "type": "Point",
        "coordinates": [90.0, -3890.0],
        "size": [16, 16]
      },
      "properties": {
        "iconurl": "icons/vehicles_map/mini_tank_heavy.png",
        "iconrotate": "90.0",
        "popupContent": "Amazing information about null will be found here!"
      },
      "bf2props": {
        "name": "cpname_bijar_canyons_vehicles64_idfbase_t_6",
        "class": "ObjectSpawner",
        "name_object": "Merkava Mark IV",
        "team": "2",
        "obj1": "null",
        "obj2": "idf_tnk_merkava",
        "maxspawn": "300.0",
        "minspawn": "300.0",
        "spawndelay": "false",
        "ttl": "99999.0",
        "cpid": "806"
      }
    },
    {
      "type": "Feature",
      "geometry": {
        "type": "Point",
        "coordinates": [76.0, -3898.0],
        "size": [16, 16]
      },
      "properties": {
        "iconurl": "icons/vehicles_map/mini_tank_heavy.png",
        "iconrotate": "90.0",
        "popupContent": "Amazing information about null will be found here!"
      },
      "bf2props": {
        "name": "cpname_bijar_canyons_vehicles64_idfbase_t_7",
        "class": "ObjectSpawner",
        "name_object": "Merkava Mark IV",
        "team": "2",
        "obj1": "null",
        "obj2": "idf_tnk_merkava",
        "maxspawn": "300.0",
        "minspawn": "300.0",
        "spawndelay": "false",
        "ttl": "99999.0",
        "cpid": "806"
      }
    },
    {
      "type": "Feature",
      "geometry": {
        "type": "Point",
        "coordinates": [90.0, -3898.0],
        "size": [16, 16]
      },
      "properties": {
        "iconurl": "icons/vehicles_map/mini_tank_heavy.png",
        "iconrotate": "90.0",
        "popupContent": "Amazing information about null will be found here!"
      },
      "bf2props": {
        "name": "cpname_bijar_canyons_vehicles64_idfbase_t_8",
        "class": "ObjectSpawner",
        "name_object": "Merkava Mark IV",
        "team": "2",
        "obj1": "null",
        "obj2": "idf_tnk_merkava",
        "maxspawn": "300.0",
        "minspawn": "300.0",
        "spawndelay": "false",
        "ttl": "99999.0",
        "cpid": "806"
      }
    },
    {
      "type": "Feature",
      "geometry": {
        "type": "Point",
        "coordinates": [76.0, -3906.0],
        "size": [16, 16]
      },
      "properties": {
        "iconurl": "icons/vehicles_map/mini_tank_heavy.png",
        "iconrotate": "90.0",
        "popupContent": "Amazing information about null will be found here!"
      },
      "bf2props": {
        "name": "cpname_bijar_canyons_vehicles64_idfbase_t_9",
        "class": "ObjectSpawner",
        "name_object": "Merkava Mark IV",
        "team": "2",
        "obj1": "null",
        "obj2": "idf_tnk_merkava",
        "maxspawn": "300.0",
        "minspawn": "300.0",
        "spawndelay": "false",
        "ttl": "99999.0",
        "cpid": "806"
      }
    },
    {
      "type": "Feature",
      "geometry": {
        "type": "Point",
        "coordinates": [90.0, -3906.0],
        "size": [16, 16]
      },
      "properties": {
        "iconurl": "icons/vehicles_map/mini_tank_heavy.png",
        "iconrotate": "90.0",
        "popupContent": "Amazing information about null will be found here!"
      },
      "bf2props": {
        "name": "cpname_bijar_canyons_vehicles64_idfbase_t_10",
        "class": "ObjectSpawner",
        "name_object": "Merkava Mark IV",
        "team": "2",
        "obj1": "null",
        "obj2": "idf_tnk_merkava",
        "maxspawn": "300.0",
        "minspawn": "300.0",
        "spawndelay": "false",
        "ttl": "99999.0",
        "cpid": "806"
      }
    },
    {
      "type": "Feature",
      "geometry": {
        "type": "Point",
        "coordinates": [76.0, -3914.0],
        "size": [16, 16]
      },
      "properties": {
        "iconurl": "icons/vehicles_map/mini_tank_heavy.png",
        "iconrotate": "90.0",
        "popupContent": "Amazing information about null will be found here!"
      },
      "bf2props": {
        "name": "cpname_bijar_canyons_vehicles64_idfbase_t_11",
        "class": "ObjectSpawner",
        "name_object": "Merkava Mark IV",
        "team": "2",
        "obj1": "null",
        "obj2": "idf_tnk_merkava",
        "maxspawn": "300.0",
        "minspawn": "300.0",
        "spawndelay": "false",
        "ttl": "99999.0",
        "cpid": "806"
      }
    },
    {
      "type": "Feature",
      "geometry": {
        "type": "Point",
        "coordinates": [90.0, -3914.0],
        "size": [16, 16]
      },
      "properties": {
        "iconurl": "icons/vehicles_map/mini_tank_heavy.png",
        "iconrotate": "90.0",
        "popupContent": "Amazing information about null will be found here!"
      },
      "bf2props": {
        "name": "cpname_bijar_canyons_vehicles64_idfbase_t_12",
        "class": "ObjectSpawner",
        "name_object": "Merkava Mark IV",
        "team": "2",
        "obj1": "null",
        "obj2": "idf_tnk_merkava",
        "maxspawn": "300.0",
        "minspawn": "300.0",
        "spawndelay": "false",
        "ttl": "99999.0",
        "cpid": "806"
      }
    },
    {
      "type": "Feature",
      "geometry": {
        "type": "Point",
        "coordinates": [76.0, -3922.0],
        "size": [16, 16]
      },
      "properties": {
        "iconurl": "icons/vehicles_map/mini_tank_heavy.png",
        "iconrotate": "90.0",
        "popupContent": "Amazing information about null will be found here!"
      },
      "bf2props": {
        "name": "cpname_bijar_canyons_vehicles64_idfbase_t_13",
        "class": "ObjectSpawner",
        "name_object": "Merkava Mark IV",
        "team": "2",
        "obj1": "null",
        "obj2": "idf_tnk_merkava",
        "maxspawn": "300.0",
        "minspawn": "300.0",
        "spawndelay": "false",
        "ttl": "99999.0",
        "cpid": "806"
      }
    },
    {
      "type": "Feature",
      "geometry": {
        "type": "Point",
        "coordinates": [90.0, -3922.0],
        "size": [16, 16]
      },
      "properties": {
        "iconurl": "icons/vehicles_map/mini_tank_heavy.png",
        "iconrotate": "90.0",
        "popupContent": "Amazing information about null will be found here!"
      },
      "bf2props": {
        "name": "cpname_bijar_canyons_vehicles64_idfbase_t_14",
        "class": "ObjectSpawner",
        "name_object": "Merkava Mark IV",
        "team": "2",
        "obj1": "null",
        "obj2": "idf_tnk_merkava",
        "maxspawn": "300.0",
        "minspawn": "300.0",
        "spawndelay": "false",
        "ttl": "99999.0",
        "cpid": "806"
      }
    },
    {
      "type": "Feature",
      "geometry": {
        "type": "Point",
        "coordinates": [90.0, -3958.0],
        "size": [16, 16]
      },
      "properties": {
        "iconurl": "icons/vehicles_map/mini_trk_logistics.png",
        "iconrotate": "45.0",
        "popupContent": "Amazing information about null will be found here!"
      },
      "bf2props": {
        "name": "cpname_bijar_canyons_vehicles64_idfbase_logi",
        "class": "ObjectSpawner",
        "name_object": "M35 Logistics",
        "team": "2",
        "obj1": "null",
        "obj2": "idf_trk_logistics",
        "maxspawn": "300.0",
        "minspawn": "300.0",
        "spawndelay": "false",
        "ttl": "99999.0",
        "cpid": "806"
      }
    },
    {
      "type": "Feature",
      "geometry": {
        "type": "Point",
        "coordinates": [94.0, -3962.0],
        "size": [16, 16]
      },
      "properties": {
        "iconurl": "icons/vehicles_map/mini_trk_logistics.png",
        "iconrotate": "45.0",
        "popupContent": "Amazing information about null will be found here!"
      },
      "bf2props": {
        "name": "cpname_bijar_canyons_vehicles64_idfbase_logi_0",
        "class": "ObjectSpawner",
        "name_object": "M35 Logistics",
        "team": "2",
        "obj1": "null",
        "obj2": "idf_trk_logistics",
        "maxspawn": "300.0",
        "minspawn": "300.0",
        "spawndelay": "false",
        "ttl": "99999.0",
        "cpid": "806"
      }
    },
    {
      "type": "Feature",
      "geometry": {
        "type": "Point",
        "coordinates": [98.0, -3966.0],
        "size": [16, 16]
      },
      "properties": {
        "iconurl": "icons/vehicles_map/mini_trk_logistics.png",
        "iconrotate": "45.0",
        "popupContent": "Amazing information about null will be found here!"
      },
      "bf2props": {
        "name": "cpname_bijar_canyons_vehicles64_idfbase_logi_1",
        "class": "ObjectSpawner",
        "name_object": "M35 Logistics",
        "team": "2",
        "obj1": "null",
        "obj2": "idf_trk_logistics",
        "maxspawn": "300.0",
        "minspawn": "300.0",
        "spawndelay": "false",
        "ttl": "99999.0",
        "cpid": "806"
      }
    },
    {
      "type": "Feature",
      "geometry": {
        "type": "Point",
        "coordinates": [102.0, -3970.0],
        "size": [16, 16]
      },
      "properties": {
        "iconurl": "icons/vehicles_map/mini_trk_logistics.png",
        "iconrotate": "45.0",
        "popupContent": "Amazing information about null will be found here!"
      },
      "bf2props": {
        "name": "cpname_bijar_canyons_vehicles64_idfbase_logi_2",
        "class": "ObjectSpawner",
        "name_object": "M35 Logistics",
        "team": "2",
        "obj1": "null",
        "obj2": "idf_trk_logistics",
        "maxspawn": "300.0",
        "minspawn": "300.0",
        "spawndelay": "false",
        "ttl": "99999.0",
        "cpid": "806"
      }
    },
    {
      "type": "Feature",
      "geometry": {
        "type": "Point",
        "coordinates": [3952.0, -366.0],
        "size": [16, 16]
      },
      "properties": {
        "iconurl": "icons/vehicles_map/mini_trk_logistics.png",
        "iconrotate": "0.0",
        "popupContent": "Amazing information about Ural-4320 Logistics will be found here!"
      },
      "bf2props": {
        "name": "cpname_bijar_canyons_vehicles64_mecbase_logi",
        "class": "ObjectSpawner",
        "name_object": "Ural-4320 Logistics",
        "team": "1",
        "obj1": "mec_trk_logistics",
        "obj2": "null",
        "maxspawn": "300.0",
        "minspawn": "300.0",
        "spawndelay": "false",
        "ttl": "99999.0",
        "cpid": "801"
      }
    },
    {
      "type": "Feature",
      "geometry": {
        "type": "Point",
        "coordinates": [3952.0, -378.0],
        "size": [16, 16]
      },
      "properties": {
        "iconurl": "icons/vehicles_map/mini_trk_logistics.png",
        "iconrotate": "0.0",
        "popupContent": "Amazing information about Ural-4320 Logistics will be found here!"
      },
      "bf2props": {
        "name": "cpname_bijar_canyons_vehicles64_mecbase_logi_0",
        "class": "ObjectSpawner",
        "name_object": "Ural-4320 Logistics",
        "team": "1",
        "obj1": "mec_trk_logistics",
        "obj2": "null",
        "maxspawn": "300.0",
        "minspawn": "300.0",
        "spawndelay": "false",
        "ttl": "99999.0",
        "cpid": "801"
      }
    },
    {
      "type": "Feature",
      "geometry": {
        "type": "Point",
        "coordinates": [3936.0, -366.0],
        "size": [16, 16]
      },
      "properties": {
        "iconurl": "icons/vehicles_map/mini_trk_logistics.png",
        "iconrotate": "0.0",
        "popupContent": "Amazing information about Ural-4320 Logistics will be found here!"
      },
      "bf2props": {
        "name": "cpname_bijar_canyons_vehicles64_mecbase_logi_1",
        "class": "ObjectSpawner",
        "name_object": "Ural-4320 Logistics",
        "team": "1",
        "obj1": "mec_trk_logistics",
        "obj2": "null",
        "maxspawn": "300.0",
        "minspawn": "300.0",
        "spawndelay": "false",
        "ttl": "99999.0",
        "cpid": "801"
      }
    },
    {
      "type": "Feature",
      "geometry": {
        "type": "Point",
        "coordinates": [3936.0, -378.0],
        "size": [16, 16]
      },
      "properties": {
        "iconurl": "icons/vehicles_map/mini_trk_logistics.png",
        "iconrotate": "0.0",
        "popupContent": "Amazing information about Ural-4320 Logistics will be found here!"
      },
      "bf2props": {
        "name": "cpname_bijar_canyons_vehicles64_mecbase_logi_2",
        "class": "ObjectSpawner",
        "name_object": "Ural-4320 Logistics",
        "team": "1",
        "obj1": "mec_trk_logistics",
        "obj2": "null",
        "maxspawn": "300.0",
        "minspawn": "300.0",
        "spawndelay": "false",
        "ttl": "99999.0",
        "cpid": "801"
      }
    },
    {
      "type": "Feature",
      "geometry": {
        "type": "Point",
        "coordinates": [3914.0, -346.0],
        "size": [33, 33],
        "radius": "0.0"
      },
      "properties": {
        "iconurl": "icons/flags_map/mec/minimap_cpbase.png",
        "iconrotate": "0",
        "popupContent": "Amazing information about MEC Airbase will be found here!"
      },
      "bf2props": {
        "name": "cpname_bijar_canyons_vehicles64_mecbase",
        "class": "ControlPoint",
        "name_object": "MEC Airbase",
        "team": "1",
        "areavalue1": "0.0",
        "areavalue2": "0.0",
        "cpid": "801",
        "sgid": "1",
        "uncap": "true",
        "ttgc": "0.0",
        "ttlc": "0.0"
      }
    },
    {
      "type": "Feature",
      "geometry": {
        "type": "Point",
        "coordinates": [3052.0, -1792.0],
        "size": [33, 33],
        "radius": "500.0"
      },
      "properties": {
        "iconurl": "icons/flags_map/mec/minimap_cp.png",
        "iconrotate": "0",
        "popupContent": "Amazing information about East Canyon 500m will be found here!"
      },
      "bf2props": {
        "name": "cpname_bijar_canyons_vehicles64_eastcanyon",
        "class": "ControlPoint",
        "name_object": "East Canyon 500m",
        "team": "1",
        "areavalue1": "0.0",
        "areavalue2": "1000.0",
        "cpid": "802",
        "sgid": "2",
        "uncap": "false",
        "ttgc": "180.0",
        "ttlc": "180.0"
      }
    },
    {
      "type": "Feature",
      "geometry": {
        "type": "Point",
        "coordinates": [3080.0, -3340.0],
        "size": [33, 33],
        "radius": "500.0"
      },
      "properties": {
        "iconurl": "icons/flags_map/neutral/minimap_cp.png",
        "iconrotate": "0",
        "popupContent": "Amazing information about Bijar City 500m will be found here!"
      },
      "bf2props": {
        "name": "cpname_bijar_canyons_vehicles64_bijarcity",
        "class": "ControlPoint",
        "name_object": "Bijar City 500m",
        "team": "0",
        "areavalue1": "0.0",
        "areavalue2": "0.0",
        "cpid": "803",
        "sgid": "31",
        "uncap": "false",
        "ttgc": "180.0",
        "ttlc": "180.0"
      }
    },
    {
      "type": "Feature",
      "geometry": {
        "type": "Point",
        "coordinates": [1244.0, -810.0],
        "size": [33, 33],
        "radius": "500.0"
      },
      "properties": {
        "iconurl": "icons/flags_map/neutral/minimap_cp.png",
        "iconrotate": "0",
        "popupContent": "Amazing information about Alkomin 500m will be found here!"
      },
      "bf2props": {
        "name": "cpname_bijar_canyons_vehicles64_alkomin",
        "class": "ControlPoint",
        "name_object": "Alkomin 500m",
        "team": "0",
        "areavalue1": "0.0",
        "areavalue2": "0.0",
        "cpid": "804",
        "sgid": "31",
        "uncap": "false",
        "ttgc": "180.0",
        "ttlc": "180.0"
      }
    },
    {
      "type": "Feature",
      "geometry": {
        "type": "Point",
        "coordinates": [1788.0, -2794.0],
        "size": [33, 33],
        "radius": "500.0"
      },
      "properties": {
        "iconurl": "icons/flags_map/idf/minimap_cp.png",
        "iconrotate": "0",
        "popupContent": "Amazing information about Bridge 500m will be found here!"
      },
      "bf2props": {
        "name": "cpname_bijar_canyons_vehicles64_bridge",
        "class": "ControlPoint",
        "name_object": "Bridge 500m",
        "team": "2",
        "areavalue1": "1000.0",
        "areavalue2": "0.0",
        "cpid": "805",
        "sgid": "4",
        "uncap": "false",
        "ttgc": "180.0",
        "ttlc": "180.0"
      }
    },
    {
      "type": "Feature",
      "geometry": {
        "type": "Point",
        "coordinates": [136.0, -3930.0],
        "size": [33, 33],
        "radius": "0.0"
      },
      "properties": {
        "iconurl": "icons/flags_map/idf/minimap_cpbase.png",
        "iconrotate": "0",
        "popupContent": "Amazing information about IDF Airbase will be found here!"
      },
      "bf2props": {
        "name": "cpname_bijar_canyons_vehicles64_idfbase",
        "class": "ControlPoint",
        "name_object": "IDF Airbase",
        "team": "2",
        "areavalue1": "0.0",
        "areavalue2": "0.0",
        "cpid": "806",
        "sgid": "-999",
        "uncap": "true",
        "ttgc": "0.0",
        "ttlc": "0.0"
      }
    },
    {
      "type": "Feature",
      "geometry": {
        "type": "Polygon",
        "coordinates": [
          [
            [0,0],
            [0,-4096],
            [4096,-4096],
            [4096,0]
          ],[
            [3.8851318, -4092.0635],
            [4092.0232, -4091.9963],
            [4091.9917, -4.097168],
            [4.01062, -3.9313965]
          ]
        ]
      },
      "bf2props": {
        "code": "combatarea_0_combat_zones",
        "class": "CombatArea",
        "team": "0",
        "vehicles": "4",
        "layer": "10",
        "inverted": "false",
        "max": [0.0, 0.0],
        "min": [0.0, 0.0]
      }
    },
    {
      "type": "Feature",
      "geometry": {
        "type": "Polygon",
        "coordinates": [
          [
            [1.6955566, -4094.8604],
            [1466.8833, -4094.7637],
            [1482.2017, -3607.9617],
            [1297.8433, -3187.8127],
            [1165.258, -3056.3025],
            [863.9324, -3010.9485],
            [529.1405, -2753.0864],
            [264.89905, -2470.2356],
            [0.78808594, -2433.8171]
          ]
        ]
      },
      "bf2props": {
        "code": "combatarea_4_combat_zones",
        "class": "CombatArea",
        "team": "1",
        "vehicles": "4",
        "layer": "10",
        "inverted": "true",
        "max": [0.0, 0.0],
        "min": [0.0, 0.0]
      }
    },
    {
      "type": "Feature",
      "geometry": {
        "type": "Polygon",
        "coordinates": [
          [
            [3520.24, -1336.0522],
            [3592.586, -1463.1108],
            [3690.5024, -1563.397],
            [3744.4885, -1615.2471],
            [3959.87, -1758.2146],
            [4093.9836, -1774.6648],
            [4093.3005, -2.538086],
            [3053.3823, 0.0],
            [2923.1829, -299.2815],
            [2925.7622, -587.30835],
            [2996.4385, -731.13916],
            [3106.8928, -1052.8811],
            [3292.6145, -1152.6179],
            [3443.137, -1203.0066]
          ]
        ]
      },
      "bf2props": {
        "code": "combatarea_13_combat_zones",
        "class": "CombatArea",
        "team": "2",
        "vehicles": "4",
        "layer": "10",
        "inverted": "true",
        "max": [0.0, 0.0],
        "min": [0.0, 0.0]
      }
    }
  ]
}