{
  "team1":"mec",
  "team2":"idf",
  "team1tickets":"400",
  "team2tickets":"400",
  "mapsize":"4096",
  "viewdistance":"1300",
  "combatareause":"true",
  "combatareadamage":"20.0",
  "combatareaallowoutside":"10.0",
  "routes": [
    [
      [
        "cpname_bijar_canyons_coop32_tvstation"
      ],
      [
        "cpname_bijar_canyons_coop32_carpark"
      ],
      [
        "cpname_bijar_canyons_coop32_southbijar"
      ],
      [
        "cpname_bijar_canyons_coop32_mosque"
      ],
      [
        "cpname_bijar_canyons_coop32_construction"
      ],
      [
        "cpname_bijar_canyons_coop32_gasstation"
      ]
    ]
  ],
  "type": "FeatureCollection",
  "features": [
    {
      "type": "Feature",
      "geometry": {
        "type": "Point",
        "coordinates": [3499.746, -3063.755],
        "size": [16, 16]
      },
      "properties": {
        "iconurl": "icons/vehicles_map/mini_apc_light.png",
        "iconrotate": "-140.719",
        "popupContent": "Amazing information about null will be found here!"
      },
      "bf2props": {
        "name": "cpname_bijar_canyons_coop32_gasstation_hmmwv",
        "class": "ObjectSpawner",
        "name_object": "M113",
        "team": "2",
        "obj1": "null",
        "obj2": "idf_apc_m113",
        "maxspawn": "300.0",
        "minspawn": "300.0",
        "spawndelay": "false",
        "ttl": "99999.0",
        "cpid": "1"
      }
    },
    {
      "type": "Feature",
      "geometry": {
        "type": "Point",
        "coordinates": [3525.78, -3059.977],
        "size": [16, 16]
      },
      "properties": {
        "iconurl": "icons/mini_map/uavtrailer.png",
        "iconrotate": "0",
        "popupContent": "Amazing information about null will be found here!"
      },
      "bf2props": {
        "name": "cpname_bijar_canyons_coop32_gasstation_acv",
        "class": "ObjectSpawner",
        "name_object": "UAV Terminal",
        "team": "2",
        "obj1": "null",
        "obj2": "idf_acv_m557",
        "maxspawn": "0.0",
        "minspawn": "0.0",
        "spawndelay": "false",
        "ttl": "0.0",
        "cpid": "1"
      }
    },
    {
      "type": "Feature",
      "geometry": {
        "type": "Point",
        "coordinates": [3480.7778, -3076.366],
        "size": [16, 16]
      },
      "properties": {
        "iconurl": "icons/vehicles_map/mini_apc_light.png",
        "iconrotate": "-56.056",
        "popupContent": "Amazing information about null will be found here!"
      },
      "bf2props": {
        "name": "cpname_bijar_canyons_coop32_gasstation_hmmwv_0",
        "class": "ObjectSpawner",
        "name_object": "M113",
        "team": "2",
        "obj1": "null",
        "obj2": "idf_apc_m113",
        "maxspawn": "300.0",
        "minspawn": "300.0",
        "spawndelay": "false",
        "ttl": "99999.0",
        "cpid": "1"
      }
    },
    {
      "type": "Feature",
      "geometry": {
        "type": "Point",
        "coordinates": [3518.483, -3041.763],
        "size": [16, 16]
      },
      "properties": {
        "iconurl": "icons/mini_map/repairdepot.png",
        "iconrotate": "0",
        "popupContent": "Amazing information about null will be found here!"
      },
      "bf2props": {
        "name": "cpname_bijar_canyons_coop32_gasstation_depot",
        "class": "ObjectSpawner",
        "name_object": "Vehicle Depot",
        "team": "2",
        "obj1": "null",
        "obj2": "vehicle_depot_idf",
        "maxspawn": "0.0",
        "minspawn": "0.0",
        "spawndelay": "false",
        "ttl": "0.0",
        "cpid": "1"
      }
    },
    {
      "type": "Feature",
      "geometry": {
        "type": "Point",
        "coordinates": [2713.1929, -3506.99],
        "size": [16, 16]
      },
      "properties": {
        "iconurl": "icons/mini_map/uavtrailer.png",
        "iconrotate": "0",
        "popupContent": "Amazing information about UAV Terminal will be found here!"
      },
      "bf2props": {
        "name": "cpname_bijar_canyons_coop32_tvstation_acv",
        "class": "ObjectSpawner",
        "name_object": "UAV Terminal",
        "team": "1",
        "obj1": "mec_acv_btr60pu",
        "obj2": "null",
        "maxspawn": "0.0",
        "minspawn": "0.0",
        "spawndelay": "false",
        "ttl": "0.0",
        "cpid": "6"
      }
    },
    {
      "type": "Feature",
      "geometry": {
        "type": "Point",
        "coordinates": [2726.835, -3484.781],
        "size": [16, 16]
      },
      "properties": {
        "iconurl": "icons/vehicles_map/mini_apc_light.png",
        "iconrotate": "120.0",
        "popupContent": "Amazing information about MT-LB 6M will be found here!"
      },
      "bf2props": {
        "name": "cpname_bijar_canyons_coop32_tvstation_jeep",
        "class": "ObjectSpawner",
        "name_object": "MT-LB 6M",
        "team": "1",
        "obj1": "mec_apc_mtlb_hmg",
        "obj2": "null",
        "maxspawn": "300.0",
        "minspawn": "300.0",
        "spawndelay": "false",
        "ttl": "99999.0",
        "cpid": "6"
      }
    },
    {
      "type": "Feature",
      "geometry": {
        "type": "Point",
        "coordinates": [2735.059, -3472.241],
        "size": [16, 16]
      },
      "properties": {
        "iconurl": "icons/vehicles_map/mini_apc_light.png",
        "iconrotate": "140.0",
        "popupContent": "Amazing information about MT-LB 6M will be found here!"
      },
      "bf2props": {
        "name": "cpname_bijar_canyons_coop32_tvstation_jeep_0",
        "class": "ObjectSpawner",
        "name_object": "MT-LB 6M",
        "team": "1",
        "obj1": "mec_apc_mtlb_hmg",
        "obj2": "null",
        "maxspawn": "300.0",
        "minspawn": "300.0",
        "spawndelay": "false",
        "ttl": "99999.0",
        "cpid": "6"
      }
    },
    {
      "type": "Feature",
      "geometry": {
        "type": "Point",
        "coordinates": [2724.8901, -3513.488],
        "size": [16, 16]
      },
      "properties": {
        "iconurl": "icons/mini_map/repairdepot.png",
        "iconrotate": "0",
        "popupContent": "Amazing information about null will be found here!"
      },
      "bf2props": {
        "name": "cpname_bijar_canyons_coop32_tvstation_depot",
        "class": "ObjectSpawner",
        "name_object": "Vehicle Depot",
        "team": "2",
        "obj1": "null",
        "obj2": "vehicle_depot_mec",
        "maxspawn": "0.0",
        "minspawn": "0.0",
        "spawndelay": "false",
        "ttl": "0.0",
        "cpid": "6"
      }
    },
    {
      "type": "Feature",
      "geometry": {
        "type": "Point",
        "coordinates": [2731.405, -3516.541],
        "size": [16, 16]
      },
      "properties": {
        "iconurl": "icons/vehicles_map/mini_trk_logistics.png",
        "iconrotate": "30.0",
        "popupContent": "Amazing information about Ural-4320 Logistics will be found here!"
      },
      "bf2props": {
        "name": "cpname_bijar_canyons_coop32_tvstation_logi",
        "class": "ObjectSpawner",
        "name_object": "Ural-4320 Logistics",
        "team": "1",
        "obj1": "mec_trk_logistics",
        "obj2": "null",
        "maxspawn": "300.0",
        "minspawn": "300.0",
        "spawndelay": "false",
        "ttl": "99999.0",
        "cpid": "6"
      }
    },
    {
      "type": "Feature",
      "geometry": {
        "type": "Point",
        "coordinates": [3517.587, -3062.279],
        "size": [16, 16]
      },
      "properties": {
        "iconurl": "icons/vehicles_map/mini_trk_logistics.png",
        "iconrotate": "-55.0",
        "popupContent": "Amazing information about null will be found here!"
      },
      "bf2props": {
        "name": "cpname_bijar_canyons_coop32_gasstation_logi",
        "class": "ObjectSpawner",
        "name_object": "M35 Logistics",
        "team": "2",
        "obj1": "null",
        "obj2": "idf_trk_logistics",
        "maxspawn": "300.0",
        "minspawn": "300.0",
        "spawndelay": "false",
        "ttl": "99999.0",
        "cpid": "1"
      }
    },
    {
      "type": "Feature",
      "geometry": {
        "type": "Point",
        "coordinates": [3520.967, -3061.734],
        "size": [33, 33],
        "radius": "50.0"
      },
      "properties": {
        "iconurl": "icons/flags_map/idf/minimap_cp.png",
        "iconrotate": "0",
        "popupContent": "Amazing information about Gas Station 50m will be found here!"
      },
      "bf2props": {
        "name": "cpname_bijar_canyons_coop32_gasstation",
        "class": "ControlPoint",
        "name_object": "Gas Station 50m",
        "team": "2",
        "areavalue1": "20.0",
        "areavalue2": "20.0",
        "cpid": "1",
        "sgid": "6",
        "uncap": "false",
        "ttgc": "120.0",
        "ttlc": "120.0"
      }
    },
    {
      "type": "Feature",
      "geometry": {
        "type": "Point",
        "coordinates": [3396.987, -3247.4639],
        "size": [33, 33],
        "radius": "40.0"
      },
      "properties": {
        "iconurl": "icons/flags_map/idf/minimap_cp.png",
        "iconrotate": "0",
        "popupContent": "Amazing information about Construction Site 40m will be found here!"
      },
      "bf2props": {
        "name": "cpname_bijar_canyons_coop32_construction",
        "class": "ControlPoint",
        "name_object": "Construction Site 40m",
        "team": "2",
        "areavalue1": "20.0",
        "areavalue2": "20.0",
        "cpid": "2",
        "sgid": "5",
        "uncap": "false",
        "ttgc": "120.0",
        "ttlc": "120.0"
      }
    },
    {
      "type": "Feature",
      "geometry": {
        "type": "Point",
        "coordinates": [3239.663, -3466.671],
        "size": [33, 33],
        "radius": "40.0"
      },
      "properties": {
        "iconurl": "icons/flags_map/neutral/minimap_cp.png",
        "iconrotate": "0",
        "popupContent": "Amazing information about Mosque 40m will be found here!"
      },
      "bf2props": {
        "name": "cpname_bijar_canyons_coop32_mosque",
        "class": "ControlPoint",
        "name_object": "Mosque 40m",
        "team": "0",
        "areavalue1": "20.0",
        "areavalue2": "20.0",
        "cpid": "3",
        "sgid": "4",
        "uncap": "false",
        "ttgc": "120.0",
        "ttlc": "120.0"
      }
    },
    {
      "type": "Feature",
      "geometry": {
        "type": "Point",
        "coordinates": [3125.146, -3600.579],
        "size": [33, 33],
        "radius": "50.0"
      },
      "properties": {
        "iconurl": "icons/flags_map/neutral/minimap_cp.png",
        "iconrotate": "0",
        "popupContent": "Amazing information about South Bijar 50m will be found here!"
      },
      "bf2props": {
        "name": "cpname_bijar_canyons_coop32_southbijar",
        "class": "ControlPoint",
        "name_object": "South Bijar 50m",
        "team": "0",
        "areavalue1": "20.0",
        "areavalue2": "20.0",
        "cpid": "4",
        "sgid": "3",
        "uncap": "false",
        "ttgc": "120.0",
        "ttlc": "120.0"
      }
    },
    {
      "type": "Feature",
      "geometry": {
        "type": "Point",
        "coordinates": [3007.273, -3441.874],
        "size": [33, 33],
        "radius": "50.0"
      },
      "properties": {
        "iconurl": "icons/flags_map/mec/minimap_cp.png",
        "iconrotate": "0",
        "popupContent": "Amazing information about Carpark 50m will be found here!"
      },
      "bf2props": {
        "name": "cpname_bijar_canyons_coop32_carpark",
        "class": "ControlPoint",
        "name_object": "Carpark 50m",
        "team": "1",
        "areavalue1": "20.0",
        "areavalue2": "20.0",
        "cpid": "5",
        "sgid": "2",
        "uncap": "false",
        "ttgc": "120.0",
        "ttlc": "120.0"
      }
    },
    {
      "type": "Feature",
      "geometry": {
        "type": "Point",
        "coordinates": [2785.858, -3503.4858],
        "size": [33, 33],
        "radius": "30.0"
      },
      "properties": {
        "iconurl": "icons/flags_map/mec/minimap_cp.png",
        "iconrotate": "0",
        "popupContent": "Amazing information about TV Station 30m will be found here!"
      },
      "bf2props": {
        "name": "cpname_bijar_canyons_coop32_tvstation",
        "class": "ControlPoint",
        "name_object": "TV Station 30m",
        "team": "1",
        "areavalue1": "20.0",
        "areavalue2": "20.0",
        "cpid": "6",
        "sgid": "1",
        "uncap": "false",
        "ttgc": "120.0",
        "ttlc": "120.0"
      }
    },
    {
      "type": "Feature",
      "geometry": {
        "type": "Polygon",
        "coordinates": [
          [
            [0,0],
            [0,-4096],
            [4096,-4096],
            [4096,0]
          ],[
            [2754.0806, -3163.0386],
            [2700.3088, -3196.484],
            [2654.7222, -3259.461],
            [2624.4531, -3320.6138],
            [2652.866, -3454.5393],
            [2711.7034, -3530.4517],
            [2820.6208, -3576.143],
            [3071.5405, -3734.5317],
            [3214.8674, -3806.579],
            [3295.5454, -3729.543],
            [3434.8984, -3552.7676],
            [3512.3643, -3279.1084],
            [3621.9712, -2964.314],
            [3579.1086, -2933.6033],
            [3320.924, -3069.7651],
            [3013.506, -3116.238],
            [2756.609, -3163.3994]
          ]
        ]
      },
      "bf2props": {
        "code": "combatarea_0_default",
        "class": "CombatArea",
        "team": "0",
        "vehicles": "4",
        "layer": "1",
        "inverted": "false",
        "max": [0.0, 0.0],
        "min": [0.0, 0.0]
      }
    }
  ]
}