{
  "team1":"ru",
  "team2":"usa",
  "team1tickets":"200",
  "team2tickets":"200",
  "mapsize":"4096",
  "viewdistance":"800",
  "combatareause":"true",
  "combatareadamage":"20.0",
  "combatareaallowoutside":"30.0",
  "routes": [
    [
      [
        "cpname_yamalia_vehicles32_rubase"
      ],
      [
        "cpname_yamalia_vehicles32_papa3"
      ],
      [
        "cpname_yamalia_vehicles32_papa2"
      ],
      [
        "cpname_yamalia_vehicles32_papa1"
      ],
      [
        "cpname_yamalia_vehicles32_usbase"
      ]
    ],
    [
      [
        "cpname_yamalia_vehicles32_rubase"
      ],
      [
        "cpname_yamalia_vehicles32_romeo3"
      ],
      [
        "cpname_yamalia_vehicles32_romeo2"
      ],
      [
        "cpname_yamalia_vehicles32_romeo1"
      ],
      [
        "cpname_yamalia_vehicles32_usbase"
      ]
    ],
    [
      [
        "cpname_yamalia_vehicles32_rubase"
      ],
      [
        "cpname_yamalia_vehicles32_tango3"
      ],
      [
        "cpname_yamalia_vehicles32_tango2"
      ],
      [
        "cpname_yamalia_vehicles32_tango1"
      ],
      [
        "cpname_yamalia_vehicles32_usbase"
      ]
    ]
  ],
  "type": "FeatureCollection",
  "features": [
    {
      "type": "Feature",
      "geometry": {
        "type": "Point",
        "coordinates": [186.0, -264.0],
        "size": [16, 16]
      },
      "properties": {
        "iconurl": "icons/mini_map/repairdepot.png",
        "iconrotate": "0",
        "popupContent": "Amazing information about null will be found here!"
      },
      "bf2props": {
        "name": "cpname_yamalia_vehicles32_usbase_depo",
        "class": "ObjectSpawner",
        "name_object": "Vehicle Depot",
        "team": "2",
        "obj1": "null",
        "obj2": "vehicle_depot_us",
        "maxspawn": "0.0",
        "minspawn": "0.0",
        "spawndelay": "false",
        "ttl": "0.0",
        "cpid": "901"
      }
    },
    {
      "type": "Feature",
      "geometry": {
        "type": "Point",
        "coordinates": [162.0, -264.0],
        "size": [16, 16]
      },
      "properties": {
        "iconurl": "icons/mini_map/repairdepot.png",
        "iconrotate": "0",
        "popupContent": "Amazing information about null will be found here!"
      },
      "bf2props": {
        "name": "cpname_yamalia_vehicles32_usbase_0",
        "class": "ObjectSpawner",
        "name_object": "Vehicle Depot",
        "team": "2",
        "obj1": "null",
        "obj2": "vehicle_depot_us",
        "maxspawn": "0.0",
        "minspawn": "0.0",
        "spawndelay": "false",
        "ttl": "0.0",
        "cpid": "901"
      }
    },
    {
      "type": "Feature",
      "geometry": {
        "type": "Point",
        "coordinates": [136.0, -264.0],
        "size": [16, 16]
      },
      "properties": {
        "iconurl": "icons/mini_map/repairdepot.png",
        "iconrotate": "0",
        "popupContent": "Amazing information about null will be found here!"
      },
      "bf2props": {
        "name": "cpname_yamalia_vehicles32_usbase_1",
        "class": "ObjectSpawner",
        "name_object": "Vehicle Depot",
        "team": "2",
        "obj1": "null",
        "obj2": "vehicle_depot_us",
        "maxspawn": "0.0",
        "minspawn": "0.0",
        "spawndelay": "false",
        "ttl": "0.0",
        "cpid": "901"
      }
    },
    {
      "type": "Feature",
      "geometry": {
        "type": "Point",
        "coordinates": [140.0, -288.0],
        "size": [16, 16]
      },
      "properties": {
        "iconurl": "icons/mini_map/uavtrailer.png",
        "iconrotate": "0",
        "popupContent": "Amazing information about null will be found here!"
      },
      "bf2props": {
        "name": "cpname_yamalia_vehicles32_usbase_2",
        "class": "ObjectSpawner",
        "name_object": "UAV Terminal",
        "team": "2",
        "obj1": "null",
        "obj2": "us_acv_stryker",
        "maxspawn": "0.0",
        "minspawn": "0.0",
        "spawndelay": "false",
        "ttl": "0.0",
        "cpid": "901"
      }
    },
    {
      "type": "Feature",
      "geometry": {
        "type": "Point",
        "coordinates": [156.0, -210.0],
        "size": [16, 16]
      },
      "properties": {
        "iconurl": "icons/vehicles_map/mini_tank_heavy.png",
        "iconrotate": "90.0",
        "popupContent": "Amazing information about null will be found here!"
      },
      "bf2props": {
        "name": "cpname_yamalia_vehicles32_usbase_t",
        "class": "ObjectSpawner",
        "name_object": "M1A2 Abrams TUSK",
        "team": "2",
        "obj1": "null",
        "obj2": "us_tnk_m1a2_alt",
        "maxspawn": "600.0",
        "minspawn": "600.0",
        "spawndelay": "false",
        "ttl": "300.0",
        "cpid": "901"
      }
    },
    {
      "type": "Feature",
      "geometry": {
        "type": "Point",
        "coordinates": [156.0, -202.0],
        "size": [16, 16]
      },
      "properties": {
        "iconurl": "icons/vehicles_map/mini_tank_heavy.png",
        "iconrotate": "90.0",
        "popupContent": "Amazing information about null will be found here!"
      },
      "bf2props": {
        "name": "cpname_yamalia_vehicles32_usbase_0_0",
        "class": "ObjectSpawner",
        "name_object": "M1A2 Abrams TUSK",
        "team": "2",
        "obj1": "null",
        "obj2": "us_tnk_m1a2_alt",
        "maxspawn": "600.0",
        "minspawn": "600.0",
        "spawndelay": "false",
        "ttl": "300.0",
        "cpid": "901"
      }
    },
    {
      "type": "Feature",
      "geometry": {
        "type": "Point",
        "coordinates": [156.0, -194.0],
        "size": [16, 16]
      },
      "properties": {
        "iconurl": "icons/vehicles_map/mini_tank_heavy.png",
        "iconrotate": "90.0",
        "popupContent": "Amazing information about null will be found here!"
      },
      "bf2props": {
        "name": "cpname_yamalia_vehicles32_usbase_1_0",
        "class": "ObjectSpawner",
        "name_object": "M1A2 Abrams TUSK",
        "team": "2",
        "obj1": "null",
        "obj2": "us_tnk_m1a2_alt",
        "maxspawn": "600.0",
        "minspawn": "600.0",
        "spawndelay": "false",
        "ttl": "300.0",
        "cpid": "901"
      }
    },
    {
      "type": "Feature",
      "geometry": {
        "type": "Point",
        "coordinates": [156.0, -186.0],
        "size": [16, 16]
      },
      "properties": {
        "iconurl": "icons/vehicles_map/mini_tank_heavy.png",
        "iconrotate": "90.0",
        "popupContent": "Amazing information about null will be found here!"
      },
      "bf2props": {
        "name": "cpname_yamalia_vehicles32_usbase_2_0",
        "class": "ObjectSpawner",
        "name_object": "M1A2 Abrams TUSK",
        "team": "2",
        "obj1": "null",
        "obj2": "us_tnk_m1a2_alt",
        "maxspawn": "600.0",
        "minspawn": "600.0",
        "spawndelay": "false",
        "ttl": "300.0",
        "cpid": "901"
      }
    },
    {
      "type": "Feature",
      "geometry": {
        "type": "Point",
        "coordinates": [156.0, -178.0],
        "size": [16, 16]
      },
      "properties": {
        "iconurl": "icons/vehicles_map/mini_tank_heavy.png",
        "iconrotate": "90.0",
        "popupContent": "Amazing information about null will be found here!"
      },
      "bf2props": {
        "name": "cpname_yamalia_vehicles32_usbase_3",
        "class": "ObjectSpawner",
        "name_object": "M1A2 Abrams TUSK",
        "team": "2",
        "obj1": "null",
        "obj2": "us_tnk_m1a2_alt",
        "maxspawn": "600.0",
        "minspawn": "600.0",
        "spawndelay": "false",
        "ttl": "300.0",
        "cpid": "901"
      }
    },
    {
      "type": "Feature",
      "geometry": {
        "type": "Point",
        "coordinates": [156.0, -170.0],
        "size": [16, 16]
      },
      "properties": {
        "iconurl": "icons/vehicles_map/mini_tank_heavy.png",
        "iconrotate": "90.0",
        "popupContent": "Amazing information about null will be found here!"
      },
      "bf2props": {
        "name": "cpname_yamalia_vehicles32_usbase_4",
        "class": "ObjectSpawner",
        "name_object": "M1A2 Abrams TUSK",
        "team": "2",
        "obj1": "null",
        "obj2": "us_tnk_m1a2_alt",
        "maxspawn": "600.0",
        "minspawn": "600.0",
        "spawndelay": "false",
        "ttl": "300.0",
        "cpid": "901"
      }
    },
    {
      "type": "Feature",
      "geometry": {
        "type": "Point",
        "coordinates": [156.0, -162.0],
        "size": [16, 16]
      },
      "properties": {
        "iconurl": "icons/vehicles_map/mini_tank_heavy.png",
        "iconrotate": "90.0",
        "popupContent": "Amazing information about null will be found here!"
      },
      "bf2props": {
        "name": "cpname_yamalia_vehicles32_usbase_5",
        "class": "ObjectSpawner",
        "name_object": "M1A2 Abrams TUSK",
        "team": "2",
        "obj1": "null",
        "obj2": "us_tnk_m1a2_alt",
        "maxspawn": "600.0",
        "minspawn": "600.0",
        "spawndelay": "false",
        "ttl": "300.0",
        "cpid": "901"
      }
    },
    {
      "type": "Feature",
      "geometry": {
        "type": "Point",
        "coordinates": [156.0, -154.0],
        "size": [16, 16]
      },
      "properties": {
        "iconurl": "icons/vehicles_map/mini_tank_heavy.png",
        "iconrotate": "90.0",
        "popupContent": "Amazing information about null will be found here!"
      },
      "bf2props": {
        "name": "cpname_yamalia_vehicles32_usbase_6",
        "class": "ObjectSpawner",
        "name_object": "M1A2 Abrams TUSK",
        "team": "2",
        "obj1": "null",
        "obj2": "us_tnk_m1a2_alt",
        "maxspawn": "600.0",
        "minspawn": "600.0",
        "spawndelay": "false",
        "ttl": "300.0",
        "cpid": "901"
      }
    },
    {
      "type": "Feature",
      "geometry": {
        "type": "Point",
        "coordinates": [136.0, -210.0],
        "size": [16, 16]
      },
      "properties": {
        "iconurl": "icons/vehicles_map/mini_tank_heavy.png",
        "iconrotate": "90.0",
        "popupContent": "Amazing information about null will be found here!"
      },
      "bf2props": {
        "name": "cpname_yamalia_vehicles32_usbase_7",
        "class": "ObjectSpawner",
        "name_object": "M1A2 Abrams",
        "team": "2",
        "obj1": "null",
        "obj2": "us_tnk_m1a2",
        "maxspawn": "450.0",
        "minspawn": "450.0",
        "spawndelay": "false",
        "ttl": "300.0",
        "cpid": "901"
      }
    },
    {
      "type": "Feature",
      "geometry": {
        "type": "Point",
        "coordinates": [136.0, -202.0],
        "size": [16, 16]
      },
      "properties": {
        "iconurl": "icons/vehicles_map/mini_tank_heavy.png",
        "iconrotate": "90.0",
        "popupContent": "Amazing information about null will be found here!"
      },
      "bf2props": {
        "name": "cpname_yamalia_vehicles32_usbase_8",
        "class": "ObjectSpawner",
        "name_object": "M1A2 Abrams",
        "team": "2",
        "obj1": "null",
        "obj2": "us_tnk_m1a2",
        "maxspawn": "450.0",
        "minspawn": "450.0",
        "spawndelay": "false",
        "ttl": "300.0",
        "cpid": "901"
      }
    },
    {
      "type": "Feature",
      "geometry": {
        "type": "Point",
        "coordinates": [136.0, -194.0],
        "size": [16, 16]
      },
      "properties": {
        "iconurl": "icons/vehicles_map/mini_tank_heavy.png",
        "iconrotate": "90.0",
        "popupContent": "Amazing information about null will be found here!"
      },
      "bf2props": {
        "name": "cpname_yamalia_vehicles32_usbase_9",
        "class": "ObjectSpawner",
        "name_object": "M1A2 Abrams",
        "team": "2",
        "obj1": "null",
        "obj2": "us_tnk_m1a2",
        "maxspawn": "450.0",
        "minspawn": "450.0",
        "spawndelay": "false",
        "ttl": "300.0",
        "cpid": "901"
      }
    },
    {
      "type": "Feature",
      "geometry": {
        "type": "Point",
        "coordinates": [136.0, -186.0],
        "size": [16, 16]
      },
      "properties": {
        "iconurl": "icons/vehicles_map/mini_tank_heavy.png",
        "iconrotate": "90.0",
        "popupContent": "Amazing information about null will be found here!"
      },
      "bf2props": {
        "name": "cpname_yamalia_vehicles32_usbase_10",
        "class": "ObjectSpawner",
        "name_object": "M1A2 Abrams",
        "team": "2",
        "obj1": "null",
        "obj2": "us_tnk_m1a2",
        "maxspawn": "450.0",
        "minspawn": "450.0",
        "spawndelay": "false",
        "ttl": "300.0",
        "cpid": "901"
      }
    },
    {
      "type": "Feature",
      "geometry": {
        "type": "Point",
        "coordinates": [136.0, -178.0],
        "size": [16, 16]
      },
      "properties": {
        "iconurl": "icons/vehicles_map/mini_tank_heavy.png",
        "iconrotate": "90.0",
        "popupContent": "Amazing information about null will be found here!"
      },
      "bf2props": {
        "name": "cpname_yamalia_vehicles32_usbase_11",
        "class": "ObjectSpawner",
        "name_object": "M1A2 Abrams",
        "team": "2",
        "obj1": "null",
        "obj2": "us_tnk_m1a2",
        "maxspawn": "450.0",
        "minspawn": "450.0",
        "spawndelay": "false",
        "ttl": "300.0",
        "cpid": "901"
      }
    },
    {
      "type": "Feature",
      "geometry": {
        "type": "Point",
        "coordinates": [136.0, -170.0],
        "size": [16, 16]
      },
      "properties": {
        "iconurl": "icons/vehicles_map/mini_tank_heavy.png",
        "iconrotate": "90.0",
        "popupContent": "Amazing information about null will be found here!"
      },
      "bf2props": {
        "name": "cpname_yamalia_vehicles32_usbase_12",
        "class": "ObjectSpawner",
        "name_object": "M1A2 Abrams",
        "team": "2",
        "obj1": "null",
        "obj2": "us_tnk_m1a2",
        "maxspawn": "450.0",
        "minspawn": "450.0",
        "spawndelay": "false",
        "ttl": "300.0",
        "cpid": "901"
      }
    },
    {
      "type": "Feature",
      "geometry": {
        "type": "Point",
        "coordinates": [136.0, -162.0],
        "size": [16, 16]
      },
      "properties": {
        "iconurl": "icons/vehicles_map/mini_tank_heavy.png",
        "iconrotate": "90.0",
        "popupContent": "Amazing information about null will be found here!"
      },
      "bf2props": {
        "name": "cpname_yamalia_vehicles32_usbase_13",
        "class": "ObjectSpawner",
        "name_object": "M1A2 Abrams",
        "team": "2",
        "obj1": "null",
        "obj2": "us_tnk_m1a2",
        "maxspawn": "450.0",
        "minspawn": "450.0",
        "spawndelay": "false",
        "ttl": "300.0",
        "cpid": "901"
      }
    },
    {
      "type": "Feature",
      "geometry": {
        "type": "Point",
        "coordinates": [136.0, -154.0],
        "size": [16, 16]
      },
      "properties": {
        "iconurl": "icons/vehicles_map/mini_tank_heavy.png",
        "iconrotate": "90.0",
        "popupContent": "Amazing information about null will be found here!"
      },
      "bf2props": {
        "name": "cpname_yamalia_vehicles32_usbase_14",
        "class": "ObjectSpawner",
        "name_object": "M1A2 Abrams",
        "team": "2",
        "obj1": "null",
        "obj2": "us_tnk_m1a2",
        "maxspawn": "450.0",
        "minspawn": "450.0",
        "spawndelay": "false",
        "ttl": "300.0",
        "cpid": "901"
      }
    },
    {
      "type": "Feature",
      "geometry": {
        "type": "Point",
        "coordinates": [116.0, -210.0],
        "size": [16, 16]
      },
      "properties": {
        "iconurl": "icons/vehicles_map/mini_tank_heavy.png",
        "iconrotate": "90.0",
        "popupContent": "Amazing information about null will be found here!"
      },
      "bf2props": {
        "name": "cpname_yamalia_vehicles32_usbase_15",
        "class": "ObjectSpawner",
        "name_object": "M1A2 Abrams",
        "team": "2",
        "obj1": "null",
        "obj2": "us_tnk_m1a2",
        "maxspawn": "300.0",
        "minspawn": "300.0",
        "spawndelay": "false",
        "ttl": "300.0",
        "cpid": "901"
      }
    },
    {
      "type": "Feature",
      "geometry": {
        "type": "Point",
        "coordinates": [116.0, -202.0],
        "size": [16, 16]
      },
      "properties": {
        "iconurl": "icons/vehicles_map/mini_tank_heavy.png",
        "iconrotate": "90.0",
        "popupContent": "Amazing information about null will be found here!"
      },
      "bf2props": {
        "name": "cpname_yamalia_vehicles32_usbase_16",
        "class": "ObjectSpawner",
        "name_object": "M1A2 Abrams",
        "team": "2",
        "obj1": "null",
        "obj2": "us_tnk_m1a2",
        "maxspawn": "300.0",
        "minspawn": "300.0",
        "spawndelay": "false",
        "ttl": "300.0",
        "cpid": "901"
      }
    },
    {
      "type": "Feature",
      "geometry": {
        "type": "Point",
        "coordinates": [116.0, -194.0],
        "size": [16, 16]
      },
      "properties": {
        "iconurl": "icons/vehicles_map/mini_tank_heavy.png",
        "iconrotate": "90.0",
        "popupContent": "Amazing information about null will be found here!"
      },
      "bf2props": {
        "name": "cpname_yamalia_vehicles32_usbase_17",
        "class": "ObjectSpawner",
        "name_object": "M1A2 Abrams",
        "team": "2",
        "obj1": "null",
        "obj2": "us_tnk_m1a2",
        "maxspawn": "300.0",
        "minspawn": "300.0",
        "spawndelay": "false",
        "ttl": "300.0",
        "cpid": "901"
      }
    },
    {
      "type": "Feature",
      "geometry": {
        "type": "Point",
        "coordinates": [116.0, -186.0],
        "size": [16, 16]
      },
      "properties": {
        "iconurl": "icons/vehicles_map/mini_tank_heavy.png",
        "iconrotate": "90.0",
        "popupContent": "Amazing information about null will be found here!"
      },
      "bf2props": {
        "name": "cpname_yamalia_vehicles32_usbase_18",
        "class": "ObjectSpawner",
        "name_object": "M1A2 Abrams",
        "team": "2",
        "obj1": "null",
        "obj2": "us_tnk_m1a2",
        "maxspawn": "300.0",
        "minspawn": "300.0",
        "spawndelay": "false",
        "ttl": "300.0",
        "cpid": "901"
      }
    },
    {
      "type": "Feature",
      "geometry": {
        "type": "Point",
        "coordinates": [116.0, -178.0],
        "size": [16, 16]
      },
      "properties": {
        "iconurl": "icons/vehicles_map/mini_tank_heavy.png",
        "iconrotate": "90.0",
        "popupContent": "Amazing information about null will be found here!"
      },
      "bf2props": {
        "name": "cpname_yamalia_vehicles32_usbase_19",
        "class": "ObjectSpawner",
        "name_object": "M1A2 Abrams",
        "team": "2",
        "obj1": "null",
        "obj2": "us_tnk_m1a2",
        "maxspawn": "300.0",
        "minspawn": "300.0",
        "spawndelay": "false",
        "ttl": "300.0",
        "cpid": "901"
      }
    },
    {
      "type": "Feature",
      "geometry": {
        "type": "Point",
        "coordinates": [116.0, -170.0],
        "size": [16, 16]
      },
      "properties": {
        "iconurl": "icons/vehicles_map/mini_tank_heavy.png",
        "iconrotate": "90.0",
        "popupContent": "Amazing information about null will be found here!"
      },
      "bf2props": {
        "name": "cpname_yamalia_vehicles32_usbase_20",
        "class": "ObjectSpawner",
        "name_object": "M1A2 Abrams",
        "team": "2",
        "obj1": "null",
        "obj2": "us_tnk_m1a2",
        "maxspawn": "300.0",
        "minspawn": "300.0",
        "spawndelay": "false",
        "ttl": "300.0",
        "cpid": "901"
      }
    },
    {
      "type": "Feature",
      "geometry": {
        "type": "Point",
        "coordinates": [116.0, -162.0],
        "size": [16, 16]
      },
      "properties": {
        "iconurl": "icons/vehicles_map/mini_tank_heavy.png",
        "iconrotate": "90.0",
        "popupContent": "Amazing information about null will be found here!"
      },
      "bf2props": {
        "name": "cpname_yamalia_vehicles32_usbase_21",
        "class": "ObjectSpawner",
        "name_object": "M1A2 Abrams",
        "team": "2",
        "obj1": "null",
        "obj2": "us_tnk_m1a2",
        "maxspawn": "300.0",
        "minspawn": "300.0",
        "spawndelay": "false",
        "ttl": "300.0",
        "cpid": "901"
      }
    },
    {
      "type": "Feature",
      "geometry": {
        "type": "Point",
        "coordinates": [116.0, -154.0],
        "size": [16, 16]
      },
      "properties": {
        "iconurl": "icons/vehicles_map/mini_tank_heavy.png",
        "iconrotate": "90.0",
        "popupContent": "Amazing information about null will be found here!"
      },
      "bf2props": {
        "name": "cpname_yamalia_vehicles32_usbase_22",
        "class": "ObjectSpawner",
        "name_object": "M1A2 Abrams",
        "team": "2",
        "obj1": "null",
        "obj2": "us_tnk_m1a2",
        "maxspawn": "300.0",
        "minspawn": "300.0",
        "spawndelay": "false",
        "ttl": "300.0",
        "cpid": "901"
      }
    },
    {
      "type": "Feature",
      "geometry": {
        "type": "Point",
        "coordinates": [100.0, -200.0],
        "size": [16, 16]
      },
      "properties": {
        "iconurl": "icons/player_map/mini_squad.png",
        "iconrotate": "0",
        "popupContent": "Amazing information about null will be found here!"
      },
      "bf2props": {
        "name": "cpname_yamalia_vehicles32_usbase_rp",
        "class": "ObjectSpawner",
        "name_object": "Permanent spawnpoint",
        "team": "2",
        "obj1": "null",
        "obj2": "rallypoint_usa_placeable_noexpire",
        "maxspawn": "0.0",
        "minspawn": "0.0",
        "spawndelay": "false",
        "ttl": "0.0",
        "cpid": "901"
      }
    },
    {
      "type": "Feature",
      "geometry": {
        "type": "Point",
        "coordinates": [100.0, -166.0],
        "size": [16, 16]
      },
      "properties": {
        "iconurl": "icons/player_map/mini_squad.png",
        "iconrotate": "0",
        "popupContent": "Amazing information about null will be found here!"
      },
      "bf2props": {
        "name": "cpname_yamalia_vehicles32_usbase_0_1",
        "class": "ObjectSpawner",
        "name_object": "Permanent spawnpoint",
        "team": "2",
        "obj1": "null",
        "obj2": "rallypoint_usa_placeable_noexpire",
        "maxspawn": "0.0",
        "minspawn": "0.0",
        "spawndelay": "false",
        "ttl": "0.0",
        "cpid": "901"
      }
    },
    {
      "type": "Feature",
      "geometry": {
        "type": "Point",
        "coordinates": [3870.0, -3738.0],
        "size": [16, 16]
      },
      "properties": {
        "iconurl": "icons/mini_map/repairdepot.png",
        "iconrotate": "0",
        "popupContent": "Amazing information about Vehicle Depot will be found here!"
      },
      "bf2props": {
        "name": "cpname_yamalia_vehicles32_rubase_depo",
        "class": "ObjectSpawner",
        "name_object": "Vehicle Depot",
        "team": "1",
        "obj1": "vehicle_depot_ru",
        "obj2": "null",
        "maxspawn": "0.0",
        "minspawn": "0.0",
        "spawndelay": "false",
        "ttl": "0.0",
        "cpid": "902"
      }
    },
    {
      "type": "Feature",
      "geometry": {
        "type": "Point",
        "coordinates": [3894.0, -3738.0],
        "size": [16, 16]
      },
      "properties": {
        "iconurl": "icons/mini_map/repairdepot.png",
        "iconrotate": "0",
        "popupContent": "Amazing information about Vehicle Depot will be found here!"
      },
      "bf2props": {
        "name": "cpname_yamalia_vehicles32_rubase_0",
        "class": "ObjectSpawner",
        "name_object": "Vehicle Depot",
        "team": "1",
        "obj1": "vehicle_depot_ru",
        "obj2": "null",
        "maxspawn": "0.0",
        "minspawn": "0.0",
        "spawndelay": "false",
        "ttl": "0.0",
        "cpid": "902"
      }
    },
    {
      "type": "Feature",
      "geometry": {
        "type": "Point",
        "coordinates": [3918.0, -3738.0],
        "size": [16, 16]
      },
      "properties": {
        "iconurl": "icons/mini_map/repairdepot.png",
        "iconrotate": "0",
        "popupContent": "Amazing information about Vehicle Depot will be found here!"
      },
      "bf2props": {
        "name": "cpname_yamalia_vehicles32_rubase_1",
        "class": "ObjectSpawner",
        "name_object": "Vehicle Depot",
        "team": "1",
        "obj1": "vehicle_depot_ru",
        "obj2": "null",
        "maxspawn": "0.0",
        "minspawn": "0.0",
        "spawndelay": "false",
        "ttl": "0.0",
        "cpid": "902"
      }
    },
    {
      "type": "Feature",
      "geometry": {
        "type": "Point",
        "coordinates": [3830.0, -3774.0],
        "size": [16, 16]
      },
      "properties": {
        "iconurl": "icons/mini_map/uavtrailer.png",
        "iconrotate": "0",
        "popupContent": "Amazing information about UAV Terminal will be found here!"
      },
      "bf2props": {
        "name": "cpname_yamalia_vehicles32_rubase_acv",
        "class": "ObjectSpawner",
        "name_object": "UAV Terminal",
        "team": "1",
        "obj1": "ru_acv_btr60pu",
        "obj2": "null",
        "maxspawn": "0.0",
        "minspawn": "0.0",
        "spawndelay": "false",
        "ttl": "0.0",
        "cpid": "902"
      }
    },
    {
      "type": "Feature",
      "geometry": {
        "type": "Point",
        "coordinates": [3842.0, -3798.0],
        "size": [16, 16]
      },
      "properties": {
        "iconurl": "icons/vehicles_map/mini_tank_heavy.png",
        "iconrotate": "-110.0",
        "popupContent": "Amazing information about T-72B1 will be found here!"
      },
      "bf2props": {
        "name": "cpname_yamalia_vehicles32_rubase_t",
        "class": "ObjectSpawner",
        "name_object": "T-72B1",
        "team": "1",
        "obj1": "ru_tnk_t72b",
        "obj2": "null",
        "maxspawn": "300.0",
        "minspawn": "300.0",
        "spawndelay": "false",
        "ttl": "300.0",
        "cpid": "902"
      }
    },
    {
      "type": "Feature",
      "geometry": {
        "type": "Point",
        "coordinates": [3846.0, -3810.0],
        "size": [16, 16]
      },
      "properties": {
        "iconurl": "icons/vehicles_map/mini_tank_heavy.png",
        "iconrotate": "-110.0",
        "popupContent": "Amazing information about T-72B1 will be found here!"
      },
      "bf2props": {
        "name": "cpname_yamalia_vehicles32_rubase_0_0",
        "class": "ObjectSpawner",
        "name_object": "T-72B1",
        "team": "1",
        "obj1": "ru_tnk_t72b",
        "obj2": "null",
        "maxspawn": "300.0",
        "minspawn": "300.0",
        "spawndelay": "false",
        "ttl": "300.0",
        "cpid": "902"
      }
    },
    {
      "type": "Feature",
      "geometry": {
        "type": "Point",
        "coordinates": [3854.0, -3794.0],
        "size": [16, 16]
      },
      "properties": {
        "iconurl": "icons/vehicles_map/mini_tank_heavy.png",
        "iconrotate": "-110.0",
        "popupContent": "Amazing information about T-72B1 will be found here!"
      },
      "bf2props": {
        "name": "cpname_yamalia_vehicles32_rubase_1_0",
        "class": "ObjectSpawner",
        "name_object": "T-72B1",
        "team": "1",
        "obj1": "ru_tnk_t72b",
        "obj2": "null",
        "maxspawn": "300.0",
        "minspawn": "300.0",
        "spawndelay": "false",
        "ttl": "300.0",
        "cpid": "902"
      }
    },
    {
      "type": "Feature",
      "geometry": {
        "type": "Point",
        "coordinates": [3858.0, -3806.0],
        "size": [16, 16]
      },
      "properties": {
        "iconurl": "icons/vehicles_map/mini_tank_heavy.png",
        "iconrotate": "-110.0",
        "popupContent": "Amazing information about T-72B1 will be found here!"
      },
      "bf2props": {
        "name": "cpname_yamalia_vehicles32_rubase_2",
        "class": "ObjectSpawner",
        "name_object": "T-72B1",
        "team": "1",
        "obj1": "ru_tnk_t72b",
        "obj2": "null",
        "maxspawn": "300.0",
        "minspawn": "300.0",
        "spawndelay": "false",
        "ttl": "300.0",
        "cpid": "902"
      }
    },
    {
      "type": "Feature",
      "geometry": {
        "type": "Point",
        "coordinates": [3866.0, -3790.0],
        "size": [16, 16]
      },
      "properties": {
        "iconurl": "icons/vehicles_map/mini_tank_heavy.png",
        "iconrotate": "-106.401",
        "popupContent": "Amazing information about T-72B1 will be found here!"
      },
      "bf2props": {
        "name": "cpname_yamalia_vehicles32_rubase_3",
        "class": "ObjectSpawner",
        "name_object": "T-72B1",
        "team": "1",
        "obj1": "ru_tnk_t72b",
        "obj2": "null",
        "maxspawn": "300.0",
        "minspawn": "300.0",
        "spawndelay": "false",
        "ttl": "300.0",
        "cpid": "902"
      }
    },
    {
      "type": "Feature",
      "geometry": {
        "type": "Point",
        "coordinates": [3870.0, -3802.0],
        "size": [16, 16]
      },
      "properties": {
        "iconurl": "icons/vehicles_map/mini_tank_heavy.png",
        "iconrotate": "-106.401",
        "popupContent": "Amazing information about T-72B1 will be found here!"
      },
      "bf2props": {
        "name": "cpname_yamalia_vehicles32_rubase_4",
        "class": "ObjectSpawner",
        "name_object": "T-72B1",
        "team": "1",
        "obj1": "ru_tnk_t72b",
        "obj2": "null",
        "maxspawn": "300.0",
        "minspawn": "300.0",
        "spawndelay": "false",
        "ttl": "300.0",
        "cpid": "902"
      }
    },
    {
      "type": "Feature",
      "geometry": {
        "type": "Point",
        "coordinates": [3880.0, -3786.0],
        "size": [16, 16]
      },
      "properties": {
        "iconurl": "icons/vehicles_map/mini_tank_heavy.png",
        "iconrotate": "-106.401",
        "popupContent": "Amazing information about T-72B1 will be found here!"
      },
      "bf2props": {
        "name": "cpname_yamalia_vehicles32_rubase_5",
        "class": "ObjectSpawner",
        "name_object": "T-72B1",
        "team": "1",
        "obj1": "ru_tnk_t72b",
        "obj2": "null",
        "maxspawn": "300.0",
        "minspawn": "300.0",
        "spawndelay": "false",
        "ttl": "300.0",
        "cpid": "902"
      }
    },
    {
      "type": "Feature",
      "geometry": {
        "type": "Point",
        "coordinates": [3882.0, -3798.0],
        "size": [16, 16]
      },
      "properties": {
        "iconurl": "icons/vehicles_map/mini_tank_heavy.png",
        "iconrotate": "-106.401",
        "popupContent": "Amazing information about T-72B1 will be found here!"
      },
      "bf2props": {
        "name": "cpname_yamalia_vehicles32_rubase_6",
        "class": "ObjectSpawner",
        "name_object": "T-72B1",
        "team": "1",
        "obj1": "ru_tnk_t72b",
        "obj2": "null",
        "maxspawn": "300.0",
        "minspawn": "300.0",
        "spawndelay": "false",
        "ttl": "300.0",
        "cpid": "902"
      }
    },
    {
      "type": "Feature",
      "geometry": {
        "type": "Point",
        "coordinates": [3896.0, -3784.0],
        "size": [16, 16]
      },
      "properties": {
        "iconurl": "icons/vehicles_map/mini_tank_heavy.png",
        "iconrotate": "-106.015",
        "popupContent": "Amazing information about T-72B1 will be found here!"
      },
      "bf2props": {
        "name": "cpname_yamalia_vehicles32_rubase_7",
        "class": "ObjectSpawner",
        "name_object": "T-72B1",
        "team": "1",
        "obj1": "ru_tnk_t72b",
        "obj2": "null",
        "maxspawn": "300.0",
        "minspawn": "300.0",
        "spawndelay": "false",
        "ttl": "300.0",
        "cpid": "902"
      }
    },
    {
      "type": "Feature",
      "geometry": {
        "type": "Point",
        "coordinates": [3900.0, -3796.0],
        "size": [16, 16]
      },
      "properties": {
        "iconurl": "icons/vehicles_map/mini_tank_heavy.png",
        "iconrotate": "-106.015",
        "popupContent": "Amazing information about T-72B1 will be found here!"
      },
      "bf2props": {
        "name": "cpname_yamalia_vehicles32_rubase_8",
        "class": "ObjectSpawner",
        "name_object": "T-72B1",
        "team": "1",
        "obj1": "ru_tnk_t72b",
        "obj2": "null",
        "maxspawn": "300.0",
        "minspawn": "300.0",
        "spawndelay": "false",
        "ttl": "300.0",
        "cpid": "902"
      }
    },
    {
      "type": "Feature",
      "geometry": {
        "type": "Point",
        "coordinates": [3908.0, -3780.0],
        "size": [16, 16]
      },
      "properties": {
        "iconurl": "icons/vehicles_map/mini_tank_heavy.png",
        "iconrotate": "-106.015",
        "popupContent": "Amazing information about T-72B1 will be found here!"
      },
      "bf2props": {
        "name": "cpname_yamalia_vehicles32_rubase_9",
        "class": "ObjectSpawner",
        "name_object": "T-72B1",
        "team": "1",
        "obj1": "ru_tnk_t72b",
        "obj2": "null",
        "maxspawn": "300.0",
        "minspawn": "300.0",
        "spawndelay": "false",
        "ttl": "300.0",
        "cpid": "902"
      }
    },
    {
      "type": "Feature",
      "geometry": {
        "type": "Point",
        "coordinates": [3912.0, -3792.0],
        "size": [16, 16]
      },
      "properties": {
        "iconurl": "icons/vehicles_map/mini_tank_heavy.png",
        "iconrotate": "-106.015",
        "popupContent": "Amazing information about T-72B1 will be found here!"
      },
      "bf2props": {
        "name": "cpname_yamalia_vehicles32_rubase_10",
        "class": "ObjectSpawner",
        "name_object": "T-72B1",
        "team": "1",
        "obj1": "ru_tnk_t72b",
        "obj2": "null",
        "maxspawn": "300.0",
        "minspawn": "300.0",
        "spawndelay": "false",
        "ttl": "300.0",
        "cpid": "902"
      }
    },
    {
      "type": "Feature",
      "geometry": {
        "type": "Point",
        "coordinates": [3920.0, -3778.0],
        "size": [16, 16]
      },
      "properties": {
        "iconurl": "icons/vehicles_map/mini_tank_heavy.png",
        "iconrotate": "-102.416",
        "popupContent": "Amazing information about T-72B1 will be found here!"
      },
      "bf2props": {
        "name": "cpname_yamalia_vehicles32_rubase_11",
        "class": "ObjectSpawner",
        "name_object": "T-72B1",
        "team": "1",
        "obj1": "ru_tnk_t72b",
        "obj2": "null",
        "maxspawn": "300.0",
        "minspawn": "300.0",
        "spawndelay": "false",
        "ttl": "300.0",
        "cpid": "902"
      }
    },
    {
      "type": "Feature",
      "geometry": {
        "type": "Point",
        "coordinates": [3924.0, -3790.0],
        "size": [16, 16]
      },
      "properties": {
        "iconurl": "icons/vehicles_map/mini_tank_heavy.png",
        "iconrotate": "-102.416",
        "popupContent": "Amazing information about T-72B1 will be found here!"
      },
      "bf2props": {
        "name": "cpname_yamalia_vehicles32_rubase_12",
        "class": "ObjectSpawner",
        "name_object": "T-72B1",
        "team": "1",
        "obj1": "ru_tnk_t72b",
        "obj2": "null",
        "maxspawn": "300.0",
        "minspawn": "300.0",
        "spawndelay": "false",
        "ttl": "300.0",
        "cpid": "902"
      }
    },
    {
      "type": "Feature",
      "geometry": {
        "type": "Point",
        "coordinates": [3936.0, -3774.0],
        "size": [16, 16]
      },
      "properties": {
        "iconurl": "icons/vehicles_map/mini_tank_heavy.png",
        "iconrotate": "-102.416",
        "popupContent": "Amazing information about T-72B1 will be found here!"
      },
      "bf2props": {
        "name": "cpname_yamalia_vehicles32_rubase_13",
        "class": "ObjectSpawner",
        "name_object": "T-72B1",
        "team": "1",
        "obj1": "ru_tnk_t72b",
        "obj2": "null",
        "maxspawn": "300.0",
        "minspawn": "300.0",
        "spawndelay": "false",
        "ttl": "300.0",
        "cpid": "902"
      }
    },
    {
      "type": "Feature",
      "geometry": {
        "type": "Point",
        "coordinates": [3936.0, -3786.0],
        "size": [16, 16]
      },
      "properties": {
        "iconurl": "icons/vehicles_map/mini_tank_heavy.png",
        "iconrotate": "-102.416",
        "popupContent": "Amazing information about T-72B1 will be found here!"
      },
      "bf2props": {
        "name": "cpname_yamalia_vehicles32_rubase_14",
        "class": "ObjectSpawner",
        "name_object": "T-72B1",
        "team": "1",
        "obj1": "ru_tnk_t72b",
        "obj2": "null",
        "maxspawn": "300.0",
        "minspawn": "300.0",
        "spawndelay": "false",
        "ttl": "300.0",
        "cpid": "902"
      }
    },
    {
      "type": "Feature",
      "geometry": {
        "type": "Point",
        "coordinates": [3806.0, -3806.0],
        "size": [16, 16]
      },
      "properties": {
        "iconurl": "icons/vehicles_map/mini_tank_heavy.png",
        "iconrotate": "-102.969",
        "popupContent": "Amazing information about T-90A will be found here!"
      },
      "bf2props": {
        "name": "cpname_yamalia_vehicles32_rubase_15",
        "class": "ObjectSpawner",
        "name_object": "T-90A",
        "team": "1",
        "obj1": "ru_tnk_t90",
        "obj2": "null",
        "maxspawn": "600.0",
        "minspawn": "600.0",
        "spawndelay": "false",
        "ttl": "300.0",
        "cpid": "902"
      }
    },
    {
      "type": "Feature",
      "geometry": {
        "type": "Point",
        "coordinates": [3808.0, -3820.0],
        "size": [16, 16]
      },
      "properties": {
        "iconurl": "icons/vehicles_map/mini_tank_heavy.png",
        "iconrotate": "-102.969",
        "popupContent": "Amazing information about T-90A will be found here!"
      },
      "bf2props": {
        "name": "cpname_yamalia_vehicles32_rubase_16",
        "class": "ObjectSpawner",
        "name_object": "T-90A",
        "team": "1",
        "obj1": "ru_tnk_t90",
        "obj2": "null",
        "maxspawn": "600.0",
        "minspawn": "600.0",
        "spawndelay": "false",
        "ttl": "300.0",
        "cpid": "902"
      }
    },
    {
      "type": "Feature",
      "geometry": {
        "type": "Point",
        "coordinates": [3818.0, -3804.0],
        "size": [16, 16]
      },
      "properties": {
        "iconurl": "icons/vehicles_map/mini_tank_heavy.png",
        "iconrotate": "-102.969",
        "popupContent": "Amazing information about T-90A will be found here!"
      },
      "bf2props": {
        "name": "cpname_yamalia_vehicles32_rubase_17",
        "class": "ObjectSpawner",
        "name_object": "T-90A",
        "team": "1",
        "obj1": "ru_tnk_t90",
        "obj2": "null",
        "maxspawn": "600.0",
        "minspawn": "600.0",
        "spawndelay": "false",
        "ttl": "300.0",
        "cpid": "902"
      }
    },
    {
      "type": "Feature",
      "geometry": {
        "type": "Point",
        "coordinates": [3820.0, -3818.0],
        "size": [16, 16]
      },
      "properties": {
        "iconurl": "icons/vehicles_map/mini_tank_heavy.png",
        "iconrotate": "-102.969",
        "popupContent": "Amazing information about T-90A will be found here!"
      },
      "bf2props": {
        "name": "cpname_yamalia_vehicles32_rubase_18",
        "class": "ObjectSpawner",
        "name_object": "T-90A",
        "team": "1",
        "obj1": "ru_tnk_t90",
        "obj2": "null",
        "maxspawn": "600.0",
        "minspawn": "600.0",
        "spawndelay": "false",
        "ttl": "300.0",
        "cpid": "902"
      }
    },
    {
      "type": "Feature",
      "geometry": {
        "type": "Point",
        "coordinates": [3830.0, -3804.0],
        "size": [16, 16]
      },
      "properties": {
        "iconurl": "icons/vehicles_map/mini_tank_heavy.png",
        "iconrotate": "-99.37",
        "popupContent": "Amazing information about T-90A will be found here!"
      },
      "bf2props": {
        "name": "cpname_yamalia_vehicles32_rubase_19",
        "class": "ObjectSpawner",
        "name_object": "T-90A",
        "team": "1",
        "obj1": "ru_tnk_t90",
        "obj2": "null",
        "maxspawn": "600.0",
        "minspawn": "600.0",
        "spawndelay": "false",
        "ttl": "300.0",
        "cpid": "902"
      }
    },
    {
      "type": "Feature",
      "geometry": {
        "type": "Point",
        "coordinates": [3832.0, -3814.0],
        "size": [16, 16]
      },
      "properties": {
        "iconurl": "icons/vehicles_map/mini_tank_heavy.png",
        "iconrotate": "-99.37",
        "popupContent": "Amazing information about T-90A will be found here!"
      },
      "bf2props": {
        "name": "cpname_yamalia_vehicles32_rubase_20",
        "class": "ObjectSpawner",
        "name_object": "T-90A",
        "team": "1",
        "obj1": "ru_tnk_t90",
        "obj2": "null",
        "maxspawn": "600.0",
        "minspawn": "600.0",
        "spawndelay": "false",
        "ttl": "300.0",
        "cpid": "902"
      }
    },
    {
      "type": "Feature",
      "geometry": {
        "type": "Point",
        "coordinates": [3794.0, -3806.0],
        "size": [16, 16]
      },
      "properties": {
        "iconurl": "icons/vehicles_map/mini_tank_heavy.png",
        "iconrotate": "-82.11",
        "popupContent": "Amazing information about T-90A will be found here!"
      },
      "bf2props": {
        "name": "cpname_yamalia_vehicles32_rubase_21",
        "class": "ObjectSpawner",
        "name_object": "T-90A",
        "team": "1",
        "obj1": "ru_tnk_t90",
        "obj2": "null",
        "maxspawn": "600.0",
        "minspawn": "600.0",
        "spawndelay": "false",
        "ttl": "300.0",
        "cpid": "902"
      }
    },
    {
      "type": "Feature",
      "geometry": {
        "type": "Point",
        "coordinates": [3796.0, -3820.0],
        "size": [16, 16]
      },
      "properties": {
        "iconurl": "icons/vehicles_map/mini_tank_heavy.png",
        "iconrotate": "-74.41",
        "popupContent": "Amazing information about T-90A will be found here!"
      },
      "bf2props": {
        "name": "cpname_yamalia_vehicles32_rubase_22",
        "class": "ObjectSpawner",
        "name_object": "T-90A",
        "team": "1",
        "obj1": "ru_tnk_t90",
        "obj2": "null",
        "maxspawn": "600.0",
        "minspawn": "600.0",
        "spawndelay": "false",
        "ttl": "300.0",
        "cpid": "902"
      }
    },
    {
      "type": "Feature",
      "geometry": {
        "type": "Point",
        "coordinates": [3771.648, -3822.156],
        "size": [16, 16]
      },
      "properties": {
        "iconurl": "icons/player_map/mini_squad.png",
        "iconrotate": "0",
        "popupContent": "Amazing information about Permanent spawnpoint will be found here!"
      },
      "bf2props": {
        "name": "cpname_yamalia_vehicles32_rubase_rp",
        "class": "ObjectSpawner",
        "name_object": "Permanent spawnpoint",
        "team": "1",
        "obj1": "rallypoint_ru_placeable_noexpire",
        "obj2": "null",
        "maxspawn": "0.0",
        "minspawn": "0.0",
        "spawndelay": "false",
        "ttl": "0.0",
        "cpid": "902"
      }
    },
    {
      "type": "Feature",
      "geometry": {
        "type": "Point",
        "coordinates": [3856.916, -3822.748],
        "size": [16, 16]
      },
      "properties": {
        "iconurl": "icons/player_map/mini_squad.png",
        "iconrotate": "0",
        "popupContent": "Amazing information about Permanent spawnpoint will be found here!"
      },
      "bf2props": {
        "name": "cpname_yamalia_vehicles32_rubase_0_1",
        "class": "ObjectSpawner",
        "name_object": "Permanent spawnpoint",
        "team": "1",
        "obj1": "rallypoint_ru_placeable_noexpire",
        "obj2": "null",
        "maxspawn": "0.0",
        "minspawn": "0.0",
        "spawndelay": "false",
        "ttl": "0.0",
        "cpid": "902"
      }
    },
    {
      "type": "Feature",
      "geometry": {
        "type": "Point",
        "coordinates": [3940.5151, -3799.073],
        "size": [16, 16]
      },
      "properties": {
        "iconurl": "icons/player_map/mini_squad.png",
        "iconrotate": "0",
        "popupContent": "Amazing information about Permanent spawnpoint will be found here!"
      },
      "bf2props": {
        "name": "cpname_yamalia_vehicles32_rubase_1_1",
        "class": "ObjectSpawner",
        "name_object": "Permanent spawnpoint",
        "team": "1",
        "obj1": "rallypoint_ru_placeable_noexpire",
        "obj2": "null",
        "maxspawn": "0.0",
        "minspawn": "0.0",
        "spawndelay": "false",
        "ttl": "0.0",
        "cpid": "902"
      }
    },
    {
      "type": "Feature",
      "geometry": {
        "type": "Point",
        "coordinates": [252.0, -284.0],
        "size": [33, 33],
        "radius": "0.0"
      },
      "properties": {
        "iconurl": "icons/flags_map/us/minimap_cpbase.png",
        "iconrotate": "0",
        "popupContent": "Amazing information about US Staging Area will be found here!"
      },
      "bf2props": {
        "name": "cpname_yamalia_vehicles32_usbase",
        "class": "ControlPoint",
        "name_object": "US Staging Area",
        "team": "2",
        "areavalue1": "0.0",
        "areavalue2": "0.0",
        "cpid": "901",
        "sgid": "-999",
        "uncap": "true",
        "ttgc": "0.0",
        "ttlc": "0.0"
      }
    },
    {
      "type": "Feature",
      "geometry": {
        "type": "Point",
        "coordinates": [3816.0, -3752.0],
        "size": [33, 33],
        "radius": "0.0"
      },
      "properties": {
        "iconurl": "icons/flags_map/ru/minimap_cpbase.png",
        "iconrotate": "0",
        "popupContent": "Amazing information about Russian Staging Area will be found here!"
      },
      "bf2props": {
        "name": "cpname_yamalia_vehicles32_rubase",
        "class": "ControlPoint",
        "name_object": "Russian Staging Area",
        "team": "1",
        "areavalue1": "0.0",
        "areavalue2": "0.0",
        "cpid": "902",
        "sgid": "10",
        "uncap": "true",
        "ttgc": "0.0",
        "ttlc": "0.0"
      }
    },
    {
      "type": "Feature",
      "geometry": {
        "type": "Point",
        "coordinates": [766.0, -1960.0],
        "size": [33, 33],
        "radius": "400.0"
      },
      "properties": {
        "iconurl": "icons/flags_map/neutral/minimap_cp.png",
        "iconrotate": "0",
        "popupContent": "Amazing information about Papa One 400m will be found here!"
      },
      "bf2props": {
        "name": "cpname_yamalia_vehicles32_papa1",
        "class": "ControlPoint",
        "name_object": "Papa One 400m",
        "team": "0",
        "areavalue1": "90.0",
        "areavalue2": "90.0",
        "cpid": "903",
        "sgid": "401",
        "uncap": "false",
        "ttgc": "180.0",
        "ttlc": "180.0"
      }
    },
    {
      "type": "Feature",
      "geometry": {
        "type": "Point",
        "coordinates": [1396.0, -1468.0],
        "size": [33, 33],
        "radius": "400.0"
      },
      "properties": {
        "iconurl": "icons/flags_map/neutral/minimap_cp.png",
        "iconrotate": "0",
        "popupContent": "Amazing information about Romeo One 400m will be found here!"
      },
      "bf2props": {
        "name": "cpname_yamalia_vehicles32_romeo1",
        "class": "ControlPoint",
        "name_object": "Romeo One 400m",
        "team": "0",
        "areavalue1": "90.0",
        "areavalue2": "90.0",
        "cpid": "904",
        "sgid": "402",
        "uncap": "false",
        "ttgc": "180.0",
        "ttlc": "180.0"
      }
    },
    {
      "type": "Feature",
      "geometry": {
        "type": "Point",
        "coordinates": [1828.0, -956.0],
        "size": [33, 33],
        "radius": "400.0"
      },
      "properties": {
        "iconurl": "icons/flags_map/neutral/minimap_cp.png",
        "iconrotate": "0",
        "popupContent": "Amazing information about Tango One 400m will be found here!"
      },
      "bf2props": {
        "name": "cpname_yamalia_vehicles32_tango1",
        "class": "ControlPoint",
        "name_object": "Tango One 400m",
        "team": "0",
        "areavalue1": "90.0",
        "areavalue2": "90.0",
        "cpid": "905",
        "sgid": "403",
        "uncap": "false",
        "ttgc": "180.0",
        "ttlc": "180.0"
      }
    },
    {
      "type": "Feature",
      "geometry": {
        "type": "Point",
        "coordinates": [2722.0, -1498.0],
        "size": [33, 33],
        "radius": "400.0"
      },
      "properties": {
        "iconurl": "icons/flags_map/neutral/minimap_cp.png",
        "iconrotate": "0",
        "popupContent": "Amazing information about Tango Two 400m will be found here!"
      },
      "bf2props": {
        "name": "cpname_yamalia_vehicles32_tango2",
        "class": "ControlPoint",
        "name_object": "Tango Two 400m",
        "team": "0",
        "areavalue1": "90.0",
        "areavalue2": "90.0",
        "cpid": "906",
        "sgid": "303",
        "uncap": "false",
        "ttgc": "180.0",
        "ttlc": "180.0"
      }
    },
    {
      "type": "Feature",
      "geometry": {
        "type": "Point",
        "coordinates": [3098.0, -2550.0],
        "size": [33, 33],
        "radius": "400.0"
      },
      "properties": {
        "iconurl": "icons/flags_map/neutral/minimap_cp.png",
        "iconrotate": "0",
        "popupContent": "Amazing information about Tango Three 400m will be found here!"
      },
      "bf2props": {
        "name": "cpname_yamalia_vehicles32_tango3",
        "class": "ControlPoint",
        "name_object": "Tango Three 400m",
        "team": "0",
        "areavalue1": "90.0",
        "areavalue2": "90.0",
        "cpid": "907",
        "sgid": "203",
        "uncap": "false",
        "ttgc": "180.0",
        "ttlc": "180.0"
      }
    },
    {
      "type": "Feature",
      "geometry": {
        "type": "Point",
        "coordinates": [1930.0, -2290.0],
        "size": [33, 33],
        "radius": "400.0"
      },
      "properties": {
        "iconurl": "icons/flags_map/neutral/minimap_cp.png",
        "iconrotate": "0",
        "popupContent": "Amazing information about Romeo Two 400m will be found here!"
      },
      "bf2props": {
        "name": "cpname_yamalia_vehicles32_romeo2",
        "class": "ControlPoint",
        "name_object": "Romeo Two 400m",
        "team": "0",
        "areavalue1": "90.0",
        "areavalue2": "90.0",
        "cpid": "908",
        "sgid": "302",
        "uncap": "false",
        "ttgc": "180.0",
        "ttlc": "180.0"
      }
    },
    {
      "type": "Feature",
      "geometry": {
        "type": "Point",
        "coordinates": [2574.0, -2948.0],
        "size": [33, 33],
        "radius": "400.0"
      },
      "properties": {
        "iconurl": "icons/flags_map/neutral/minimap_cp.png",
        "iconrotate": "0",
        "popupContent": "Amazing information about Romeo Three 400m will be found here!"
      },
      "bf2props": {
        "name": "cpname_yamalia_vehicles32_romeo3",
        "class": "ControlPoint",
        "name_object": "Romeo Three 400m",
        "team": "0",
        "areavalue1": "90.0",
        "areavalue2": "90.0",
        "cpid": "909",
        "sgid": "202",
        "uncap": "false",
        "ttgc": "180.0",
        "ttlc": "180.0"
      }
    },
    {
      "type": "Feature",
      "geometry": {
        "type": "Point",
        "coordinates": [1082.0, -3180.0],
        "size": [33, 33],
        "radius": "400.0"
      },
      "properties": {
        "iconurl": "icons/flags_map/neutral/minimap_cp.png",
        "iconrotate": "0",
        "popupContent": "Amazing information about Papa Two 400m will be found here!"
      },
      "bf2props": {
        "name": "cpname_yamalia_vehicles32_papa2",
        "class": "ControlPoint",
        "name_object": "Papa Two 400m",
        "team": "0",
        "areavalue1": "90.0",
        "areavalue2": "90.0",
        "cpid": "910",
        "sgid": "301",
        "uncap": "false",
        "ttgc": "180.0",
        "ttlc": "180.0"
      }
    },
    {
      "type": "Feature",
      "geometry": {
        "type": "Point",
        "coordinates": [2166.0, -3428.0],
        "size": [33, 33],
        "radius": "400.0"
      },
      "properties": {
        "iconurl": "icons/flags_map/neutral/minimap_cp.png",
        "iconrotate": "0",
        "popupContent": "Amazing information about Papa Three 400m will be found here!"
      },
      "bf2props": {
        "name": "cpname_yamalia_vehicles32_papa3",
        "class": "ControlPoint",
        "name_object": "Papa Three 400m",
        "team": "0",
        "areavalue1": "90.0",
        "areavalue2": "90.0",
        "cpid": "911",
        "sgid": "201",
        "uncap": "false",
        "ttgc": "180.0",
        "ttlc": "180.0"
      }
    },
    {
      "type": "Feature",
      "geometry": {
        "type": "Polygon",
        "coordinates": [
          [
            [0,0],
            [0,-4096],
            [4096,-4096],
            [4096,0]
          ],[
            [4068.0, -28.0],
            [4068.0, -4068.0],
            [28.0, -4068.0],
            [28.0, -28.0]
          ]
        ]
      },
      "bf2props": {
        "code": "combatarea_0_vw32",
        "class": "CombatArea",
        "team": "0",
        "vehicles": "4",
        "layer": "10",
        "inverted": "false",
        "max": [0.0, 0.0],
        "min": [0.0, 0.0]
      }
    },
    {
      "type": "Feature",
      "geometry": {
        "type": "Polygon",
        "coordinates": [
          [
            [4088.066, -4088.1626],
            [4088.7039, -2624.6858],
            [3598.9531, -2913.7349],
            [2973.1272, -3484.7314],
            [2891.7026, -4087.6646]
          ]
        ]
      },
      "bf2props": {
        "code": "combatarea_4_vw32",
        "class": "CombatArea",
        "team": "2",
        "vehicles": "4",
        "layer": "10",
        "inverted": "true",
        "max": [0.0, 0.0],
        "min": [0.0, 0.0]
      }
    },
    {
      "type": "Feature",
      "geometry": {
        "type": "Polygon",
        "coordinates": [
          [
            [640.72046, -1106.8103],
            [1458.9089, -7.538574],
            [8.019043, -7.7839355],
            [7.831299, -1355.9031],
            [314.12964, -1346.9097]
          ]
        ]
      },
      "bf2props": {
        "code": "combatarea_9_vw32",
        "class": "CombatArea",
        "team": "1",
        "vehicles": "4",
        "layer": "10",
        "inverted": "true",
        "max": [0.0, 0.0],
        "min": [0.0, 0.0]
      }
    }
  ]
}