{
  "team1":"ru",
  "team2":"cf",
  "team1tickets":"650",
  "team2tickets":"600",
  "mapsize":"4096",
  "viewdistance":"800",
  "combatareause":"true",
  "combatareadamage":"20.0",
  "combatareaallowoutside":"30.0",
  "routes": [
  ],
  "type": "FeatureCollection",
  "features": [
    {
      "type": "Feature",
      "geometry": {
        "type": "Point",
        "coordinates": [3823.292, -3799.208],
        "size": [16, 16]
      },
      "properties": {
        "iconurl": "icons/vehicles_map/mini_trk_support.png",
        "iconrotate": "-173.109",
        "popupContent": "Amazing information about Ural-4320 will be found here!"
      },
      "bf2props": {
        "name": "common_ru_trk2",
        "class": "ObjectSpawner",
        "name_object": "Ural-4320",
        "team": "1",
        "obj1": "ru_trk_support",
        "obj2": "null",
        "maxspawn": "99999.0",
        "minspawn": "99999.0",
        "spawndelay": "false",
        "ttl": "99999.0",
        "cpid": "-1"
      }
    },
    {
      "type": "Feature",
      "geometry": {
        "type": "Point",
        "coordinates": [3869.412, -3807.974],
        "size": [16, 16]
      },
      "properties": {
        "iconurl": "icons/vehicles_map/mini_trk_logistics.png",
        "iconrotate": "-26.572",
        "popupContent": "Amazing information about Ural-4320 Logistics will be found here!"
      },
      "bf2props": {
        "name": "common_ru_logi1",
        "class": "ObjectSpawner",
        "name_object": "Ural-4320 Logistics",
        "team": "1",
        "obj1": "ru_trk_logistics",
        "obj2": "null",
        "maxspawn": "300.0",
        "minspawn": "300.0",
        "spawndelay": "false",
        "ttl": "99999.0",
        "cpid": "-1"
      }
    },
    {
      "type": "Feature",
      "geometry": {
        "type": "Point",
        "coordinates": [3898.512, -3798.9028],
        "size": [16, 16]
      },
      "properties": {
        "iconurl": "icons/mini_map/repairdepot.png",
        "iconrotate": "0",
        "popupContent": "Amazing information about Vehicle Depot will be found here!"
      },
      "bf2props": {
        "name": "common_ru_vehicle_depot",
        "class": "ObjectSpawner",
        "name_object": "Vehicle Depot",
        "team": "1",
        "obj1": "vehicle_depot_ru",
        "obj2": "null",
        "maxspawn": "0.0",
        "minspawn": "0.0",
        "spawndelay": "false",
        "ttl": "0.0",
        "cpid": "-1"
      }
    },
    {
      "type": "Feature",
      "geometry": {
        "type": "Point",
        "coordinates": [3806.668, -3784.22],
        "size": [16, 16]
      },
      "properties": {
        "iconurl": "icons/mini_map/uavtrailer.png",
        "iconrotate": "0",
        "popupContent": "Amazing information about UAV Terminal will be found here!"
      },
      "bf2props": {
        "name": "common_ru_acv",
        "class": "ObjectSpawner",
        "name_object": "UAV Terminal",
        "team": "1",
        "obj1": "ru_acv_btr60pu",
        "obj2": "null",
        "maxspawn": "0.0",
        "minspawn": "0.0",
        "spawndelay": "false",
        "ttl": "0.0",
        "cpid": "-1"
      }
    },
    {
      "type": "Feature",
      "geometry": {
        "type": "Point",
        "coordinates": [-757.72705, -274.77905],
        "size": [16, 16]
      },
      "properties": {
        "iconurl": "icons/mini_map/airdef.png",
        "iconrotate": "0",
        "popupContent": "Amazing information about null will be found here!"
      },
      "bf2props": {
        "name": "common_blufor_artillery4",
        "class": "ObjectSpawner",
        "name_object": "Artillery Barrage Call-In",
        "team": "2",
        "obj1": "null",
        "obj2": "artillery_team2",
        "maxspawn": "1800.0",
        "minspawn": "1800.0",
        "spawndelay": "true",
        "ttl": "0.0",
        "cpid": "-1"
      }
    },
    {
      "type": "Feature",
      "geometry": {
        "type": "Point",
        "coordinates": [4860.835, -5191.207],
        "size": [16, 16]
      },
      "properties": {
        "iconurl": "icons/mini_map/airdef.png",
        "iconrotate": "0",
        "popupContent": "Amazing information about Artillery Barrage Call-In will be found here!"
      },
      "bf2props": {
        "name": "common_opfor_artillery4",
        "class": "ObjectSpawner",
        "name_object": "Artillery Barrage Call-In",
        "team": "1",
        "obj1": "artillery_team1",
        "obj2": "null",
        "maxspawn": "1800.0",
        "minspawn": "1800.0",
        "spawndelay": "true",
        "ttl": "0.0",
        "cpid": "-1"
      }
    },
    {
      "type": "Feature",
      "geometry": {
        "type": "Point",
        "coordinates": [3869.9858, -3781.145],
        "size": [16, 16]
      },
      "properties": {
        "iconurl": "icons/vehicles_map/mini_trk_support.png",
        "iconrotate": "172.836",
        "popupContent": "Amazing information about Ural-4320 will be found here!"
      },
      "bf2props": {
        "name": "common_ru_trk4",
        "class": "ObjectSpawner",
        "name_object": "Ural-4320",
        "team": "1",
        "obj1": "ru_trk_support",
        "obj2": "null",
        "maxspawn": "99999.0",
        "minspawn": "99999.0",
        "spawndelay": "false",
        "ttl": "99999.0",
        "cpid": "-1"
      }
    },
    {
      "type": "Feature",
      "geometry": {
        "type": "Point",
        "coordinates": [3865.376, -3809.5698],
        "size": [16, 16]
      },
      "properties": {
        "iconurl": "icons/vehicles_map/mini_trk_logistics.png",
        "iconrotate": "-22.522",
        "popupContent": "Amazing information about Ural-4320 Logistics will be found here!"
      },
      "bf2props": {
        "name": "common_ru_logi2",
        "class": "ObjectSpawner",
        "name_object": "Ural-4320 Logistics",
        "team": "1",
        "obj1": "ru_trk_logistics",
        "obj2": "null",
        "maxspawn": "300.0",
        "minspawn": "300.0",
        "spawndelay": "false",
        "ttl": "99999.0",
        "cpid": "-1"
      }
    },
    {
      "type": "Feature",
      "geometry": {
        "type": "Point",
        "coordinates": [3861.6519, -3783.85],
        "size": [16, 16]
      },
      "properties": {
        "iconurl": "icons/vehicles_map/mini_trk_support.png",
        "iconrotate": "-164.474",
        "popupContent": "Amazing information about Ural-4320 will be found here!"
      },
      "bf2props": {
        "name": "common_ru_trk3",
        "class": "ObjectSpawner",
        "name_object": "Ural-4320",
        "team": "1",
        "obj1": "ru_trk_support",
        "obj2": "null",
        "maxspawn": "99999.0",
        "minspawn": "99999.0",
        "spawndelay": "false",
        "ttl": "99999.0",
        "cpid": "-1"
      }
    },
    {
      "type": "Feature",
      "geometry": {
        "type": "Point",
        "coordinates": [3895.6108, -3750.095],
        "size": [16, 16]
      },
      "properties": {
        "iconurl": "icons/vehicles_map/mini_the_medium.png",
        "iconrotate": "-149.511",
        "popupContent": "Amazing information about Mi-8MT Hip-C will be found here!"
      },
      "bf2props": {
        "name": "common_ru_the1",
        "class": "ObjectSpawner",
        "name_object": "Mi-8MT Hip-C",
        "team": "1",
        "obj1": "ru_the_mi8",
        "obj2": "null",
        "maxspawn": "300.0",
        "minspawn": "300.0",
        "spawndelay": "false",
        "ttl": "99999.0",
        "cpid": "-1"
      }
    },
    {
      "type": "Feature",
      "geometry": {
        "type": "Point",
        "coordinates": [3896.563, -3713.865],
        "size": [16, 16]
      },
      "properties": {
        "iconurl": "icons/vehicles_map/mini_the_medium.png",
        "iconrotate": "-149.511",
        "popupContent": "Amazing information about Mi-8MT Hip-C will be found here!"
      },
      "bf2props": {
        "name": "common_ru_the2",
        "class": "ObjectSpawner",
        "name_object": "Mi-8MT Hip-C",
        "team": "1",
        "obj1": "ru_the_mi8",
        "obj2": "null",
        "maxspawn": "300.0",
        "minspawn": "300.0",
        "spawndelay": "false",
        "ttl": "99999.0",
        "cpid": "-1"
      }
    },
    {
      "type": "Feature",
      "geometry": {
        "type": "Point",
        "coordinates": [-753.228, -273.57996],
        "size": [16, 16]
      },
      "properties": {
        "iconurl": "icons/mini_map/airdef.png",
        "iconrotate": "0",
        "popupContent": "Amazing information about null will be found here!"
      },
      "bf2props": {
        "name": "common_blufor_artillery3",
        "class": "ObjectSpawner",
        "name_object": "Artillery Barrage Call-In",
        "team": "2",
        "obj1": "null",
        "obj2": "artillery_team2",
        "maxspawn": "1800.0",
        "minspawn": "1800.0",
        "spawndelay": "true",
        "ttl": "0.0",
        "cpid": "-1"
      }
    },
    {
      "type": "Feature",
      "geometry": {
        "type": "Point",
        "coordinates": [-748.2439, -273.33606],
        "size": [16, 16]
      },
      "properties": {
        "iconurl": "icons/mini_map/airdef.png",
        "iconrotate": "0",
        "popupContent": "Amazing information about null will be found here!"
      },
      "bf2props": {
        "name": "common_blufor_artillery2",
        "class": "ObjectSpawner",
        "name_object": "Artillery Barrage Call-In",
        "team": "2",
        "obj1": "null",
        "obj2": "artillery_team2",
        "maxspawn": "1800.0",
        "minspawn": "1800.0",
        "spawndelay": "true",
        "ttl": "0.0",
        "cpid": "-1"
      }
    },
    {
      "type": "Feature",
      "geometry": {
        "type": "Point",
        "coordinates": [-757.14404, -281.891],
        "size": [16, 16]
      },
      "properties": {
        "iconurl": "icons/mini_map/airdef.png",
        "iconrotate": "0",
        "popupContent": "Amazing information about null will be found here!"
      },
      "bf2props": {
        "name": "common_blufor_artillery1",
        "class": "ObjectSpawner",
        "name_object": "Artillery Barrage Call-In",
        "team": "2",
        "obj1": "null",
        "obj2": "artillery_team2",
        "maxspawn": "1800.0",
        "minspawn": "1800.0",
        "spawndelay": "true",
        "ttl": "0.0",
        "cpid": "-1"
      }
    },
    {
      "type": "Feature",
      "geometry": {
        "type": "Point",
        "coordinates": [4854.2637, -5187.645],
        "size": [16, 16]
      },
      "properties": {
        "iconurl": "icons/mini_map/airdef.png",
        "iconrotate": "0",
        "popupContent": "Amazing information about Artillery Barrage Call-In will be found here!"
      },
      "bf2props": {
        "name": "common_opfor_artillery1",
        "class": "ObjectSpawner",
        "name_object": "Artillery Barrage Call-In",
        "team": "1",
        "obj1": "artillery_team1",
        "obj2": "null",
        "maxspawn": "1800.0",
        "minspawn": "1800.0",
        "spawndelay": "true",
        "ttl": "0.0",
        "cpid": "-1"
      }
    },
    {
      "type": "Feature",
      "geometry": {
        "type": "Point",
        "coordinates": [4856.795, -5194.873],
        "size": [16, 16]
      },
      "properties": {
        "iconurl": "icons/mini_map/airdef.png",
        "iconrotate": "0",
        "popupContent": "Amazing information about Artillery Barrage Call-In will be found here!"
      },
      "bf2props": {
        "name": "common_opfor_artillery2",
        "class": "ObjectSpawner",
        "name_object": "Artillery Barrage Call-In",
        "team": "1",
        "obj1": "artillery_team1",
        "obj2": "null",
        "maxspawn": "1800.0",
        "minspawn": "1800.0",
        "spawndelay": "true",
        "ttl": "0.0",
        "cpid": "-1"
      }
    },
    {
      "type": "Feature",
      "geometry": {
        "type": "Point",
        "coordinates": [4851.208, -5192.593],
        "size": [16, 16]
      },
      "properties": {
        "iconurl": "icons/mini_map/airdef.png",
        "iconrotate": "0",
        "popupContent": "Amazing information about Artillery Barrage Call-In will be found here!"
      },
      "bf2props": {
        "name": "common_opfor_artillery3",
        "class": "ObjectSpawner",
        "name_object": "Artillery Barrage Call-In",
        "team": "1",
        "obj1": "artillery_team1",
        "obj2": "null",
        "maxspawn": "1800.0",
        "minspawn": "1800.0",
        "spawndelay": "true",
        "ttl": "0.0",
        "cpid": "-1"
      }
    },
    {
      "type": "Feature",
      "geometry": {
        "type": "Point",
        "coordinates": [3815.354, -3800.745],
        "size": [16, 16]
      },
      "properties": {
        "iconurl": "icons/vehicles_map/mini_trk_support.png",
        "iconrotate": "170.115",
        "popupContent": "Amazing information about Ural-4320 will be found here!"
      },
      "bf2props": {
        "name": "common_ru_trk1",
        "class": "ObjectSpawner",
        "name_object": "Ural-4320",
        "team": "1",
        "obj1": "ru_trk_support",
        "obj2": "null",
        "maxspawn": "99999.0",
        "minspawn": "99999.0",
        "spawndelay": "false",
        "ttl": "99999.0",
        "cpid": "-1"
      }
    },
    {
      "type": "Feature",
      "geometry": {
        "type": "Point",
        "coordinates": [126.0, -242.0],
        "size": [16, 16]
      },
      "properties": {
        "iconurl": "icons/vehicles_map/mini_trk_logistics.png",
        "iconrotate": "-22.542",
        "popupContent": "Amazing information about null will be found here!"
      },
      "bf2props": {
        "name": "cpname_yamalia_cnc64_cfbase_d",
        "class": "ObjectSpawner",
        "name_object": "MLVW Logistics",
        "team": "2",
        "obj1": "null",
        "obj2": "cf_trk_logistics",
        "maxspawn": "300.0",
        "minspawn": "300.0",
        "spawndelay": "false",
        "ttl": "99999.0",
        "cpid": "502"
      }
    },
    {
      "type": "Feature",
      "geometry": {
        "type": "Point",
        "coordinates": [140.0, -266.0],
        "size": [16, 16]
      },
      "properties": {
        "iconurl": "icons/vehicles_map/mini_the_light.png",
        "iconrotate": "83.803",
        "popupContent": "Amazing information about null will be found here!"
      },
      "bf2props": {
        "name": "cpname_yamalia_cnc64_cfbase_d_0",
        "class": "ObjectSpawner",
        "name_object": "CH-146 Griffon",
        "team": "2",
        "obj1": "null",
        "obj2": "cf_the_ch146_c6",
        "maxspawn": "300.0",
        "minspawn": "300.0",
        "spawndelay": "false",
        "ttl": "99999.0",
        "cpid": "502"
      }
    },
    {
      "type": "Feature",
      "geometry": {
        "type": "Point",
        "coordinates": [122.0, -244.0],
        "size": [16, 16]
      },
      "properties": {
        "iconurl": "icons/vehicles_map/mini_trk_support.png",
        "iconrotate": "-22.542",
        "popupContent": "Amazing information about null will be found here!"
      },
      "bf2props": {
        "name": "cpname_yamalia_cnc64_cfbase_d_1",
        "class": "ObjectSpawner",
        "name_object": "MLVW",
        "team": "2",
        "obj1": "null",
        "obj2": "cf_trk_support",
        "maxspawn": "99999.0",
        "minspawn": "99999.0",
        "spawndelay": "false",
        "ttl": "99999.0",
        "cpid": "502"
      }
    },
    {
      "type": "Feature",
      "geometry": {
        "type": "Point",
        "coordinates": [164.0, -236.0],
        "size": [16, 16]
      },
      "properties": {
        "iconurl": "icons/vehicles_map/mini_tank_heavy.png",
        "iconrotate": "-3.549",
        "popupContent": "Amazing information about null will be found here!"
      },
      "bf2props": {
        "name": "cpname_yamalia_cnc64_cfbase_d_2",
        "class": "ObjectSpawner",
        "name_object": "Leopard 2A6",
        "team": "2",
        "obj1": "null",
        "obj2": "cf_tnk_leo2a6",
        "maxspawn": "1200.0",
        "minspawn": "1200.0",
        "spawndelay": "true",
        "ttl": "99999.0",
        "cpid": "502"
      }
    },
    {
      "type": "Feature",
      "geometry": {
        "type": "Point",
        "coordinates": [140.0, -236.0],
        "size": [16, 16]
      },
      "properties": {
        "iconurl": "icons/vehicles_map/mini_rec_medium.png",
        "iconrotate": "-1.525",
        "popupContent": "Amazing information about null will be found here!"
      },
      "bf2props": {
        "name": "cpname_yamalia_cnc64_cfbase_d_3",
        "class": "ObjectSpawner",
        "name_object": "Coyote Recon Vehicle",
        "team": "2",
        "obj1": "null",
        "obj2": "cf_ifv_coyote",
        "maxspawn": "900.0",
        "minspawn": "900.0",
        "spawndelay": "false",
        "ttl": "99999.0",
        "cpid": "502"
      }
    },
    {
      "type": "Feature",
      "geometry": {
        "type": "Point",
        "coordinates": [192.0, -246.0],
        "size": [16, 16]
      },
      "properties": {
        "iconurl": "icons/mini_map/repairdepot.png",
        "iconrotate": "0",
        "popupContent": "Amazing information about null will be found here!"
      },
      "bf2props": {
        "name": "cpname_yamalia_cnc64_cfbase_d_4",
        "class": "ObjectSpawner",
        "name_object": "Vehicle Depot",
        "team": "2",
        "obj1": "null",
        "obj2": "vehicle_depot_cf",
        "maxspawn": "0.0",
        "minspawn": "0.0",
        "spawndelay": "false",
        "ttl": "0.0",
        "cpid": "502"
      }
    },
    {
      "type": "Feature",
      "geometry": {
        "type": "Point",
        "coordinates": [204.0, -288.0],
        "size": [16, 16]
      },
      "properties": {
        "iconurl": "icons/mini_map/uavtrailer.png",
        "iconrotate": "0",
        "popupContent": "Amazing information about null will be found here!"
      },
      "bf2props": {
        "name": "cpname_yamalia_cnc64_cfbase_d_5",
        "class": "ObjectSpawner",
        "name_object": "UAV Terminal",
        "team": "2",
        "obj1": "null",
        "obj2": "cf_acv_lav3cpv",
        "maxspawn": "0.0",
        "minspawn": "0.0",
        "spawndelay": "false",
        "ttl": "0.0",
        "cpid": "502"
      }
    },
    {
      "type": "Feature",
      "geometry": {
        "type": "Point",
        "coordinates": [156.0, -236.0],
        "size": [16, 16]
      },
      "properties": {
        "iconurl": "icons/vehicles_map/mini_tank_heavy.png",
        "iconrotate": "-3.549",
        "popupContent": "Amazing information about null will be found here!"
      },
      "bf2props": {
        "name": "cpname_yamalia_cnc64_cfbase_d_8",
        "class": "ObjectSpawner",
        "name_object": "Leopard 2A6",
        "team": "2",
        "obj1": "null",
        "obj2": "cf_tnk_leo2a6",
        "maxspawn": "1200.0",
        "minspawn": "1200.0",
        "spawndelay": "true",
        "ttl": "99999.0",
        "cpid": "502"
      }
    },
    {
      "type": "Feature",
      "geometry": {
        "type": "Point",
        "coordinates": [142.0, -290.0],
        "size": [16, 16]
      },
      "properties": {
        "iconurl": "icons/vehicles_map/mini_the_heavy_chinook.png",
        "iconrotate": "85.615",
        "popupContent": "Amazing information about null will be found here!"
      },
      "bf2props": {
        "name": "cpname_yamalia_cnc64_cfbase_d_9",
        "class": "ObjectSpawner",
        "name_object": "CH-147F Chinook",
        "team": "2",
        "obj1": "null",
        "obj2": "cf_the_chinook",
        "maxspawn": "600.0",
        "minspawn": "600.0",
        "spawndelay": "false",
        "ttl": "99999.0",
        "cpid": "502"
      }
    },
    {
      "type": "Feature",
      "geometry": {
        "type": "Point",
        "coordinates": [150.0, -236.0],
        "size": [16, 16]
      },
      "properties": {
        "iconurl": "icons/vehicles_map/mini_apc_medium.png",
        "iconrotate": "-3.549",
        "popupContent": "Amazing information about null will be found here!"
      },
      "bf2props": {
        "name": "cpname_yamalia_cnc64_cfbase_d_10",
        "class": "ObjectSpawner",
        "name_object": "LAV-3",
        "team": "2",
        "obj1": "null",
        "obj2": "cf_apc_lav3",
        "maxspawn": "600.0",
        "minspawn": "600.0",
        "spawndelay": "false",
        "ttl": "99999.0",
        "cpid": "502"
      }
    },
    {
      "type": "Feature",
      "geometry": {
        "type": "Point",
        "coordinates": [134.0, -240.0],
        "size": [16, 16]
      },
      "properties": {
        "iconurl": "icons/vehicles_map/mini_trk_support.png",
        "iconrotate": "-25.55",
        "popupContent": "Amazing information about null will be found here!"
      },
      "bf2props": {
        "name": "cpname_yamalia_cnc64_cfbase_d_12",
        "class": "ObjectSpawner",
        "name_object": "MLVW",
        "team": "2",
        "obj1": "null",
        "obj2": "cf_trk_support",
        "maxspawn": "99999.0",
        "minspawn": "99999.0",
        "spawndelay": "false",
        "ttl": "99999.0",
        "cpid": "502"
      }
    },
    {
      "type": "Feature",
      "geometry": {
        "type": "Point",
        "coordinates": [130.0, -240.0],
        "size": [16, 16]
      },
      "properties": {
        "iconurl": "icons/vehicles_map/mini_trk_logistics.png",
        "iconrotate": "-23.221",
        "popupContent": "Amazing information about null will be found here!"
      },
      "bf2props": {
        "name": "cpname_yamalia_cnc64_cfbase_d_13",
        "class": "ObjectSpawner",
        "name_object": "MLVW Logistics",
        "team": "2",
        "obj1": "null",
        "obj2": "cf_trk_logistics",
        "maxspawn": "300.0",
        "minspawn": "300.0",
        "spawndelay": "false",
        "ttl": "99999.0",
        "cpid": "502"
      }
    },
    {
      "type": "Feature",
      "geometry": {
        "type": "Point",
        "coordinates": [146.0, -238.0],
        "size": [16, 16]
      },
      "properties": {
        "iconurl": "icons/vehicles_map/mini_apc_medium.png",
        "iconrotate": "-3.549",
        "popupContent": "Amazing information about null will be found here!"
      },
      "bf2props": {
        "name": "cpname_yamalia_cnc64_cfbase_d_14",
        "class": "ObjectSpawner",
        "name_object": "LAV-3",
        "team": "2",
        "obj1": "null",
        "obj2": "cf_apc_lav3",
        "maxspawn": "600.0",
        "minspawn": "600.0",
        "spawndelay": "false",
        "ttl": "99999.0",
        "cpid": "502"
      }
    },
    {
      "type": "Feature",
      "geometry": {
        "type": "Point",
        "coordinates": [144.0, -312.0],
        "size": [16, 16]
      },
      "properties": {
        "iconurl": "icons/vehicles_map/mini_the_light.png",
        "iconrotate": "83.803",
        "popupContent": "Amazing information about null will be found here!"
      },
      "bf2props": {
        "name": "cpname_yamalia_cnc64_cfbase_d_15",
        "class": "ObjectSpawner",
        "name_object": "CH-146 Griffon",
        "team": "2",
        "obj1": "null",
        "obj2": "cf_the_ch146_c6",
        "maxspawn": "300.0",
        "minspawn": "300.0",
        "spawndelay": "false",
        "ttl": "99999.0",
        "cpid": "502"
      }
    },
    {
      "type": "Feature",
      "geometry": {
        "type": "Point",
        "coordinates": [3838.274, -3814.51],
        "size": [16, 16]
      },
      "properties": {
        "iconurl": "icons/vehicles_map/mini_apc_heavy.png",
        "iconrotate": "-12.333",
        "popupContent": "Amazing information about BMP-2 will be found here!"
      },
      "bf2props": {
        "name": "cpname_yamalia_cnc64_rubase_d",
        "class": "ObjectSpawner",
        "name_object": "BMP-2",
        "team": "1",
        "obj1": "ru_ifv_bmp2",
        "obj2": "null",
        "maxspawn": "900.0",
        "minspawn": "900.0",
        "spawndelay": "false",
        "ttl": "99999.0",
        "cpid": "501"
      }
    },
    {
      "type": "Feature",
      "geometry": {
        "type": "Point",
        "coordinates": [3850.123, -3811.58],
        "size": [16, 16]
      },
      "properties": {
        "iconurl": "icons/vehicles_map/mini_tank_heavy.png",
        "iconrotate": "-14.583",
        "popupContent": "Amazing information about T-90A will be found here!"
      },
      "bf2props": {
        "name": "cpname_yamalia_cnc64_rubase_d_0",
        "class": "ObjectSpawner",
        "name_object": "T-90A",
        "team": "1",
        "obj1": "ru_tnk_t90",
        "obj2": "null",
        "maxspawn": "1200.0",
        "minspawn": "1200.0",
        "spawndelay": "true",
        "ttl": "99999.0",
        "cpid": "501"
      }
    },
    {
      "type": "Feature",
      "geometry": {
        "type": "Point",
        "coordinates": [3844.1318, -3813.104],
        "size": [16, 16]
      },
      "properties": {
        "iconurl": "icons/vehicles_map/mini_apc_heavy.png",
        "iconrotate": "-11.445",
        "popupContent": "Amazing information about BMP-2 will be found here!"
      },
      "bf2props": {
        "name": "cpname_yamalia_cnc64_rubase_d_1",
        "class": "ObjectSpawner",
        "name_object": "BMP-2",
        "team": "1",
        "obj1": "ru_ifv_bmp2",
        "obj2": "null",
        "maxspawn": "900.0",
        "minspawn": "900.0",
        "spawndelay": "false",
        "ttl": "99999.0",
        "cpid": "501"
      }
    },
    {
      "type": "Feature",
      "geometry": {
        "type": "Point",
        "coordinates": [3832.483, -3815.876],
        "size": [16, 16]
      },
      "properties": {
        "iconurl": "icons/vehicles_map/mini_tank_heavy.png",
        "iconrotate": "-10.555",
        "popupContent": "Amazing information about T-72B1 will be found here!"
      },
      "bf2props": {
        "name": "cpname_yamalia_cnc64_rubase_d_2",
        "class": "ObjectSpawner",
        "name_object": "T-72B1",
        "team": "1",
        "obj1": "ru_tnk_t72b",
        "obj2": "null",
        "maxspawn": "1200.0",
        "minspawn": "1200.0",
        "spawndelay": "true",
        "ttl": "99999.0",
        "cpid": "501"
      }
    },
    {
      "type": "Feature",
      "geometry": {
        "type": "Point",
        "coordinates": [3812.0, -3752.0],
        "size": [33, 33],
        "radius": "0.0"
      },
      "properties": {
        "iconurl": "icons/flags_map/ru/minimap_cpbase.png",
        "iconrotate": "0",
        "popupContent": "Amazing information about Russian Deployment Area will be found here!"
      },
      "bf2props": {
        "name": "cpname_yamalia_cnc64_rubase",
        "class": "ControlPoint",
        "name_object": "Russian Deployment Area",
        "team": "1",
        "areavalue1": "0.0",
        "areavalue2": "0.0",
        "cpid": "501",
        "sgid": "10",
        "uncap": "true",
        "ttgc": "0.0",
        "ttlc": "0.0"
      }
    },
    {
      "type": "Feature",
      "geometry": {
        "type": "Point",
        "coordinates": [256.0, -284.0],
        "size": [33, 33],
        "radius": "0.0"
      },
      "properties": {
        "iconurl": "icons/flags_map/cf/minimap_cpbase.png",
        "iconrotate": "0",
        "popupContent": "Amazing information about Canadian Deployment Area will be found here!"
      },
      "bf2props": {
        "name": "cpname_yamalia_cnc64_cfbase",
        "class": "ControlPoint",
        "name_object": "Canadian Deployment Area",
        "team": "2",
        "areavalue1": "0.0",
        "areavalue2": "0.0",
        "cpid": "502",
        "sgid": "20",
        "uncap": "true",
        "ttgc": "0.0",
        "ttlc": "0.0"
      }
    },
    {
      "type": "Feature",
      "geometry": {
        "type": "Polygon",
        "coordinates": [
          [
            [0,0],
            [0,-4096],
            [4096,-4096],
            [4096,0]
          ],[
            [4068.0, -28.0],
            [4068.0, -4068.0],
            [28.0, -4068.0],
            [28.0, -28.0]
          ]
        ]
      },
      "bf2props": {
        "code": "combatarea_main_common",
        "class": "CombatArea",
        "team": "0",
        "vehicles": "4",
        "layer": "2",
        "inverted": "false",
        "max": [0.0, 0.0],
        "min": [0.0, 0.0]
      }
    },
    {
      "type": "Feature",
      "geometry": {
        "type": "Polygon",
        "coordinates": [
          [
            [4088.066, -4088.1626],
            [4088.7039, -2624.6858],
            [3598.9531, -2913.7349],
            [2973.1272, -3484.7314],
            [2891.7026, -4087.6646]
          ]
        ]
      },
      "bf2props": {
        "code": "combatarea_0_common",
        "class": "CombatArea",
        "team": "2",
        "vehicles": "4",
        "layer": "2",
        "inverted": "true",
        "max": [0.0, 0.0],
        "min": [0.0, 0.0]
      }
    },
    {
      "type": "Feature",
      "geometry": {
        "type": "Polygon",
        "coordinates": [
          [
            [640.72046, -1106.8103],
            [1458.9089, -7.538574],
            [8.019043, -7.7839355],
            [7.831299, -1355.9031],
            [314.12964, -1346.9097]
          ]
        ]
      },
      "bf2props": {
        "code": "combatarea_5_common",
        "class": "CombatArea",
        "team": "1",
        "vehicles": "4",
        "layer": "2",
        "inverted": "true",
        "max": [0.0, 0.0],
        "min": [0.0, 0.0]
      }
    }
  ]
}